﻿11111111111111111111111111111111111111111111111111111111111111111111111111111111
11111111111111111111111111111111111111111111111111111111111111111111111111111111
11111111111111111111111111111111111111111111111111111111111111111111111111111111
11111111111111111111111111111111111111111111111111111111111111111111111111111111
11111111111111111111111111111111111111111111111111111111111111111111111111111111
11111111111111111111111111111111111111111111111111111111111111111111111111111111
11111111111111111111111111111111111111111111111111111111111111111111111111111111
11111111111111111111111111110011111111111111111111111111111111111111111111111111
11111111111111111111111110000011111111111111111111111111111111111111111111111111
11111111111111111111111100000111111111111111111111111111111111111111111111111111
11111111111111111111111000000111111111111111111111111111111111111111111111111111
11111111111111111111111000000111111111111111111111111111111111111111111111111111
11111111111111111111110000000111111111111111111111111111111111111111111111111111
11111111111111111111110000000111111111111111111111111111111111111111111111111111
11111111111111111111100000000011111111111111111111111111111111111111111111111111
11111111111111111111100000000001111111111111111111111111111111111111111111111111
11111111111111111111000000000000111111111111111111111111111111111111111111111111
11111111111111111111001100000000001000111111111111111111111111111111111111111111
11111111111111111110001100000000000000011111111111111111111111111111111111111111
11111111111111111110001100000000000000000000011111111111111111111111111111111111
11111111111111111110000000000000000000000000011111111111111111111111111111111111
11111111111111111110000000000000000000000000001111111111111111111111111111111111
11111111111111111110000000000000000000000000001111111111111111111111111111111111
11111111111111111110000000000000000000000000001111111111111111111111111111111111
11111111111111111110000000000000000000000000111111111111111111111111111111111111
11111111111111111100000000000000000000000000111111111111111111111111111111111111
11111111111111111100000000000000000000000000111111111111111111111111111111111111
11111111111111111100000000000000000000000000001111111111111111111111111111111111
11111111111111111100000000000000000000000000011111111111111111111111111111111111
11111111111111111100000000000000000000000000111111111111111111111111111111111111
11111111111111111100000000000000000000000001111111111111111111111111111111111111
11111111111111111100000000000000000000000011111111111111111111111111111111111111
11111111111111111000000000000000000000000001111111111111111111111111111111111111
11111111111111110000000000000000000000000000011111111111111111111111111111111111
11111111111111100000000000000000000000000000001111111111111111111111111111111111
11111110000000000000000000000000000000000000000111111111111111111111111111111111
11111111000000000000000000000000000000000000001111111111111111111111111111111111
11111111000000000000000000000000000000000000011111111111111111111111111111111111
11011000000000000000000000000000000000000000111111111111111111111111111111111111
11000000000000000000000000000000000000000000111111111111111111111111111111111111
11000000000000000000000000000000000000000000011111111111111111111111111111111111
11000000000000000000000000000000000000000000001111111111111111111111111111111111
11000000000000000000000000000000000000000000000111111111111111111111111111111111
11000000000000000000000000000000000000000000000000011111111111111111111111111111
11000000000000000000000000000000000000000000000000001111101111111111111111111111
11000000000000000000000000000000000000000000000000000000001110011111111111111111
11000000000000000000000000000000000000000000000000000000000000011111111111111111
11000000000000000000000000000000000000000000000000000000000010011111111111111111
11000000000000000000000000000000000000000000000000000000000111011111111111111111
11000000000000000000000000000000000000000000000000000000000010011111111111111111
11000000000000000000000000000000000000000000000000000000000000111111111111111111
11000000000000000000000000000000000000000000000000000000000000111111111111111111
11000000000000000000000000000000000000000000000000000000000000111111111111111111
11000000000000000000000000000000000000000000000000000000000000111111111111111111
11000000000000000000000000000000000000000000000000000000000000011111111111111111
11000000000000000000000000000000000000000000000000000000000000000001111111111111
11000000000000000000000000000000000000000000000000000000000000000000110111111111
11000000000000000000000000000000000000000000000000000000000000000000000111111111
11000000000000000000000000000000000000000000000000000000000000000000000111111111
11000000000000000000000000000000000000000000000000000000000000000000000111111111
11000000000000000000000000000000000000000000000000000000000000000000000011111111
11000000000000000000000000000000000000000000000000000000000000000000000001111111
11000000000000000000000000000000000000000000000000000000000000000000000000011111
11000000000000000000000000000000000000000000000000000000000000000000000000001111
11000000000000000000000000000000000000000000000000000000000000000000000000000011
11000000000000000000000000000000000000000000000000000000000000000000000000000011
11000000000000000000000000000000000000000000000000000000000000000000000000000011
11000000000000000000000000000000000000000000000000000000000000000000000000000011
11000000000000000001000000000000000000000000000000000000000000000000000000000011
11000000000000001111110000000000000000000000000000000000000000000000000000000011
11000000000000001111111000000000000000000000000000000000000000000000000000000011
11000000000000011111111110000000000000000000000000000000000000000000000000000011
11000000000000011111111111000000000000000000000000000000000000000000000000000011
11000000000000111111111111111111100000000000000000000000000000000000000000000011
11000000000000111111111111111111111111100000000000000000000000000000000000000011
11111000000001111111111111111111111111111000000000000000000011000000000000000011
11111111000001111111111111111111111111111100011000000000000011000000000000000011
11111111100011111111111111111111111111111111111111111000011111111100000000000011
11111111111111111111111111111111111111111111111111111111111111111111111111111111
11111111111111111111111111111111111111111111111111111111111111111111111111111111
