﻿11111111111111111111111111111111111111111111111111111111111111111111111111111111
11111111111111111111111111111111111111111111111111111111111111111111111111111111
11111111111111111111111111111111111111111111111111000000000000000000000000000011
11111111111111111111111111111111111111111111111110000000000000000000000000000011
11111111111111111111111111111111111111111111111100000000000000000000000000000011
11111111111111111111111111111111111111111111111000000000000000000000000000000011
11111111111111111111111111111111111111111111110000000000000000000000000000000011
11111111111111111111111111111111111111111111100000000000000000000000000000000011
11111111111111111111111111111111111111111111000000000000000000000000000000000011
11111111111111111111111111111111111111111110000000000000000000000000000000000011
11111111111111111111111111111111111111111100000000000000000000000000000000000011
11111111111111111111111111111111111111111100000000000000000000000000000000000011
11111111111111111111111111111111111111111110000000000000000000000000000000000011
11111111111111111111111111111111111111111111000000000000000000000000000000000011
11111111111111111111111111111111111111111111000000000000000000000000000000000011
11111111111111111111111111111111111111111111100000000000000000000000000000000011
11111111111111111111111111111111111111111111110000000000000000000000000000000011
11111111111111111111111111111111111111111111110000000000000000000000000000000011
11111111111111111111111111111111011111111111111000000000000000000000000000000011
11111111111111111111111111111110001111111111111100000000000000000000000000000011
11111111111111111111111111111100001111111110111110000000000000000000000000000111
11111111111111111111111111111000001111111100011100000000000000000000000000001111
11111111111111111111111111110000000001111000011000000000000000000000000000011111
11111111111111111111111111100000000001111100000000000000000000000111111110111111
11111111111111111111111101000000000000011100000000000000000000000111111111111111
11111111111111111111111000000000000000001000000000000000000000000111111111111111
11111111111111111111110000000000000000000000000000000000000000000000000111111111
11111111111111111111100000000000000000000000000000000000000001110000001111111111
11111111111111111111000000000000000000000000000000000000001111110000011111111111
11111111111111111110000000000000000000000000000000000000111111111000111111111111
11111111111111111111100000000000000000000000000000000011111111111001111111111111
11111111111111111111111110000000000000000000000000000011111111111011111111111111
11111111111111111111111111000000000000000000000000000011111111111111111111111111
11111111111111111011111111110000000000000000000000000011001110011111111111111111
11111111111111110011111111110000000000000000000000000000000000111111111111111111
11111111111111110011111111110000000000000000000000000000000001111111111111111111
11111111111111111000111011100000000000000000000000000000000011111111111111111111
11111111111111111000000001000000000000000000000000000000000111111111111111111111
11111111111111110000000000000000000000000000000000000000011111111111111111111111
11111111111111100000000000000000000000000000000000001111111111111111111111111111
11111111111111000000000000000000000000000000000000001111111111111111111111111111
11111111011000000000000000000000000000000000000000001111111111111111111111111111
11111110000000000000000000000000000000000000000000111111111111111111111111111111
11110000000000000000000000000000000000000000000000111111111111111111111111111111
11100000000000000000000000000000000000000000000000111111111111111111111111111111
11000000000000000000000000000000000000000000000000110011111111111111111111111111
11000000000000000000000000000000000000000000000000000111111111111111111111111111
11000000000000000000000000000000000000000000000000000011111111111111111111111111
11000000000000000000000000000000000000000000000000000001111111111111111111111111
11000000000000000000000000000000000000000000000000000000111111111111111111111111
11000000000000000000000000000000000000000000000011000000011111111111111111111111
11000000000000000000000000000000000000000000110011100000111111111111111111111111
11000000000000000000000000000000000000000001110111111111111111111111111111111111
11000000000000000000000000000000000000000001111111111111111111111111111111111111
11000000000000000000000000000000000000000000111110111111111111111111111111111111
11000000000000000000000000000000000000000000001110011111111111111111111111111111
11000000000000000000000000000000000000000000000110011111111111111111111111111111
11000000000000000000000000000000000000000000000000001111111111111111111111111111
11000000000000000000000000000000000000000000000000011111111111111111111111111111
11000000000000000000000000000000000000000000000000111111111111111111111111111111
11000000000000000000000000000000000000000000000001111111111111111111111111111111
11000000000000000000000000000000000000000000000011111111111111111111111111111111
11000000000000000000000000000000000000000000000111111111111111111111111111111111
11000000000000000000000000000000000000000000001111111111111111111111111111111111
11000000000000000000000000000000000110000000011111111111111111111111111111111111
11000000000000000000000000000000001111000000111111111111111111111111111111111111
11000000000000000000000000110000111111100001111111111111111111111111111111111111
11000000000000000000000001110001111111110011111111111111111111111111111111111111
11000000000000000000000111111011111111111111111111111111111111111111111111111111
11000000000000000000001111111111111111111111111111111111111111111111111111111111
11000000000000000000011111111111111111111111111111111111111111111111111111111111
11000000000000000000011111111111111111111111111111111111111111111111111111111111
11000000000000000000000111111111111111111111111111111111111111111111111111111111
11000000000000000000001111111111111111111111111111111111111111111111111111111111
11000000111100000000011111111111111111111111111111111111111111111111111111111111
11000111111110000001111111111111111111111111111111111111111111111111111111111111
11001111111111000011111111111111111111111111111111111111111111111111111111111111
11000111111111110011111111111111111111111111111111111111111111111111111111111111
11111111111111111111111111111111111111111111111111111111111111111111111111111111
11111111111111111111111111111111111111111111111111111111111111111111111111111111
