﻿1111111111111111111111111111111111111111111111111111111111111111111111111111111111111111111111111111111111111111111111111111111111111111111111111111
1111111111111111111111111111111111111111111111111111111111111111111111111111111111111111111111111111111111111111111111111111111111111111111111111111
1111111111111111111111111111111111111111111111111111111111111111111111111111111111111111111111111111111111111111111111111111111111111111111111111111
1111111111111111111111111111111111111111111111111111111111111111111111111111111111111111111111111111111111111111111111111111111111111111111111111111
1111111111111111111111111111111111111111111111111111111111111111111111111111111111111111111111111111111111111111111111111111111111111111111111111111
1111111111111111111111111111111111111111111111111111111111111111111111111111111111111111111111111111111111111111111111111111111111111111111111111111
1111111111111111111111111111111111111111111111111111111111111111111111111111111111111111111111111111111111111111111111111111111111111111111111111111
1111111111111111111111111111111111111111111111111111111111111111111111111111111111111111111111111111111111111111111111111111111111111111111111111111
1111111111111111111111111111111111111111111111111111111111111111111111111111111111111111111111111111111111111111111111111111111111111111111111111111
1111111111111111111111111111111111111111111111111111111111111111111111111111111111111111111111111111111111111111111111111111111111111111111111111111
1111111111111111111111111111111111111111111111111111111111111111111111111111111111111111111111111111111111111111111111111111111111111111111111111111
1111111111111111111111111111111111111111111111111111111111111111111111111111111111111111111111111111111111111111111111111111111111111111111111111111
1111111111111111111111111111111111111111111111111111111111111111111111111111111111111111111111111111111111111111111111111111111111111111111111111111
1111111111111111111111111111111111111111111111111111111111111111111111111111111111111111111111111111111111111111111111111111111111111111111111111111
1111111111111111111111111111111111111111111111111111111111111111111111111111111111111111111111111111111111111111111111111111111111111111111111111111
1111111111111111111111111111111111111111111111111111111111111111111111111111111111111111111111111111111111111111111111111111111111111111111111111111
1111111111111111111111111111111111111111111111111111111111111110011111111111111111111111111111111111111111111111111111111111111111111111111111111111
1111111111111111111111111111111111111111111111111111111111111000001111111111111111111111111111111111111111111111111111111111111111111111111111111111
1111111111111111111111111111111111111111111111111111111111110000000111111111111111111111111111111111111111111111111111111111111111111111111111111111
1111111111111111111111111111111111111111111111111111111111000000000011111111111111111111111111111111111111111111111111111111111111111111111111111111
1111111111111111111111111111111111111111111111111111111110000000000001111111111111111111111111111111111111111111111111111111111111111111111111111111
1111111111111111111111111111111111111111111111111111111100000000000000111111111111111111111111111111111111111111111111111111111111111111111111111111
1111111111111111111111111111111111111111111111111111111000011000000000011111111111111111111111111111111111111111111111111111111111111111111111111111
1111111111111111111111111111111111111111111111111111110001111000000000011111111111111111111111111111111111111111111111111111111111111111111111111111
1111111111111111111111111111111111111111111111111111100011110000000000001111111111111111111111111111111111111111111111111111111111111111111111111111
1111111111111111111111111111111111111111111111111111000111100001110000000111111111111111111111111111111111111111111111111111111111111111111111111111
1111111111111111111111111111111111111111111111111110001111110000110000000001111111111111111111111111111111111111111111111111111111111111111111111111
1111111111111111111111111111111111111111111111111000011111111000000000000000011111111111111111111111111111111111111111111111111111111111111111111111
1111111111111111111111111111111111111111111111110000011111111010000000000000011111111111111111111111111111111111111111111111111111111111111111111111
1111111111111111111111111111111111111111111111100000001011110011000000000000000111111111111111111111111111111111111111111111111111111111111111111111
1111111111111111111111111111111111111111111111000011100011100111000000000000000011111111111111111111111111111111111111111111111111111111111111111111
1111111111111111111111111111111111111111111111000011100001001110000000000000000011111111111111111111111111111111111111111111111111111111111111111111
1111111111111111111111111111111111111111111100000000000000011100000000000000000000111111111111111111111111111111111111111111111111111111111111111111
1111111111111111111111111111111111111111111100000000000000111000000000000000000000111111111111111111111111111111111111111111111111111111111111111111
1111111111111111111111111111111111111111111000000000001110010000000000000000000000011111111111111111111111111111111111111111111111111111111111111111
1111111111111111111111111111111111111111111000000000001111000000000000000000000000000111111111111111111111111111111111111111111111111111111111111111
1111111111111111111111111111111111111111111100000000000111000000001100000000000000000111111111111111111111111111111111111111111111111111111111111111
1111111111111111111111111111111111111111111110000000000000000000011110000000000000001111111111111111111111111111111111111111111111111111111111111111
1111111111111111111111111111111111111111111110000000000000000000111110000000000000111111111111111111111111111111111111111111111111111111111111111111
1111111111111111111111111111111111111111111111000000000000000001111110000000000001111111111111111111111111111111111111111111111111111111111111111111
1111111111111111111111111111111001111110111111100000000000000011111111000000000011111001101111111111111111111111111111111111111111111111111111111111
1111111111111111111111111111111001110000000111110000000000000111111110000000000111110001101111111111111111111111111111111111111111111111111111111111
1111111111111111111111111111111001100000000011111000000000001111111100000000111111100000000111111111111111111111111111111111111111111111111111111111
1111111111111111111111111111111000000000000001111000000000011111111000000000111111100000000011111111111111111111111111111111111111111111111111111111
1111111111111111111111111111111000000000000000111000000000011111110000000001111110000000000011111111111111111111111111111111111111111111111111111111
1111111111111111111111111111110000000000000001111000000000111111100000000011111100000000000001111111111111111111111111111111111111111111111111111111
1111111111111111111111111111100000000000000011110000000000111111000000000111111000001100000000011111111111111111111111111111111111111111111111111111
1111111111111111111111111111100000000000000111000000000000010010000000001111110000011110000000001111111111111111111111111111111111111111111111111111
1111111111111111111111111111000000000000001110000000000000000000000000011111100000111110000000000111111111111111111111111111111111111111111111111111
1111111111111111111111111100000000000000011100000000000000000000000001111110000001111000000000000011111111111111111111111111111111111111111111111111
1111111111111111111111111100000000000000111000000000000000000000000001111110000011110000000000000001111111111111111111111111111111111111111111111111
1111111111111111111111110000000000000001110000000000000000000000000011111100000111100000000000000000111111111111111111111111111111111111111111111111
1111111111111111111111110000000000000001100000000000000000000000000111111000001111000000000000000000011111111111111111111111111111111111111111111111
1111111111111111111111100000000000000000000000011000000000000000001111110000011110001110000000000000001111111111111111111111111111111111111111111111
1111111111111111111110000000000000111000000000111100000000000000011111110000111100011111000000100000000111111111111111111111111111111111111111111111
1111111111111111111110000000000001111100000001111110000000000000111110000001111000111111010001110000000011111111111111111111111111111111111111111111
1111111111111111111100000000000011111000000011111110000000000001111100000011110001111111110011110000000001111111111111111111111111111111111111111111
1111111111111111111110000000000111110000000111111110000000000001111000000111100001111111100111100000000000111111111111111111111111111111111111111111
1111111111111111111110000000001111100000001111111110000000000000111000000011000001111111001111000000000000001111111111111111111111111111111111111111
1111111111111111111111000000011111000000011111111000000000000000011000000000000000011010011110000000000000001111111111111111111111111111111111111111
1111111111111111111111100000111110000000111111110000000000100000000000000000000000000000111100000000000000000011111111111111111111111111111111111111
1111111111111111111111110001111100000000111111100000000001110000000000000000000000000001111001100000000000000011111111111111111111111111111111111111
1111111111111110001111111001111000000000111111000000000011111000000000000000000000000011110011110000001000000001111111111111111111111111111111111111
1111111111111110000111111111110000000000111110000000000111111000000000000000000000000111100111111000011100000000111111111111111111111111111111111111
1111111111111110000001111111100000000000011100000000001111111000000000000000000000001111001111111000111100000000011111111111111111111111111111111111
1111111111111111000000111111000000000000000000000000011111100000000000000000000000011110011111110001111000000000001111111111111111111111111111111111
1111111111111111000000011111110000000000000000000000111111000000000000000000001100011100001111100011110000000000000111111111111111111111111111111111
1111111111111110000000001111110000000000000000000001111110000000000000000000011110001000000111000111100000000000000001111111111111111111111111111111
1111111100111100000100000111111000000000000000000011111100000000000000000000111111000000000000001111000000000000000000111111111111111111111111111111
1111111000011000001110000011111000000000000000000111111100000000101100000001110011100000000000011110011100000000000000001111111111111111111111111111
1111111100000000011111000001111000000000000000001111100000000001111110000011100001110000000000111111111110000000000000000111111111111111111111111111
1111111110000000011111100000100000000000000000011111000000000001111110000111000000111000000001111111111110000000100000000011111111111111111111111111
1111111111000000001111110000000011100000000000111110000000000011111100001110000000011100000011110111111111000001110000000001111111111111111111111111
1111111111100000000111110000000011110000000001111110000000000001111000011100000000001110000111100101111111000011110000000000111111111111111111111111
1111111111110000000011100100000011111000000011111110000000000000110000111000000000000111000111000001111110000111100000000000011111111111111111111111
1111111111111000000001001110000000111100000111111111000000000000000001110000000000000011000010000000111100001111000000000000011111111111111111111111
1111111111111100000000011111000000011110001111111100000000000000000001100000000000000011100000000000011000011110000000000000111111111111111111111111
1111111111111110000000011111100000001111011111111000000000000000000011000000000110000001110000000000000000111100000000000001111111111111111111111111
1111111111111111000000000111100000001111111111110000000000000000000111000000000111000001110000000000000001111000000000000011111110111111111111111111
1111111111111111100000000011000000011111111111100000011000000000001111000000000011000000100000000000000011110000000000000111111000011111111111111111
1111111111111111110000000000000000111111111111000000111100000000011111100000000011000000000000000000000111100000000000001111111000111111111111111111
1111111111111111111000000000000001111111111110000001111110000000011111110000000011100000110000000000001111000000000000011111111000111111111111111111
1111111111111111111100000000000011111111111110000011111111100000011111111110000111100000110000000000011110000000000000111111111000011111111111111111
1111111111111111111110000000000111111111111110000111111111110000001111111111111100110000000000000000011100000000000001111111100000001111111111111111
1111111111111111111111000000001111111111110000111111111111111000000111111111100000110000000000000000001000000000000011111111000000000111111111111111
1111111111111111111111100000011111111111100000111111111111111000000011111111000000010000000000000000000000000000000111111111000000000011111111111111
1111111111111111111111110000111111111111000000111111111111110000000000111110000000000000000000000000000000000000001111111100000000000001111111111111
1111111111111111111111111001111111110110000000011111111111100000000000011100000000000000000000000000000000000000011111111000000000000000111111111111
1111111111111111111111111111111111110000000000001111111111000001100000001000000000000000000000000000000000000000111111110000000000000000011111111111
1111111111111111111111111111111111110000000000001111111110000011111000000000000000000000000000000000000000000001111111100000000000000000001111111111
1111111111111111111111111111111111000000000000000111111000000111111100000000000000000000000000000000000000000011111111000000000000000000000111111111
1111111111111111111111111111111110000000000000001111111000001111111110000000000000000000000000000000000000000111111110000000000100000000000011111111
1111111111111111111111111111111100000000000000011111111000011111111111000000000000000000000000000000000000001111111100000000001110000000000001111111
1111111111111111111111111111111000000000000000111111111000011111111111100000000000000000000000000000000000011111111000000000011111000000000000111111
1111111111111111111111111111111100000000000001111111000001111111111111110000000000000000000000000000000000111111110000000000001111000000000001111111
1111111111111111111111111111111110000000000011111110000011111111111111100000000000000000000000000000000001111111100000000000000110000000000011111111
1111111111111111111111111111111111000000000111111110000001111111111110000000000000000000000000000000000001111111000000000000000000000000000111111111
1111111111111111111111111111111111100000011111100000000000111111111100000110000000000000000000000000000000110111000001000000000000000000001111111111
1111111111111111111111111111111111110000111111100000000000111111111000001111000000000000000000000000000000010000000011100000000000000000011111111111
1111111111111111111111111111111111111001111111000000000000011111110000011111100000000000000000000000000000000000000111110000000000000000111111111111
1111111111111111111111111111111111111111111110000000000000011111100000111111110000000000000000000000000000000000000011111000000000000001111111111111
1111111111111111111111111111111111111111111000000000000000111111100001111111111000000000000000000000000000000000000001111100000000000011111111111111
1111111111111111111111111111111111111111110000000000000001111111100011111111111100000000000000000000000000000000000000111110000000000111111111111111
1111111111111111111111111111111111111111100000000000000011111110000111111111111110000000000000000000000000000000000000011111000000001111111111111111
1111111111111111111111111111111111111111110000000000001111111000000111111111111110000000000000000000000000000000010000001111100000011111111111111111
1111111111111111111111111111111111111111111000000000011111111000001111111111111100000000000001000000000000000000011000000111110000111111111111111111
1111111111111111111111111111111111111111111100000001111110111000000111111111111000000000000011100000000000000000001100000011111001111111111111111111
1111111111111111111111111111111111111111111110000011111110000000000011111111110000000000000111110000000000000000000110000001111111111111111111111111
1111111111111111111111111111111111111111111111000111111110000000000011111111100000000000001111110000000000011000000010000000111111111111111111111111
1111111111111111111111111111111111111111111111101111111000000000000011111111000000000000011111110000000000111100000000000000111111111111111111111111
1111111111111111111111111111111111111111111111111111110000000000000111111110000000000000111111000000000000111100000000000001111111111111111111111111
1111111111111111111111111111111111111111111111111111100000000000001111111110000000000001111110000000000000011000000000000011111111111111111111111111
1111111111111111111111111111111111111111111111111110000000000000011111111110000000000011111110000000000000000000000000000111111111111111111111111111
1111111111111111111111111111111111111111111111111110000000000000111111110000010000000111111110000000000000000000000000001111111111111111111111111111
1111111111111111111111111111111111111111111111111111000000000001111111100000011000001111111100000000000110000000000000011111111111111111111111111111
1111111111111111111111111111111111111111111111111111100000000011111111000000011100011111111000000000000011000000000000001111111111111111111111111111
1111111111111111111111111111111111111111111111111111110000000111111000000000001111111111110000000000000001100000000000000111111111111111111111111111
1111111111111111111111111111111111111111111111111111111000011111111000000000001111111111100000001100000000110000000000000111111111111111111111111111
1111111111111111111111111111111111111111111111111111111100111111110000000000001111111111000000011110000000010000000000001111111111111111111111111111
1111111111111111111111111111111111111111111111111111111111111111110000000000011111111111000000001111000000000000000000011111111111111111111111111111
1111111111111111111111111111111111111111111111111111111111111111100000000000111111111000000000000111100000000000000000111111111111111111111111111111
1111111111111111111111111111111111111111111111111111111111111111000000000001111111110000000000000011110000000000000001111111111111111111111111111111
1111111111111111111111111111111111111111111111111111111111111110000000000011111111100000000000000001111000000000000011111111111111111111111111111111
1111111111111111111111111111111111111111111111111111111111111000000000000111111110000000000000000000111100000011110111111111111111111111111111111111
1111111111111111111111111111111111111111111111111111111111111100000000001111111100000000000000000000011110000011111111111111111111111111111111111111
1111111111111111111111111111111111111111111111111111111111111110000000011111111000000000000000000000001111000111111111111111111111111111111111111111
1111111111111111111111111111111111111111111111111111111111111111000000111111110000000000000000000000000111101111111111111111111111111111111111111111
1111111111111111111111111111111111111111111111111111111111111111100001111111110000000000000000000000000011111111111111111111111111111111111111111111
1111111111111111111111111111111111111111111111111111111111111111110001111101100000000000111000000000000001111111111111111111111111111111111111111111
1111111111111111111111111111111111111111111111111111111111111111111011111000000000000001111100000000000001111111111111111111111111111111111111111111
1111111111111111111111111111111111111111111111111111111111111111111111110000000000000001111000000000000111111111111111111111111111111111111111111111
1111111111111111111111111111111111111111111111111111111111111111111111100000000000000000110000000000000111111111111111111111111111111111111111111111
1111111111111111111111111111111111111111111111111111111111111111111111000000000000000000000000000000001111111111111111111111111111111111111111111111
1111111111111111111111111111111111111111111111111111111111111111111111100000000000000000000000000000011111111111111111111111111111111111111111111111
1111111111111111111111111111111111111111111111111111111111111111111111110000000000000000000000000000111111111111111111111111111111111111111111111111
1111111111111111111111111111111111111111111111111111111111111111111111111000000000000000000000000001111111111111111111111111111111111111111111111111
1111111111111111111111111111111111111111111111111111111111111111111111111100000000000000000000000011111111111111111111111111111111111111111111111111
1111111111111111111111111111111111111111111111111111111111111111111111111110000000000000000000000111111111111111111111111111111111111111111111111111
1111111111111111111111111111111111111111111111111111111111111111111111111111000000000000000000001111111111111111111111111111111111111111111111111111
