﻿1111111111111111111111111111111111111111111111111111111111111111111111111111111111111111111111111111111111111111111111111111111111111111111111111111111111111111111111111111111111111111111111111111111111111111111111111111111111111111111111111111
1111111111111111111111111111111111111111111111111111111111111111111111111111111111111111111111111111111111111111111111111111111111111111111111111111111111111111111111111111111111111111111111111111111111111111111111111111111111111111111111111111
1111111111111111111111111111111111111111111111111111111111111111111111111111111111111111111111111111111111111111111111111111111111111111111111111111111111111111111111111111111111111111111111111111111111111111111111111111111111111111111111111111
1111111111111111111111111111111111111111111111111111111111111111111111111111111111111111111111111111111111111111111111111111111111111111111111111111111111111111111111111111111111111111111111111111111111111111111111111111111111111111111111111111
1111111111111111111111111111111111111111111111111111111111111111111111111111111111111111111111111111111111111111111111111111111111111111111111111111111111111111111111111111111111111111111111111111111111111111111111111111111111111111111111111111
1111111111111111111111111111111111111111111111111111111111111111111111111111111111111111111111111111111111111111111111111111111111111111111111111111111111111111111111111111111111111111111111111111111111111111111111111111111111111111111111111111
1111111111111111111111111111111111111111111111111111111111111111111111111111111111111111111111111111111111111111111111111111111111111111111111111111111111111111111111111111111111111111111111111111111111111111111111111111111111111111111111111111
1111111111111111111111111111111111111111111111111111111111111111111111111111111111111111111111111111111111111111111111111111111111111111111111111111111111111111111111111111111111111111111111111111111111111111111111111111111111111111111111111111
1111111111111111111111111111111111111111111111111111111111111111111111111111111111111111111111111111111111111111111111111111111111111111111111111111111111111111111111111111111111111111111111111111111111111111111011111111111111111111111111111111
1111111111111111111111111111111111111111111111111111111111111111111111111111111111111111111111111111111111111111111111111111111111111111111111111111111111111111111111111111111111111111111111111111111111111111110001111111111111111111111111111111
1111111111111111111111111111111111111111111111111111111111111111111111111111111111111111111111111111111111111111111111111111111111111111111111111111111111111111111111111111111111111111111111111111111111111111100000111111111111111111111111111111
1111111111111111111111111111111111111111111111111111111111111111111111111111111111111111111111111111111111111111111111111111111111111111111111111111111111111111111111111111111111111111111111111111111111111111000000011111111111111111111111111111
1111111111111111111111111111111111111111111111111111111111111111111111111111111111111111111111111111111111111111111111111111111111111111111111111111111111111111111111111111111111111111111111111111111111111110000000001111111111111111111111111111
1111111111111111111111111111111111111111111111111111111111111111111111111111111111111111111111111111111111111111111111111111111111111111111111111111111111111111111111111111111111111111111111111111111111111100000000000111111111111111111111111111
1111111111111111111111111111111111111111111111111111111111111111111111111111111111111111111111111111111111111111111111111111111111111111111111111111111111111111111111111111111111111111111111111111111111111000000000000011111111111111111111111111
1111111111111111111111111111111111111111111111111111111111111111111111111111111111111111111111111111111111111111111111111111111111111111011111111111111111111111111111111111111111111111111111111111111111100000000000000001111111111111111111111111
1111111111111111111111111111111111111111111111111111111111111111111111111111111111111111111111111111111111111111111111111111111111111110001111111111111111111111111111111111111111111111111111111111111111000000000000000011111111111111111111111111
1111111111111111111111111111111111111111111111111111111111111111111111111111111111111111111111111111111111111111111111111111111111111100000111111111111111111111111111111111111111111111111111111111111110000000000000000111111111111111111111111111
1111111111111111111111111111111111111111111111111111111111111111111111111111111111111111111111111111111111111111111111111111111111111000000011111111111111111111111111111111111111111111111111111111111100000000000000111111111111111111111111111111
1111111111111111111111111111111111111111111111111111111111111111111111111111111111111111111111111111111111111111111111111111111111111000000001111111111111111111111111111111111111111111111111111111111000000000000011111111111111111111111111111111
1111111111111111111111111111111111111111111111111111111111111111111111111111111111111111111111111111111111111111111111111111111111110000000000111111111111111111111111111111111111111111111111111111110000000000000011111111111111111111111111111111
1111111111111111111111111111111111111111111111111111111111111111111111111111111111111111111111111111111111111111111111111111111111100000000000011111111111111111111111111111111111111111111111111111100000000000000001111111111111111111111111111111
1111111111111111111111111111111111111111111111111111111111111111111111111111111111111111111111111111111111111111111111111111111100000000000000001111111111111111111111111111111111111111111111111111000000000000000000111111111111111111111111111111
1111111111111111111111111111111111111111111111111111111111111111111111111111111111111111111111111111111111111111111111111111111000000000000000001111111111111111111111111111111111111111111111111110000000000000000000011111111111111111111111111111
1111111111111111111111111111111111111111111111111111111111111111111111111111111111111111111111111111111111111111111111111111110000000000000000000111111111111111111111111111111111111111111111111100000000000000000000001111111111111111111111111111
1111111111111111111111111111111111111111111111111111111111111111111111111111111111111111111111111111111111111111111111111111110000000000000000000011111111111111111111111111111111111111111111111000000000000000000000000111111111111111111111111111
1111111111111111111111111111111111111111111111111111111111111111111111111111111111111111111111111111111111111111111111111111111000000000000000000000111111111111111111111111111111111111111111110000000000000000100000000011111111111111111111111111
1111111111111111111111111111111111111111111111111111111111111111111111111111111111111111111111111111111111111101111111111111111100000000000000000000011111111111111111111111111111111111111111100000000000000001110000000001111111111111111111111111
1111111111111111111111111111111111111111111111111111111111111111111111111111111111111111111111111111111111111000111111111111111110000000000000000000001111111111111111111111111111111111111111000000000000000011111000000000111111111111111111111111
1111111111111111111111111111111111111111111111111111111111111111111111111111111111111111111111111111111111110000011111111111111111000000000000000000000111111111111101111111111111111111111110000000000000000111111100000000011111111111111111111111
1111111111111111111111111111111111111111111111111111111111111111111111111111111111111111111111111111111111100000000100011111111111100000000000000000000011111111111000111111111111111111111100000000000000001111111110000000001111111111111111111111
1111111111111111111111111111111111111111111111111111111111111111111111111111111111111111111111111111111111000000000000001111111111110000000000000000000111111111110000011111111111111111111000000000000000011111111111000000000111111111111111111111
1111111111111111111111111111111111111111111111111111111111111111111111111111111111111111111111111111111110000000000000000111111111111000000000000000001111111111100000001111111111111111100000000000000000111111111111100000000011111111111111111111
1111111111111111111111111111111111111111111111111111111111111111111111111111111111111111111111111111111100000000111000000001111111111000000000000000011111111111000000000111111111111111000000000000000001111111111111110000000001111111111111111111
1111111111111111111111111111111111111111111111111111111111111111111111111111111111111111111111111111111000010001111100000001111111110000000000000000111111111110000000000011111111111110000000000000000011111111111111111000000000111111111111111111
1111111111111111111111111111111111111111111111111111111111111111111111111111111111111111111111111111110000111111111110000000111111100000000000000001111111111100000000000001111111111100000000000000000111111111111111111100000000011111111111111111
1111111111111111111111111111111111111111111111111111111111111111111111111111111111111111111111111111100001111111111111000000111111000000000000000011111111111000000000000000111111111000000000000000001111111111111111111110000000001111111111111111
1111111111111111111111111111111111111111111111111111111111111111111111111111111111111111111111111111000011111111111111100000011111000000110000000111111111110000000000000000011111110000000000000000011111111111111111111111111100000111111111111111
1111111111111111111111111111111111111111111111111111111111111111111111111111111111111111111111111100000111111111111111110000011111000001111000001111111111100000000011000000001111110000000000000000111111111111111111111111111110000001111111111111
1111111111111111111111111111111111111111111111111111111111111111111111111111111111111111111111111000001111111111111111110000001111000011111100011111111111000000000111100000001111100000000000000001111111111111111111111111111111000000111111111111
1111111111111111111111111111111111111111111111111111111111111111111111111111111111111111111111110000011111111111111111111000001111000011111110111111111110000000001111110000001110000000000000000011111111111111111111111111111111100000011111111111
1111111111111111111111111111111111111111111111111111111111111111111111111111111111111111111111100000111111111111111111111000001111000111111111111111111100000000011111111000000100000000000000000111111111111111111111111111111111110000001111111111
1111111111111111111111111111111111111111111111111111111111111111111111111111111111111111111111000000111111111111111111111100000110001111111111111111111000000000111111111111100000000000000000001111111111111111111111111111111111111000000111111111
1111111111111111111111111111111111111111111111111111111111111111111111111111111111111111111110000000100111111111111111111100000000011111111111111111110000000001111111111111100000000000000000011111111111111111111111111111111111111100000011111111
1111111111111111111111111111111111111111111111111111111111111111111111111111111111111111111100000001100011111111111111111110000000111111111111111111100000000001111111111111100000000000000000111111111111111111111111111111110111111110000001111111
1111111111111111111111111111111111111111111111111111111111111111111111111111111111111111111000000011000001111111111111111110000000011111111111111111100000000001111111111111000000000000000001111111111111111111111111111111100011111111000000111111
1111111111111111111111111111111111111111111111111111111111111111111111111111111111111111110000000111000001111111111111111100000000011111111111111111100000000001111111111110000000000000000011111111111111111111111111111110000000111111000000011111
1111111111111111111111111111111111111111111111111111111111111111111111111111111111111111100000001110000011111111111111111000000000011111111111111111000000000001111111111110000000000000000111111111111111111111111111111100000000011110000000001111
1111111111111111111111111111111111111111111111111111111111111111111111111111111111111111000000011110000011111111111111110000000000111111111111111111000000000001111111111000000000000000001111111111111111111111111111111000000000001100000000011111
1111111111111111111111111111111111111111111111111111111111111111111111111111111111111110000000111110000011111111111111100000000000111111111111111111000000000001111111110000000000000000011111111111111111111111111111111000000000000000000000111111
1111111111111111111111111111111111111111111111111111111111111111111111111111111111111100000001111100000011111111111111000000000000011111111111111111000000000001111111110000000000000000111111111111111111111111111111111000000000000000000001111111
1111111111111111111111111111111111111111111111111111111111111111111111111111111111111000000011111100000111111111111110000000000000000011111111111111000000000011111111100000000000000001111111111111111111111111111111000000000000000000000011111111
1111111111111111111111111111111111111111111111111111111111111111111111111111111111110000000111111000001111111111111100000000000000000001111111111111000000000011111111100000000000000011111111111111111111111111111110000000000000000000000111111111
1111111111111111111111111111111111111111111111111111111111111111111111111111111111100000001111110000111111111111111000000000000000000000111111111111000000000011111111100000000000000111111111111111111111111111111100000000000000000000001111111111
1111111111111111111111111111111111111111111111111111111111111111111111111111111111000000011111100011111111111111110000000000011000000000001111111111000000000011111111000000000000001111111111111111111111111111111000000000000000000000000111111111
1111111111111111111111111111111111111111111111111111111111111111111111111111111100000000111111000111111111111111100000000000111100000000000111111111000000000011111111000000000000011111111111111111111111111111111000000000000000000000000011111111
1111111111111111111111111111111111111111111111111111111111111111111111111111111000000001111110001111111111111111000000000001111110000000000000000000000000000011111111000000000000111111111111111111111111111111111000000000000000000000000001111111
1111111111111111111111111111111111111111111111111111111111111111111111111111110000000001111000011111111111111110000000000011111111000000000000000000000000000011111111000000000011111111111111111111111111111111000000000000000000000000000000111111
1111111111111111111111111111111111111111111111111111111111111111111111111111100000000000000000111111111111111100000000000111111111100000000000000000000000000111111111000000000111111111111111111111111111111110000000000000000000000000000000011111
1111111111111111111111111111111111111111111111111111111111111111111111111111000000000000000001111111111111111000000000001111111111110000000000000000000000000111111110000000000111111111111111111111111111111100000000000000000000000000000000001111
1111111111111111111111111111111111111111111111111111111111111111111111111110000000000000000001111111111111110000000000011111111111111000000000000000000000000111111110000000000111111111111111111111111111111000000000000000000000000000000000000111
1111111111111111111111111111111111111111111111111111111111111111111111111100000000111100000001111111111111100000000000111111111111111100000000000000000000000111111110000000000111111111111111111111111111111000000000000000000000000000000000001111
1111111111111111111111111111111111111111111111111111111111111111111111111000000011111110000001111111111111000000000001111111111111111111111111111111111111111111111110000000000011111111111111111111111111111100000000000000000000000000000000011111
1111111111111111111111111111111111111111111111111111111111111111111111110000000111111111000000111111111110000000000011111111111111111111111111111111111111111111111110000000000011111111111111110111111111111110000000000000000000000000000000111111
1111111111111111111111111111111111111111111111111111111111111111111111111000001111111111100000111111111100000000000111111111111111111111111111111111111111111111111110000000000011111111111111100011111111111111000000000000000000000000000001111111
1111111111111111111111111111111111111111111111111111111111111111111111111100011111111111110000011111111000000000001111111111111111111111111111111111111111111111111110000000000001111111111111000001111111111111100000000000000000000000000011111111
1111111111111111111111111111111111111111111111111111111111111111111111111110111111111111111000011111100000000000011111111111111111111111111111111111111111111111111111000000000000111111111110000000111111111111110000000000000000000000000111111111
1111111111111111111111111111111111111111111111111111111111111111111111111111111111111111111000011111000000000000111111111111111111111111111111111111111111111111111111000000000000011111111100000000011111111111100000000000000000000000001111111111
1111111111111111111111111111111111111111111111111111111111111111111111111111111111111111111000001110000000000001111111111111111111111111111111111111111111111111111111100000000000001111111000000000001111111111000000000000000000000000011111111111
1111111111111111111111111111111111111111111111111111111111111111111111111111111111111111111100001100000000000011111111111111111111111111111111111111111111111111111111100000000000001111110000000000000111111110000000000000000000000000111111111111
1111111111111111111111111111111111111111111111111111111111111111111111111111111111111111111100000000000000000111111111111111111111111111111111111111111111111111111111110000000000011111100000000000000011111100000000000000000000000001111111111111
1111111111111111111111111111111111111111111111111111111111111111111111111111111111111111111110000000000000001111111111111111111111111111111111111111111111111111111111110000000000111111110000000000000001111000000000000000000000000011111111111111
1111111111111111111111111111111111111111111111111111111111111111111111111111111111111111111110000000000000011111111111111111111111111111111111111111111111111111111111111000000001111111111000000010000001110000000000100000000000000111111111111111
1111111111111111111111111111111111111111111111111111111111111111111111111111111111111111111110000000000000111111111111111111111111111111111111111111111111111111111111111100000011111111111100000011000000000000000001110000000000001111111111111111
1111111111111111111111111111111111111111111111111111111111111111111111111111111111111111111110000000000001111111111111111111111111111111111111111111111111111111111111111110000111111111111100000011100000000000000011111000000000011111111111111111
1111111111111111111111111111111111111111111111111111111111111111111111111111111111111111111100000000000011111111111111111111111111111111111111111111111111111111111111111111011111111111111110000011110000000000000111111100000000111111111111111111
1111111111111111111111111111111111111111111111111110001111111111111111111111111111111111111000000000000111111111111111111111111111111111111111111111111111111111111111111111111111111111111110000011111000000000001111111110000001111111111111111111
1111111111111111111111111111111111111111110000000000000111111111111111111111111111111111110000000000001111111111111111111111111111111111111111111111111111111111111111111111111111111111111110000011111100000000001111111111000011111111111111111111
1111111111111111111111111111111111111111110000000000000011111111111111111111111111111111100000100000011111111111111111111111111111111111111111111111111111111111111111111111111111111111111110000011111110000000001111111111100111111111111111111111
1111111111111111111111111111111111111111110000000000000011111111111111111111111111111111000001110000111111111111111111111111111111111111111111111111111111111111111111111111111111111111111110000011111100000000001111111111111111111111111111111111
1111111111111111111111111111111111111111110000000000000011111111111111111111111111111110000011111001111111111111111111111111111111111111111111111111111111111111111111111111111111111111111110000011111000000000011111111111111111111111111111111111
1111111111111111111111111111111111111111111100000000000011111111111111111111111111110000010111111111111111111111111111111111111111111111111111111111111111111111111111111111111111111111111110000011110000001000011111111111111111111111111111111111
1111111111111111111111111111111111111111111111000000000001111111111111111111111111100000011111111111111111111111111111111111111111111111111111111111111111111111111111111110011111111111111110000011100000011000011001111111111111111111111111111111
1111111111111111111111111111111111111111111111110000000001111111111111111111111111000000011111111111111111111111111111111111111111111111111111111111111111111111111111111100011111111111111100000011000000111100000000111111111111111111111111111111
1111111111111111111111111111111111111111111111110000000001111111111111111111111100000000011111111111111111111111111111111111111111111111111111111111111111111111111111111000011111111111111100000011000001111110000000011111111111111111111111111111
1111111111111111111111111111111111111111111111111000000001111111111111111111111000000000011111111111111111111111111111111111111111111111111111111111111111111111111111110000011111111111111000000000000001111111000000001111111111111111111111111111
1111111111111111111111111111111111111111111111111110000001111111111111111111110000000000111111111111111111111111111111111111111111111111111111111111111111111111111111100000011111111111110000000000000111111111100000000111111111111111111111111111
1111111111111111111111111111111111111111111111111110000000111111111111111111100000000001111111111111111111111111111111111111111111111111111111111111111111111111111111000000000001111111100000000000000011111111111000000011111111111111111111111111
1111111111111111111111111111111111111111111111111111000000111111111111111111000000000011111111111111111111111111111111111111111111111111111111111111111111111111111110000000000000000000000000000000000001111111111000000001111111111111111111111111
1111111111111111111111111111111111111111111111111111000000111111111111111110000000000111111111111111111111111111111111111111111111111111111111111111111111111111111110000000000000000000000000000000000000000000000000000000111111111111111111111111
1111111111111111111111111111111111111111111111111111000000111111111111111100000000001111111111111111111111111111111111111111111111111111111111111111111111111111111111000000000000000000000000000000000000000000000000000000011111111111111111111111
1111111111111111111111111111111111111111111111111111000000111111111111111000000000011111111111111111111111111111111111111111111111110111111111111111111111111111111111100000000000000000000000000000000000000000000000000000001111111111111111111111
1111111111111111111111111111111111111111111111111111000000111111111111111000000000111111111111111111111111111111111111111111011111100001111111111111111111111111111111110000001111111111100000000000000000000000000000000000000111111111111111111111
1111111111111111111111111111111111111111110000000000000000000000000000111000000001111111111111111111111111111111111111111100000111110001111111111111111111111111111111111000000011111111100000000000000011111111111000000000000011111111111111111111
1111111111111111111111111111111111111111000000000000000000000000000000000000000011111111111111111111111111111111111111111100000011110000111111111111111111111111111111111100000011111111000000000000000111111111111000000000000011111111111111111111
1111111111111111111111111111111111111110000000000000000000000000000000000000000111111111111111111111111101111111111111111000000000110000111111111111111111111111111111111110000001111111000000000000001111111111111100000000000111111111111111111111
1111111111111111111111111111111111111100000000000000000000000000000000000000001111111111111111111111111100001111111111111000000000100000001111111111111111111111111111111111000000111100000000000000000111111111111000000000001111111111111111111111
1111111111111111111111111111111111111000000000000000000000000000000000000000011111111111111111111011110000000011111111111111100000000000001111111111111111111111111111111111100000001000000111100000111111111111110000000000011111111111111111111111
1111111111111111111111111111111111110000000000000000000000000000000000000000111111111111111111110011111000001111111111111111100000000011111111111111111111111111111111111111111000000000000111110001111111111111100000000000111111111111111111111111
1111111111111111111111111111111111100000000000000000000000000000000000000001111111111111111111110011111000111111111111111111100000000011111111111111111111111111111111111111111000000000001111110001111111111111000000000001111111111111111111111111
1111111111111111111111111111111111000000000000111111111111111111111111111111111111111111111111110001111000111111111111111111110000000011111111111111111111111111111111111111111000000000111111110000111111111110000000000011111111111111111111111111
1111111111111111111111111111111110000000000001111111111111111111111111111111111111111111111111110001111000011111111111111111110000000011111111111111111111111111111111111111110000000000111111110000111111111100000000000111111111111111111111111111
1111111111111111111000000001111000000000000011111111111111111111111111111111111111111111111111110000000000001111111111111111110000001111111111111111111111111111111111111111100000000000011111110000011111111000000000001111111111111111111111111111
1111111111111111000000000000000000000000000111111111111111111111111111111111111111111111111111000000000000001111111111111111110000001111111111111111111111111111111111111111000000000000001111100000111111110000000000011111111111111111111111111111
1111111111111000000000000000000000000000001111111111111111111111111111111111111111111111111110000000000000001111111111111111111000011111111111111111111111111111111111111110000000000000000111100000111111100000000000111111111111111111111111111111
1111111111111000000001111000000000000000011111111111111111111111111111111111111111111111111110000000010000011111111111111111111000111111111111111111111111111111111111111100000000000000000011100000111111000000000001111111111111111111111111111111
1111111111100000000111111110000000000000111111111111111111111111111111111111111111111111111110000000111000011111111111111111111000111111111111111111111111111111111111111000000000000100000001100000111110000000000011111111111111111111111111111111
1111111111000000111111111110000000000001111111111111111111111111111111111111111111111111111111000001111100001111111111111111110000111111111111111111111111111111111111100000000000011110000000100000111100000000000111111111111111111111111111111111
1111111110000001111111111110000000000011111111111111111111111111111111111111111111111111111111100011111110001111111111111111110000111111111111111111111111111111111111000000000001111111000000000000111000000000001111111111111111111111111111111111
1111111100000011111111111111000000000111111111111111111111111111111111111111111111111111111111101111111111000111111111111111100000111111111111111111111111111111111110000000000011111111100000000000110000000000011111111111111111111111111111111111
1111111100001111111111111111011111111111111111111111111111111111111111111111111111111111111111111111111111000011111111111110001111111111111111111111111111111111111100000000000111111111110000000000000000000000111111111111111111111111111111111111
1111111000001111111111111111111111111111111111111111111111111111111111111111111111111111111111111111111110001111111111110000011111111111111111111111111111111111111000000000001111111111111000000000000000000001111111111111111111111111111111111111
1111110000011111111111111111111111111111111111111111111111111111111111111111111111111011111111111111111110011111111111100000111111111111111111111111111111111111110000000000011111111111111100000000000000000011111111111111111111111111111111111111
1111100000011111111111111111111111111111111111111111111111111111111111111111111111000011111011111111111110111111111111000111111111111111111111111111111111111111100000000000011111111111111110000000000000000111111111111111111111111111111111111111
1111100000111111111111111111111111111111111111111111111111111111111111111111110000000111110011111111111100111111111111011100001111111111111111111111111111111111110000000000000111111111111111000000000000001111111111111111111111111111111111111111
1111100001111111111111111111111111111111111111111111111111111111111111111111100000000111110011111111111100111111000000010000000000001111111111111111111111111111111000000000000011111111111111100000000000011111111111111111111111111111111111111111
1111110001111111111111111111111111111111111111111111111111111111111111111111111000001111100011111111110001111100000000110000000000000001111111111111111111111111111100000000000001111111111111110000000000111111111111111111111111111111111111111111
1111111111111111111111111111111111111111111111111111111111111111111111111111111100000011100111111111100001110000000000110000000000000000011111111111111111111111111110000000000000111111111111111000000001111111111111111111111111111111111111111111
1111111111111111111111111111111111111111111111111111111111111111111111111111111100000001100111111111000111000000000000000000000000000000001111111111111111111111111111000000000000011111111111111100000011111111111111111111111111111111111111111111
1111111111111111111111111111111111111111111111111111111111111111111111111111111100000000000111111110001100000000000000000000000000000000000001111111111111111111111111100000000000001111111111111110000111111111111111111111111111111111111111111111
1111111111111111111111111111111111111111111111111111111111111111111111111111111000000000000111111110011000000000000000000000000000000000000000111111111111111111111111110000000000000111111111111111001111111111111111111111111111111111111111111111
1111111111111111111111111111111111111111111111111111111111111111111111111111110000000000000111111110110000000000000001111111111100000000000000001111111111111111111111111000000000000011111111111111111111111111111111111111111111111111111111111111
1111111111111111111111111111111111111111111111111111111111111111111111111111100000000000000001111100100000000000011111111111111111110000000000000011111111111111111111111100000000000001111111111111111111111111111111111111111111111111111111111111
1111111111111111111111111111111111111111111111111111111111111111111111111111000000000000000000111100100000000001111111111111111111111111100000000001111111111111111111111110000000000000111111111111111111111111111111111111111111111111111111111111
1111111111111111111111111111111111111111111111111111111111111111111111111110000011110000110000111000100000000011111111111111111111111111111000000000111111111111111111111111000000000000000001111111111111111111111111111111111111111111111111111111
1111111111111111111111111111111111111111111111111111111111111111111111111110000011110000111001110000000000001111111111111111111111111111111100000000011111111111111111111111100000000000000000001111111111111111111111111111111111111111111111111111
1111111111111111111111111111111111111111111111111111111111111111111111111111000111110001111001100000000001111111111111111111111111111111111100000000001111111111111111111111110000000000000000000111111111111111111111111111111111111111111111111111
1111111111111111111111111111111111111111111111111111111111111111111111111111111111110001111001000000000011111111111111111111111111111111111000000000001111111111111111111111111000000000000000000011111111111111111111111111111111111111111111111111
1111111111111111111111111111111111111111111111111111111111111111111111111111111111111011111001000000000011111111111111111111111111111111111000000000000111111111111111111111111100000000000000000001111111111111111111111111111111111111111111111111
1111111111111111111111111111111111111111111111111111111111111111111111111111111111111111111001000000000111111111111111111111111111111111110000000000000011111111111111111111111110000000000000000000111111111111111111111111111111111111111111111111
1111111111111111111111111111111111111111111111111111111111111111111111111111111111111111111001000000011111111111111111111111111111111111100000000000000001111111111111111111111111000000000000000000011111111111111111111111111111111111111111111111
1111111111111111111111111111111111111111111111111111111111111111111111111111111111111111111001000000111111111111111111111111111111111111000000111100000000111111111111111111111111111111110000000000001111111111111111111111111111111111111111111111
1111111111111111111111111111111111111111111111111111111111111111111111111111111111111111110011000001111111111111111111111111111111111111000001111110000000111111111111111111111111111111111000000000000111111111111111111111111111111111111111111111
1111111111111111111111111111111111111111111111111111111111111111111111111111111111111111110010000011111111111111111111111111111111111110000001111111000000111111111111111111111111111111111100000000000011111111111111111111111111111111111111111111
1111111111111111111111111111111111111111111111111111111111111111111111111111111111111111110110000011111111111111111111111111111111111100000011111111100000011111111111111111111111111111111110000000000001111111111111111111111111111111111111111111
1111111111111111111111111111111111111111111111111111111111111111111111111111111111111111100100000111111111111111111111111111111111111000000011111111100000011111111111111111111111111111111111000000000000111111111111111111111111111111111111111111
1111111111111111111111111111111111111111111111111111111111111111111111111111111111011111100100000111111111111111111111111111111111110000000111111111000000001111111111111111111111111111111111100000000000011111111111111111111111111111111111111111
1111111111111111111111111111111111111111111111111111111111111111111111111111111111011111001100001111111111111111111111111111111111110000001111111111100000001111111111111111111111111111111111110000000000011111111111111111111111111111111111111111
1111111111111111111111111111111111111111111111111111111111111111111111111110011111011111001000001111111111111111111111111111111111100000001111111111100000000111111111111111111111111111111111111110000000001111111111111111111111111111111111111111
1111111111111111111111111111111111111111111111111111111111111111111111111100011111011111001100001111111111111111111111111111111111000000111111111111110000000111111111111111111111111111111111111110000000001111111111111111111111111111111111111111
1111111111111111111111111111111111111111111111111111111111111111111111111000011111011111001100001111111111111111111111111111111110000001111111111111110000000111111111111111111111111111111111111100000000001111111111111111111111111111111111111111
1111111111111111111111111111111111111111111111111111111111111111111111110000000000011111100100001111111111111111111111111111111110000001111111111111110000000111111111111111111111111111111111111100000000001111111111111111111111111111111111111111
1111111111111111111111111111111111111111111111111111111111111111111111110000000000110000110000011111111111111111111111111000001100000011111111111111110000000111111111111111111111111111111111111000000000011111111111111111111111111111111111111111
1111111111111111111111111111111111111111111111111111111111111111111111110000000000000000011000011111111111111111111111110000000000000111111111111111110000000011111111111111111111111111111111111000000000111111111111111111111111111111111111111111
1111111111111111111111111111111111111111111111111111111111111111111111111111000000001110001000011111111111111111111110000000000000000111111111111111110000000011111111111111111111111111111111111000000001111111111111111111111111111111111111111111
1111111111111111111111111111111111111111111111111111111111111111111111111111000000011110001000011111111111111111111100000000000000001111111111111111110000000011111111111111111111111111111111111000000011111111111111111111111111111111111111111111
1111111111111111111111111111111111111111111111111111111111111111111111111111000000011111001100011111111111111111110000000000000000011111111111111111110000000011111111111111111111111100000000111100000111111111111111111111111111111111111111111111
1111111111111111111111111111111111111111111111111111111111111111111111111111000000001111000100011111111111111111110000001111100000111111111111111111111000000011111111111111111111000000000000001100001111111111111111111111111111111111111111111111
1111111111111111111111111111111111111111111111111111111111111111111110000000000111001111000100011111111111111111110000011111110000011111111111111111111000000011111111111111111110000000000000000000011111111111111111111111111111111111111111111111
1111111111111111111111111111111111111111111111111111111111111111111111000000001111101111000100011111111111111111110000111111111000011111111111111111111000000011111111111111111100000000000000000001111111111111111111111111111111111111111111111111
1111111111111111111111111111111111111111111111111111111111111111111111000000111111100111000100011111111111111111110000111111111000001111111111111111111000000011111111111111111000000111111110000001111111111111111111111111111111111111111111111111
1111111111111111111111111111111111111111111111111111111111111111111111000000111111100111100100011111111111111111110000111111111000001111111111111111111000000001111111111111100000001111111111000000111111111111111111111111111111111111111111111111
1111111111111111111111111111111111111111111111111111111111111111111111100000001111100111100100011111111111111111110000111111111000001111111111111111110000000001111111111111000000111111111111000000011111111111111111111111111111111111111111111111
1111111111111111111111111111111111111111111111111111111111111111111111110000001111110111100100011111111111111111110000111111111000011111111111111111110000000001111111111110000001111111111110000000001111111111111111111111111111111111111111111111
1111111111111111111111111111111111111111111111111111111111111111111111111000000111110111100100011111111111111111110000011111110000011111111111111111110000000001111111111110000011111111111100000000001111111111111111111111111111111111111111111111
1111111111111111111111111111111111111111111111111111111111111111111111111100000111111111100100011111111111111111110000001111100000011111111111111111100000000001111111111100000111111111111100001100001111111111111111111111111111111111111111111111
1111111111111111111111111111111111111111111111111111111111111111111111111111111111111111100100011111111111111111111000000000000000111111111111111111100000000001111111111100001111111111111000011100001111111111111111111111111111111111111111111111
1111111111111111111111111111111111111111111111111111111111111111111111111111111111111111100100001111111111111111111100000000000001111111111111111111100000000011111111111100001111111111110000111100001111111111111111111111111111111111111111111111
1111111111111111111111111111111111111111111111111111111111111111111111111111111111111111100000001111111111111111111110000000000011111111111111111111100000000011111111111100001111111111100001111100011111111111111111111111111111111111111111111111
1111111111111111111111111111111111111111111111111111111111111111111111111111111111111111100000000111111111111111111111100000001111111111111111111111000000000011111111111100011111111111100011111100011111111111111111111111111111111111111111111111
1111111111111111111111111111111111111111111111111111111111111111111111111111111111111111100000000011111111111111111111111111111111111111111111111111000000000111111111111000011111111111110011111100001111111111111111111111111111111111111111111111
1111111111111111111111111111111111111111111111111111111111111111111111111111111111111111110000000001111111111111111111111111111111111111111111111110000000000111111111111000011111111111111111111100001111111111111111111111111111111111111111111111
1111111111111111111111111111111111111111111111111111111111111111111111111111111111111111110000000000111111111111111111111111111111111111111111111100000000001111111111111000011111111111111111111000001111111111111111111111111111111111111111111111
1111111111111111111111111111111111111111111111111111111111111111111111111111111111111111111000000000011111111111111111111111111111111111111111111000000000001111111111111000001111111111111111111000001111111111111111111111111111111111111111111111
1111111111111111111111111111111111111111111111111111111111111111111111111111111111111111111000000000001111111111111111111111111111111111111111110000000000011111111111111000001111111111111111110000001111111111111111111111111111111111111111111111
1111111111111111111111111111111111111111111111111111111111111111111111111111111111111111111110000000001111111111111111111111111111111111111111110000000000111111111111111100000111111111111111100000001111111111111111111111111111111111111111111111
1111111111111111111111111111111111111111111111111111111111111111111111111111111111111111111111000000000111111111111111111111111111111111111111100000000001111111111111111110000011111111111111000000001111111111111111111111111111111111111111111111
1111111111111111111111111111111111111111111111111111111111111111111111111111111111111111111111100000000011111111111111111111111111111111111111000000000011111111111111111111000001111111111110000000001111111111111111111111111111111111111111111111
1111111111111111111111111111111111111111111111111111111111111111111111111111111111111111111111100000000001111111111111111111111111111111111110000000000111111111111111111111000000111111111000000000001111111111111111111111111111111111111111111111
1111111111111111111111111111111111111111111111111111111111111111111111111111111111111111111110000000000000111111111111111111111111111111111000000000000111111111101111111100000000001111100000000000001111111111111111111111111111111111111111111111
1111111111111111111111111111111111111111111111111111111111111111111111111111111111111111111100000000000000001111111111111111111111111111110000000000000011111111000111111000000000000000000000000000011111111111111111111111111111111111111111111111
1111111111111111111111111111111111111111111111111111111111111111111111111111111111111111111000000000000000000011111111111111111111111110000000000000000001111110000011110000001000000000000000000000111111111111111111111111111111111111111111111111
1111111111111111111111111111111111111111111111111111111111111111111111111111111111111111110000000000000000000000111111111111111111111000000000000000000000111110000001100000011110000000000000000001111111111111111111111111111111111111111111111111
1111111111111111111111111111111111111111111111111111111111111111111111111111111111111111100000000000000000000000000001111111111111000000000000000000000000000110000000000000111111000000000000000011111111111111111111111111111111111111111111111111
1111111111111111111111111111111111111111111111111111111111111111111111111111111111111111000000000001000000000000000000001111110000000000000000000000000000000000000000000001111111110000000000001111111111111111111111111111111111111111111111111111
1111111111111111111111111111111111111111111111111111111111111111111111111111111111111111000000000011100000000000000000000000000000000000000000001111000000000000000000000011111111111111111111111111111111111111111111111111111111111111111111111111
1111111111111111111111111111111111111111111111111111111111111111111111111111111111111111000000000111110000000000000000000000000000000000000000011111100000000000110000000011111111111111111111111111111111111111111111111111111111111111111111111111
1111111111111111111111111111111111111111111111111111111111111111111111111111111111111111000000001111111100000000000000000000000000000000000001111111110000000000110000000001111111111111111111111111111111111111111111111111111111111111111111111111
1111111111111111111111111111111111111111111111111111111111111111111111111111111111111111100000111111111111100000000000000000000000000000000111111111110000000000000000000000111111111111111111111111111111111111111111111111111111111111111111111111
1111111111111111111111111111111111111111111111111111111111111111111111111111111111111111110001111111111111111110000000000000000000000000111111111111111000000000000000000000011111111111111111111111111111111111111111111111111111111111111111111111
1111111111111111111111111111111111111111111111111111111111111111111111111111111111111111111111111111111111111111110000000000000000000011111111111111111000000000000000000000001111111111111111111111111111111111111111111111111111111111111111111111
1111111111111111111111111111111111111111111111111111111111111111111111111111111111111111111111111111111111111111111100000001111111111111111111111111111000000000000000000000000111111111111111111111111111111111111111111111111111111111111111111111
1111111111111111111111111111111111111111111111111111111111111111111111111111111111111111111111111111111111111111111110000011111111111111111111111111111000000000000000000000000011111111111111111111111111111111111111111111111111111111111111111111
1111111111111111111111111111111111111111111111111111111111111111111111111111111111111111111111111111111111111111111110000111111111111111111111111111110000000000000000000000000111111111111111111111111111111111111111111111111111111111111111111111
1111111111111111111111111111111111111111111111111111111111111111111111111111111111111111111111111111111111111110000011001111111111111111111111111111100000000000000000000000001111111111111111111111111111111111111111111111111111111111111111111111
1111111111111111111111111111111111111111111111111111111111111111111111111111111111111111111111111111111111111111000000000000001111111111111111111111000000000000000000000000011111111111111111111111111111111111111111111111111111111111111111111111
1111111111111111111111111111111111111111111111111111111111111111111111111111111111111111111111111111111111111111100000000000000000001111111111111110000000000000000000000000111111111111111111111111111111111111111111111111111111111111111111111111
1111111111111111111111111111111111111111111111111111111111111111111111111111111111111111111111111111111111111111110000000000000000000111111111111100000000000000000000000001111111111111111111111111111111111111111111111111111111111111111111111111
1111111111111111111111111111111111111111111111111111111111111111111111111111111111111111111111111111111000111111110000000000000000000011111111111100000000000000000000000011111111111111111111111111111111111111111111111111111111111111111111111111
1111111111111111111111111111111111111111111111111111111111111111111111111111111111111111111111111111110000011111110000000011100000000001111111111110000000000000000000000111111111111111111111111111111111111111111111111111111111111111111111111111
1111111111111111111111111111111111111111111111111111111111111111111111111111111111111111111111111111111110001111000000000011100000000001111111111111000000000000000000001111111111111111111111111111111111111111111111111111111111111111111111111111
1111111111111111111111111111111111111111111111111111111111111111111111111111111111111111111111111111111111100000000000000001100000000000111111111111100000000000000000011111111111111111111111111111111111111111111111111111111111111111111111111111
1111111111111111111111111111111111111111111111111111111111111111111111111111111111111111111111111111111111110000000000000001100000000000111111111111110000000000000000111111111111111111111111111111111111111111111111111111111111111111111111111111
1111111111111111111111111111111111111111111111111111111111111111111111111111111111111111111111111111111111110000000000000001100000000000111111111111111000000000000001111111111111111111111111111111111111111111111111111111111111111111111111111111
1111111111111111111111111111111111111111111111111111111111111111111111111111111111111111111111111111111110000100111011000001110000000000111111111111111100000000000011111111111111111111111111111111111111111111111111111111111111111111111111111111
1111111111111111111111111111111111111111111111111111111111111111111111111111111111111111111111111111111100000111111111100001110000000001111111111111111110000000000111111111111111111111111111111111111111111111111111111111111111111111111111111111
1111111111111111111111111111111111111111111111111111111111111111111111111111111111111111111111111111111110000111111111100001111110000011111111111111111111000000001111111111111111111111111111111111111111111111111111111111111111111111111111111111
1111111111111111111111111111111111111111111111111111111111111111111111111111111111111111111111111111111111000000111111000000001110000111111111111111111111100000011111111111111111111111111111111111111111111111111111111111111111111111111111111111
1111111111111111111111111111111111111111111111111111111111111111111111111111111111111111111111111111111111100000111100000000000000001111111111111111111111110000111111111111111111111111111111111111111111111111111111111111111111111111111111111111
1111111111111111111111111111111111111111111111111111111111111111111111111111111111111111111111111111111111111000000000000000000000011111111111111111111111111001111111111111111111111111111111111111111111111111111111111111111111111111111111111111
1111111111111111111111111111111111111111111111111111111111111111111111111111111111111111111111111111111111111110000000000000000000111111111111111111111111111111111111111111111111111111111111111111111111111111111111111111111111111111111111111111
1111111111111111111111111111111111111111111111111111111111111111111111111111111111111111111111111111111111111111100000000000000111111111111111111111111111111111111111111111111111111111111111111111111111111111111111111111111111111111111111111111
1111111111111111111111111111111111111111111111111111111111111111111111111111111111111111111111111111111111111111110000000000111111111111111111111111111111111111111111111111111111111111111111111111111111111111111111111111111111111111111111111111
1111111111111111111111111111111111111111111111111111111111111111111111111111111111111111111111111111111111111111111111111111111111111111111111111111111111111111111111111111111111111111111111111111111111111111111111111111111111111111111111111111
1111111111111111111111111111111111111111111111111111111111111111111111111111111111111111111111111111111111111111111111111111111111111111111111111111111111111111111111111111111111111111111111111111111111111111111111111111111111111111111111111111
1111111111111111111111111111111111111111111111111111111111111111111111111111111111111111111111111111111111111111111111111111111111111111111111111111111111111111111111111111111111111111111111111111111111111111111111111111111111111111111111111111
1111111111111111111111111111111111111111111111111111111111111111111111111111111111111111111111111111111111111111111111111111111111111111111111111111111111111111111111111111111111111111111111111111111111111111111111111111111111111111111111111111
1111111111111111111111111111111111111111111111111111111111111111111111111111111111111111111111111111111111111111111111111111111111111111111111111111111111111111111111111111111111111111111111111111111111111111111111111111111111111111111111111111
