﻿1111111111111111111111111111111111111111111111111111111111111111
1111111111111111111111111111111111111111111111111111111111111111
1111111111111111111111111111111111111111111111111111111111111111
1111111111111111111111111111111111111111111111111111111111111111
1111111111111111111111111111111111111111111111111111111111111111
1111111111111111111111111111111111111111111111111111111111111111
1111111111111111111111111111111111111111111111111111111111111111
1111111111111111111111111111111111111111111111111111111111111111
1111111111111111111111111111111111111111111111111111111111111111
1111111111111111111111111111111111111111111111111111111111111111
1111111111111111111111111111111111111111111111111111111111111111
1111111111111111111111111111111111111111111111111111111111111111
1111111111111111111111111111111111111111111111111111111111111111
1111111111111111111111111111111111111111111111111111111111111111
1111111111111111111111111111111111111111111111111111111111111111
1111111111111111111111111111111110111111111111111111111111111111
1111111111111111111111111111111100011111111111111111111111111111
1111111111111111111111111111111110001111110011111111111111111111
1111111111111111111111111111111111000111100001111111111111111111
1111111111111111111111111111111111100011000001111111111111111111
1111111111111111111111111111011001110000000001111111111111111111
1111111111111111111111111111001001111000000000001111111111111111
1111111111111111111111111111000000000000000000000111111111111111
1111111111111111111111111111100000000000000000000011111111111111
1111111111111111111111111111110000000000000000000001111111111111
1111111111111111111111111111111000000000000000000001111111111111
1111111111111111111111111111111100000000000000000001111111111111
1111111111111111111111100111111000000000000000000000000111111111
1111111111111111111111110011110000000000000000000000000011111111
1111111111111111111111111001100000000000010000000000000111111111
1111111111111111111111111100000000000000111000000000001111111111
1111111111111111111111111110000000000000111000000000011111111111
1111111111111111111111111100000000000000111000000000111111111111
1111111111111111101111111000000000000000000000000010011111111111
1111111111111111001111010000000000000000000000000111001111111111
1111111111110110000111000000000000000000000000000111100111111111
1111111111100110000000000000000000000000000000001111110011111111
1111111111000000000000000000000000000000000000000001111001111111
1111111110000000000000000000000000000000000000000001111101111111
1111111100000000000000000000000000000000000010000001111111111111
1111111000000100000000000000100000000000000111000000111111111111
1111110000001110000000000001110000000000001111100000011111111111
1111100000001111000000000001110000000000011111110000011111111111
1111000000000111100000000001110000000000011111111000011111111111
1110000000000111111100000000000000000000001111111100111111111111
1110000000000011111100000000000000000011000111111111111111111111
1111000010000011111100000000000000000111100011111111111111111111
1111100111000011110000000000000000011111110001111111111111111111
1111110001100111100000000000000000111111111001111111111111111111
1111111001111111000000000000000001111111111111111111111111111111
1111111100011110000000000000000001111111111111111111111111111111
1111111110011100000000110000000000011111111111111111111111111111
1111111111000000000000111111000000011111111111111111111111111111
1111111111100000000000111111000000000111111111111111111111111111
1111111111110000000000111111000000000011111111111111111111111111
1111111111111000000001111111000000000001111111111111111111111111
1111111111111100000111111110000000000001111111111111111111111111
1111111111111110000111000000000000000001111111111111111111111111
1111111111111111000000000000000000000011111111111111111111111111
1111111111111111100000000000000000000111111111111111111111111111
1111111111111111110000000000000000001111111111111111111111111111
1111111111111111111000000000000000011111111111111111111111111111
1111111111111111111100000000000000111111111111111111111111111111
1111111111111111111110000000000001111111111111111111111111111111
1111111111111111111111000000000011111111111111111111111111111111
1111111111111111111111100000000111111111111111111111111111111111
1111111111111111111111110000001111111111111111111111111111111111
1111111111111111111111111000011111111111111111111111111111111111
1111111111111111111111111100111111111111111111111111111111111111
1111111111111111111111111111111111111111111111111111111111111111
