﻿1111111111111111111111111111111111111111111111111111111111111111
1111111111111111111111111111111111111111111111111111111111111111
1111111111111111111111111111111111111111111111111111111111111111
1111111111111111111111111111111111111111111111111111111111111111
1111111111111111111111111111111111111111111111111111111111111111
1111111111111111111111111111111111111111111111111111111111111111
1111111111111111111111111111111111111111111111111111111111111111
1111111111111111111111111111111111111111111111111111111111111111
1111111111111111111111111111111111111111111111111111111111111111
1111111111111111111111111111111111111111111111111111111111111111
1111111111111111111111111111111111111111111111111111111111111111
1111111111111111111111111111111111111111111111111111111111111111
1111111111111111111111111111111111100011111111111111111111111111
1111111111111111111111111111111111000001111111111111111111111111
1111111111111111111111111111111110001100111111111111111111111111
1111111111111111111111111111111110011100011111111111111111111111
1111111111111111111111111111111111001100001111111111111111111111
1111111111111111111111111111111111100000000111111111111111111111
1111111111111111111111111111111111110000000011111111111111111111
1111111111111111111111111111111111111000000001111111111111111111
1111111111111111111111111111111111111000000000111111111111111111
1111111111111111111111111110011111100000000000011111111111111111
1111111111111111111111111110011111000000000000001111111111111111
1111111111111111111111111111000000000000000000000111111111111111
1111111111111111111111111111100000000000000110000011111111111111
1111111111111111111111111111110000000000001111000001111111111111
1111111111111111111111111111110000000000000111000000111111111111
1111111111111111111111111111100000000000000100000000001111111111
1111111111111111111111111111000000000000000000000000000111111111
1111111111111111111111111110001000000000000000000000000111111111
1111111111111111111111100000011100000000000000000000000111111111
1111111111111111111111110000011000000000000000000000000000111111
1111111111111111111111110000000001100000000000000010000000011111
1111111111111100111111100000000011110000000000000111000000001111
1111111111110000111111000000000011100000000000001111100000000111
1111111111100000111100000000000011100000000000011111110000001111
1111111111000000000000000000000011000000000000111111111000011111
1111111110000000000000000000000000000100000000011111111100111111
1111111100000000000000000000000000001110000000000111111111111111
1111111000000000000000000000000000001100000000000111111111111111
1111110000001000000000000000000000000000000110000011111111111111
1111100000001100000000000000000000000000001111000001111111111111
1111000000001110000000000000000000000000011111100000111111111111
1110000000001111000000000000000000000000111111110000111111111111
1100000010000111100000000000000000000001111111111001111111111111
1100000110000111000000000000000000000000111111111111111111111111
1110000011000110000000000000000000000000001111111111111111111111
1111000001001100000001100000000000110000001111111111111111111111
1111100001111000000011110000000001111000000111111111111111111111
1111110000010000000001100000000011111100000011111111111111111111
1111111000000000000000000000000111111110000001111111111111111111
1111111100000000000000000001111111111111000011111111111111111111
1111111110000000000000001111111111111111100111111111111111111111
1111111111000000000000000000111111111111101111111111111111111111
1111111111100000000000000001111111111111111111111111111111111111
1111111111110000000000000011111111111111111111111111111111111111
1111111111111000000000000011111111111111111111111111111111111111
1111111111111100000000000111111111111111111111111111111111111111
1111111111111110000000001111111111111111111111111111111111111111
1111111111111111111111111111111111111111111111111111111111111111
1111111111111111111111111111111111111111111111111111111111111111
1111111111111111111111111111111111111111111111111111111111111111
1111111111111111111111111111111111111111111111111111111111111111
1111111111111111111111111111111111111111111111111111111111111111
1111111111111111111111111111111111111111111111111111111111111111
1111111111111111111111111111111111111111111111111111111111111111
1111111111111111111111111111111111111111111111111111111111111111
1111111111111111111111111111111111111111111111111111111111111111
1111111111111111111111111111111111111111111111111111111111111111
1111111111111111111111111111111111111111111111111111111111111111
