﻿1111111111111111111111111111111111111111111111111111
1111111111111111111111111111111111111111111111111111
1111111111111111111111111111111111111111111111111111
1111111111111111111111111111111111111111111111111111
1111111111111111111111111111111111111111111111111111
1111111111111111111111111111111111111111111111111111
1111111111111111111111111111111111111111111111111111
1111111111111111111111111111111111111111111111111111
1111111111111111111111111111111111111111111111111111
1111111111111111111111111111111111111111111111111111
1111111111111111111111111111111111111111111111111111
1111111111111111111111111111101111111111111111111111
1111111111111111111111111111100111111111111111111111
1111111111111111111111111111100011111111111111111111
1111111111111111111111111111110001111111111111111111
1111111111111111111111111111110000111111111111111111
1111111111111111111111111111100000011011111111111111
1111111111111111111111111111000000000011111111111111
1111111111111111111111111110000000000011111111111111
1111111111111111111111111100000000000111111111111111
1111111111111111111111111000000100000001111111111111
1111111111111111111011110000001111000000001111111111
1111111111111111111000000011011111100000011111111111
1111111111111111111000000111001111100000011111111111
1111111111111111111100000111000011110000011111111111
1111111111111111111000000000011001110000001111111111
1111111111111111100000000000111000100000000111111111
1111111111111111100000011100111000000000000011111111
1111111111111111000000011110000011000000000001111111
1111111111111110000000001111000111000000000000111111
1111111111111000000000000111100111000000000000011111
1111111111100000000000000011110010000000000000011111
1111111111100000000000000001100000000000000000111111
1111111111100000000000000000000000000000000001111111
1111111111000000110000000000000000000000000011111111
1111111110000000111000000000000000000000000111111111
1111100000000000111000000000000000000000001111111111
1111000000000010011000000000000000000000011111111111
1110000000000110001000000000000000000000111111111111
1100000000000111000000000000000000000001111111111111
1100000000000011000000000000000000000011111111111111
1110000000000011000000000000000000000111111111111111
1111000000000000000000000000000000001111111111111111
1111100000000000000000000000000000011111111111111111
1111110000000000000000000000000000111111111111111111
1111111000000000000000000000000001111111111111111111
1111111100000000000000000000000011111111111111111111
1111111110000000000000000000000111111111111111111111
1111111111000000000000000000001111111111111111111111
1111111111100000000000000000011111111111111111111111
1111111111110000000000000000111111111111111111111111
1111111111111000000000000001111111111111111111111111
1111111111111100000000000011111111111111111111111111
1111111111111111111111111111111111111111111111111111
