﻿11111111111111111111111111111111111111111111111111111111
11111111111111111111111111111111111111111111111111111111
11111111111111111111111111111111111111111111111111111111
11111111111111111111111111111111111111111111111111111111
11111111111111111111111111111111111111111111111111111111
11111111111111111111111111111111111111111111111111111111
11111111111111111111111111111111111111111111111111111111
11111111111111111111111111111111111111111111111111111111
11111111111111111111111111111111111111111111111111111111
11111111111111111111111111111111111111111111111111111111
11111111111111111111111111111111111111111111111111111111
11111111111111111111111111111111111111111111111111111111
11111111111111111111111000000000001111111111111111111111
11111111111111111111000000000000000001111111111111111111
11111111111111111000001111111000000000011111111111111111
11111111111111111000011111111100000000011111111111111111
11111111111111111000011111111110000000111111111111111111
11111111111111110000111111110000000000011111111111111111
11111111111111111000111110000000000000000111111111111111
11111111111111111100111000000000000000000011111111111111
11111111111111111100001110000000000000000011111111111111
11111111111110011000000000000000000000000001111111111111
11111111111000000000000000000000000000000001111111111111
11111111110000000000000000000000000000000000111111111111
11111111100000000000000000000000000000000000000111111111
11111111100000000000000000000000000000000000000111111111
11111111100000000000000000011111111100000000000111111111
11111111100000000000000001111111111110000000000111111111
11111111110000000000001111111111111111000000000111111111
11111111111100000001111111111111111111000000000000111111
11111111111110000011111111111111111111000000000000111111
11111111111110000011111111111111111111100001110000111111
11111111111110000011111111111111111111100001111100111111
11111111110011000011111111111111111111110011111110111111
11111111100001000111111111111111111111110011111000111111
11111111100000000111111111111111111111110000011000111111
11100000000000000111111111111111111111110000000000011111
11100000000000000111111111111111111111110000000000001111
11100000000000000011111111111111111111000000000111000001
11100000000000000001111111111111111111000000000111000001
11100001100000000000111111111111111110000000000111000001
11110001100000000000011111111111111111000000000000000001
11110000000000000000001111111111111111000000000000000001
11110000000000000000000111111111111111000000000000000001
11110000000000000000000000111111111110000000000000000001
11110000000000000000000000001111111100000000000000000001
11110000000000000000000000000000000000000000000000000001
11111000000000000000000000000000000000000000000000000001
11111000000000000000000000000000000000000000000000000001
11111100000000000000000000000000000000000000000000000001
11111110000000000000000000000000000110000000000000000001
11111111000000000001100000000000000110000000000000000001
11111111100000000001100000000000000000000000000000000001
11111111110000000000000000000000000000000000000000000011
11111111111000000000000000000000000000000000000000000111
11111111111100000000000000000000000000000000000000111111
11111111111110000000000000000000000000000000000001111111
11111111111111100000000000000000000000000000000111111111
11111111111111111111111111111111111111111111111111111111
