﻿111111111111111111111111111111111111111111111111111111111111
111111111111111111111111111111111111111111111111111111111111
111111111111111111111111111111111111111111111111111111111111
111111111111111111111111111111111111111111111111111111111111
111111111111111111111111111111111111111111111111111111111111
111111111111111111111111111111111111111111111111111111111111
111111111111111111111111111111111111111111111111111111111111
111111111111111111111111111111111111111111111111111111111111
111111111111111111111111111111111111111111111111111111111111
111111111111111111111111111111111111111111111111111111111111
111111111111111111111111111111111111111111111111111111111111
111111111111111111111111111111111111111111111111111111111111
111111111111111111111111111111111111111111111111111111111111
111111111111111111111111111111111111111111111111111111111111
111111111111111111111111111111111111111111111111111100011111
111111111111111111111111111111111111111111111111110000111111
111111111111111111111111111111111111111111111111000000111111
111111111111111111111111111111111111111111111110000000011111
111111111111111111111111111111111111111111111100000000011111
111111111111111111111111111111111111111111111100000000011111
111111111111111111111111111111111111111111110000000000011111
111111111111111111111111111111111111111111000000000001111111
111111111111111111111111111111111111111110000000000001111111
111111111111111111111111111111111111111100000000000001111111
111111111111111111111111111111111111111000000000000001111111
111111111111111111111111111111111111110000000000000001111111
111111111111111111111111111111111111000000000000000001111111
111111111111111111111111111111111100000000000000000001111111
111111111111111111111111111111110000000000000000000011111111
111111111111111111111111111111000000000000000000000001111111
111111111111111111111111111100000000000000000000000011111111
111111111111111111111111100000000000000000000000000011111111
111111111111111111111110000000000000000000000000000011111111
111111111111111111111000000000000000000000000000000001111111
111111111111111111100000000000000000000000000000000001111111
111111111111111111100000000000000000111100000000000001111111
111111111111111111110000000000000001111110000000000001111111
111111111111111111111000000000000001111110000000000011111111
111111111111111111111111100000000001111110000000000011111111
111111111111111111111111110000000001111110000000000111111111
111111111111111111111111111000000000111100000000000111111111
111111111111111111111111111100000000000000000000000111111111
111111111111111111111111111111000000000000000000000111111111
111111111111111111111111111111000000000000000000000111111111
111111111111111111111111111110000000000000000000000111111111
111111111111111111111111111110000000000000000000001111111111
111111111111111111111111111100000000000000000000000111111111
111111111111111111111111111100000000000010000000000111111111
111111111111111111111111111110000000000111000000000111111111
111111111111111111111111111111100000001111011000000111111111
111111111111111111111111111111111000001111111000000111111111
111111111111111111111111111111111110011111111100000111111111
111111111111111111111111111111111111111111111111000111111111
111111111111111111111111111111111111111111111111111111111111
111111111111111111111111111111111111111111111111111111111111
111111111111111111111111111111111111111111111111111111111111
111111111111111111111111111111111111111111111111111111111111
111111111111111111111111111111111111111111111111111111111111
111111111111111111111111111111111111111111111111111111111111
111111111111111111111111111111111111111111111111111111111111
111111111111111111111111111111111111111111111111111111111111
111111111111111111111111111111111111111111111111111111111111
111111111111111111111111111111111111111111111111111111111111
111111111111111111111111111111111111111111111111111111111111
