﻿1111111111111111111111111111111111111111111111111111
1111111111111111111111111111111111111111111111111111
1111111111111111111111111111111111111111111111111111
1111111111111111111111111111111111111111111111111111
1111111111111111111111111111111111111111111111111111
1111111111111111111111111111111111111111111111111111
1111111111111111111111111111111111111111111111111111
1111111111111111111111111111111111111111111111111111
1111111111111111111111111111111111111111111111111111
1111111111111111111111111111111111111111111111111111
1111111111111111111111111111111111111111111111111111
1111111111111111111111111111111111111111111111111111
1111111111111111111111111111111111111111111111111111
1111111111111111111111111111111111111111111111111111
1111111111111111111111111111111111111111111111111111
1111111111111111111111111111111111111111111111111111
1111111111111111111111111111011110011111111111111111
1111111111111111111111111110001100000111111111111111
1111111111111111111111111100000000000011111111111111
1111111111111111111111111100000000000001111111111111
1111111111111111111111111000000011000000111111111111
1111111111111111111111100000000111110000011111111111
1111111111111111111111000000000111111100001111111111
1111111111111111111110000000000111111100011111111111
1111111111111111111111000000000111100000111111111111
1111111111111111111111100000000010000001111111111111
1111111111111111111111110000000000000001111111111111
1111111111111111100111111000000000000001111111111111
1111111111111111000011111000000000000000111111111111
1111111111111110000001111000000000000000011111111111
1111111111111111000001110000000000000000001111111111
1111111111111111100000000000000000000000011111111111
1111111111111111110000000000000000000000111111111111
1111111111111111111000000000000000000001111111111111
1111111111110111111000000000000000000011111111111111
1111111101100011111000000000000000000111111111111111
1111111000000001110000000000000000001111111111111111
1111110000000000000000000000000000011111111111111111
1111110000000000000001100000000000111111111111111111
1111111000000000000011100000000001111111111111111111
1111111100000000000110000000000011111111111111111111
1111111110000000001100000000000111111111111111111111
1111111111000000011000000000001111111111111111111111
1111111111100000110000000000011111111111111111111111
1111111111110001100000000000111111111111111111111111
1111111111111011000000000001111111111111111111111111
1111111111111110000000000011111111111111111111111111
1111111111111110000000000111111111111111111111111111
1111111111111111000000001111111111111111111111111111
1111111111111111100000011111111111111111111111111111
1111111111111111110000111111111111111111111111111111
1111111111111111111001111111111111111111111111111111
1111111111111111111111111111111111111111111111111111
1111111111111111111111111111111111111111111111111111
