﻿1111111111111111111111111111111111111111111111111111
1111111111111111111111111111111111111111111111111111
1111111111111111111111111111111111111111111111111111
1111111111111111111111111111111111111111111111111111
1111111111111111111111111111111111111111111111111111
1111111111111111111111111111111111111111111111111111
1111111111111111111111111111111111111111111111111111
1111111111111111111111111111111111111111111111111111
1111111111111111111111111111111111111111111111111111
1111111111111111111111111111111111111111111111111111
1111111111111111111111111111111111111111111111111111
1111111111111111111111111111111111111111111111111111
1111111111111111111111111111111111111111111111111111
1111111111111111111111111111101111111111111111111111
1111111111111111111111111111000001111111111111111111
1111111111111111111111111110000000111111111111111111
1111111111111111111111111100000000111111111111111111
1111111111111111111111111100000001111111111111111111
1111111111111111111111110000000011111111111111111111
1111111111111111111111110000000001111111111111111111
1111111111111111111111100000001100111110111111111111
1111111111111111111111000000001100011100011111111111
1111111111111111111111000000000000111000000011111111
1111111111111111111111000000000001110000000001111111
1111111111111111111110000000000000110000000000111111
1111111111111111111100000000000000000000000000111111
1111111111111111111000000011000000000000000001111111
1111111111111110110000000111100000000000000011111111
1111111111111110000000000000000000000000000111111111
1111111111110100000001110111000000000000001111111111
1111111111110000000001110111000000000000011111111111
1111111111100000000000000010000000000000111111111111
1111111110000000000000000000100000000001111111111111
1111111100000000000000000011100000000011111111111111
1111111000000000000000000011000000000111111111111111
1111110000000110000000000000000000001111111111111111
1111111000001110000000000000000000011111111111111111
1111111100011111000000000000000000111111111111111111
1111111110111111100000000000000001111111111111111111
1111111111111111110000000000000011111111111111111111
1111111111111111111000000000000111111111111111111111
1111111111111111111000000000001111111111111111111111
1111111111111111111000000000011111111111111111111111
1111111111111111110000000000111111111111111111111111
1111111111111111100000000001111111111111111111111111
1111111111111111000000000011111111111111111111111111
1111111111111111100000000111111111111111111111111111
1111111111111111110000001111111111111111111111111111
1111111111111111111000011111111111111111111111111111
1111111111111111111111111111111111111111111111111111
1111111111111111111111111111111111111111111111111111
1111111111111111111111111111111111111111111111111111
1111111111111111111111111111111111111111111111111111
1111111111111111111111111111111111111111111111111111
