﻿1111111111111111111111111111111111111111111111111111111111111111
1111111111111111111111111111111111111111111111111111111111111111
1111111111111111111111111111111111111111111111111111111111111111
1111111111111111111111111111111111111111111111111111111111111111
1111111111111111111111111111111111111111111111111111111111111111
1111111111111111111111111111111111111111111111111111111111111111
1111111111111111111111111111111111111111111111111111111111111111
1111111111111111111111111111111111111111111111111111111111111111
1111111111111111111111111111111111111111111111111111111111111111
1111111111111111111111111111111111110111111111111111111111111111
1111111111111111111111111111111111100011111111111111111111111111
1111111111111111111111111111111111000001111111111111111111111111
1111111111111111111111111111111110000000111111111111111111111111
1111111111111111111111111111111100000000011111111111111111111111
1111111111111111111111111111111000000000001111111111111111111111
1111111111111111111111111111110000000000000111111111111111111111
1111111111111111111111111111100000000000000111111111111111111111
1111111111111111111111111111000011000000001101111111111111111111
1111111111111111111111111110000001100000011000111111111111111111
1111111111111111111111111000000000110000110000011111111111111111
1111111111111111111111111000000000011001100000001111111111111111
1111111111111111111111111000000000001111000000000111111111111111
1111111111111111111111111100000000000110000000000001111111111111
1111111111111111111111111110000000000000000000000000111110111111
1111111111111111111111111111000000000000000000000000000000011111
1111111111111111111111111111100000000000000000000000000000001111
1111111111111111111111111111110000000000000000000000000000000111
1111111111111111111111111101111000000000000000000000000000000011
1111111111111111111011111000111100000000000000000011000000000001
1111111111111111110001110000011110000000000000001111100000000001
1111111111111111110000000000001111000000000000111111110000000001
1111111111111111111000000000000110000000000000111111111000000011
1111111111111111111100000000000000000000000000011111111100000111
1111111111111111111100000000000000001000000000001111111110001111
1111111111110011110000000000000000011100000000000111111111011111
1111111111100001100000000000010000011110000000000011111111111111
1111111111100000000000000000110000001111000000000001111111111111
1111111111110000000000000001111000000111100000000000111111111111
1111101111111000000000000011111100000011110000000000011111111111
1111000111111000000000000111111100000001111000000000001111111111
1110000011110000000000001111111100000000011100000000011111111111
1110000001100000000000001111111000000000111111000000111111111111
1111000000000000000000011111110000000001111111100001111111111111
1111100000000000000010011111100000000011111111110011111111111111
1111110000000000000111001100000000000011111111111111111111111111
1111111000000000001111100000000000000011111111111111111111111111
1111111100000000011111110000000000000001111111111111111111111111
1111111110000000111111110000000000110000111111111111111111111111
1111111111000000011111100000000001111000011111111111111111111111
1111111111100000001111000000000011111100001111111111111111111111
1111111111110000000110000000000111111110000111111111111111111111
1111111111111000000000000000000011111111001111111111111111111111
1111111111111100000000000000000001111111111111111111111111111111
1111111111111110000000000001100000111111111111111111111111111111
1111111111111111000000000011110000011111111111111111111111111111
1111111111111111100000000111111000001111111111111111111111111111
1111111111111111110000001111111100000111111111111111111111111111
1111111111111111111000000111111110001111111111111111111111111111
1111111111111111111100000011111111011111111111111111111111111111
1111111111111111111110000001111111111111111111111111111111111111
1111111111111111111111000000111111111111111111111111111111111111
1111111111111111111111100000011111111111111111111111111111111111
1111111111111111111111110000001111111111111111111111111111111111
1111111111111111111111111111111111111111111111111111111111111111
