﻿1111111111111111111111111111111111111111111111111111
1111111111111111111111111111111111111111111111111111
1111111111111111111111111111111111111111111111111111
1111111111111111111111111111111111111111111111111111
1111111111111111111111111111111111111111111111111111
1111111111111111111111111111111111111111111111111111
1111111111111111111111111111111111111111111111111111
1111111111111111111111111111111111111111111111111111
1111111111111111111111111111111111111111111111111111
1111111111111111111111111111111111111111111111111111
1111111111111111111111111111111111111111111111111111
1111111111111111111111111111111111111111111111111111
1111111111111111111111111111111111111111111111111111
1111111111111111111111111111111111111111111111111111
1111111111111111111111111111111011111111111111111111
1111111111111111111111111110010001111111111111111111
1111111111111111111111111110000011111111111111111111
1111111111111111111111111111000011101111111111111111
1111111111111111111111111111000011000001111111111111
1111111111111111111111111100000000000001111111111111
1111111111111111111111111000000000000001111111111111
1111111111111111111111110000000000000001101111111111
1111111111111111111111100000000000000000000111111111
1111111111111111111111000000000000000000000011111111
1111111111111111111100000111000000000000000001111111
1111111111001111111000001111100000000000000000111111
1111111110000110000000011111110000000000000000011111
1111111100000100000000111111100000000000000000111111
1111111000000110000001111111000000000000000001111111
1111110000000010000011111110000000000000000011111111
1111111000000011000111111100000000000000000111111111
1111111000000001001111111000000000000000001111111111
1111111100000001000111100000000000000000011111111111
1111111100000001100011000000000000000000111111111111
1111111110000000100010000000000000000001111111111111
1111111110000000100000000000000000000011111111111111
1111111111000000000000000000000000000111111111111111
1111111111000000000000000000000000001111111111111111
1111111111100000000000000000000000011111111111111111
1111111111100000000000000000000000111111111111111111
1111111111000000000000000000000001111111111111111111
1111111110000000000000000000000011111111111111111111
1111111100000000000000000000000111111111111111111111
1111111100000000000000000000001111111111111111111111
1111111110000000000000000000011111111111111111111111
1111111111000000000000000000111111111111111111111111
1111111111100000000000000001111111111111111111111111
1111111111110000000000000011111111111111111111111111
1111111111111000000000000111111111111111111111111111
1111111111111100000000001111111111111111111111111111
1111111111111110000000011111111111111111111111111111
1111111111111111000000111111111111111111111111111111
1111111111111111100001111111111111111111111111111111
1111111111111111111111111111111111111111111111111111
