﻿1111111111111111111111111111111111111111111111111111111111111111111111111111111111111111111111111111
1111111111111111111111111111111111111111111111111111111111111111111111111111111111111111111111111111
1111111111111111111111111111111111111111111111111111111111111111111111111111111111111111111111111111
1111111111111111111111111111111111111111111111111111111111111111111111111111111111111111111111111111
1111111111111111111111111111111111111111111111111111111111111111111111111111111111111111111111111111
1111111111111111111111111111111111111111111111111111111111111111111111111111111111111111111111111111
1111111111111111111111111111111111111111111111111111111111111111111111111111111111111111111111111111
1111111111111111111111111111111111111111111111111111111111111111111111111111111111111111111111111111
1111111111111111111111111111111111111111111111110001111111111111111111111111111111111111111111111111
1111111111111111111111111111111111111111111111110001000011111111111111111111000001111111111111111111
1111111111111111111111111111111111111111111111110001000000111111111111111110000000111111111111111111
1111111111111111111111111111111111111110011111110001111100111111111111111100000000111111111111111111
1111111111111111111111111111111111111000111111110001111100000111111111111001100001111111111111111111
1111111111111111111111111111111111110000111111110001000000000111111111110001110000111111111111111111
1111111111111111111111111111111000000000000000000001100000000111111111100100111000011111111111111111
1111111111111111111111111111111000000000000000000000111100000011111111100110011100001110111111111111
1111111111111111111111111111111000000000000111110000000000000001111111110011000000000000001111111111
1111111111111111111111111111111000000000000111110000000000000000111111111001110001100000001111111111
1111111111111111111111111111111000000000000111110000000000000000011111111100000001110000001111111111
1111111111111111111111111111111000000011111111110000000000000100001111111111000100111000011111111111
1111111111111111111111111111111000011111111111110000000000000110000111111100000110011000111111111111
1111111111111111111111111111111111111111111111110000000000000111000011111100000011000001111111111111
1111111111111111111111111111111111111111111111111111111111111111100001111100000001100011111111111111
1111111111111111111111111111111111111111111111111111111111111111110000111100010000000111111111111111
1111111111110110111111111111111111111111111111111111111111111111111000011000111000011111111111111111
1111100111100000000111111111111111111111111111111111111111111111111100000001111110111111111111111111
1111100000000000000001111111111111111111111111111111111111111111111110000001111111111111111111111111
1111000000000001100000111111111111111111111111111111111111111111111111000001111111111111111101111111
1111000011100001110000111111111111111111111111111111111111111111111111100000111111111111110000111111
1110000000000011110001111111111111111111111111111111111111111111111111110000011111111111000001111111
1110000000000011100001111111111111111111100000111111111011111111111111111000001111111100000111111111
1100000000000111100001111111111111111110000000001111111001111111111111111100000111110000011111111111
1110000000000111100011111111111111111000000000000001111100011111111111111110000011100001111111111111
1111100000000011000011111111111111100011100000000001111100001111111111111111000000000011111111111111
1111111100000000000111111111111111000011111110000001111100000111111111111111100000001111111111111111
1111111100011111000111111111111110000000001111000011111100000011111111111111111000001111111111111111
1111111100111111111111111111111110000000000001110011111000000001111111111111111000001111111111111111
1111110000111111111111111111111111001100000000010011111000000000111111111111111000001111111111111111
1111110000111111111111111111111111001111100000000111110000000000011011111111111000001111111111111111
1111110000011111111111111111111110000011111100000111110011111000000011111111111000011111111111110011
1111110000011111111111111111111110011000011111001100000111111100110001111111111000011111111111100001
1111110000011111111111111111111100011111000011001000000000110001111001111111111110011111111111100001
1111110000011111111111111111110000001111111000011000000000000011111000111111111000001111111111100001
1111110000011111111111111111100000000001111000011000000000000111111000111111111000001111111111000001
1111110000011111111111111111100000000000000000000000000000000011111000111111111111000000111100000001
1111110000011111111111111111100011100000000000000000000000000011110000111111111111000000111100000001
1111110000011111111111111111100011111100000000000000111111100000000000111111111111000000111100000001
1111110000001111111111111111100011001111100001000011111111110000010000111111111111000000111100000001
1111110000001111111111111111100000000011111011000111111111111001111110111111111111000000000000000001
1111110000001111111111111111100000000000110010000100111110011111111100111111111111000000000000000001
1111110000001111111111111111110000000000000010000100111110011111111000111111111111000000000000000011
1111110000001111111111111111111000000000000110000100111100011111111000111111111000000000000000000011
1111111000001111111111111111111111000000000100000000000000111111100001111111111000000000000000000011
1111111000000111111111111111111111111100001100000000000001110000000001111111110000111110000000000111
1111111000000111111111111111111111111111001000000000000111100000000001111111110001111111110000000111
1111111000000111111111111111111111111111111000000000000000000000000011111111100011111111111100000111
1111111000000111111111111111111111111111110000000000000000000000000011111111000011111111111111001111
1111111100000111111111111111111111111111110000000000000000000000000001111111000011111111111111111111
1111111100000011111111111111111111111111100000000000000000000000010000111111000011111111111111111111
1111111100000001111111111111111111111111111110000000000000000000111000011110000011111111111111111111
1111111100000001111111111111111111111111111111110000000000000001111100000110000001111111111111111111
1111111110000000111111111111111111111111111111111100000000000111111110000000011111100011111111111111
1111111110000000011111111111111111111111111111111100000010001111111111100000011111000001111111111111
1111111111000000001111111111111111111111111111111111111110011111111111111000000000000011111111111111
1111111111100000000111111111111111111111111111111111111110001111111111111111100000000111111111111111
1111111111110000000011111111111111111111111111111111111111000111111111111111111000001111111111111111
1111111111110000000001111111111111111111111111111111111111000011111111111111111110011111111111111111
1111111111111000000000011110111111111111111111111111111111000011111111111111111111111111111111111111
1111111111111100000000000110000001111111111111111111111111000011111111111111111111111111111111111111
1111111111111110000000000000000000001111111111111111111111000011111111111111111111111111111111111111
1111111111111111000000000000000000000000110011111111111111000011111111111111111111111111111111111111
1111111111111111100000000000000000000000000011111111111111000011111111111111111111111111111111111111
1111111111111111111000000000000111000000000011111111111110000011111111111111111111111111111111111111
1111111111111111111100000000111111000000000011111111111100000111111111111111111111111111111111111111
1111111111111111111110000000011111100000000011111111110000001111111111111111111111111111111111111111
1111111111111111111111000000001111111100000000000000000000011111111111111111111111111111111111111111
1111111111111111111111100001000011111100100000000000000001111111111111111111111111111111111111111111
1111111111111111111111100011100111111101110000000000011111111111111111111111111111111111111111111111
1111111111111111111001000011001111111101111000000011111111111111111111111111111111111111111111111111
1111111111111111110000000001111111111111110001111111111111111111111111111111111111111111111111111111
1111111111111111100000000000000111111111110001111111111111111111111111111111111111111111111111111111
1111111111111111111000000000000000011111100001111111111111111111111111111111111111111111111111111111
1111111111111111111111000000000000000111100001111111111111111111111111111111111111111111111111111111
1111111111111111111111111000000000000000100001111111111111111111111111111111111111111111111111111111
1111111111111111111111111111100000000000000001111111111111111111111111111111111111111111111111111111
1111111111111111111111111111111111111111111111111111111111111111111111111111111111111111111111111111
