1111111111111111111111111111111111111111111111111111111111111111111111111111111111111111111111111111111111111111111111111111111111111111111111111111111111111111111111111111111111111111111111111111111111111111111111111111111111111111111111111111111111111111111111111111111111111111111
1111111111111111111111111111111111111111111111111111111111111111111111111111111111111111111111111111111111111111111111111111111111111111111111111111111111111111111111111111111111111111111111111111111111111111111111111111111111111111111111111111111111111111111111111111111111111111111
1111111111111111111111111111111111111111111111111111111111111111111111111111111111111111111111111111111111111111111111111111111111111111111111111111111111111111111111111111111111111111111111111111111111111111111111111111111111111111111111111111111111111111111111111111111111111111111
1111111111111111111111111111111111111111111111111111111111111111111111111111111111111111111100000000000001110000000000000111000000000000011111111111111111111111111111111111111111111111111111111111111111111111111111111111111111111111111111111111111111111111111111111111111111111111111
1111111111111111111111111111111111111111111111111111111111111111111111111111111111111111111000000000000000000000000000000000000000000000001111111111111111111111111111111111111111111111111111111111111111111111111111111111111111111111111111111111111111111111111111111111111111111111111
1111111111111111111111111111111111111111111111111111111111111111111111111111111111111111111000000000000000000000000000000000000000000000001111111111111111111111111111111111111111111111111111111111111111111111111111111111111111111111111111111111111111111111111111111111111111111111111
1111111111111111111111111111111111111111111111111111111111111111111111111111111111111111111000000000000000000000000000000000000000000000001111111111111111111111111111111111111111111111111111111111111111111111111111111111111111111111111111111111111111111111111111111111111111111111111
1111111111111111111111111111111111111111111111111111111111111111111111111111111111111111111000000000000000000000000000000000000000000000001111111111111111111111111111111111111111111111111111111111111111111111111111111111111111111111111111111111111111111111111111111111111111111111111
1111111111111111111111111111111111111111111111111111111111111111111111111111111111111111111000000000000000000000000000000000000000000000001111111111111111111111111111111111111111111111111111111111111111111111111111111111111111111111111111111111111111111111111111111111111111111111111
1111111111111111111111111111111111111111111111111111111111111111111111111111111111111111111000000000000000000000000000000000000000000000001111111111111111111111111111111111111111111111111111111111111111111111111111111111111111111111111111111111111111111111111111111111111111111111111
1111111111111111111111111111111111111111111111111111111111111111111111111111111111111111111000000000000000000000000000000000000000000000001111111111111111111111111111111111111111111111111111111111111111111111111111111111111111111111111111111111111111111111111111111111111111111111111
1111111111111111111111111111111111111111111111111111111111111111111111111111111111111111111000000000000000000000000000000000000000000000001111111111111111111111111111111111111111111111111111111111111111111111111111111111111111111111111111111111111111111111111111111111111111111111111
1111111111111111111111111111111111111111111111111111111111111111111111111111111111111111111000000000000000000000000000000000000000000000001111111111111111111111111111111111111111111111111111111111111111111111111111111111111111111111111111111111111111111111111111111111111111111111111
1111111111111111111111111111111111111111111111111111111111111111111111111111111111111111111000000000000000000000000000000000000000000000001111111111111111111111111111111111111111111111111111111111111111111111111111111111111111111111111111111111111111111111111111111111111111111111111
1111111111111111111111111111111111111111111111111111111111111111111111111111111111111111111000000000000000000000000000000000000000000000001111111111111111111111111111111111111111111111111111111111111111111111111111111111111111111111111111111111111111111111111111111111111111111111111
1111111111111111111111111111111111111111111111111111111111111111111111111111111111111111111000000000000000000000000000000000000000000000001111111111111111111111111111111111111111111111111111111111111111111111111111111111111111111111111111111111111111111111111111111111111111111111111
1111111111111111111111111111111111111111111111111111111111111111111111111111111111111111111100000000000001110000000000000111000000000000011111111111111111111111111111111111111111111111111111111111111111111111111111111111111111111111111111111111111111111111111111111111111111111111111
1111111111111111111111111111111111111111111111111111111111111111111111111111111111111111111111111111111111111111111111111111000000000000111111111111111111111111111111111111111111111111111111111111111111111111111111111111111111111111111111111111111111111111111111111111111111111111111
1111111111111111111111111111111111111111111111111111111111111111111111111111111111111111111111111111111111111111111111111111000000000000111111111111111111111111111111111111111111111111111111111111111111111111111111111111111111111111111111111111111111111111111111111111111111111111111
1111111111111111111111111111111111111111111111111111111111111111111111111111111111111111111111111111111111111111111111111111000000000000011111111111111111111111111111111111111111111111111111111111111111111111111111111111111111111111111111111111111111111111111111111111111111111111111
1111111111111111111111111111111111111111111111111111111111111111111111111111111111111111111111111111111111111111111111111110000000000000001111111111111111111111111111111111111111111111111111111111111111111111111111111111111111111111111111111111111111111111111111111111111111111111111
1111111111111111111111111111111111111111111111111111111111111111111111111111111111111111111111111111111111111111111111111110000000000000001111111111111111111111111111111111111111111111111111111111111111111111111111111111111111111111111111111111111111111111111111111111111111111111111
1111111111111111111111111111111111111111111111111111111111111111111111111111111111111111111111111111111111111111111111111110000000000000001111111111111111111111111111111111111111111111111111111111111111111111111111111111111111111111111111111111111111111111111111111111111111111111111
1111111111111111111111111111111111111111111111111111111111111111111111111111111111111111111111111111111111111111111111111110000000000000001111111111111111111111111111111111111111111111111111111111111111111111111111111111111111111111111111111111111111111111111111111111111111111111111
1111111111111111111111111111111111111111111111111111111111111111111111111111111111111111111111111111111111111111111111111110000000000000001111111111111111111111111111111111111111111111111111111111111111111111111111111111111111111111111111111111111111111111111111111111111111111111111
1111111111111111111111111111111111111111111111111111111111111111111111111111111111111111111111111111111111111111111111111110000000000000001111111111111111111111111111111111111111111111111111111111111111111111111111111111111111111111111111111111111111111111111111111111111111111111111
1111111111111111111111111111111111111111111111111111111111111111111111111111111111111111111111111111111111111111111111111110000000000000001111111111111111111111111111111111111111111111111111111111111111111111111111111111111111111111111111111111111111111111111111111111111111111111111
1111111111111111111111111111111111111111111111111111111111111111111111111111111111111111111111111111111111111111111111111110000000000000001111111111111111111111111111111111111111111111111111111111111111111111111111111111111111111111111111111111111111111111111111111111111111111111111
1111111111111111111111111111111111111111111111111111111111111111111111111111111111111111111111111111111111111111111111111110000000000000001111111111111111111111111111111111111111111111111111111111111111111111111111111111111111111111111111111111111111111111111111111111111111111111111
1111111111111111111111111111111111111111111111111111111111111111111111111111111111111111111111111111111111111111111111111110000000000000001111111111111111111111111111111111111111111111111111111111111111111111111111111111111111111111111111111111111111111111111111111111111111111111111
1111111111111111111111111111111111111111111111111111111111111111111111111111111111111111111111111111111111111111111111111110000000000000001111111111111111111111111111111111111111111111111111111111111111111111111111111111111111111111111111111111111111111111111111111111111111111111111
1111111111111111111111111111111111111111111111111111111111111111111111111111111111111111111111111111111111111111111111111110000000000000001111111111111111111111111111111111111111111111111111111111111111111111111111111111111111111111111111111111111111111111111111111111111111111111111
1111111111111111111111111111111111111111111111111111111111111111111111111111111111111111111111111111111111111111111111111111000000000000011111111111111111111111111111111111111111111111111111111111111111111111111111111111111111111111111111111111111111111111111111111111111111111111111
1111111111111111111111111111111111111111111111111111111111111111111111111111111111111111111111111111111111111111111111111111111100000111111111111111111111111111111111111111111111111111111111111111111111111111111111111111111111111111111111111111111111111111111111111111111111111111111
1111111111111111111111111111111111111111111111111111111111111111111111111111111111111111111111111111111111111111111111111111111100000111111111111111111111111111111111111111111111111111111111111111111111111111111111111111111111111111111111111111111111111111111111111111111111111111111
1111111111111111111111111111111111111111111111111111111111111111111111111111111111111111111100000000000001110000000000000111000000000000011100000000000001110000000000000111111111111111111111111111111111111111111111111111111111111111111111111111111111110000000000000111000000000000011
1111111111111111111111111111111111111111111111111111111111111111111111111111111111111111111000000000000000000000000000000000000000000000000000000000000000000000000000000011111111111111111111111111111111111111111111111111111111111111111111111111111111100000000000000000000000000000001
1111111111111111111111111111111111111111111111111111111111111111111111111111111111111111111000000000000000000000000000000000000000000000000000000000000000000000000000000011111111111111111111111111111111111111111111111111111111111111111111111111111111100000000000000000000000000000001
1111111111111111111111111111111111111111111111111111111111111111111111111111111111111111111000000000000000000000000000000000000000000000000000000000000000000000000000000011111111111111111111111111111111111111111111111111111111111111111111111111111111100000000000000000000000000000001
1111111111111111111111111111111111111111111111111111111111111111111111111111111111111111111000000000000000000000000000000000000000000000000000000000000000000000000000000011111111111111111111111111111111111111111111111111111111111111111111111111111111100000000000000000000000000000001
1111111111111111111111111111111111111111111111111111111111111111111111111111111111111111111000000000000000000000000000000000000000000000000000000000000000000000000000000011111111111111111111111111111111111111111111111111111111111111111111111111111111100000000000000000000000000000001
1111111111111111111111111111111111111111111111111111111111111111111111111111111111111111111000000000000000000000000000000000000000000000000000000000000000000000000000000011111111111111111111111111111111111111111111111111111111111111111111111111111111100000000000000000000000000000001
1111111111111111111111111111111111111111111111111111111111111111111111111111111111111111111000000000000000000000000000000000000000000000000000000000000000000000000000000011111111111111111111111111111111111111111111111111111111111111111111111111111111100000000000000000000000000000001
1111111111111111111111111111111111111111111111111111111111111111111111111111111111111111111000000000000000000000000000000000000000000000000000000000000000000000000000000011111111111111111111111111111111111111111111111111111111111111111111111111111111100000000000000000000000000000001
1111111111111111111111111111111111111111111111111111111111111111111111111111111111111111111000000000000000000000000000000000000000000000000000000000000000000000000000000011111111111111111111111111111111111111111111111111111111111111111111111111111111100000000000000000000000000000001
1111111111111111111111111111111111111111111111111111111111111111111111111111111111111111111000000000000000000000000000000000000000000000000000000000000000000000000000000011111111111111111111111111111111111111111111111111111111111111111111111111111111100000000000000000000000000000001
1111111111111111111111111111111111111111111111111111111111111111111111111111111111111111111000000000000000000000000000000000000000000000000000000000000000000000000000000011111111111111111111111111111111111111111111111111111111111111111111111111111111100000000000000000000000000000001
1111111111111111111111111111111111111111111111111111111111111111111111111111111111111111111000000000000000000000000000000000000000000000000000000000000000000000000000000011111111111111111111111111111111111111111111111111111111111111111111111111111111100000000000000000000000000000001
1111111111111111111111111111111111111111111111111111111111111111111111111111111111111111111100000000000001110000000000000111000000000000011100000000000001110000000000000111111111111111111111111111111111111111111111111111111111111111111111111111111111110000000000000000000000000000011
1111111111111111111111111111111111111111111111111111111111111111111111111111111111111111111110000000000011111000000000001111100000000000111110000000000011111000000000001111111111111111111111111111111111111111111111111111111111111111111111111111111111110000000000000000000000000000111
1111111111111111111111111111111111111111111111111111111111111111111111111111111111111111111110000000000011111000000000001111100000000000111110000000000011111000000000001111111111111111111111111111111111111111111111111111111111111111111111111111111111110000000000000000000000000000111
1111111111111111111111111111111111111111111111111111111111111111111111111111000000000000011100000000000001110000000000000111000000000000011100000000000001110000000000000111000000000000011111111111111111111111111111111111111111111111111100000000000001110000000000000000000000000000011
1111111111111111111111111111111111111111111111111111111111111111111111111110000000000000000000000000000000000000000000000000000000000000000000000000000000000000000000000000000000000000001111111111111111111111111111111111111111111111111000000000000000000000000000000000000000000000001
1111111111111111111111111111111111111111111111111111111111111111111111111110000000000000000000000000000000000000000000000000000000000000000000000000000000000000000000000000000000000000001111111111111111111111111111111111111111111111111000000000000000000000000000000000000000000000001
1111111111111111111111111111111111111111111111111111111111111111111111111110000000000000000000000000000000000000000000000000000000000000000000000000000000000000000000000000000000000000001111111111111111111111111111111111111111111111111000000000000000000000000000000000000000000000001
1111111111111111111111111111111111111111111111111111111111111111111111111110000000000000000000000000000000000000000000000000000000000000000000000000000000000000000000000000000000000000001111111111111111111111111111111111111111111111111000000000000000000000000000000000000000000000001
1111111111111111111111111111111111111111111111111111111111111111111111111110000000000000000000000000000000000000000000000000000000000000000000000000000000000000000000000000000000000000001111111111111111111111111111111111111111111111111000000000000000000000000000000000000000000000001
1111111111111111111111111111111111111111111111111111111111111111111111111110000000000000000000000000000000000000000000000000000000000000000000000000000000000000000000000000000000000000001111111111111111111111111111111111111111111111111000000000000000000000000000000000000000000000001
1111111111111111111111111111111111111111111111111111111111111111111111111110000000000000000000000000000000000000000000000000000000000000000000000000000000000000000000000000000000000000001111111111111111111111111111111111111111111111111000000000000000000000000000000000000000000000001
1111111111111111111111111111111111111111111111111111111111111111111111111110000000000000000000000000000000000000000000000000000000000000000000000000000000000000000000000000000000000000001111111111111111111111111111111111111111111111111000000000000000000000000000000000000000000000001
1111111111111111111111111111111111111111111111111111111111111111111111111110000000000000000000000000000000000000000000000000000000000000000000000000000000000000000000000000000000000000001111111111111111111111111111111111111111111111111000000000000000000000000000000000000000000000001
1111111111111111111111111111111111111111111111111111111111111111111111111110000000000000000000000000000000000000000000000000000000000000000000000000000000000000000000000000000000000000001111111111111111111111111111111111111111111111111000000000000000000000000000000000000000000000001
1111111111111111111111111111111111111111111111111111111111111111111111111110000000000000000000000000000000000000000000000000000000000000000000000000000000000000000000000000000000000000001111111111111111111111111111111111111111111111111000000000000000000000000000000000000000000000001
1111111111111111111111111111111111111111111111111111111111111111111111111110000000000000000000000000000000000000000000000000000000000000000000000000000000000000000000000000000000000000001111111111111111111111111111111111111111111111111000000000000000000000000000000000000000000000001
1111111111111111111111111111111111111111111111111111111111111111111111111111000000000000011100000000000001110000000000000111000000000000011100000000000001110000000000000111000000000000011111111111111111111111111111111111111111111111111100000000000000000000000000000000000000000000011
1111111111111111111111111111111111111111111111111111111111111111111111111111100000000000111110000000000011111111111111111111111111111111111111111111111111111000000000001111100000000000111111111111111111111111111111111111111111111111111100000000000000000000000000000000000000000000111
1111111111111111111111111111111111111111111111111111111111111111111111111111100000000000111110000000000011111000000000001111100000000000111110000000000011111000000000001111100000000000111111111111111111111111111111111111111111111111111100000000000000000000000000000000000000000000111
1111111111111111111111111111111111111111111111111111111111111111111111111111000000000000011100000000000001110000000000001111000000000000111100000000000011110000000000000111000000000000011100000000000001111111111111111111111111111111111100000000000000000000000000000000000000000000011
1111111111111111111111111111111111111111111111111111111111111111111111111110000000000000000000000000000001100000000000000000000000000000000000000000000000110000000000000000000000000000000000000000000000111111111111111111111111111111111000000000000000000000000000000000000000000000001
1111111111111111111111111111111111111111111111111111111111111111111111111110000000000000000000000000000001100000000000000000000000000000000000000000000000110000000000000000000000000000000000000000000000111111111111111111111111111111111000000000000000000000000000000000000000000000001
1111111111111111111111111111111111111111111111111111111111111111111111111110000000000000000000000000000001100000000000000000000000000000000000000000000000110000000000000000000000000000000000000000000000111111111111111111111111111111111000000000000000000000000000000000000000000000001
1111111111111111111111111111111111111111111111111111111111111111111111111110000000000000000000000000000001100000000000000000000000000000000000000000000000110000000000000000000000000000000000000000000000111111111111111111111111111111111000000000000000000000000000000000000000000000001
1111111111111111111111111111111111111111111111111111111111111111111111111110000000000000000000000000000001100000000000000000000000000000000000000000000000110000000000000000000000000000000000000000000000111111111111111111111111111111111000000000000000000000000000000000000000000000001
1111111111111111111111111111111111111111111111111111111111111111111111111110000000000000000000000000000001100000000000000000000000000000000000000000000000110000000000000000000000000000000000000000000000111111111111111111111111111111111000000000000000000000000000000000000000000000001
1111111111111111111111111111111111111111111111111111111111111111111111111110000000000000000000000000000001100000000000000000000000000000000000000000000000110000000000000000000000000000000000000000000000111111111111111111111111111111111000000000000000000000000000000000000000000000001
1111111111111111111111111111111111111111111111111111111111111111111111111110000000000000000000000000000001100000000000000000000000000000000000000000000000110000000000000000000000000000000000000000000000111111111111111111111111111111111000000000000000000000000000000000000000000000001
1111111111111111111111111111111111111111111111111111111111111111111111111110000000000000000000000000000001100000000000000000000000000000000000000000000000110000000000000000000000000000000000000000000000111111111111111111111111111111111000000000000000000000000000000000000000000000001
1111111111111111111111111111111111111111111111111111111111111111111111111110000000000000000000000000000001100000000000000000000000000000000000000000000000110000000000000000000000000000000000000000000000111111111111111111111111111111111000000000000000000000000000000000000000000000001
1111111111111111111111111111111111111111111111111111111111111111111111111110000000000000000000000000000001100000000000000000000000000000000000000000000000110000000000000000000000000000000000000000000000111111111111111111111111111111111000000000000000000000000000000000000000000000001
1111111111111111111111111111111111111111111111111111111111111111111111111110000000000000000000000000000001100000000000000000000000000000000000000000000000110000000000000000000000000000000000000000000000111111111111111111111111111111111000000000000000000000000000000000000000000000001
1111111111111111111111111111111111111111111111111111111111111111111111111111100000000000111110000000000011110000000000000111000000000000011100000000000001111000000000001111100000000000111110000000000011111111111111111111111111111111111100000000000001110000000000000111000000000000011
1111111111111111111111111111111111111111111111111111111111111111111111111111100000000000111110000000000011111000000000001111100000000000111110000000000011111111111111111111111111111111111110000000000011111111111111111111111111111111111111111111111111110000000000001111111111111111111
1111111111111111111111111111111111111111111111111111111111111111111111111111100000000000111110000000000011111000000000001111100000000000111110000000000011111000000000001111100111111110111110000000000011111111111111111111111111111111111111111111111111110000000000001111111111111111111
1111111111111111111111111111111111111111111111111111111111111111110000001111100000000000111110000000000011110000000000001111100000000000111110000000000011111000000000001111000000000000111110000000000011111000000111111111111111111111111111111111111111110000000000000111111111111111111
1111111111111111111111111111111111111111111111111111111111111111100000000111000000000000011100000000000001100000000000001111100000000000111110000000000011111000000000000000000000000000011100000000000001110000000011111111111111111111111111111111111111100000000000000011111111111111111
1111111111111111111111111111111111111111111111111111111111111111000000000000000000000000000000000000000001100000000000000111000000000000011100000000000001110000000000000000000000000000000000000000000000000000000001111111111111111111111111111111111111100000000000000011111111111111111
1111111111111111111111111111111111111111111111111111111111111110000000000000000000000000000000000000000001100000000000000000000000000000000000000000000000000000000000000000000000000000000000000000000000000000000000111111111111111111111111111111111111100000000000000011111111111111111
1111111111111111111111111111111111111111111111111111111111111110000000000000000000000000000000000000000001100000000000000000000000000000000000000000000000000000000000000000000000000000000000000000000000000000000000111111111111111111111111111111111111100000000000000011111111111111111
1111111111111111111111111111111111111111111111111111111111111100000000000000000000000000000000000000000001100000000000000000000000000000000000000000000000000000000000000000000000000000000000000000000000000000000000011111111111111111111111111111111111100000000000000011111111111111111
1111111111111111111111111111111111111111111111111111111111000000000000000000000000000000000000000000000001100000000000000000000000000000000000000000000000000000000000000000000000000000000000000000000000000000000000000001111111111111111111111111111111100000000000000011111111111111111
1111111111111111111111111111111111111111111111111111111110000000000000000000000000000000000000000000000001100000000000000000000000000000000000000000000000000000000000000000000000000000000000000000000000000000000000000000111111111111111111111111111111100000000000000011111111111111111
1111111111111111111111111111111111111111111111111111111000000000000000000000000000000000000000000000000001100000000000000000000000000000000000000000000000000000000000000000000000000000000000000000000000000000000000000000001111111111111111111111111111100000000000000011111111111111111
1111111111111111111111111111111111111111111111111111111000000000000000000000000000000000000000000000000001100000000000000000000000000000000000000000000000000000000000000000000000000000000000000000000000000000000000000000000111111111111111111111111111100000000000000011111111111111111
1111111111111111111111111111111111111111111111111111110000000000000000000000000000000000000000000000000001100000000000000000000000000000000000000000000000000000000000000000000000000000000000000000000000000000000000000000000111111111111111111111111111100000000000000011111111111111111
1111111111111111111111111111111111111111111111111111110000000000000000000000000000000000000000000000000001100000000000000000000000000000000000000000000000000000000000000000000000000000000000000000000000000000000000000000000111111111111111111111111111100000000000000011111111111111111
1111111111111111111111111111111111111111111111111111100000000000000000000000000000000000000000000000000001100000000000000000000000000000000000000000000000000000000000000000000000000000000000000000000000000000000000000000000011111111111111111111111111100000000000000011111111111111111
1111111111111111111111111111111111111111111111111111100000000000000000000000000000000000011100000000000001110000000000000000000000000000000000000000000000000000000000000111000000000000011100000000000000000000000000000000000011111111111111111111111111110000000000000111111111111111111
1000000000000000001111111111111111111111111111111111110000000000000000000000000000000000111111111111111111111000000000000000000000000000000000000000000000000000000000001111100000000000111110000000000000000000000000000000000111111111111111111111111111110000000000001111111111111111111
1000000000000000000000000111111111111111111111111111110000000000000000000000000000000000111110000000000011111000000000000000000000000000000000000000000000000000000000011111111111111111111110000000000000000000000000000000000111111111111111111111111111110000000000001111111111111111111
1000000000000000001111111111111111000000111100000011110000000000000000000000000000000000111100000000000011110000000000000000000000000000000000000000000000000000000000001111000000000000111100000000000000000000000000000000000111100000011100000000000001110000000000000111111111111111111
1000000000111110001111111110000000001100011100000001000000000000000000000000000000000000000000000000000000000000000000000000000000000000000000000000000000000000000000000011000000000000001000000000000000000000000000000000000000000000001100000000000000000000000000000011111111111111111
1000000000111111111111111110000000000010000000000000000000000000000000000000000000000000000000000000000000000000000000000000000000000000000000000000000000000000000000000011000000000000000000000000000000000000000000000000000000000000001100000000000000000000000000000011111111111111111
1000000000000000111111111110000000000011000000000000000000000000000000000000000000000000000000000000000000000000000000000000000000000000000000000000000000000000000000000011000000000000000000000000000000000000000000000000000000000000001100000000000000000000000000000011111111111111111
1000000000000000000000111110000000000011000000000000000000000000000000000000000000000000000000000000000000000000000000000000000000000000000000000000000000000000000000000011000000000000000000000000000000000000000000000000000000000000001100000000000000000000000000000011111111111111111
1000000000000000000000000000000000000011000000000000000000000000000000000000000000000000000000000000000000000000000000000000000000000000000000000000000000000000000000000011000000000000000000000000000000000000000000000000000000000000000000000000000000000000000000000011111111111111111
1000000000000000000000000000000000000001000000000000000000000000000000000000000000000000000000000000000000000000000000000000000000000000000000000000000000000000000000000011000000000000000000000000000000000000000000000000000000000000000000000000000000000000000000000011111111111111111
1000000000000000000000000000000000000011000000000000000000000000000000000000000000000000000000000000000000000000000000000000000000000000000000000000000000000000000000000011000000000000000000000000000000000000000000000000000000000000000000000000000000000000000000000011111111111111111
1000000000000000000000000000000000000011000000000000000000000000000000000000000000000000000000000000000000000000000000000000000000000000000000000000000000000000000000000011000000000000000000000000000000000000000000000000000000000000000000000000000000000000000000000011111111111111111
1000000000000000000000111110000000000111000000000000000000000000000000000000000000000000000000000000000000000000000000000000000000000000000000000000000000000000000000000011000000000000000000000000000000000000000000000000000000000000000000000000000000000000000000000011111111111111111
1000000000000000000001111110111111111111000000000000000000000000000000000000000000000000000000000000000000000000000000000000000000000000000000000000000000000000000000000011000000000000000000000000000000000000000000000000000000000000001100000000000000000000000000000011111111111111111
1000000000000001111111111111111111111110000000000000000000000000000000000000000000000000000000000000000000000000000000000000000000000000000000000000000000000000000000000011000000000000000000000000000000000000000000000000000000000000001100000000000000000000000000000011111111111111111
1000000000111111111111111111111111111100011100000000000000000000000000000000000000000000000000000000000000000000000000000000000000000000000000000000000000000000000000000011000000000000000000000000000000000000000000000000000000000000001100000000000000000000000000000011111111111111111
1000000000110000001111111111111111111000111100000011110000000000000000000000000000000000011100000000000001110000000000000000000000000000000000000000000000000000000000000111000000000000011100000000000000000000000000000000000111100000011100000000000001110000000000000111111111111111111
1000000000000000001111111111111111111111111111111111110000000000000000000000000000000000111110000000000011111000000000000000000000000000000000000000000000000000000000001111111111111111111110000000000000000000000000000000000111111111111111111111111111110000000000001111111111111111111
1111111111111111111111111111111111111111111111111111110000000000000000000000000000000000111111111111111111111100000000000000000000000000000000000000000000000000000000001111100111111110111110000000000000000000000000000000000111111111111111111111111111110000000000001111111111111111111
1111111111111111111111111111111111111111111111111111100000000000000000000000000000000000111100000000000011110000000000000000000000000000000000000000000000000000000000001111000000000000111100000000000000000000000000000000000011111111111111111111111111110000000000000111111111111111111
1111111111111111111111111111111111111111111111111111100000000000000000000000000000000000000000000000000001100000000000000000000000000000000000000000000000000000000000000000000000000000000000000000000000000000000000000000000011111111111111111111111111100000000000000011111111111111111
1111111111111111111111111111111111111111111111111111110000000000000000000000000000000000000000000000000001100000000000000000000000000000000000000000000000000000000000000000000000000000000000000000000000000000000000000000000111111111111111111111111111100000000000000011111111111111111
1111111111111111111111111111111111111111111111111111110000000000000000000000000000000000000000000000000001100000000000000000000000000000000000000000000000000000000000000000000000000000000000000000000000000000000000000000000111111111111111111111111111100000000000000011111111111111111
1111111111111111111111111111111111111111111111111111110000000000000000000000000000000000000000000000000001100000000000000000000000000000000000000000000000000000000000000000000000000000000000000000000000000000000000000000001111111111111111111111111111100000000000000011111111111111111
1111111111111111111111111111111111111111111111111111111000000000000000000000000000000000000000000000000001100000000000000000000000000000000000000000000000000000000000000000000000000000000000000000000000000000000000000000001111111111111111111111111111100000000000000011111111111111111
1111111111111111111111111111111111111111111111111111111100000000000000000000000000000000000000000000000001100000000000000000000000000000000000000000000000000000000000000000000000000000000000000000000000000000000000000000011111111111111111111111111111100000000000000011111111111111111
1111111111111111111111111111111111111111111111111111111111000000000000000000000000000000000000000000000001100000000000000000000000000000000000000000000000000000000000000000000000000000000000000000000000000000000000000001111111111111111111111111111111100000000000000011111111111111111
1111111111111111111111111111111111111111111111111111111111101000000000000000000000000000000000000000000001100000000000000000000000000000000000000000000000000000000000000000000000000000000000000000000000000000000000011111111111111111111111111111111111100000000000000011111111111111111
1111111111111111111111111111111111111111111111111111111111111100000000000000000000000000000000000000000001100000000000000000000000000000000000000000000000000000000000000000000000000000000000000000000000000000000000111111111111111111111111111111111111100000000000000011111111111111111
1111111111111111111111111111111111111111111111111111111111111110000000000000000000000000000000000000000001100000000000000000000000000000000000000000000000000000000000000000000000000000000000000000000000000000000000111111111111111111111111111111111111100000000000000011111111111111111
1111111111111111111111111111111111111111111111111111111111111110000000000000000000000000000000000000000001100000000000000111000000000000011100000000000001110000000000000000000000000000000000000000000000000000000000111111111111111111111111111111111111100000000000000011111111111111111
1111111111111111111111111111111111111111111111111111111111111111100000000000000000000000000000000000000001100000000000001111100000000000111110000000000011111000000000000000000000000000000000000000000000000000000011111111111111111111111111111111111111100000000000000011111111111111111
1111111111111111111111111111111111111111111111111111111111111111110000001111100000000000111110000000000011110000000000001111100000000000111110000000000011111000000000000111000000000000111110000000000011111000000111111111111111111111111111111111111111110000000000000111111111111111111
1111111111111111111111111111111111111111111111111111111111111111111111111111100000000000111110000000000011111000000000001111100000000000111110000000000011111000000000001111100000000000111110000000000011111111111111111111111111111111111111111111111111110000000000001111111111111111111
1111111111111111111111111111111111111111111111111111111111111111111111111111100000000000111110000000000011111000000000001111100000000000111110000000000011111111111111111111111111111111111110000000000011111111111111111111111111111111111111111111111111110000000000001111111111111111111
1111111111111111111111111111111111111111111111111111111111111111111111111111100000000000111110000000000011110000000000001111000000000000111100000000000011111000000000001111100000000000111110000000000011111111111111111111111111111111111111111111111111110000000000000111000000000000011
1111111111111111111111111111111111111111111111111111111111111111111111111111000000000000011100000000000001100000000000000000000000000000000000000000000000110000000000000111000000000000011100000000000001111111111111111111111111111111111111111111111111100000000000000000000000000000001
1111111111111111111111111111111111111111111111111111111111111111111111111110000000000000000000000000000001100000000000000000000000000000000000000000000000110000000000000000000000000000000000000000000000111111111111111111111111111111111111111111111111100000000000000000000000000000001
1111111111111111111111111111111111111111111111111111111111111111111111111110000000000000000000000000000001100000000000000000000000000000000000000000000000110000000000000000000000000000000000000000000000111111111111111111111111111111111111111111111111100000000000000000000000000000001
1111111111111111111111111111111111111111111111111111111111111111111111111110000000000000000000000000000001100000000000000000000000000000000000000000000000110000000000000000000000000000000000000000000000111111111111111111111111111111111111111111111111100000000000000000000000000000001
1111111111111111111111111111111111111111111111111111111111111111111111111110000000000000000000000000000001100000000000000000000000000000000000000000000000110000000000000000000000000000000000000000000000111111111111111111111111111111111111111111111111100000000000000000000000000000001
1111111111111111111111111111111111111111111111111111111111111111111111111110000000000000000000000000000001100000000000000000000000000000000000000000000000110000000000000000000000000000000000000000000000111111111111111111111111111111111111111111111111100000000000000000000000000000001
1111111111111111111111111111111111111111111111111111111111111111111111111110000000000000000000000000000001100000000000000000000000000000000000000000000000110000000000000000000000000000000000000000000000111111111111111111111111111111111111111111111111100000000000000000000000000000001
1111111111111111111111111111111111111111111111111111111111111111111111111110000000000000000000000000000001100000000000000000000000000000000000000000000000110000000000000000000000000000000000000000000000111111111111111111111111111111111111111111111111100000000000000000000000000000001
1111111111111111111111111111111111111111111111111111111111111111111111111110000000000000000000000000000001100000000000000000000000000000000000000000000000110000000000000000000000000000000000000000000000111111111111111111111111111111111111111111111111100000000000000000000000000000001
1111111111111111111111111111111111111111111111111111111111111111111111111110000000000000000000000000000001100000000000000000000000000000000000000000000000110000000000000000000000000000000000000000000000111111111111111111111111111111111111111111111111100000000000000000000000000000001
1111111111111111111111111111111111111111111111111111111111111111111111111110000000000000000000000000000001100000000000000000000000000000000000000000000000110000000000000000000000000000000000000000000000111111111111111111111111111111111111111111111111100000000000000000000000000000001
1111111111111111111111111111111111111111111111111111111111111111111111111110000000000000000000000000000001100000000000000000000000000000000000000000000000110000000000000000000000000000000000000000000000111111111111111111111111111111111111111111111111100000000000000000000000000000001
1111111111111111111111111111111111111111111111111111111111111111111111111111000000000000011100000000000001110000000000000111000000000000011100000000000001110000000000000111000000000000011100000000000001111111111111111111111111111111111111111111111111110000000000000000000000000000011
1111111111111111111111111111111111111111111111111111111111111111111111111111100000000000111110000000000011111000000000001111100000000000111110000000000011111000000000001111100000000000111111111111111111111111111111111111111111111111111111111111111111110000000000000000000000000000111
1111111111111111111111111111111111111111111111111111111111111111111111111111100000000000111110000000000011111111111111111111111111111111111111111111111111111000000000001111100000000000111111111111111111111111111111111111111111111111111111111111111111110000000000000000000000000000111
1111111111111111111111111111111111111111111111111111111111111111111111111111000000000000011100000000000001110000000000000111000000000000011100000000000001110000000000000111000000000000011111111111111111111111111111111111000000000000011100000000000001110000000000000000000000000000011
1111111111111111111111111111111111111111111111111111111111111111111111111110000000000000000000000000000000000000000000000000000000000000000000000000000000000000000000000000000000000000001111111111111111111111111111111110000000000000000000000000000000000000000000000000000000000000001
1111111111111111111111111111111111111111111111111111111111111111111111111110000000000000000000000000000000000000000000000000000000000000000000000000000000000000000000000000000000000000001111111111111111111111111111111110000000000000000000000000000000000000000000000000000000000000001
1111111111111111111111111111111111111111111111111111111111111111111111111110000000000000000000000000000000000000000000000000000000000000000000000000000000000000000000000000000000000000001111111111111111111111111111111110000000000000000000000000000000000000000000000000000000000000001
1111111111111111111111111111111111111111111111111111111111111111111111111110000000000000000000000000000000000000000000000000000000000000000000000000000000000000000000000000000000000000001111111111111111111111111111111110000000000000000000000000000000000000000000000000000000000000001
1111111111111111111111111111111111111111111111111111111111111111111111111110000000000000000000000000000000000000000000000000000000000000000000000000000000000000000000000000000000000000001111111111111111111111111111111110000000000000000000000000000000000000000000000000000000000000001
1111111111111111111111111111111111111111111111111111111111111111111111111110000000000000000000000000000000000000000000000000000000000000000000000000000000000000000000000000000000000000001111111111111111111111111111111110000000000000000000000000000000000000000000000000000000000000001
1111111111111111111111111111111111111111111111111111111111111111111111111110000000000000000000000000000000000000000000000000000000000000000000000000000000000000000000000000000000000000001111111111111111111111111111111110000000000000000000000000000000000000000000000000000000000000001
1111111111111111111111111111111111111111111111111111111111111111111111111110000000000000000000000000000000000000000000000000000000000000000000000000000000000000000000000000000000000000001111111111111111111111111111111110000000000000000000000000000000000000000000000000000000000000001
1111111111111111111111111111111111111111111111111111111111111111111111111110000000000000000000000000000000000000000000000000000000000000000000000000000000000000000000000000000000000000001111111111111111111111111111111110000000000000000000000000000000000000000000000000000000000000001
1111111111111111111111111111111111111111111111111111111111111111111111111110000000000000000000000000000000000000000000000000000000000000000000000000000000000000000000000000000000000000001111111111111111111111111111111110000000000000000000000000000000000000000000000000000000000000001
1111111111111111111111111111111111111111111111111111111111111111111111111110000000000000000000000000000000000000000000000000000000000000000000000000000000000000000000000000000000000000001111111111111111111111111111111110000000000000000000000000000000000000000000000000000000000000001
1111111111111111111111111111111111111111111111111111111111111111111111111110000000000000000000000000000000000000000000000000000000000000000000000000000000000000000000000000000000000000001111111111111111111111111111111110000000000000000000000000000000000000000000000000000000000000001
1111111111111111111111111111111111111111111111111111111111111111111111111111000000000000011100000000000001110000000000000111000000000000011100000000000001110000000000000111000000000000011111111111111111111111111111111111000000000000000000000000000001110000000000000111000000000000011
1111111111111111111111111111111111111111111111111111111111111111111111111111111111111111111110000000000011111000000000001111100000000000111110000000000011111000000000001111111111111111111111111111111111111111111111111111000000000000000000000000000011111111111111111111111111111111111
1111111111111111111111111111111111111111111111111111111111111111111111111111111111111111111110000000000011111000000000001111100000000000111110000000000011111000000000001111111111111111111111111111111111111111111111111111000000000000000000000000000011111111111111111111111111111111111
1111111111111111111111111111111111111111111111111111111111111111111111111111111111111111111100000000000001110000000000000111000000000000011100000000000001110000000000000111111111111111111111111111111111111111111111111111000000000000000000000000000001111111111111111111111111111111111
1111111111111111111111111111111111111111111111111111111111111111111111111111111111111111111000000000000000000000000000000000000000000000000000000000000000000000000000000011111111111111111111111111111111111111111111111110000000000000000000000000000000111111111111111111111111111111111
1111111111111111111111111111111111111111111111111111111111111111111111111111111111111111111000000000000000000000000000000000000000000000000000000000000000000000000000000011111111111111111111111111111111111111111111111110000000000000000000000000000000111111111111111111111111111111111
1111111111111111111111111111111111111111111111111111111111111111111111111111111111111111111000000000000000000000000000000000000000000000000000000000000000000000000000000011111111111111111111111111111111111111111111111110000000000000000000000000000000111111111111111111111111111111111
1111111111111111111111111111111111111111111111111111111111111111111111111111111111111111111000000000000000000000000000000000000000000000000000000000000000000000000000000011111111111111111111111111111111111111111111111110000000000000000000000000000000111111111111111111111111111111111
1111111111111111111111111111111111111111111111111111111111111111111111111111111111111111111000000000000000000000000000000000000000000000000000000000000000000000000000000011111111111111111111111111111111111111111111111110000000000000000000000000000000111111111111111111111111111111111
1111111111111111111111111111111111111111111111111111111111111111111111111111111111111111111000000000000000000000000000000000000000000000000000000000000000000000000000000011111111111111111111111111111111111111111111111110000000000000000000000000000000111111111111111111111111111111111
1111111111111111111111111111111111111111111111111111111111111111111111111111111111111111111000000000000000000000000000000000000000000000000000000000000000000000000000000011111111111111111111111111111111111111111111111110000000000000000000000000000000111111111111111111111111111111111
1111111111111111111111111111111111111111111111111111111111111111111111111111111111111111111000000000000000000000000000000000000000000000000000000000000000000000000000000011111111111111111111111111111111111111111111111110000000000000000000000000000000111111111111111111111111111111111
1111111111111111111111111111111111111111111111111111111111111111111111111111111111111111111000000000000000000000000000000000000000000000000000000000000000000000000000000011111111111111111111111111111111111111111111111110000000000000000000000000000000111111111111111111111111111111111
1111111111111111111111111111111111111111111111111111111111111111111111111111111111111111111000000000000000000000000000000000000000000000000000000000000000000000000000000011111111111111111111111111111111111111111111111110000000000000000000000000000000111111111111111111111111111111111
1111111111111111111111111111111111111111111111111111111111111111111111111111111111111111111000000000000000000000000000000000000000000000000000000000000000000000000000000011111111111111111111111111111111111111111111111110000000000000000000000000000000111111111111111111111111111111111
1111111111111111111111111111111111111111111111111111111111111111111111111111111111111111111000000000000000000000000000000000000000000000000000000000000000000000000000000011111111111111111111111111111111111111111111111110000000000000000000000000000000111111111111111111111111111111111
1111111111111111111111111111111111111111111111111111111111111111111111111111111111111111111100000000000001110000000000000111000000000000011100000000000001110000000000000111111111111111111111111111111111111111111111111111000000000000000000000000000001111111111111111111111111111111111
1111111111111111111111111111111111111111111111111111111111111111111111111111111111111111111111111111111111111111111111111111111111111111111111111111111111111111111111111111111111111111111111111111111111111111111111111111000000000000000000000000000011111111111111111111111111111111111
1111111111111111111111111111111111111111111111111111111111111111111111111111111111111111111111111111111111111111111111111111111111111111111111111111111111111111111111111111111111111111111111111111111111111111111111111111000000000000000000000000000011111111111111111111111111111111111
1111111111111111111111111111111111111111111111111111111111111111111111111111111111111111111111111111111111111111111111111111111111111111111111111111111111111111111111111111111111111111111111111111111111111111111111111111000000000000000000000000000001110000000000000111000000000000011
1111111111111111111111111111111111111111111111111111111111111111111111111111111111111111111111111111111111111111111111111111111111111111111111111111111111111111111111111111111111111111111111111111111111111111111111111110000000000000000000000000000000000000000000000000000000000000001
1111111111111111111111111111111111111111111111111111111111111111111111111111111111111111111111111111111111111111111111111111111111111111111111111111111111111111111111111111111111111111111111111111111111111111111111111110000000000000000000000000000000000000000000000000000000000000001
1111111111111111111111111111111111111111111111111111111111111111111111111111111111111111111111111111111111111111111111111111111111111111111111111111111111111111111111111111111111111111111111111111111111111111111111111110000000000000000000000000000000000000000000000000000000000000001
1111111111111111111111111111111111111111111111111111111111111111111111111111111111111111111111111111111111111111111111111111111111111111111111111111111111111111111111111111111111111111111111111111111111111111111111111110000000000000000000000000000000000000000000000000000000000000001
1111111111111111111111111111111111111111111111111111111111111111111111111111111111111111111111111111111111111111111111111111111111111111111111111111111111111111111111111111111111111111111111111111111111111111111111111110000000000000000000000000000000000000000000000000000000000000001
1111111111111111111111111111111111111111111111111111111111111111111111111111111111111111111111111111111111111111111111111111111111111111111111111111111111111111111111111111111111111111111111111111111111111111111111111110000000000000000000000000000000000000000000000000000000000000001
1111111111111111111111111111111111111111111111111111111111111111111111111111111111111111111111111111111111111111111111111111111111111111111111111111111111111111111111111111111111111111111111111111111111111111111111111110000000000000000000000000000000000000000000000000000000000000001
1111111111111111111111111111111111111111111111111111111111111111111111111111111111111111111111111111111111111111111111111111111111111111111111111111111111111111111111111111111111111111111111111111111111111111111111111110000000000000000000000000000000000000000000000000000000000000001
1111111111111111111111111111111111111111111111111111111111111111111111111111111111111111111111111111111111111111111111111111111111111111111111111111111111111111111111111111111111111111111111111111111111111111111111111110000000000000000000000000000000000000000000000000000000000000001
1111111111111111111111111111111111111111111111111111111111111111111111111111111111111111111111111111111111111111111111111111111111111111111111111111111111111111111111111111111111111111111111111111111111111111111111111110000000000000000000000000000000000000000000000000000000000000001
1111111111111111111111111111111111111111111111111111111111111111111111111111111111111111111111111111111111111111111111111111111111111111111111111111111111111111111111111111111111111111111111111111111111111111111111111110000000000000000000000000000000000000000000000000000000000000001
1111111111111111111111111111111111111111111111111111111111111111111111111111111111111111111111111111111111111111111111111111111111111111111111111111111111111111111111111111111111111111111111111111111111111111111111111110000000000000000000000000000000000000000000000000000000000000001
1111111111111111111111111111111111111111111111111111111111111111111111111111111111111111111111111111111111111111111111111111111111111111111111111111111111111111111111111111111111111111111111111111111111111111111111111111000000000000011100000000000000000000000000000000000000000000011
1111111111111111111111111111111111111111111111111111111111111111111111111111111111111111111111111111111111111111111111111111111111111111111111111111111111111111111111111111111111111111111111111111111111111111111111111111111111111111111100000000000000000000000000000000000000000000111
1111111111111111111111111111111111111111111111111111111111111111111111111111111111111111111111111111111111111111111111111111111111111111111111111111111111111111111111111111111111111111111111111111111111111111111111111111111111111111111100000000000000000000000000000000000000000000111
1111111111111111111111111111111111111111111111111111111111111111111111111111111111111111111111111111111111111111111111111111111111111111111111111111111111111111111111111111111111111111111111111111111111111111111111111111111111111111111100000000000000000000000000000000000000000000011
1111111111111111111111111111111111111111111111111111111111111111111111111111111111111111111111111111111111111111111111111111111111111111111111111111111111111111111111111111111111111111111111111111111111111111111111111111111111111111111000000000000000000000000000000000000000000000001
1111111111111111111111111111111111111111111111111111111111111111111111111111111111111111111111111111111111111111111111111111111111111111111111111111111111111111111111111111111111111111111111111111111111111111111111111111111111111111111000000000000000000000000000000000000000000000001
1111111111111111111111111111111111111111111111111111111111111111111111111111111111111111111111111111111111111111111111111111111111111111111111111111111111111111111111111111111111111111111111111111111111111111111111111111111111111111111000000000000000000000000000000000000000000000001
1111111111111111111111111111111111111111111111111111111111111111111111111111111111111111111111111111111111111111111111111111111111111111111111111111111111111111111111111111111111111111111111111111111111111111111111111111111111111111111000000000000000000000000000000000000000000000001
1111111111111111111111111111111111111111111111111111111111111111111111111111111111111111111111111111111111111111111111111111111111111111111111111111111111111111111111111111111111111111111111111111111111111111111111111111111111111111111000000000000000000000000000000000000000000000001
1111111111111111111111111111111111111111111111111111111111111111111111111111111111111111111111111111111111111111111111111111111111111111111111111111111111111111111111111111111111111111111111111111111111111111111111111111111111111111111000000000000000000000000000000000000000000000001
1111111111111111111111111111111111111111111111111111111111111111111111111111111111111111111111111111111111111111111111111111111111111111111111111111111111111111111111111111111111111111111111111111111111111111111111111111111111111111111000000000000000000000000000000000000000000000001
1111111111111111111111111111111111111111111111111111111111111111111111111111111111111111111111111111111111111111111111111111111111111111111111111111111111111111111111111111111111111111111111111111111111111111111111111111111111111111111000000000000000000000000000000000000000000000001
1111111111111111111111111111111111111111111111111111111111111111111111111111111111111111111111111111111111111111111111111111111111111111111111111111111111111111111111111111111111111111111111111111111111111111111111111111111111111111111000000000000000000000000000000000000000000000001
1111111111111111111111111111111111111111111111111111111111111111111111111111111111111111111111111111111111111111111111111111111111111111111111111111111111111111111111111111111111111111111111111111111111111111111111111111111111111111111000000000000000000000000000000000000000000000001
1111111111111111111111111111111111111111111111111111111111111111111111111111111111111111111111111111111111111111111111111111111111111111111111111111111111111111111111111111111111111111111111111111111111111111111111111111111111111111111000000000000000000000000000000000000000000000001
1111111111111111111111111111111111111111111111111111111111111111111111111111111111111111111111111111111111111111111111111111111111111111111111111111111111111111111111111111111111111111111111111111111111111111111111111111111111111111111000000000000000000000000000000000000000000000001
1111111111111111111111111111111111111111111111111111111111111111111111111111111111111111111111111111111111111111111111111111111111111111111111111111111111111111111111111111111111111111111111111111111111111111111111111111111111111111111100000000000001110000000000000111000000000000011
1111111111111111111111111111111111111111111111111111111111111111111111111111111111111111111111111111111111111111111111111111111111111111111111111111111111111111111111111111111111111111111111111111111111111111111111111111111111111111111111111111111111111111111111111111111111111111111
1111111111111111111111111111111111111111111111111111111111111111111111111111111111111111111111111111111111111111111111111111111111111111111111111111111111111111111111111111111111111111111111111111111111111111111111111111111111111111111111111111111111111111111111111111111111111111111
