1111111111111111111111111111111111111111111111111111111111111111111111111111111111111111111111111111111111111111111111111111111111111111111111111111111111111111111111111111111111111111111111111111111111111111111111111111111111111111111111111111111111111111111111
1111100000000000001110111111111111111111000000000000000000000000000000000000000000000000000000001111111111111111111111111111111111111111111111111111111111111111111111111111111111111111111111111111111111111111111111111111111111111111111111111111111111111111111111
1111100000000000001110011111111111111111100000000000000000000000000000000000000000000000000000000111111111111111111111111111111111111111111111111111111111111111111111111111111111111111111111111111111111111111111111111111111111111111111111111111111111111111111111
1111100000000000001111001111111111111111100000000000000000000000000000000000000000000000000000000111111111111111111111111111111111111111111111111111111111111111111111111111111111111111111111111111111111111111111111111111111111111111111111111111111111111111111111
1111100000000000001111000111111111111111110000000000000000000000000000000000000000000000000000000011111111111111111111111111111111111111111111111111111111111111111111111111111111111111111111111111111111111111111111111111111111111111111111111111111111111111111111
1111100000000000001111110000000000111111111000000000000000000000000000000000000000000000000000000000000000000000000000111111111111111111111111111111111111111111111111111111111111111111111111111111111111111111111111111111111111111111111111111111111111111111111111
1111100000000000000111100000000000111111111000000000000000000000000000000000000000000001100000000000000000000000000000111111111111111111111111111111111111111111111111111111111111111111111111111111111111111111111111111111111111111111111111111111111111111111111111
1111100000000000000011000000000000111111111100000000000000000000000000000000000000000011110000000000000000000000000000111111111111111111111111111111111111111111111111111111111111111111111111111111111111111111111111111111111111111111111111111111111111111111111111
1111100000000000000000000000000000111111111110000000000000000000000010000000000000000011110000000000000000000000000000111111111111111111111111111111111111111111111111111111111111111111111111111111111111111111111111111111111111111111111111111111111111111111111111
1111100000000000000000000000000000111111111110000000000000000000000010000000000001100001110000000000000000000000000000111111111111111111111111111111111111111111111111111111111111111111111111111111111111111111111111111111111111111111111111111111111111111111111111
1111100000000000000000000000000000111111111111000000000000000000000010000000000011110000000000000000000000000000000000011111111111111111111111111111111111111111111111111111111111111111111111111111111111111111111111111111111111111111111111111111111111111111111111
1111100000000000000000000000000000111111111111000000000000000000000010000000000011110000000000000000000000000000000000001111111111111111111111111111111111111111111111111111111111111111111111111111111111111111111111111111111111111111111111111111111111111111111111
1111100000000000000000000000000000111111111110000000000000000000000011000000000011100000000000000000000000000000000000000111111111111111111111111111111111111111111111111111111111111111111111111111111111111111111111111111111111111111111111111111111111111111111111
1111100000000000000000000000000000000111111111000000000000000000000011110000000000000000000000000000000000000000000000000111111111111111111111111111111111111111111111111111111111111111111111111111111111111111111111111111111111111111111111111111111111111111111111
1111100000000000000000000000000000000111111110000000000000000000000001110000000000000000000000000000000000000000000000001111111111111111111111111111111111111111111111111111111111111111111111111111111111111111111111111111111111111111111111111111111111111111111111
1111100000000000000000000000000000000111111111000000000000000000000001110000000000000000000000000000000000000000000000011011111111111111111111111111111111111111111111111111111111111111111111111111111111111111111111111111111111111111111111111111111111111111111111
1111100000000000000000000000000000000111111111000000000000000000000000110000000000000000000000000000000000000000000000111001111111111111111111111111111111111111111111111111111111111111111111111111111111111111111111111111111111111111111111111111111111111111111111
1111100000000000000000000000000000000111111111000000000000000000000000111000000000000000000000000000000000000000000000000000000000000000000000000001111111111111111111111111100000000011111111111111111111111111111111111111111111111111111110000000001111111111111111
1111100000000000000000000000000000000111111111000000000000000000000000111000000000000000000000000000000000000000000010000000000000000000000000000000011111111111111111111111100000000001111111111111111111111111111111111111111111111111111100000000001111111111111111
1111100000000000000000000000000000000111111111000000000000000000000000111100000000000000000000000000000000000000000110000000000000000000000000000001011111111111111111111111100000000000111111111111111111111111111111111111111111111111111000000000001111111111111111
1111100000000000000000000000000000000111111111000000000000000000000000111100000000000000000000000000000000000000001110000000000000000000000000000000011111111111111111111111100000000000011111111111111111111111111111111111111111111111110000000000001111111111111111
1111100000000000000000000000000000000111111111111000000000000000000000111100000000000000000000000000000000000000000000000000000000000000000000000000000001111111111111111111100000000000000000001111111111111000000111111100000000000000000000000000000001111111111111
1111100000000000000000000000000000000111111111111100000000000000000000111100000000000000000000000000000000000000000000000000000000000000000000000000000001111111111111111111100000000000000000011111111111111000000011111110000000000000000000000000000001111111111111
1111100000000000000000000000000000000111111111111100000000000000000000111100000000000000000000000000000000000000000000000000000000000000000000000000000001111111111111111111100000000000000000111111111111111000000001111111000000000000000000000000000001111111111111
1111100000000000000000000000000000000111111111111100000000000000000000111110000000000000000000000000000000000000000000000000000000000000000000000000010000000111111111111111100000000000000001111111111111111000000001111111100000000000000000000000000001111111111111
1111100000000000001111001010000000000000011111111100000000000000000000011110000000000000000000000000000000000011100000000000000000000000000000000000111100100011111111111111100000000111100101111000000000000000000000000000000000000000000000000000000001111111111111
1111100000000000001111110001100000000000011111111100000000000000000000011111000000000000000000000000000000000001111110000000000000000000000000000001110000000000111111111111000000000111100111111000000000000000000000000000000000000000000000000000000001111111111111
1111100000000000001111110000000000000000011111111110000000000000000000001111100000000000000000000000000000000000111110000000000000000000000000000000000000000000011111111110000000000111101111111000000000000001110000000000000000000000000000000000000001111111111111
1111100000000000001111111110000000000000011111111110000000000000000000001111110000000000000000000000000000000000011110000000000000000000000000000000000000000000001111111100000000000111101111111000000000000001110000000000000000000000000000000000000001111111111111
1111100000000000001111111000000000000000001111111100000000000000000000000001110000000000000000000000001001011000011110000000000000000000000000000000000000000000000000000011111110111111100000000000000000000001100000000000000000000000000000000000000001111111111111
1111100000000000001111110000000000000000001111111111000000000000000000000001110000000000000000000000000001111000001111000000000000000000000000001000000000000000000000000011111100011111000000000000000000000000000000000000000010000000000000000000000001111111111111
1111100000000000001111100000000000000000001111111111100000000000000000000001111000000000000000000111011111111000000111111000000000000000000000000000000000000001100000000011111000001110000000000000000000000000000000000000000000000000000000000000000011111111111111
1111100000011000001111000000000000000000001111111111110000000000000000000000111110000000111101111111111111111000000011111100000000000000000000000000000000000000111100000011110000000100000000000000000000000000000000000000000000000000000000000000000111111111111111
1111100000111100000000000000000000000000000000111111110000000000000000000000001100000011110111111111111111111100000001111100000000000000000000000000000000000000011111000000000001110000000000000000000000000000000000000000000000000000000000000000010001111111111111
1111100000111100000000000000010000000000000000011111111000000000000000000000000110000000000011111111111111111110000000111110000000000000000000000000000000000000001111000000000000100000000000000000000000000000000000000000000000000000000000000010110001111111111111
1111100000111000000000000000011000000000000000001111111100000000000000000000000000000000000110100111111111111111000000011111000000000000000000000000000000000000000111000000000000000000000000000000000000000000000000000000000000000000000000000011110001111111111111
1111100000000000000000000000011100000000000000000111111110000000000000000000000000000000000000100011111111111111100000001111111111111100000000000000000000000000000111000000000000000000000000000000000000000000000000000000000000000000000000000011110001111111111111
1111100000000000000000000000000000000000000000011111111111111111111111111111111111000000000001100001111111111111100000000000000001111110000000000000000000000000000011100000000000000000000000000000000000000000000000000000000000000000000000000011111111111111111111
1111100000000000000000000000000010000000000000001111111111111111111111111111111111100000000001000000111111111111100000000000000000001111000000000000000000000000000011100000000000000000000000000000000000000000000000000000000000000000000000000001111111111111111111
1111100000000000000000000000001110000000000000000000111111111111111111111111111111110000000001000000011111111111100000000000000000001111100000000000000000000000000011100000000000000000000000000000000000000000000000000000000000000000000000000000111111111111111111
1111100000000000000000000000011100000000110000000000000001111111111111111111111111111100000011000000001111111111100000000000000000001111111000000000000000000000000001100000000000000000000000000000000000000000000000000000000000000000000000000000111111111111111111
1111100000000000000000000000011000000001111000000000000000000000000000000001111111111110000010000000000111111111110000000000000000001111111100000000000000000000000000000000000000000000000000000000000000000000000000000000000000000000000000000000000111111111111111
1111100000110000000000000000111000000001111000000000000000000000000000000000111100111111000110000000000011111111111000000000000000111001111000000000000000000000000000000000000000000000000000000000000000000000000000000000010000000000000000000000000011111111111111
1111100001111000000000000001111000000000110000000000000000000000000000000000000000011111100100000000000001111111111100000000000001111101111000000000000000000000000000000000000000000000000000000000000000000000000000000000100000000000000000000000000001111111111111
1111100001111000000000000011110000000000000000000000000000000000000000000000000000000111110100000000000000111111111110000000000001111101110000000000000000000000000000000000000000000000010000000000000000000000000000000000100000000000000000000000000001111111111111
1111100000110000000000000000000000000000000000000000000000000000000000000000000000000011110110000000000000011111111100000000000001111101110000000000000000000000000000000000000000000000111100000000000000000000000000000001000000000000000000000000000001111111111111
1111100000000000000000000000100000000000000011100000000000000000000000000000000000000001110011000000000000001111111110000000000001111101100000000000000000000000000000000000000000000000011110000000000000000000000000000110000000000000000000000000000001111111111111
1111100000000000000000000001100000000000000011100000000000000000000000000000000000000000110001000000000000000111111110000000000000111001100000000000000000000000000000000000000000000100011111000000000000000000000000011110000000000000000000000000000001111111111111
1111100000000000000000000001100000000000000011100000000000000000000000000000000000000000111001100000000000000111111110000000000000000001000000000000000000000000000000000000000000000001111111110100000000000000000001111111100000000000000000000000000001111111111111
1111100000000000000000000111100000000000000000000000000000000000000000000000000000000001111100100000000000000011111111000000000000000011000000000000000000000000000000000000000000000011111111111110000000000000000011111111110000000000000000000000000001111111111111
1111100000000000000000000111000000000000000000000000000000000000000000000000000000000001111110110000000000000001111111100000000000000011000000000000000000000000000000000000000000110111111111111111000000000000000111111111111000000000000000000000000001111111111111
1111100000000000000000000100000000000000000000000000000000000000000000000000000000000001110110010000000000000001111111110000000000000010000000000000000000000000000000000000000000111111111111111111110000000000010000011111111100000000000000000000000001111111111111
1111100000000000000000000000000000000000000000000000000000000000000000000000000000000000110010011000000000000000111111111000000000000111000000000000000000000000000000000000000000011111111111111111111111111111100000011111111110000000000000000000000001111111111111
1111100000000000000100000000000000000000000000000000000000000000000000000000000000000000010010001000000000000000111101111000000000000111000000000000000000000000010000000000000000111111111111111111111111111111111000011111110000000000000000000000000001111111111111
1111100000000000000010000000000000000000000000000000000000000000000000000000000000000000001000001100000000000000010001111000000000000111100000100000000000000000000000000000000000111111111111111111111100000000001000011111110000000000000000000000000011111111111111
1111100000000000000000000000000000000000000000000000000000000000000000000000000000000000000000000100000000000000010001111000000000000111110001000000000000000000010000000000000000111111111111111111010000000000000100011111110000000000000000000000000111111111111111
1111100000000000000000000000000000000000000000000000000000000000000000000000000000000000000100000100000000000000010001111000000000000111010000000000000000000000011000000000000001111111111111111110000000000000000100011111010000000000000000000000001111111111111111
1111100000000000000000000000000000000000000001111100000001000000000000000000000000000000000100000100000000000000011000111000000000000110000000000000000000000000000000000000000001111111111111111110000000000000000100011111000000000000000000000000000001111111111111
1111100000000000000011000000000000000000000011111110000001110000000000000000000000000000000000000100000000000000001000011000000000000010010000000000000000000000000000000000000001111111111111111100000000000000000110011111000000000000000000000000000001111111111111
1111100000000000000001000000000000000000000111111111000001111000000000000000000000000000001000000100000000000000011000001000000000000011110000000000000000000000000000000000000000111111111111111100000000000000000010111111000000000000000000000000000001111111111111
1111100010000000000000000000000000000000001111111111100101111000000000000000000000000000001000000100000000000000010000000000000000000001110000000000000000000000000000000000000000011111111111111100000000000000000011111111000000000000000000000000000001111111111111
1111100110000000000000000000000000000000010000000000000001111000000000000000000000000000011000000100000000000000010000000000000000000001100000000000000000000000000000000000000000011111111111111100000000000000000011111100000000000000000000000000000001111111111111
1111101110000000000000000000000000000000111000000000000001111000000000000000000000000000110000000100000000000000010000000000000000000000100000000000000000000000000000000000000000001111111111111100000000000000000011111100000000000000000000000000000001111111111111
1111101110000000000000000000000000000001111100000000000001111000000000000000000000000000000000001100000000000000010000000000000000000000100000000000000000000000000000000000000000001111111111111100000000000000000111111110000000000000000000000000000001111111111111
1111111000000000000000000000000000000011111110000000000001111000000000000000000000000000000000001000000000000000010100000000000000000000100000000000000000000000000000000000000000001111111111111100000000000000000111111110000000000000000000000000000001111111111111
1111111110000000000011110000000000000100000000000000001101111000000000000000000000000000100000001000000000000000010100000111000000000000000000011100000000000000000000000000000000001111111111111100000000000000000111111110000000000000000000000000011111111111111111
1111111100000000000111111100000000001100100000000000000111111110000000000000000000000001000000011000000000000000010100000110000000000000011111111110000000000000000000000000000000001111111111111100000000000000000111111110000000000000000000000000011111111111111111
1111111100000000001000111111000000001100100000000000000011111111000000000000000000000010000000010000000000000000010100100000000000000001111111111111000000000000000000000000000000001111111111111100000000000000000111111110000000000000000000000000011111111111111111
1111111001000001100000011111100000011110000000000000000001111111110000000000000000000000000000110000000000000000010111100010000000000001111111100000000000000000000000000000000000001111111111111100000000000000000111111110000000000000000000000000011111111111111111
1111111010000011000000011111110000111100000000000000000001111111111000000000000000001001001111000000000000000000011111000000000000000001111111110000000000000000000000000000000000001111111111111100000000000000000111111110000000000000000100000000011111111111111111
1111111010001100000000000111111101111100000000000000000000111111111111110011111000100001111000000000000000000000011110000000000000000000001111110000000000000000000000000000000000001111111111111000000000000000000111111110000000000000000110001000011111111111111111
1111111100011100000000000011111101111100000000000000000000011111111111111111110100000011000000000000000000000000011110000000000000000000001110000000000000000000000000000000000000011111111111111000000000000000000011111110000000000000000010010000011111111111111111
1111111100111000000000000001111111111100000000000000000000001111111111111111110000001110000000000000000000000000111100000000000000000000000111100000000000000000000000000000000000111111111111111000000000000000000011111110000000000000000011110000011111111111111111
1111111001100000000000000000110111111100000000111000000000000000011101111111111000011000000000000000000000000000111100000000000000000000000011100000000000000000000000000000000001111111111111111000000000000000000011111110000000000000000011100000000001111111111111
1111111111100000000000000000000111111100000000011011111000000000000000000000000011110000000000000000000000000000011110000000000000000000000011000100000000000000000000000000011111111111111111110000000000000000000011111110000000000000000111100000000001111111111111
1111111111000000000000000000000011111100000000001111111111111111111111100111111110000000000000000000000000000000011111000000000000000000000011000100000000000000000000000011111111111111111111110000000000000000000011111111100000000000000111100000000001111111111111
1111111100000000000000000000000001111100000000111111110000000000000000111100000000000000000000000000000000000000011111000000000000000000000001001100000000000000000000000011111111111111111111100000000000000000000111111111100000000000000111100000000001111111111111
1111110000000000000000000000001001111100000001111111100000000000000000000000000000000000000000000000000000000000001111100000000000000000000001111100000000000000000000000011111111111111111111100000000000000000000101111111100000000000001111000000000001111111111111
1111111000000000000000000000001101111111111111111111000000000000000000000000000000000000000000000000000000000000001111111000000000000000010001111100000000100000000000000011111111111111111111000000000000000000000100111111100000000000011110000000000001111111111111
1111111110000000000000000000000111111111111111111111000000000000000000000000000000000000000000000000000000000000001111111100000000000000000011111000000000000000000000000011111111111111111111000000000000000000000100111111000000000000111110000000000001111111111111
1111111000000000000000000000000000111111111111111110000000000000000000000000000000000000000000000000000000000000000111111110000000000000000011111000000000000000000000000011111111111111111111000000000000000000000101111111000000000001111100000000000000111111111111
1110000000000000000000000000000001111111111111111110000000000000000001100000000000001100000000000000000000000000000111111111110000000000000011111000000000000000000000000001111111111111111111100000000000000000000100011100000000000011111110000000000000000111111111
1100000000000000000000000000000011111111111111111110000000000000000001100000000000011110000000000000000000000000000111111111111000000000000011110000000000000000000000000001111111111111111111100000000000000000000100011100000000000011111010000000000000000111111111
1110000000000000000000000000000011000000011111100000000000011000000001100000000000111111000000000000000000000000000011111111111100000000000111110000000000000000000000000001111111111111111111110000000000000000000111001100000000000011111000000000000000000111111111
1111011000000000000000000000000111000000111111100000000000011100000000000000000000111111000000000000000000000000000001100111111110000000000100000000000000000000011000000001111111111111111111110000000000000000000010000100000000000011011000000000000000000111111111
1111111000000000000000000000000111000000111111100000000000011000000000000000000000111111111100000000000000000000000000110011111111000000000100000000000000000000011000000001111111111111111111111000000000000000000010000000000000000010001000000000000000000111111111
1111111000000000000000000000000011000001111111100000000000000000000000000000000000111110000010000000000000000000000000011001111111100000000100000000000000000000011000000001111111111111111111111000000000000000000010000000000000000000001000000000000000000111111111
1111111000000000000000000000000011000001111111100000000000000000000000000000000000000000000010000000000000000000000000001100111111110000000000000000000000000000000000000001111111111111111111111000000000000000000010010000000000000000000000000000000000000111111111
1111111000000000000000000000000011000011111111000000000000000000000000000000000000100000000010000000000000000000000000000110011111111000000000000000000000000000000000000011111111111111111111111000000000000000000010011000000000000100000000000000000000000111111111
1111111000000000000000000000000011000011111111000000000000000000000000000000000000000000000000000000000000000000000000000011000000000000000000000000000000000000000000000011111111111111111111111000000000000000000011111000000000001100000000000000000000000000011111
1111111000000000000000000000000001000111111111000000000000000000000000000000000000000000000000000000000000000000000000000001100000000000000000000000000000000000000000000011111111111111111111110000000000000000000011111000000000001111111000000000000000000000011111
1111110000000000000000000000000001000111111111000000000000000000000000000000000000000000000000000000000000000000000000000000111000000000000000000000000000000000000000000001111111111111111111110000000000000000000011111000000000011111111000000000000000000000011111
1111110000000000000000000000000011000111111111000000000000000000000000000000000000000000000000000000000000000000000000000000001110000000000000000000000000000000000000000001111111111111111111100000000000000000000001111000000000011111110000000000000000000000011111
1111111000000000000000000000001111000111111111000000000000000000111110000000000000000000000000000000000000000000000000000000000010000000000000000000000000000000000000000001111111111111111111100000000000000000000001111111000000011111100000000000000000000000011111
1111111000000000000000000000011111000111111111100000000000000001111110000000000000000000000000000000000000000000000000000000000011000000000000111100000000000000000000010001111111111111111111100000000000000000000001111111100000011111000000000000000000000000111111
1111111100000000000000000000111111001111111111100000000000000001111110000000000000000000000000000000000000000000000000000000000010000000000000011110000000000000000000010001111111111111111111000000000000000000000001111111000000111110000000000000000000000001111111
1111111100000000000000000000111111001111111111110000000000000000111110000000000000000000000000000000000000000000000000000000000010000000000000001111100000000000000000000011111111111111111111000000000000000000000001111111101111111100000000000000000000000011111111
1111111100000000000000000000111111001111111111110000000000000000111100000000000000000000000000000000000000000000000000000000000010000000000000000111110000000000000000000111111111111111111111000000000000000000000000111111111111111001100000000000000000000111111111
1111111000000000000000000000111111001111111111100000000000000000000000000000000000000000000000000000000000000000000000000000000010000000000000000001011000000000000000000011111111111111111111000000000000000000000000111111111111110000000000000000000000000111111111
1111111001000000000000000001111111001111111111000000000000000000000000000000000000111000000000000000000000000000000000000000000011000000000000000000000111000000000000011111111111111111111111000000000000000000000000011111111111110011000000000000000000000111111111
1111111100000000000000000000111111001111111111000000000000000000000000000000000000111000000000000000000000000000000000000000000001000000000000000000000011111111100000111111111111111111111100000000000000000000000000011111111111111110000000000000000000000111111111
1111111110000000000000000000001111001111111111000000000000000000000000000000000000111000000000000000000000000000000000010000000001000000000000000000000001111111110000111111111111111111111000000000000000000000000000001111111111111100000000000000000000000111111111
1111111110000000000000000000000011001111111111001100000000000000000000000000000000000000000000000000000000000000000000111000000001000000000000000000000000010111111100111111111111000000000000000000000000000000000000001111111111111000000000000000000000000111111111
1111111111000000000000000000000111000111111111001100000000000000000000000000000000000000000000000000000000000000000000111000000001100000000000000000000000000111111000111111111111000000000000000000000000000000000000000111111111111000000000000000000000000111111111
1111111111000000000000000000000000000111111111001100000000000000000000000000000000000000000000000000000000000000000000000000000000100000000000000000000000000001111111111111111110001111000000000000000000000000000000000111111111110000000000000000000000000111111111
1111100111000000000000000000000000100111111111000000000000000000000000000000000000000000000000000000000000000000000000000000000000100000000000000000000000000000011111111111100110011111100000000000000000000000000000000111111111110000000000000000000000000111111111
1111100111100000000000000000000000000111111111000000000000000000000000000000000000000000000000000000000000000000000000000000000000100000000000000000000000000000000000111111000100011111111111111000000000000000000000000111111111110000000000000000000000000111111111
1111100111110000000000000000000000001111111111000000000000000000000000000000000000000000000000000000000000000000110000000000000000100000000000000000000000000000000001111110001100011111111111111000000000000000000000001111111111100000000000000000000000000111111111
1111100011111000000000000000000000001111111111000000000000000000000000000000000000000000000000000000000000000001111000000000000000100000000000000000000000000000000011111100001000111111111111111100000000000000000000011111111111100000000000000000000000000111111111
1111100001111110000000000000000000001111111111000000000000000000000000000000000000000000000000000000000000000001111000000000000000100000000000000000000000000000000000111000011000111111111111111100000000000000000000111111111111100000000000000000000000000111111111
1111100000111110000000000000000000001111111111000000000000000000000000000000000000000000000000000000000000000001111000000000000001100000000000000000000000000000000000110000110001111111111111111111000000000000000001111111111111100000000000000000000000000111111111
1111100000011111000000000000000000001111111111000000000000000000000000000000000000000000000000000000000000000000000000000000000001000000000000000000000000000000000000100011100001111111111111111111100000000000000011111111111111100000000000000000000000000111111111
1111100000001111100000000000000000011111111111000000000000000000000000000000000000000000000000000000000000000000000000000011100001111000000000000000000000000000000000000001111111111111111111111111100000000000000011111111111111100000000000000000000000000111111111
1111100000000111111100000000000000011111111111000000000000000000000000000000000000000000000000000000000000000000000000000011100000001110000000000000000000000000000000000011111111111111111111111111100000000000000111111111111111100000000000000000000000000111111111
1111100000000011111100000000000000011011111110000000000000000000000000000000000000000000000000000000000000000000000000000011100000000011100000000000000000000000000000000011111111111111111111111111100000000000000111111111101111100000000000000000000000000111111111
1111100000000000011110000000000000010011111000000001111000000000000000000000000000000000000000000000000000000000000000000000000000000000110000000000000000000000000000000111111111111111111111111111100000000000000111111110000111111110000000000000000000000111111111
1111100000000000000010000000000000000011111000000011111100000000000000000000000000000000000000000000000000000000000000000000000000000000011111111000000000001111111111111111111111111111111111111111100000000000001111111111100011111111000000000000000000000111111111
1111100000000000000000000000000000000011110000000011111100000000000000000000000000000000000000000000000000000000000000000000000000000000000000001111111111111000000000000011111111111111111111111111110000000000001111111000000011111111100000000000000000000111111111
1111100000000000000000000000000000000011110000000011111100000000000000000000000000000000000000000000000000000000000000000000000000000000000000000000000000000000000000000011111111111111111111111111110000000000001111110000000000111111110000000000000000000111111111
1111100000000000000000000000000000000011100000000001111000000000000000000000000000000000000000000000000000000000000000000000000000000000000000000000000000000000000000000001111111111111111111111111100000000000011111111000000000011111111000000000000000000111111111
1111100100000000000000000000000000000011100000000000000000000000000000000000000000000110000000000000000000000000000000000000000000000000000000000000000000000000000000000011111111111111111111111111000000000000011111111000000000001111111100000000000000000111111111
1111100110000000000000000000000001000001000000000000000000000000000000000000000000001111000000000000000000000000000000000000000000000000000000000000000000000000000000000011111111111111111111111111000000000000011111111000000000000011111110000000000000000111111111
1111110111000000000000000000000101000011000000000000000000000001111100000000000000001111000000000000000000000000000000000000000000000000000000000000000000000000000000000011111111111111111111111111100000000000001111111000000000000000001111000000000000000111111111
1111111111100000000000000000001111000011000000000000000000000111111111100000000000001111000000000000000000000000000000000000000000000000000000000000000000000000000000000111111111111111111111111111100000000000001111111000000000000000000111100000000000000111111111
1111111111110000000000000000111111000111000000000000000000001111111111110000000000000000000001111000000000000000000000000000000000000000000000000000000000000000000000000111111111111111111111111111100000000000001111111000000000000000000011110000000000000111111111
1111100111110000000000000000011111000101000000000000000000011111111111111000000000000000001111111100000000000000000000000000000000000000000000000000000000000000000000000111111111111111111111111110000000000000000111111111000000000000010011110000000000000011111111
1111100001111000000000000111111111000001000000000000000000111111111111111100000000000000001111111100000000000000000000000000000000000000000000000000000000000000000000000111111111111111111111111100000000000000000111111111000000000000001111111000000000000011111111
1111100000111100000000000001111111000001000000000000000001111111111111111110000000000011111111111100000000000000000000000000000000000000000000000000000000000000000000000111111111111111111111111000000000000000000011111111000000000000000011111000000000000011111111
1111101000011100000000000011111111000111100000000000000001111111111111111110000001100111111111111100000000000000000000000000000000000000000000000000000000000000000000000111111111111111111111100000000000000000000011111111110000000000000001111000000000000011111111
1111111000001100000000000011111111000111100000000000000001111111111111111111000111111111111111111100000000000000000000000000000000000000000000000000000000000000000000000111111111111111111111110000000000000000000001111111111110000000000000011000000000000011111111
1111111000000000000000000011111111000011100000000000000001111111111111111111000111111111111111111100000000000000000000000000000000000000000000000000000000000000000000000011111111111111111111100000000000000000000001111111111110000000000000011000000000000111111111
1111111000000000000000000011111111000010000000000000000001111111111111111111100111111111111111111110000000000000000000000000000000000000000000000000000000000000000000000011111111111111111111100000000000000000000000111111111111000000000000011100000000000111111111
1111110000000000000000000001111111000010000000000000000001111111111111111111100111111111111111111110000000000000000000000000001110000000000000000000000000000000000000000001111111111111111111000000000000000000000000011111111111000000000000011100000000000111111111
1111111000000000000000000001110000000010000000000000000001111111111111111111100111111111111111111110000000000000000000000000011110000000000000000000000000000000000000000000111111111111111110000000000000000000000000000111111111000000000000011000000000000111111111
1111111000000000000000000111110000000010000000000000000001111111111111111111111111111111111111111110000000000000000000000000011110000000000000000000000000000000000000000000111011111111111100000000000000000000000000000111111100000000000000010000000000000111111111
1111111000000000000000000111110000000010000000000000000001111111111111111111111111111111111111111110000000000000000000000000001110000000000000000000000000011000000000000000110011111111111100000000000000000000000000010111111000000000000000110000000000000111111111
1111110010000000000000001111110000000010000000000000000001111111111111111111111111111111111111111110000000000000000000000000000000000000000000000000000000011000000000000000110000111111111110000000000000000000000000000111100000000000000001000000000000000111111111
1111110000000000000000001111010000000010000000000000000000111111111111111111111111111111111111111111000000000000000000000000000000000000000000000000000000000000000000000000000000011111111111000000000000000000000000000011000000000000000011000000000000000011111111
1111111001100000000000101111000100000010000000000000000000111111111111111111111111111111111111111111000000000000000000000000000000000000000000000000000000000000000000000000000000000011111111100000000000000000000000000011001000000000000011000000000000000001111111
1111111000000000000000000000010000000010000000000000000000111111111111111111111111111111111111111111000000000000000000000000000000000000000000000000000000000000000000000000000000000000001111100000000000000000000000000010000000000000000100000000000000000000111111
1111110000000000000000000001100010000010000000000000000000111111111111111111111111111111111111111000000000000000000000000000000000000000000000000000000000000000000000000000000000000000001111100000000000000000000000000000000000000000001110000000000000000000011111
1111100000000000000000000001111111000010000000000000000000111111111111111111111111111111111111000000000000000000000000000000000000000000000000000000000000000000000000000000000000000000001111000000000000000000000000000011000000000000000100000000000000000000011111
1111110000000000000000000011111111000010000000000000000000111111111111111111111111111111111111000000000000000000000000000000000000000000000000000000000000000000000000000000000000000000000000000000000000000000000000000010000000000000000110000000000000000000011111
1111111000000000000000000011111111000010000000000000000000011111111111111111111111111111111111000000000000000000000000000000000000000000000000000000001000000000000000000000000000000000000000000000000000000000000000000010000000000000000010000000000000000000011111
1111111000000000000000000001111111000010000000000000000000011111111111111111111110111111111111000000000000000000000000000000000000000000000000000000011100000000000000000000000000000000000000000000000000000000000000000010011000000000010010000000000000000000011111
1111110000000000000000000000111111000010000000000000000000011111111111111111111000000111111111000000000000000000000000000000000000000000000000000000011100000000000000000000000000000000000000000000000000000000000000000111110000000000010010000000000000000000011111
1111111000000000000000000000001111000011000000000000000000011111111111111111111000000011111111000000000000000000000000000000000000000000000000000000000000000000000000000000000000000000000000000000000000000000000000000111100000000000010000000111110000000000011111
1111111000000000000000000000000111000001000000000000000000011111111111111111111100000011111111000000000000000000000000000000000000000000000000000000000000000000000000000000000000000000000000000000000000000000000000000011110000000000001000000111110000000000011111
1111110000000000000000000000000011000001000000000000000000011111111111111111111100000011111111000000000000000000000000000000000000000000000000000000000000000000000000000000000000000000000000000000000000000000000000000011110000000000001001000111110000000000011111
1111101000000000000000000000000111100001000000000000000000001111111111111111111100000000000000000000000000000000000000000000000000000000000000000000000000000000000000000000000000000000000000000000111000000000000000000010001100000000001000100111110000000000011111
1111100000000000000000000000000001110001000000000000000000000111111111111111111100000000000000000000000000000000000000000000000000000000000000000000000000000000000000000000000000000000000000000000111100000000000000000010011110000000001000110011110000000000111111
1111100000111100000000000000000000111001000000000000011100000001111111111111110000000000000000000000000000000000000000000000000000000000000000000000000000000000000000000000000000000000000000000000111000000000000000000010000000000000011000111000000000000011111111
1111100001111000000000000000000000011101100000000000011100000000000011111110000000000000000000000000000000000000000000000000000000000000000000000000000000000000000000000000000000000000000000000000000000000000000000000010000000000000001000000000000000000111111111
1111100011111000000000000000000000001111100000000000011000000000000001110000000000000000000000000000000000000000000000000000000000000000000000000000000000000000000000000000000000000000000000000000000000000000000000000010000000000000000100000000000000001111111111
1111100111110000000000000000000000001111100000000000000000000000000000000000000000000000000000000000000000000000000000000000000000000000000000000000000000000000000000000000000000000000110000000000000000000000000000000010000000000000000000000000000000011111111111
1111100111100000000000000000000000000111100000000000000000000000000000000000000000000000000000000000000000000000000000000000000000000000000000000000000000000000000000000000000000000001110000000000000000000000000111000011000000000000000000000000000010111111111111
1111100111000000000000000000000000000111110000000000000000000000000000000000000000000000000000000000000000000000000000000000000000000000000000000000000000000000000000000000000000000001110000000000000000000000000111000001000000000000000001101101011111111111111111
1111100110000000000000000000000000000000110000000000000000000000000000000000000000000000000000000000000000000000000000000000000000000000000000000000000000000000000000000000000000000000000000000000000000000000000000000001000000000000000000110011011111110010001111
1111100110000000000000000000000000000000110000000000000000000000000000000000000000000000000000000000000000000000000000000000000000000000000000000000000000000000000000000000000000000000000000000000000000000000000000000001100000000000000000110000011000000000001111
1111100110000000000000000000000000000000010000000000000000000000000000000000000000000000000000000000000000000000000000000000000000000000000000000000000000000000000000000000000000000000000000000000000000000000000000000000100101000000000000010000000110000000001111
1111101110000000000000000000000000000000011000000000000000000000000000000000000000000000000000000000000000000000000000000000000000000000000000000000000000000000000000000000000000000000000000000000000000000000000000000000100111000000000000011100000001110000001111
1111100000000000000000000000000000000000011000000000000000000000000000000000000000000000000000000000000000000000000000000000000000000000000000000000000000000000000000000000000000000000000000000000000000000000000000000000100111100000000000011111000000000000000001
1111100000000000000000000000000000000000011000000000000000000000000000000000000000011111111100000000000000000000000000000000000000000000000000000000000000000000000000001100000000000000000000001110000000000000000000000000100111111000100000001110000000000000000011
1111100000000000000000000000000000000000011000000000000000000000000000000000000000111111111110000000000000000000000000000000000000000000000000000000000000000000000000001110000000000000000000001110000000000000000000000000110011111111100000000110000000000000000111
1111100000000000000000000000000000000000011100000000000000000000000000000000000001111111111111000000000000000000000000000000000000000000000000000000000000000000000000001100000000000000000000000000000000000000110000000000010001111111100000000011000000000000001111
1111111100000000000000000000000000000000010100000000000000000000000000000000111111111111111111100000000000000000000000000000000000000000000000000000000000000000000000000000000000000000000000000000000000000000110000000000110001111011000000000001000000000000001111
1111111110000000000000000000000000000000110100000000000000000000000000000001111111111111111111111000000000000000000000000000000000000000000000000000000000000000000000000000000000000000000000000000000000000000000000000000100001111000000000000000100000000000111111
1111111110000000000000000000000000000000110100000000000000000000000000000011111111111111111111111100000000000000000000000000000000000000000000000000000000000000000000000000000000000000000000000000000000000000000000000000100001111001000000000000011000000001111111
1111111110000000000000000000000000000000110100000000000000000000000000000011111111111111111111111100000000000000000000000000000000000000000000000000000000000000000000000000000000000000000000000000000000000000000000000000100001110011000000000000000000000011111111
1111111110000000000000000000000000000000110100000000000000000000000000000011111111111111111111111110000000000000000000000000000000000000000000000000000000000000000000000000000000000000000000000000000000000000000000000001100000110110000000000000000100000111111111
1111111110000000000000000000000000000000110111100000000000000000000000000001111111111111111111111111000000000000000000000000000000000000000000000000000000000000000000000000000000000000000110000000000000000000000000000001000001111110000000000000000100000111111111
1111111110000000000000000000000000000000100111110000000000000000000000000001111111111111111111111111100000000000000000000000000000000000000000000000000000000000000000000000000000000111111111100000000011000000000000000011000001111000000000000110000010000111111111
1111111110000000000000000000000000000011100111110000000000000000000000000000111111111111111111111111110000000000000000000000000000000000000000000000000000000000000000000000000000111100000000111000000011000000000000110010000001110000000000000110000000000111111111
1111111110111000000000000000000000000011100111110000000000000000000000000000011111111111111111111111111000000000000000000000000000000000000000000000000000000000000000000000001111100000000000001110000000000000000000110110000111110000000000000000000000000111111111
1111111110011000000000000000000001111111000111110000000000000000000000000000000111111111111111111111111100000000000000000000000000000000000000000000000000000000000000000001111000000000000000000011111000001111111111110100000001100000000000000000000000000111111111
1111111110001000000000000000000011111110000011100000000000000000000000000000000000111111111111111111111100000000000000001100000000000000000000000000000000000000000000000111000000000000000000000000001110001111111111111100000001000000000000000000000000000111111111
1111111110000000000000000000111111111100000010000000000000000000000000000000000000000111111111111111111110000000011111111111111000000000000000000000000000000000000000001100000000000000000000000000000011111111111111111000000000000000000000000000000000000111111111
1111111111100000000000000000000111100000000110000000000000000000000000000000000000000001111111111111111111000001110100000000001111100000000000000000000000000000000000001000000000000000000000000000000000001111111111111000000100000000000000000001000000000011111111
1111111111111000000000000000000111000000000100000000000000000000000000000000000000000000111111111111111111100011000000000000000000111100000000000000000000000000000000001000000000000000000000000000000000000000000000000000000000000000000000000011000000000001111111
1111111111111000000000000000000111000000000100000000000000000000000000000000000000000000001111111111111111111110000000000000111100000111110000000000000000000000000000011001110000000000000000000000000011110100000001011110000000000000000000000110000000000000111111
1111111111000000000000000000001111000000000100000000000000000000000000000000000000000000000011111111111111111000000000000000011110001111111100000000000000000000000000010011110000000000000000000000000000111000000000100100000000000000000000001110000000000000011111
1111111110000000000000000000000000000000000100000000000000000000000000000000000000000000000000111111111111111000010000110111111111000111111111000000000000000000000000110111100000000000000000000000000000011100000000000000000000000000000000001110000000000000000001
1111111111000000000000000000000000000000000110000000000000000000000000000000000000000000000000011111111111111001001011111111111111111111111111110000000000000000000001100111100000000000000000000000000000001000000000000000000000000000000000011110000000000000000001
1111111110000000000000000000000000000000000010000000000000000000000000000000000000000000000000011111111111110010001111111111110011111111111111111100000000000000000011000111100000000000000000000000000000000000000000000000000000000000000000111100000000000000000001
1111111110000000000000000000000000000000000010000000000000000000000000000000000000000000000000011111111111110100011111111111111011111111111111111100000000000000000110000111101000000000000000000000000000000000000000000000000000000000000000011100000000000000000001
1111101110000000000000000000000000000000000111111000000000000000000000000000000000000000000000111111111111110000111100111101000000111111111111111110000000000000000100011111111100000000000000000000000000000001011110000000000000000000000000011100000000000000000001
1111100110000000000000000000000000000000000000001111110000000000000000000000000000000001110111111111111100000001111000000000000000111111111111111110000000000000000100010111111000000000000000000000000000001000111100100000000000000000000000001100000000000000000001
1111100010000000000000000000000000000000000000000000011100000000000000000000000000000111011111111111100000000011100000000000000000111111111111111111000000000000000100000111111000000000000000000000000000000000000000000000000000000000000000000100000000000000000001
1111100000000000000000000000000000000000000000000000000110000000000000000000000000001100000001111000000000000011100000000000000000011111111111111111100000000000001100000111110000000000000000000000000000000000000000000000000000000000000000000100000000000000000001
1111100001111111000000000000000000000000000000000000000011000000000000000000000000011000010000000000000000000111000000000000000000011111111111111111100000000000001001110111100000000000000000000000000000000000000000000000000000000000000000000000000000000000011111
1111100001111110000000000000000000000000000000000000000001000000000000000000000000010000100001000000000000101110000000000000000000001111111111111111100000000000001001100111100000000000000000000000000000000000000000000000000000011000011000000000000000000000111111
1111100001111100000000000000000000000111111100000000000001100000000000000000000000011001000000000000001111111100000000000000000000001111111111111111110000000000001001000111100000000000000000000000000000000000000000000000000000011000011100010000000000000001111111
1111100001111000000000000000000000000011111100000000000000100000000000000000000000111001000000000000011111111000000000000000000000001111111111111111110000000000001000000111100000000000000000000000000000000000000000000000000000011000011110111000000000000011111111
1111100001111000000000000000000110111111111111000000000000100000000000000000000001111100000000000000011111111000000000000000000000000111111111111111111000000000001000000111100000000100010000000000000000000000000000000111111111111000011110111000000000000111111111
1111100001110000000000000000100110011111111111000000000000100000000000000000000011111000000000110000111111110000000000000000000000000111111111111111111000000000001000000111100000001100101000000011000000000000000000000111111111110000011100011000000000001111111111
1111100001100000000000000001100000111111111111110000000000100000000000000000011111111010001110111111111111110000000000000000000000001111111111111111111000000000001000000111100001111100001100000011000000011100000000011111000000011000011000011000000000011111111111
1111100001000000000000000011100001111111111111110000000000100000000000000011111111111000001111111111111111000000000000001110000000001111111111111111111100000000001000000111100011111100001110000000000000011100000000011111000000001000011100001000000000111111111111
1111100000000000000000000111100000000000000111110000000001110000000001111111111111111000000111111111111111000000000000011110000000001111111111111111111100000000001000000111100011110000001111000000000000011100000001111100000000000000001111111000000001111111111111
1111100000000000000000001111100000000000000011110000001001111111111111111111111111111000000011111111111100000000000000011110000000001111111111111111111100000000001000001011110111110000001111000000000000000000000011111100000000000000000111111000000011111111111111
1111100000000000000000011111100000000000000000111000011111111111111111111111111111111000000000011111111100000000000000000000000000001111111111111111111110000000011100011011000001100000001111000000000000000001111111000000000000000000000011111000000111111111111111
1111100010000000000000111111100000000000000000111010111111111111111111111111111111111000000000111111111000000000000000000000000000011111111111111111111110000000011110111001000000000000001110000000000000000001111111000000000000011000000001111000001111111111111111
1111100000000000000001110000000000000000000000000001111111111111111111111111111111111000000000011111111000000000000000000000000000111111111111111111111111000000011111111000000000000001111110000010000000111111111111100000000000111000000000111000011111111111111111
1111100000000100000000010000000000000000000000000000111111111111111111111111111111111000000000000000100000000000000000000000000000111111111111111111111111000000011111111110000000000001111100000111000000111111111111110000000000111000000000011000111111111111111111
1111100000000110000001100000000000000000000000000000011111111111111111111111111111100000000000000000000000000000000000000000000000111111111111111111111111100000011111111110000000000011111000011111111011110000000011111000000000000000000000001001111111111111111111
1111100000000111000001110000000000000000000000000000011111111111111111111111111111000000000000000000000000000000000000000000000000111111111111111111111111100000011111111110000000000011100000011111111001110000001111111000011001111110000000000011111111111111111111
1111111100000000000001111000000000000000000000000000011111111111111111111111111000000000000000000000000000000000000000000000001111111111111111111111111111110000011111111110000000000001111000111111111110000000111100011000011111111111100000000000000001111111111111
1111111000000000010001111000000000000000000000000000011111111111111111111111111000000000000000000000000000000000000000000000001111111111111111111111111111110000001111111111100000000000111000111111101110000010111100011110001111111111110000000000000011111111111111
1111110000000000011001111000000000000000000000000000001111111111111111111110000000000000000000000000000001110000000000000000001111111111111111111111111111110000001111111111100000000000011111111110000000000000000000000100000011111111110000000000000111111111111111
1111100000000000000101111000000000000000000000000010000111111111111111111100000000000000000000000000000001110000000000000000001111111111111111111111111111111000000111111111100000000000001111111100000100000000000000000000000011001111111000000000001111111111111111
1111100000000000000001111000000000000000000000000000000011111111111110000000000000000000000000000000000001110000000000000000011111111111111111111111111111111000000011111111111100000000000001111000000000000000000000000000000000001111110000000000001111111111111111
1111100000000000000001111000100000000000000000000000000001111111111100000000000000000010000000000000000000000000000000000000111111111111111111111111111111111100000001111111111100000000000011111100000000000000000000000000000000000111111000000000000111110111111111
1111100000000000000001111001100000000000000000000110000000000000000000000000000000000000000000000000000000000000000000000001111111111111111111111111111111111100000000111111111111100000000111111100000000000000000000000000000000001111111000000000000011100111111111
1111100000000000000001111011100000000000000000000110000000000000000000000000000000000000000000000000000000000000000000000011111111111111111111111111111111111100000000001111111111100000001111111100000000000011000000000000000000001111111000000000000001000111111111
1111100000000000000001111111100000000000000000000010000000000000000000000000000000000000000000000000000000000000000000000111111111111111111111111111111111111110000000001111111111101000011111000000000001111111100000000000000000001111111000000000000000000111111111
1111100000000000000001111111100000000000000000001100000000000000000000000000000000000000000000000000000000000000000000000111111111111111111111111111111111111110000000000111111111111110111110000000000011111111000000000000000011011111111000000000000000000111111111
1111100000000000000001111110000000000000000000011110000000000000000000000000000000000000000000000000000000000000000000011111111111111111111111111111111111111111000000000011111111111111111100000011000011111100000000000000000111111111111000000000000000000111111111
1111100000000000000001111110000000000000000000011100000000000000000000000000000000000000000110000000000000000000000000111111110111111111111111111111111111111111000000000001111111111111111111111111110111110000000000000000001111111111110000000000110000000111111111
1111100000000000000001111110100000000000000001111000000000000000000000000000000000000000001111000000000000000000000001111111000111111111111111001111111111111111100000000000011111111111111111111111111111100000000000000000001111111111110000000001111000000111111111
1111100000000000000001111111100000000000000001111000000000000000000000000000000000000000001111000000000000000000000001111111000111111111111000000011111111111111100000000000000001101110000000111111111111000000000000000000000111111111110000000001111000000111111101
1111100000000000000001111111100000001100111111100000000000000000000000000000000000000000011111000000000000000000000001111110000000001111100000000001111111111111110000000000000011000000000000000000000000000000000000000000001111111111110000000001110000000111111001
1111100000000000000001111111101000000101011111100000000000000000000000000000000000000000000000000000000000000000000001111100000000000111100000000000111111111111110000000000000110000000000000000000000000000000000000000000001111111111100000000000000000000111110001
1111100000000000000001111111100000000001001110000000000000000000000111100000000000000000000000000000000000000000000001111100000000000000000000000000111111111111111000000000001100000000000000000000000000000000000011111111111111111111100000000000000001111111110001
1111100000000000000001111111100000000000001100000000000000000000000111100000000000000000000000000000000000000000000001111100000000000000000000000000011111111111111100000000001000000000000000000000000000000000111111111111111111111111000000000000000001111111110001
1111100000000000000001111111100000000000000000000000000000000000000111000000000000000000000000000000000000000000000001111100000000000001111111111100001111111111111110000000011000000000000000000000000000000001111111111111111111111110000000000000000001111111110001
1111100000000000000001111111100000000000000000000000000000000000000000000000000000000000000000000000000000000000000001111100000000000011111111111111000111111111111111000000110000000000000000000000000000000011111111111110000000000000000000000000000001111111110001
1111100000000000000001111111100000000000000000000000000000000000000000000000000000111000000000000000000000000000000000111100000000000111100000000011000111111111111111100001100000000000000000001110100000011111111111111000000000000000000000000000000001111111110001
1111100000000000000001111111100000000000000000000000000000000000000000000000000000111000000000000000000000000000000000011100000000001111000000000000000011111111111111110011000000000000000101111111111111111111111100000000000000000000000000000000000001111100110001
1111100000000000000001111111100000000000000000000000000000000000000000000000000000111000000000000000000000000000000000011110000000000000000000000000000001111111111111111110000000111111111111111111111111111001000000000000000000000001100000000000000001111100010001
1111100000000000000001111111100000000000000000000000000000000000000000000000000000111000000000000000000000000000000000011110000000000000000000000000000000111111111111111100001111111111111111110000001111111000000000000000000000000011100000000000000001111100000001
1111100000000000010001111110000000000000000000000000011111000000000000000000000000000000000000000000000000000000000000011111000000000000000000000000000000111111111111111110001111111111111111110000000011000000000000100000000000000111100000000000000000111111110001
1111100000000000011001111110000000000000000000000000011111100000000000000000000000000000000000000000000000000000000000011111000000000000000000000000000000011111111111111111011111111111111111110000000000000000000000111000000000000111000000000011100000011111110001
1111100000000000011101111110000000000000000000000000011111111000000000000000000000000000000000000000000000000000000000001111100000000100000000000000000000001111111111111111111111111111111111110000000000000000000001100000000000000110000000000011100000001111110001
1111100000000000011111111100000000000000000000000000011111111000000000000000000000000000000000000000000000000000000000000111110000011110000000000000011000000111111111111111111111111111111111100000000000000000000001100000000000000110000000000011100000011111110001
1111100000000000011111111010000000000000000000000000111111111000000000000000000000000000000000000000000000000000000000000011000000011110000000000000011000000111111111111111111111111111111111100000000000000111111111100000000001111110000000000000000000111111110001
1111100000000000011111111000000000000000000001000000011111111000000000000000000000000000000000000000000000000000000000000001000000001110000000000000011000000011111111111111111111111111111111100000000000000111111111100000001001111110000000000000000000011111100001
1111100000000000011111111000100000000000000000011111011011101000000000000000000000000000000000000000000000000000000000000111000000000000000000000000000000000000111111111111111111111111111111000000000000011111111111100000011111111000000000000000000000111111110001
1111100000000000011111111000000000000000000001111111110001000000000000000000000000000000000000000000000000000000000000000011000000000000000000000000000000000000011111111111111111111111111100000000000000011111111111000000011111111000000000000000000000111110100001
1111100000000000000111111111111111111111111111111111110000000000000000000000000000000000000000000000000000000000000000000111000000000000000000000000000000000000001111111111111111111111111000000011111111111000000000000000010000000000000000000000000000000000000001
1111100000000000010101111111111111111111111111111111111000000000000000000000000000000000000000000000000000000000000000000111000000000000000000000000000000000000001111111111111111111111111111111111111111110000000000000000011000000000000000000000000000000000000001
1111100000000000110001111111111111111111111111111111111111110000000000000000000000000000000000000000000000000000000000000111110000000000000000000000000000000000000111111111111111111111111111111111000001000000000000000000010000000000000000000000000000000000000001
1111100000000001110001111111111111111111111111111111111111111000000000000000000000000000000000000000000000000000000000000111110000000000000000000000000000000000000111111111111111111111111110000111100000000000000000000000000000000000000000000000000000000000000001
1111100000000011111100000111111111111100000000000011011111111000111000000000000000000000000000000000001110010000000000000001110000001000000000000000000000000000000011111111111111111111111000000000000001100000000000000000000000000000000000000000000000001000000001
1111100000000001111000000111111111111110000000000100011111111000011000000000000000000000000000000000000110000000000000000001110000001010000000000000000000000000000011111111111111111111111101000000000011110000000000000000100000000000000000000000000000100000000001
1111100000000000110000000111111111111111000000000000111111111000111111100000000000000000000000000000000010000000000000000001110000000000000000011110100000000000000000001111111111111111100000000000000000011000000000000000000000000000000000000000000000000000000001
1111100000000000000000000111111111111111100000000101011111111000011111100000000000000000000000000000000000000000000000000011110000000000000000111100100000000000000000000111111111111111110000000000000000111100000000000010000000000000000000000000000000000000000001
1111100000000000000000000000000000000000000000000000011111111111111111111111111111111111100000000000000001111111110000000001000000000000000000000000000000000000000000000000111111000000000000000000000000000011000000001000000000000000000000000000000000000010000001
1111100000000000000000000000000000000000000000000000011111111111111111111111111111111111100000000000000000111111111000000100010000000000000000000000000000000000000000001000111111100000000000000000000000000011000000011010000000000000000000000000000000010010000001
1111100000000000000000000000000000000000000000000000011111111111111111111111111111111111000000000000000000011111111100000110000000000000000000000000000000000000000000000000000000000000000000000000000000000000010001000001111100000000000000000000000000000000000001
1111100000000000000000000000000000000000000000000000011111111111111111111111111111111100000000000000000000001111111110000111000000000000000000000000000000000000000000000000000000000000000000000000000000000000000000000011111110000000000000000000000000001000000001
1111100000000000000000000000000000000000000000000000000000000000000001111111111111111111111111111111111111111100000000000000000000000000000000000000000000000000000000000000000000000000000110000000000000000100000001111111111111111100000000000000000000111100000001
1111100000000000000000000000000000000000000000000000000000000000000000111111111111111111111111111111111111110110000000000000000000000000110000000000000000000000000000000000000000000000000111000000000011000110000011111111111111111110000000000000000000111100000001
1111100000000000000000000000000000000000000000000000000000000000000000011111111111111111111111111111111111100111000000000000000000000001111000000000000000000000000000000000000000000000000111111110000111000111000111111111111111111111000000000000000000111100000001
1111100000000000000000000000000000000000000000000000000000000000000000001111111111111111111111111111111111101111100000000000000000000001111000000000000111000000000000000000000000000000001111111100001111000111101111111111111111111111100000000000000100111100000001
1111100000000000000000000000000000000000000000000000000000000000000000000000000000000000000000000000000000000111110000000011000000000000110000000000000111000000000000000000000000000000011111111111111111111111111111111111111111111111111111111111111111111100000001
1111100000000000000000000000000000000000000000000000000000000000000000000000000000000000000000000000000000000111111000000000000000000000000000000000000111000000000000000000000000000000011111111111111111111111111111111111111111111111111111111111111111111100000001
1111100000000000000000000000000000000000000000000000000000000000000000000000000000000000000000000000000000000111111100000000100000000000000000000000000110000000000000000000000000011111111111111111111111111111111111111111111111111111111111111111111111111100000001
1111100000000000000000000000000000000000000000000000000000000000000000000000000000000000000000000000000000000111111110000000000000000000000000000000000000000000000000000000000000111111111111111111111111111111111111111111111111111111111111111111111111111100000001
1111111111111111111111111111111111111111111111111111111111111111111111111111111111111111111111111111111111111111111111111111111111111111111111111111111111111111111111111111111111111111111111111111111111111111111111111111111111111111111111111111111111111111111111
