111111111111111111111111111111111111111111111111111111111111111111111111111
111111111111111111111111111111111111111111111111111111111111111111111111111
111111111111111111111111111111111111111111111111111111111111111111111111111
111111111111111111111100110000000000000111011111111111111110000011111111111
111111111111111111111100110000000000000111001111111111110000000011111111111
111111111111111111111100111000000000000111000111111111110000000011111111111
111111111111111111110000111000000000000000000111111111110000000000000000111
111111111111111111110000111000111111100000000001111111110000000000000001111
111111111111111111111000111000111111100000000000111111110000000000000001111
111111111111111111111000000000111111111000000000111000000000000000000000111
111111111111111111111000000000111111111000000000111000000000000000000000111
111111111111111111111000000000111111111000000001111000000000000000000000111
111111111111111111111000000000000000000000000001111000000000000000000001111
111111111111111111111000000000000000000000000000111000000000000000000001111
111111111111111111111000000000000000000000111111111111100000000000000001111
111111111111111111111000000000000000111111111111111111100000000000000001111
111111111111111111111111111100111111111111111111111111111110000000000000111
111111111111111111111111111100111111111111111111111111111110000000000000111
111111111111111111111111111100111111111111111111111111111110000000000111111
111111111111111111100000000000000000111000111111111111111110000000000111111
111111111111111111100000000000000000111000000000000011111110000000000111111
111111111111111111100000000000000000000000000000000001111110000000000111111
111111111111111111100000000000000000000000000110000000111110000001100111111
111111111111111111100000000000000000000000000000000000011110000001100111111
111111111111111111100000000000000000000000000000000000011110000011100000111
111111111111111111100000000000000000000000000000000000001110000011000000111
111111111111111111100000000000000000000000000000000000001110000000000001111
111111111110000000000000000000000000000000000000000000001110000000000001111
111111100000000000000000000001100000011000000000000000000000000000000001111
111000000000000000000001111111111111111111111000000000000000000000000001111
111000000000000000000001111111111111111111111000000000000110000000000001111
111000000000000000000001111111111111111111111000000000001110000001111101111
111000000000000011100001111111111111111111111000011111111111111111111111111
111000000000000011100001111111111111111111111000111111111111111111111111111
111000000000000011100000001100000011000110000000111111111111111111111111111
111000000000000011100000000000000011000000000000111111111111111111111111111
111000000000000011100000000000000000000000000000111111111111111111111111111
111000000000000011100000000000000000000000000000111111111111111111111111111
111110000000000011100000000000000000000000000000111111111111111111111111111
111111100000000011101100000000000000000000000000111111111111111111111111111
111111111111001111111111111111111111111111111111111111111111111111111111111
111111111111001111111111111111111111111111111111111111111111111111111111111
111111111111111111111111111111111111111111111111111111111111111111111111111
