11111111111111111111111111111111111111111
11111111111111111111111111111111111111111
11111111111111111111111111111111111111111
11111111111111111111111111111111111111111
11111111111111111111111111110000111111111
11111111111111111111111111000000111111111
11111111111111111111111100000000000111111
11111111111111111111111100000000000011111
11111111111111111111111111111111110000111
11111111111110011111111111111111110000111
11111111111110000001111111111111110000111
11111111111110000001111111111111110000111
11111111111110000000000000000000000000111
11111111110000000000000000000000000000111
11111111111000000000000000000000000000111
11111111111000000000000000000000000000111
11111111111100000000000000000000000000111
11111111111111000000000000000000000000111
11111111111111000000000011100000000000111
11111111111110000000000111110000000000111
11111111111111000000000011110000000111111
11111111111110000000000000110000001111111
11111111111100000000000000000000001111111
11111111111100000000000000000000001111111
11111111111100000000000000000000000111111
11111111111100000000000000000000001111111
11111111111100000000000000000000001111111
11111111100000000000000000000000000111111
11111111100000000000000000000000000011111
11111111100000000000000000000000000011111
11111111100000000000000000000000000011111
11111110000000000000000000000000111111111
11111100000000000000000000000000111111111
11111100000001111000011111111000111111111
11111100001111111110011111111111111111111
11111100001111111111111111111111111111111
11111100011111111111111111111111111111111
11111111111111111111111111111111111111111
11111111111111111111111111111111111111111
11111111111111111111111111111111111111111
11111111111111111111111111111111111111111
11111111111111111111111111111111111111111
