1111111111111111111111111111111111111111111111111111111111111111111111111111
1111111111111111111111111111111111111111111111111111111111111111111111111111
1111111111111111111111111111111111100000000001111111111111111111111111111111
1111111111111111111111111111111111110000000001111101111100011111001111111111
1111111111111111111111111111111111110000111111111100000000000000000001100111
1111111111111111111111111111111111100000000000000000000000000000111100000111
1111111111111111111111111111111111100000000000000000000000000000000000001111
1111111111111111111111111111111111100000000000000000000000000000000000001111
1111111111111111111111111111111111100000111111111100000000000000000000001111
1111111111111111111111111111111111100000111111111100000000000000011111111111
1111111111111111111111111111111111100000000000001100000000000000000000001111
1110011110000011110000011111111100000000001111101100000000000000000000001111
1110011110000011110000011111111100000000001111111100000000000000000000001111
1110000000000011110000011100000000000000000101111100000000000000000000001111
1110000000000011110000011100000000000000000000111100000011111000000000001111
1110000000000011110000011100000000000000000000001100000011111000000000001111
1110000000000011110000011100000000111111111110001100000011111000000000000111
1110000000000011110000011100000000111111111110111100000011111000000000000111
1110000000000000000000000000000000111111111110011100000011111000000000000111
1110000000000000000000000000000000111111111110001100000011111000000000000111
1110000000000000000000000000000000001111000000001100000011111000000000000111
1110000000000000000000000000000000001111000000001100000011111000000000000111
1110000000000000000000000000000000001111000000001100000011111000000000000111
1110000000000000000000000000000000001111000000001100000011111000000000000111
1000000000000000000000000000000000001111000001111100000011111000000001110111
1000000000000000000000000000000000001111000001111100000011111000000001110111
1110000000000000000000000000000000001111000001111100000011111000000000000111
1110000000000000000000000000000000001111000001111100000011111000000000000111
1110000000000000000000000000000000001111000000011100000011111000000000000111
1110000000000000000000000000000000001111000000111100000011111000000000000111
1110000000000000000000000000000000001111000000111100000011111000000000000111
1110000000000000000000000000000000001111000000111100000011111000000000000111
1110000000000000000000000000000000001111000000001100000011111000000000000111
1110000000000000000000000000000000001111000000001100000011111000000000000111
1111000000000000000000000000000000000000000000011100000011111000000001111111
1111000000000000000000000000000000000000000000011100000011111000000001111111
1111000000000011100000000000000000000000000000001100000011111000000001111111
1111000000000011100000000000000000000000000000001100000000000000000001111111
1111000000000011100000000000000000000000000001111100000000000000000001111111
1111111111000011110000011111111110000000000001111110000000000000000001111111
1111111111111111111111111111111111100000111111111110000000000000000001111111
1111111111111111111111111111111111100000111111111110000000000000000001111111
1111111111111111111111111111111111110000000000000000000000000000000000001111
1111111111111111111111111111111111110000000000000000000000000000000000001111
1111111111111111111111111111111111100000000000000000000000000100000000001111
1111111111111111111111111111111111100000111111111100000000001110000000001111
1111111111111111111111111111111111100000111111111110000000000110000000001111
1111111111111111111111111111111111110000000001111110000000000011111111111111
1111111111111111111111111111111111111111111111111111111111111111111111111111
1111111111111111111111111111111111111111111111111111111111111111111111111111
1111111111111111111111111111111111111111111111111111111111111111111111111111
