1111111111111111111111111111111111111111111111111111111111111111111111111111111111111111111111111111111111111111111111111111111111111111111111111111111111111111
1111111111111111111111111111111111111111111111111111111111111111111111111111111111111111111111111111111111111111111111111111111111111111111111111111111111111111
1111111111111111111111111111111111111111111111111111111111111111111111111111111111111111111111111111111111111111111111111111111111111111111111111111111111111111
1111111111111111111111111111111111111111111111111111111111111111111111111111111111111111111111111111111111111111111111111111111111111111111111111111111111111111
1111111111111111111111111111111111111111111111111111111111111111111000000000000111111111111111111111111111111111111111111111111111111111111111111111111111111111
1111111111111111111111111111111111111111111111111111111111110000000000000000000000000001111100000000000111111111111111111111111111111111111111111111111111111111
1111111111111111111111111111111111111111110000000000000011110000000000000000000000000001111100000000000111111111111111111111111111111111111111111111111111111111
1111111111111111111111111111111111111111110000000000000000000000000000000000000000000001111100000000000111111111111111111111111111111111111111111111111111111111
1111111111111111111111111111111111111111110000000000000000000000000000000000000000000001111100000000000111111111111111111111111111111111111111111111111111111111
1111111111111111111111111111111111111111110000000000000000000000000000000000000000000001111100000000000111111111111111111111111111111111111111111111111111111111
1111111111111111111111111111111111111111110000000000000000000000000000000000000000000011111100000000000011111111111111111111111111111111111111111111111111111111
1111111111111111111111111111111111111111110000000000000000000000000000000000000000000011111100000000000011111111111111111111111111111111111111111111111111111111
1111111111111111111111111111111111111111110000000000000000000000000000000000000000000011111100000000000011111111111111111111111111111111111111111111111111111111
1111111111111111111111111111111111111111110000000000000000000000000000000000000000000011111100000000000011111111111111111111111111111111111111111111111111111111
1111111111111111111111111111111111111111110000000000000000000000000000000000000000000011111100000000000011111111111111111111111111111111111111111111111111111111
1111111111111111111111111111111111111111110000000000000000000000000000000000000000000011111100000000000011111111111111111111111111111111111111111111111111111111
1111111111111111111111111111111111111111110000000000000000000000000000000000000000000011111100000000000011111111111111111111111111111111111111111111111111111111
1111111111111111111111111111111111111111110000000000000000000000000000000000000000000011111100000000000011111111111111111111111111111111111111111111111111111111
1111111111111111111111111111111111111111110000000000000000000000000000000000000000000011111100000000000001111111111111111111111111111111111111111111111111111111
1111111111111111111111111111111111111111110000000000000000000000000000000000000000000011111100000000000001111111111111111111111111111111111111111111111111111111
1111111111111111111111111111111111111111110000000000000000000000000000000000000000000011111100000000000001111111111111111111111111111111111111111111111111111111
1111111111111111111111111111111111111111110000000000000000000000000000000000000000000111111100000000000001111111111111111111111111111111111111111111111111111111
1111111111111111111111111111111111111111110000000000000000000000000000000000000000000111111100000000000001111111111111111111111111111111111111111111111111111111
1111111111111111111111111111111111111111110000000000000000000000000000000000000000000111111100000000000001111111111111111111111111111111111111111111111111111111
1111111111111111111111111111111111111111110000000000000000000000000000000000000000000111111100000000000001111111111111111111111111111111111111111111111111111111
1111111111111111111111111111111111111111110000000000000000000000000000000000000000000111111100000000000001111111111111111111111111111111111111111111111111111111
1111111111111111111111111111111111111111110000000000000000000000000000000000000000000111111100000000000001111111111111111111111111111111111111111111111111111111
1111111111111111111111111111111111111111110000000000000000000000000000000000000000000111111000000000000001111111111111111111111111111111111111111111111111111111
1111111111111111111111111111111111111111110000000000000000000000000000000000000000000011110000000000000001111111111111111111111111111111111111111111111111111111
1111111111111111111111111111111111111111110000000000000000000000000000000000000000000001100000000000000001111111111111111111111111111111111111111111111111111111
1111111111111111111111111111111111111111111111111000000000000000000000000000000000000000000000000000000001111111111111111111111111111111111111111111111111111111
1111111111111111111111111111111111111111111111111110000000000000000000000000000000000000000000000000000001111111111111111111111111111111111111111111111111111111
1111111111111111111111111111111111111111111111111111000000000000000000000000000000000000000000000000000001111111111111111111111111111111111111111111111111111111
1111111111111111111111111111111111111111111111111111100000000000000000000000000000000000000000000000000001111111111111111111111111111111111111111111111111111111
1111111111111111111111111111111111111111111111111111110000000000000000000000000000000000000000000000000001111111111111111111111111111111111111111111111111111111
1111111111111111111111111111111111111111111111111111110000000000000000000000000000000000000000000000000001111111111111111111111111111111111111111111111111111111
1111111111111111111111111111111111111111111111111111110000000000000000000000000000000000000000000000000001111111111111111111111111111111111111111111111111111111
1111111111111111111111111111111111111111111111111110000000000000000000000000000000000000000000000000000001111111111111111111111111111111111111111111111111111111
1111111111111111111111111111111111111111111100000000000000000000000000000000000000000000000000000000000001111111111111111111111111111111111111111111111111111111
1111111111111111111111111111111111111111110000000000000000000000000000000000000000000000000000000000000001111111111111111111111111111111111111111111111111111111
1111111111111111111111111111111111111111110000000000000000000000000000000000000000000000000000000000000001111111111111111111111111111111111111111111111111111111
1111111111111111111111111111111111111111110000000000000000000000000000000000000000000000000000000000000001111111111111111111111111111111111111111111111111111111
1111111111111111111111111111111111111111110000000000000000000000000000000000000000000000000000000000000001111111111111111111111111111111111111111111111111111111
1111111111111111111111111111111111111111110000000000000000000000000000000000000000000000000000000000000001111111111111111111111111111111111111111111111111111111
1111111111111111111111111111111111111111110000000000000000000000000000000000000000000000000000000000000001111111111111111111111111111111111111111111111111111111
1111111111111111111111111111111111111111110000000000000000000000000000000000000000000000000000000000000001111111111111111111111111111111111111111111111111111111
1111111111111111111111111111111111111111110000000000000000000000000000000000000000000000000000000000000001111111111111111111111111111111111111111111111111111111
1111111111111111111111111111111111111111110000000000000000000000000000000000000000000000000000000000000001111111111111111111111111111111111111111111111111111111
1111111111111111111111111111111111111111110000000000000000000000000000000000000000000000000000000000000001111111111111111111111111111111111111111111111111111111
1111111111111111111111111111111111111111110000000000000000000000000000000000000000000000000000000000000001111111111111111111111111111111111111111111111111111111
1111111111111111111111111111111111111111110000000000000000000000000000000000000000000000000000000000000001111111111111111111111111111111111111111111111111111111
1111111111111111111111111111111111111111110000000000000000000000000000000000000000000000001100000000000001111111111111111111111111111111111111111111111111111111
1111111111111111111111111111111111111111110000000000000000000000000000000000000000000000001100000000000001111111111111111111111111111111111111111111111111111111
1111111111111111111111111111111111111111110000000000000000000000000000000000000000000000001100000000000001111111111111111111111111111111111111111111111111111111
1111111111111111111111111111111111111111110000000000000000000000000000000000000000000000000000000000000001111111111111111111111111111111111111111111111111111111
1111111111111111111111111111111111111111110000000000000000000000000000000000000000001111000000000000000001111111111111111111111111111111111111111111111111111111
1111111111111111111111111111111111111111110000000000000000000000000000000000000000011111100000000000000001111111111111111111111111111111111111111111111111111111
1111111111111111111111111111111111111111111111000000000000000000000000000000000011111111100000000000000001111111111111111111111111111111111111111111111111111111
1111111111111111111111111111111111111111111111000000000000000000000000000000000011111111100000000000000001111111111111111111111111111111111111111111111111111111
1111111111111111111111111111111111111111111111000000000000000000000000000000011111111111100000000000000001111111111111111111111111111111111111111111111111111111
1111111111111111111111111111111111111111111111000000000000000000000000000000111111111110000000000000000001111111111111111111111111111111111111111111111111111111
1111111111111111111111111111111111111111111111000000000000000000000000000000111111111000000000000000000001111111111111111111111111111111111111111111111111111111
1111111111111111111111111111111111111111111111000000000000000000000000000000111111100000000000000000000001111111111111111111111111111111111111111111111111111111
1111111111111111111111111111111111111111110000000000000000000000000000000000011111000000000000000000000001111111111111111111111111111111111111111111111111111111
1111111111111111111111111111111111111111110000000000000000000000000000000000001110000000000000000000000001111111111111111111111111111111111111111111111111111111
1111111111111111111111111111111111111111110000000000000000000000000000000000000100000000000000000000000001111111111111111111111111111111111111111111111111111111
1111111111111111111111111111111111111111110000000000000000000000000000000000000000000000000000000000000001111111111111111111111111111111111111111111111111111111
1111111111111111111111111111111111111111110000000000000000000000000000000000000000000000000000000000000001111111111111111111111111111111111111111111111111111111
1111111111111111111111111111111111111111110000000000000000000000000000000000000000000000000000000000000001111111111111111111111111111111111111111111111111111111
1111111111111111111111111111111111111111110000000000000000000000000000000000000000000000000000000000000001111111111111111111111111111111111111111111111111111111
1111111111111111111111111111111111111111110000000000000000000000000000000000000000000000000000000000000001111111111111111111111111111111111111111111111111111111
1111111111111111111111111111111111111111110000000000000000000000000000000000000000000000000000000000000001111111111111111111111111111111111111111111111111111111
1111111111111111111111111111111111111111110000000000000000000001110000000000011110000000000000000000000001111111111111111111111111111111111111111111111111111111
1111111111111111111111111111111111111111110000000000000000000011110000000000011110000000000000000000000001111111111111111111111111111111111111111111111111111111
1111111111111111111111111111111111111111110000000000000000000011111000000000011110000000000000000000000001111111111111111111111111111111111111111111111111111111
1111111111111111111111111111111111111111110000000000000000000001110000000000011110000000000000000000000001111111111111111111111111111111111111111111111111111111
1111111111111111111111111111111111111111110000000000000000000011111000000000011111000000000000000000000111111111111111111111111111111111111111111111111111111111
1111111111111111111111111111111111111111111000000000000000000111111000000000011111000000000000000000000111111111111111111111111111111111111111111111111111111111
1111111111111111111111111111111111111111111111111000000000000111111000000000011111100000000000011111111111111111111111111111111111111111111111111111111111111111
1111111111111111111111111111111111111111111111111000000000001111111100000000111111110000000000011111111111111111111111111111111111111111111111111111111111111111
1111111111111111111111111111111111111111111111111000000000001111111100000000111111110000000000011111111111111111111111111111111111111111111111111111111111111111
1111111111111111111111111111111111111111111111111000000000011111111100000000111111110000000000011111111111111111111111111111111111111111111111111111111111111111
1111111111111111111111111111111111111111111111111000000000011111111100000000111111111000000000111111111111111111111111111111111111111111111111111111111111111111
1111111111111111111111111111111111111111111111111100000000011111111110000001111111111000000000111111111111111111111111111111111111111111111111111111111111111111
1111111111111111111111111111111111111111111111111100000000111111111110000001111111111100000001111111111111111111111111111111111111111111111111111111111111111111
1111111111111111111111111111111111111111111111111100000000111111111110000001111111111100000001111111111111111111111111111111111111111111111111111111111111111111
1111111111111111111111111111111111111111111111111110000000111111111110000001111111111100000001111111111111111111111111111111111111111111111111111111111111111111
1111111111111111111111111111111111111111111111111110000001111111000110000001111111111100000001111111111111111111111111111111111111111111111111111111111111111111
1111111111111111111111111111111111111111111111111110000001111100000010000001111111111110000011111111111111111111111111111111111111111111111111111111111111111111
1111111111111111111111111111111111111111111111111110000001110011000010000001111111111110000011111111111111111111111111111111111111111111111111111111111111111111
1111111111111111111111111111111111111111111111111110000001000111100010000001111111111110000011111111111111111111111111111111111111111111111111111111111111111111
1111111111111111111111111111111111111111111111111110000001000111100010000001111111111110000011111111111111111111111111111111111111111111111111111111111111111111
1111111111111111111111111111111111111111111111111110000001000011000010000001111111111110000011111111111111111111111111111111111111111111111111111111111111111111
1111111111111111111111111111111111111111111111111110000001000000000010000001111111111110000011111111111111111111111111111111111111111111111111111111111111111111
1111111111111111111111111111111111111111111111111110000001000000000010000001111111111100000001111111111111111111111111111111111111111111111111111111111111111111
1111111111111111111111111111111111111111111111111110000001100000000010000001111111111100000001111111111111111111111111111111111111111111111111111111111111111111
1111111111111111111111111111111111111111111111111010000000100000000100000001111111111100000001011111111111111111111111111111111111111111111111111111111111111111
1111111111111111111111111111111111111111111111111010000000001111111100000000111111111100000001011111111111111111111111111111111111111111111111111111111111111111
1111111111111111111111111111111111111111111111111010000000000000000000000000000000000000000001011111111111111111111111111111111111111111111111111111111111111111
1111111111111111111111111111111111111111111111110010000000000000000000000000000000000000000001011111111111111111111111111111111111111111111111111111111111111111
1111111111111111111111111111111111111111111111110010000000000000000000000000000000000000000001001111111111111111111111111111111111111111111111111111111111111111
1111111111111111111111111111111111111111111111110010000000000000000000000000000000000000000001001111111111111111111111111111111111111111111111111111111111111111
1111111111111111111111111111111111111111111111100010000000000000000111111111110000000000000001000111111111111111111111111111111111111111111111111111111111111111
1111111111111111111111111111111111111111111111100000000000000000001111111111110000000000000001000111111111111111111111111111111111111111111111111111111111111111
1111111111111111111111111111111111111111111111100000000000000000011111111111111000000000000001000111111111111111111111111111111111111111111111111111111111111111
1111111111111111111111111111111111111111111111100000000000000000111111111111111100000000000001000011111111111111111111111111111111111111111111111111111111111111
1111111111111111111111111111111111111111111111000000000000000000111111111111111100000000000001000011111111111111111111111111111111111111111111111111111111111111
1111111111111111111111111111111111111111111111000000000000000001111111111111111110000000000001000001111111111111111111111111111111111111111111111111111111111111
1111111111111111111111111111111111111111111111000000000000000011111111111111111111000000000001000001111111111111111111111111111111111111111111111111111111111111
1111111111111111111111111111111111111111111110000001000000000011111111111111111111000000000001000000111111111111111111111111111111111111111111111111111111111111
1111111111111111111111111111111111111111110000000001000000000011111111111111111111000000000001000000000001111111111111111111111111111111111111111111111111111111
1111111111111111111111111111111111111111110000000001000000000011111111111111111111000000000001000000000001111111111111111111111111111111111111111111111111111111
1111111111111111111111111111111111110011110000000001000000000011111111111111111111000000000001000000000001111111111111111111111111111111111111111111111111111111
1111111111111111111111111111111111110011110000000001000000000011111111111111111111000000000001000000000001111111111111111111111111111111111111111111111111111111
1111111111111111111111111111111111110011110000000001000000000000000000000000000000000000000001000000000001111111111111111111111111111111111111111111111111111111
1111111111111111111111111111111111110111110000000001000000000000000000000000000000000000000001000000000001111111111111111111111111111111111111111111111111111111
1111111111111111111111111111111111110000000000000000100000000000000000000000000000000000000010000000000001111011111111111111111111111111111111111111111111111111
1111111111111111111111111111111111100000000000000000100000000000000000000000000000000000000010000000000001111011111111111111111111111111111111111111111111111111
1111111111111111111111111111111111100000000000000000100000000000000000000000000000000000000010000000000001110011111111111111111111111111111111111111111111111111
1111111111111111111111111111111111100000000000000000110000000000000000000000000000000000000010000000000001110011111111111111111111111111111111111111111111111111
1111111111111111111111111111111111100000000000000000010000000000000000000000000000000000000100000000000001110011111111111111111111111111111111111111111111111111
1111111111111111111111111111111111000000000000000000010000000000000000000000000000000000000100000000000001110001111111111111111111111111111111111111111111111111
1111111111111111111111111111111111000000000000000000010000000000000000000000000000000000000110000000000001110001111111111111111111111111111111111111111111111111
1111111111111111111111111111111111000000000000000000010000000000000000000000000000000000000110000000000001110001111111111111111111111111111111111111111111111111
1111111111111111111111111111111111000000000000000000010000000000000000000100000000000000000100000000000001111001111111111111111111111111111111111111111111111111
1111111111111111111111111111111110000000000000000000011000000000000000000111110000000000000100000000000001111001111111111111111111111111111111111111111111111111
1111111111111111111111111111111110000000000000000000011000000000000000001111111110000000001100000000000001110000111111111111111111111111111111111111111111111111
1111111111111111111111111111111110000000000000000000011000000000000000001111111111111000001100000000000001110000111111111111111111111111111111111111111111111111
1111111111111111111111111111111110000000000000000000011000000000000000000011111111111111101100000000000001110000111111111111111111111111111111111111111111111111
1111111111111111111111111111111110000000000000000000001000000000000000000000001111111111111100000000000001110000111111111111111111111111111111111111111111111111
1111111111111111111111111111111100000000000000000000111111111111111111111000000000111111111110000000000000000000111111111111111111111111111111111111111111111111
1111111111111111111111111111111100000000000000000000111111111111111111111000000000000111111100000000000000000000111111111111111111111111111111111111111111111111
1111111111111111111111111111111100000000000000000000111111111111111111111000000000000000011100000000000111010000111111111111111111111111111111111111111111111111
1111111111111111111111111111111100000000000000000000001000000000000000000000000000000000001000000000000111000000111111111111111111111111111111111111111111111111
1111111111111111111111111111111100000000000000000000001000000000000000000000000000000000001000000001100011000000111111111111111111111111111111111111111111111111
1111111111111111111111111111111111100000000000000000001000000000000000000000000000000000001000000000001111000000111111111111111111111111111111111111111111111111
1111111111111111111111111111111100000000000000000000001000000000000000000000000000000000001000000000000011100000111111111111111111111111111111111111111111111111
1111111111111111111111111111111100000000000000000000001000000000000000000000000000000000001000000000000001000000111111111111111111111111111111111111111111111111
1111111111111111111111111111111111011000000000000000001000000000000000000000000000000000001000000000000011100000111111111111111111111111111111111111111111111111
1111111111111111111111111111111111110011000000000000001000000000000000000000000000000000001000000000000011100000111111111111111111111111111111111111111111111111
1111111111111111111111111111111111111111000000000000001000000000000000000000000000000000001000000000000111000000111111111111111111111111111111111111111111111111
1111111111111111111111111111111111111111100000000000001000000000000000000000000000000000001000000000000000000000111111111111111111111111111111111111111111111111
1111111111111111111111111111111111111111100000000000001000000000000000000000000000000000001000000000000000000000111111111111111111111111111111111111111111111111
1111111111111111111111111111111111111111110000000001001000000000000000000000000000000000001000000000000000000000111111111111111111111111111111111111111111111111
1111111111111111111111111111111111111111110000000001111000000000000000000000000000000000001000000000000000000000111111111111111111111111111111111111111111111111
1111111111111111111111111111111111111111110000000010001000000000000000000000000000000000001000000000000000000000111111111111111111111111111111111111111111111111
1111111111111111111111111111111111111111111000000010000110000000000000100110000000000000001000000000000000000000111111111111111111111111111111111111111111111111
1111111111111111111111111111111111111111111100000100000001100000010001111111101100001000001000000000000000000000111111111111111111111111111111111111111111111111
1111111111111111111111111111111111111111111110001000000000010001111111111111111111011100001000000000000000000000111111111111111111111111111111111111111111111111
1111111111111111111111111111111111111111111110001000000000001111111111111111111111100100001000000000000000000000111111111111111111111111111111111111111111111111
1111111111111111111111111111111111111111111111010000000000000011111111111111111111000010001000000000000100000000111111111111111111111111111111111111111111111111
1111111111111111111111111111111111111111111111010000000000000001111111110011111110000001001000000000000100000000111111111111111111111111111111111111111111111111
1111111111111111111111100111111111111111111111100000000000000000111111000000111100000000101000000000000100000000111111111111111111111111111111111111111111111111
1111111111111111110000001000111111111111111111000000000000000000011100000000011100000000001000000000001100001000111111111111111111111111111111111111111111111111
1111111111111111100000000100000111101111111111000000000000000000011000000000000000000000000110000000011111111111111111111111111111111111111111111111111111111111
1111111111111111000000000000000111100001111110000000000000000000000000000000000000000000000001100000111111111111111111111111111111111111111111111111111111111111
1111111111111111110000000111110011110000111110000000000000000000000000000000000000000000000000011000011111111111111111111111111111111111111111111111111111111111
1111111111111111100000011110000001110000111110000000000000000000000000000000000000000000000000000100011111111111111111111111111111111111111111111111111111111111
1111111111111111000000011100000001110000101110000000000000000000000000000000000000000000000000000001011111111111111111111111111111111111111111111111111111111111
1111111111111111000000111000000000110000001111000000000000000000000000000000000000000000000000000000111111111000000001111111111111111111111111111111111111111111
1111111111111111000000110000000000110000000110000000000000000000000000000000000000000000000000000000001111100000000000000011111111111111111111111111111111111111
1111111111111111000000110000000000111000111000000000000000000000000000000000000000000000000000000000000011000000000000000011111111111111111111111111111111111111
1111111111111111000000110000000001111000100000000000000000000011100000000000000011100000000000000000000000000000000000000011111111111111111111111111111111111111
1111111111111111000000110000000011111110000000000000000000000011111000000000001111100000000000000000000000000000000000000000000000111111111111111111111111111111
1111111111111111000001110000000111111100000000000000000000000111111110000000111111110000000000000000000000000000000000000000000000001111111111111111111111111111
1111111111111111000011110000011111110000000000000000000000000111111111000001111111110000000000000000000000000000000000000000000000000011111111111111111111111111
1111111111111111000011110000111111000000000000000000000000000011111111110111111111100000000000000000000000000000000000000000000000000000111111111111111111111111
1111111111111111001111110000111110000000000000000000000000000000111111110111111110000000000000000000000000000000000000000000000000000000111111111111111111111111
1111111111111111011111110011111000000000000000000000000000000000001111100011111000000000000000000000000000000000000000000100000000000000011111111111111111111111
1111111111111110011111110111100000000000000000000000000000000000001111100011111000000000000000000000000000000000000000000100000000000000011111111111111111111111
1111111111111111011111110000000000000000000000000000000000000000001111000001111000000000000000000000000000000000000000000100000000000000011111111111111111111111
1111111111111111111111110000000000000000000000000000000000000000001111000001111000000000000000000000000000000000000000000111000000000000011111111111111111111111
1111111111111111111111110000000000000000000000000000000000000000001111000001111000000000000000000000000000000000000000000111100000000000011111111111111111111111
1111111111111111111111110000000000000000000000000000000000000000011111000001111000000000000000000000000000000000000000000111110000000000011111111111111111111111
1111111111111111111111110000000000000000000000000000000000000000011111000001111000000000000000000000000000000000000000000111110000000000000111111111111111111111
1111111111111111111111110000000000000000000000000000000000000000011111000001111000000000000000000000000000000000000000001111111000000000000011111111111111111111
1111111111111111111111111000000000000000000000000000000000000000011111000001111000000000000000000000000000000000000000001111111110000000000001111111111111111111
1111111111111111111111111000000000000000000000000000000000000000011111000001111000000000000000000000000000000000000000001111111111000000000000111111111111111111
1111111111111111111111111100000000000000000000000000000000000000011111000001111000000000000000000000000000000000000000000011111110000000000000001111111111111111
1111111111111111111111110000000000000000000000000000000000000000011111000001111100000000000000000000000000000000000000000000111100000000000000011111111111111111
1111111111111111111111000000000000000000000000000000000000000000011111000001111100000000000000000000000000000000000000000000001100000000000000011111111111111111
1111111111111111111110000000000000000000000000000000000000000000011111000001111100000000000000000000000000000000000000000000000000000000000000011111111111111111
1111111111111111111000000000000000000000000000000000000000000000011111110111111100000000000000000000000000000000000000000000000000000000000000011111111111111111
1111111111111111110000000000000000000000000000000000000000000000111111110111111100000000000000000000000000000000000000000000000000000000000000011111111111111111
1111111111111111110000000000000000000000000000000000000000000011111111111111111111100000000000000000000000000000000000000000000000000000000000111111111111111111
1111111111111111111000000000000000000000000000000000000000000011111111111111111111100000000000000000000000000000000000000000000000000000000000111111111111111111
1111111111111111111100000000000000000000000000000000000000000011111111111111111111100000000000000000000000000000000000000000000000000000000000111111111111111111
1111111111111111111110000000000000000000000000000000000000000001111111111111111111100000000000000000000000000000000000000000000000000111000000111111111111111111
1111111111111111111110000000000000000000000000000000000000000000000011111111110001000000000000000000000000000000000000000000011111111100000001111111111111111111
1111111111111111111111000000000000000000000000000000000000000000000011110011100000000000000000000000000000000000110000000001111111100000000011111111111111111111
1111111111111111111111000000000000000000000000000000000000000000000001100001000000000000000000000000000000000000111100000000000000000000000111101111111111111111
1111111111111111111111100000000111000000000000000000000000000000000001000001100000000000000000000000000000000001111110000000000000000000000111000001111111111111
1111111111111111111111110000011111000000000000000000000000000000000011000000110000000000000000000000000000000011111111100000000000000000001100000001111111111111
1111111111111111111111110000111111100000000000000000000000000000000110000000010000000000000000000000000000000111111111111000000000000000011000000001111111111111
1111111111111111111111111011111111110000000000000000000000000000000100000000001001000000000000000000000000011111111111110000000000000000100000000001111111111111
1111111111111111111111111111111111111000000000000000000000000001111110000000001111100000000000000000000000110011111111110000000000000000000000000011111111111111
1111111111111111111111111111111111111110000000000000000000000011111111111000000010110000000000000000000011100000100011100000000000000000000000000011111111111111
1111111111111111111111111111111111111111100000000000000000000111111111000000000000110000000000000001000110000000000000000000000000000000000000000011111111111111
1111111111111111111111111111111111111111110000100000000000001111111100000000000000000011100000001111111100000000000000000000000000000000000000000001111111111111
1111111111111111111111111111111111111111111101111100000111100111111100000000000000000000001111001111111000000000000000000000000000000000000000111000011111111111
1111111111111111111111111111111111111111111111111101110111110111111111000000000000000000011111111111111100000000000000000000000000000000000011000010000111111111
1111111111111111111111111111111111111111111111111111111111111111111111111000100000000001111111111111111111100110000000000000000000000000000001110000000001111111
1111111111111111111111111111111111111111111111111111111111111111111111111101000000111111111111111111111111111100000000000000000000000000000000000000001001111111
1111111111111111111111111111111111111111111111111111111111111111111111111111100001111111111111111111111111111000000000000000000000000000000000000000110000111111
1111111111111111111111111111111111111111111111111111111111111111111111111111000111111111111111111111111111110000000000000000000000000000000000000011110000011111
1111111111111111111111111111111111111111111111111111111111111111111111111111111111111111111111111111111111111000000000000000000000000000000000000111100000001111
1111111111111111111111111111111111111111111111111111111111111111111111111111111111111111111111111111111111111100000000000000000000000000000000011111000000001111
1111111111111111111111111111111111111111111111111111111111111111111111111111111111111111111111111111111111111111000000000000000000000000000001111000000000000111
1111111111111111111111111111111111111111111111111111111111111111111111111111111111111111111111111111111111111111000000000000000000000000000110000000000000000111
1111111111111111111111111111111111111111111111111111111111111111111111111111111111111111111111111111111111111111000000000000000000000000000000000000000000000111
1111111111111111111111111111111111111111111111111111111111111111111111111111111111111111111111111111111111111111000000000000000000000000000000000000000000000011
1111111111111111111111111111111111111111111111111111111111111111111111111111111111111111111111111111111111111111000000000000000000000000000000000000000000000011
1111111111111111111111111111111111111111111111111111111111111111111111111111111111111111111111111111111111111111000000000000000000000000000000000000000000000011
1111111111111111111111111111111111111111111111111111111111111111111111111111111111111111111111111111111111111111000000000000000000000000000000000000000000000011
1111111111111111111111111111111111111111111111111111111111111111111111111111111111111111111111111111111111111111000000000000000000000000000000000000000000000111
1111111111111111111111111111111111111111111111111111111111111111111111111111111111111111111111111111111111111111000000000000000000000000000000000000000000000111
1111111111111111111111111111111111111111111111111111111111111111111111111111111111111111111111111111111111111111100000000000000000000000000000000000000000001111
1111111111111111111111111111111111111111111111111111111111111111111111111111111111111111111111111111111111111111100000000000000000000000000000000000000000011111
1111111111111111111111111111111111111111111111111111111111111111111111111111111111111111111111111111111111111111100000000000000000000000000000000000000000011111
1111111111111111111111111111111111111111111111111111111111111111111111111111111111111111111111111111111111111111110000000000000000000000000000000000000000111111
1111111111111111111111111111111111111111111111111111111111111111111111111111111111111111111111111111111111111111110000000000000000000000000000000000000000111111
1111111111111111111111111111111111111111111111111111111111111111111111111111111111111111111111111111111111111111110000000000000000000000000000000000000001111111
1111111111111111111111111111111111111111111111111111111111111111111111111111111111111111111111111111111111111111110000000000000000000000000000000000000011111111
1111111111111111111111111111111111111111111111111111111111111111111111111111111111111111111111111111111111111111110000000000000000000000000000000000000111111111
1111111111111111111111111111111111111111111111111111111111111111111111111111111111111111111111111111111111111111110000000000000000000000000000000000000111111111
1111111111111111111111111111111111111111111111111111111111111111111111111111111111111111111111111111111111111111110000000000000000000000000000000000001111111111
1111111111111111111111111111111111111111111111111111111111111111111111111111111111111111111111111111111111111111111000000000000000000000000000000000011111111111
1111111111111111111111111111111111111111111111111111111111111111111111111111111111111111111111111111111111111111111111100000000000000000000000000000111111111111
1111111111111111111111111111111111111111111111111111111111111111111111111111111111111111111111111111111111111111111111111111111111111111111111111111111111111111
