1111111111111111111111111111111111111111
1111111111111111111111111111111111111111
1111111111111111111111111111111111111111
1111111111010001111100000000011111111111
1111111110000001111110000000011111111111
1111111000000000011110000000011111111111
1111111000000000011110000000011111111111
1111111000110000011100000000011111111111
1111111000110000001100000000111111111111
1110110011111110001100000000111111111111
1110000111111110011110000000111111111111
1110000011111000011110000000111111111111
1110000000111000011110000000011110001111
1110000000000000000000000000011110001111
1110000000000000000000000000011110001111
1110000000000000000000000110011110001111
1110000000000000011111110111011110001111
1110000000000000011111111111111110001111
1110000000000000011111111111111110001111
1110000000000000001111111111111110001111
1110000000000000000111100001111110001111
1000000000000000000000000000000110001111
1000000000000000000000000000000000000111
1110000000000000000000000000000000000111
1110000000000000000000000000000000000111
1110000000000000011111111111111111111111
1110000000000000011111111111111111111111
1110000000001000011111111111111111111111
1111111111111111111111111111111111111111
1111111111111111111111111111111111111111
1111111111111111111111111111111111111111
1111111111111111111111111111111111111111
