111111111111111111111111111111111111111111111111111111111111111111111111111111111111111111111111111111111111111111111111111111111111111111111111111111111111111111111111111111111111111111111111111
111111111111111111111111111111111111111111111111111111111111111111111111111111111111111111111111111111111111111111111111111111111111111111111111111111111111111111111111111111111111111111111111111
111111111111111111111111111111111111111111111111111111111111111111111111111111111111111111111111111100000000000011111111111111111111111111111111111111111111111111111111111111111111111111111111111
111111111111111111111111111111111111111111111111111111111111111111111111111111111110000000000000111100000000000011111111111111111111111111111111111111111111111111111111111111111111111111111111111
111111111111111111111111111111111111111111111111111111111111111111111111111111111111000000000000111100000000000001111111111111111111111111111111111111111111111111111111111111111111111111111111111
111111111111111111111111111111111111111111111111111111111111111111111111111111111111000000000000111000000000000001111111111111111111111111111111111111111111111111111111111111111111111111111111111
111111111111111111111111111111111111111111111111111111111111111111111111111111111111000000000000000000000000000001111111111111111111111111111111111111111111111111111111111111111111111111111111111
111111111111111111111111111111111111111111111111111111111111111111111111111111111111000000000000000000000000000001111111111111111111111111111111111111111111111111111111111111111111111111111111111
111111111111111111111111111111111111111111111111111111111111111111111111111111111100000000000000000000000000000001111111111111111111111111111111111111111111111111111111111111111111111111111111111
111111111111111111111111111111111111111111111111111111111111111111111111111111111100000000000000000000000000000001111111111111111111111111111111111111111111111111111111111111111111111111111111111
111111111111111111111111111111111111111111111111111111111111111111111111111111111100000000000000000000000000000001111111111111111111111111111111111111111111111111111111111111111111111111111111111
111111111111111111111111111111111111111111111111111111111111111111111111111111111100000000000000000000000000000001111111111111111111111111111111111111111111111111111111111111111111111111111111111
111111111111111111111111111111111111111111111111111111111111111111111111111111111111000000000000000000000000000001111111111111111111111111111111111111111111111111111111111111111111111111111111111
111111111111111111111111111111111111111111111111111111111111111111111111111111111111000000000000000000000000000001111111111111111111111111111111111111111111111111111111111111111111111111111111111
111111111111111111111111111111111111111111111111111111111111111111111111111111111111000000000000000000000000000001111111111111111111111111111111111111111111111111111111111111111111111111111111111
111111111111111111111111111111111111111111111111111111111111111111111111111111111111000000000000000000000000000001111111111111111111111111111111111111111111111111111111111111111111111111111111111
111111111111111111111111111111111111111111111111111111111111111111111111111111111110000000000000111100000000000011111111111111111111111111111111111111111111111111111111111111111111111111111111111
111111111111111111111111111111111111111111111111111111111111111111111111111111111111111111111111111100000000000011111111111111111111111111111111111111111111111111111111111111111111111111111111111
111111111111111111111111111111111111111111111111111111111111111111111111111111111111111111111111111100000000000011111111111111111111111111111111111111111111111111111111111111111111111111111111111
111111111111111111111111111111111111111111111111111111111111111111111111111111111111111111111111111000000000000011111111111111111111111111111111111111111111111111111111111111111111111111111111111
111111111111111111111111111111111111111111111111111111111111111111111111111111111111111111111111110000000000000001111111111111111111111111111111111111111111111111111111111111111111111111111111111
111111111111111111111111111111111111111111111111111111111111111111111111111111111111111111111111110000000000000001111111111111111111111111111111111111111111111111111111111111111111111111111111111
111111111111111111111111111111111111111111111111111111111111111111111111111111111111111111111111110000000000000001111111111111111111111111111111111111111111111111111111111111111111111111111111111
111111111111111111111111111111111111111111111111111111111111111111111111111111111111111111111111110000000000000001111111111111111111111111111111111111111111111111111111111111111111111111111111111
111111111111111111111111111111111111111111111111111111111111111111111111111111111111111111111111110000000000000001111111111111111111111111111111111111111111111111111111111111111111111111111111111
111111111111111111111111111111111111111111111111111111111111111111111111111111111111111111111111110000000000000001111111111111111111111111111111111111111111111111111111111111111111111111111111111
111111111111111111111111111111111111111111111111111111111111111111111111111111111111111111111111110000000000000001111111111111111111111111111111111111111111111111111111111111111111111111111111111
111111111111111111111111111111111111111111111111111111111111111111111111111111111111111111111111110000000000000001111111111111111111111111111111111111111111111111111111111111111111111111111111111
111111111111111111111111111111111111111111111111111111111111111111111111111111111111111111111111110000000000000001111111111111111111111111111111111111111111111111111111111111111111111111111111111
111111111111111111111111111111111111111111111111111111111111111111111111111111111111111111111111110000000000000001111111111111111111111111111111111111111111111111111111111111111111111111111111111
111111111111111111111111111111111111111111111111111111111111111111111111111111111111111111111111110111000000000001111111111111111111111111111111111111111111111111111111111111111111111111111111111
111111111111111111111111111111111111111111111111111111111111111111111111111111111111111111111111110111000000000001111111111111111111111111111111111111111111111111111111111111111111111111111111111
111111111111111111111111111111111111111111111111111111111111111111111111111111111111111111111111111111110000111111111111111111111111111111111111111111111111111111111111111111111111111111111111111
111111111111111111111111111111111111111111111111111111111111111111111111111111111111111111111111111111110000111111111111111111111111111111111111111111111111111111111111111111111111111111111111111
111111111111111111111111111111111111111111111111111111111111111111111111111111111111111111111111111111110000111111111111111111111111111111111111111111111111111111111111111111111111111111111111111
111111111111111111111111111111111111111111111111111111111111111111111111111111111111111111111111111011110000111111111111111111111111111111111111111111111111111111111111111111111111111111111111111
111111111111111111111111111111111111111111111111111111111111111111111111111111111111111111111111110000000000011101111111111111111111111111111111111111111111111111111111111111111111111111111111111
111111111111111111111111111111111111111111111111111111111111111111111111111111111111111111111111110000000000011101111111111111111111111111111111111111111111111111111111111111111111111111111111111
111111111111111111111111111111111111111111111111111111111111111111111111111111111111111111111111110000000000000001111111111111111111111111111111111111111111111111111111111111111111111111111111111
111111111111111111111111111111111111111111111111111111111111111111111111111111111111111111111111110000000000000001111111111111111111111111111111111111111111111111111111111111111111111111111111111
111111111111111111111111111111111111111111111111111111111111111111111111111111111111111111111111110000000000000001111111111111111111111111111111111111111111111111111111111111111111111111111111111
111111111111111111111111111111111111111111111111111111111111111111111111111111111111111111111111110000000000000001111111111111111111111111111111111111111111111111111111111111111111111111111111111
111111111111111111111111111111111111111111111111111111111111111111111111111111111111111111111111110000000000000001111111111111111111111111111111111111111111111111111111111111111111111111111111111
111111111111111111111111111111111111111111111111111111111111111111111111111111111111111111111111110000000000000001111111111111111111111111111111111111111111111111111111111111111111111111111111111
111111111111111111111111111111111111111111111111111111111111111111111111111111111111111111111111110000000000000001111111111111111111111111111111111111111111111111111111111111111111111111111111111
111111111111111111111111111111111111111111111111111111111111111111111111111111111111111111111111110000000000000001111111111111111111111111111111111111111111111111111111111111111111111111111111111
111111111111111111111111111111111111111111111111111111111111111111111111111111111111111111111111110000000000000001111111111111111111111111111111111111111111111111111111111111111111111111111111111
111111111111111111111111111111111111111111111111111111111111111111111111111111111111111111111111111000000000000011111111111111111111111111111111111111111111111111111111111111111111111111111111111
111111111111111111111111111111111111111111111111111111111111111111111111111111111111111111111111111100000000000011111111111111111111111111111111111111111111111111111111111111111111111111111111111
111111111111111111111111111111111111111111111111111111111111111111111111111111111111111111111111111100000000000011111111111111111111111111111111111111111111111111111111111111111111111111111111111
111111111111111111111111111111111111111111111111111111111111111111111111111111111111111111111111111100000000000011110000000000001111000000000011111100000000000011110000111000011111000000000000111
111111111111111111111111111111111111111111111111111111111111111111111111111111111111111111111111111000000000000001000000000000001110000000000011111000000000000011100000111000001110000000000000111
111111111111111111111111111111111111111111111111111111111111111111111111111111111111111111111111110000000000000000000000000000000000000000000011111100000000000000000000111000000000000000000000011
111111111111111111111111111111111111111111111111111111111111111111111111111111111111111111111111110000000000000000000000000000000000000000000001111100000000000000000000000000000000000000000000011
111111111111111111111111111111111111111111111111111111111111111111111111111111111111111111111111110000000000000000000000000000000000000000000000111100000000000000000000000000000000000000000000011
111111111111111111111111111111111111111111111111111111111111111111111111111111111111111111111111110000000000000000000000000000000000000000000000111100000000000000000000000000000000000000000001111
111111111111111111111111111111111111111111111111111111111111111111111111111111111111111111111111110000000000000000000000000000000000000000000000000000000000000000000000000000000000000000000001111
111111111111111111111111111111111111111111111111111111111111111111111111111111111111111111111111110000000000000000000000000000000000000000000000000000000000000000000000000000000000000000000001111
111111111111111111111111111111111111111111111111111111111111111111111111111111111111111111111111110000000000000000000000000000000000000000000000000000000000000000000000000000000000000000000000011
111111111111111111111111111111111111111111111111111111111111111111111111111111111111111111111111110000000000000000000000000000000000000000000000000000000000000000000000000000000000000000000000011
111111111111111111111111111111111111111111111111111111111111111111111111111111111111111111111111110000000000000000000000000000000000000000000000111100000000000000000000000000000000000000000000011
111111111111111111111111111111111111111111111111111111111111111111111111111111111111111111111111110000000000000000000000000000000000000000000001111100000000000000000000000000000000000000000000011
111111111111111111111111111111111111111111111111111111111111111111111111111111111111111111111111110111000000011100000000000000000000000000000011111100000000000000000000000000000000000000000000011
111111111111111111111111111111111111111111111111111111111111111111111111111111111111111111111111111111000000011100000000000000000000000000000011111000000000000000000000000000000000000000000000011
111111111111111111111111111111111111111111111111111111111111111111111111111111111111111111111111111111110000111111100000000000001111000000000001111100000000000011110000000000001111000000000000111
111111111111111111111111111111111111111111111111111111111111111111111111111111111111111111111111111111110000111111111111111111111111111111111111111111111111111111111111111111111111000000000000111
111111111111111111111111111111111111111111111111111111111111111111111111111111111111111111111111111111110000111111111111111111111111111111111111111111111111111111111111111111111111000000000000111
111111111111111111111111111111111111111111111111111111111111111111111111111111111111111111111111111111110000111111111111111111111111111111111111111111111111111111111111111111111110000000000000111
111111111111111111111111111111111111111111111111111111111111111111111111111111111111111111111111110000000000000001111111111111111111111111111111111111111111111111111111111111111110000000000000011
111111111111111111111111111111111111111111111111111111111111111111111111111111111111111111111111110000000000000001111111111111111111111111111111111111111111111111111111111111111110000000000000011
111111111111111111111111111111111111111111111111111111111111111111111111111111111111111111111111110000000000000001111111111111111111111111111111111111111111111111111111111111111110000000000000011
111111111111111111111111111111111111111111111111111111111111111111111111111111111111111111111111110000000000000001111111111111111111111111111111111111111111111111111111111111111110000000000000011
111111111111111111111111111111111111111111111111111111111111111111111111111111111111111111111111110000000000000001111111111111111111111111111111111111111111111111111111111111111110000000000000011
111111111111111111111111111111111111111111111111111111111111111111111111111111111111111111111111110000000000000001111111111111111111111111111111111111111111111111111111111111111110000000000000011
111111111111111111111111111111111111111111111111111111111111111111111111111111111111111111111111110000000000000001111111111111111111111111111111111111111111111111111111111111111110000000000000011
111111111111111111111111111111111111111111111111111111111111111111111111111111111111111111111111110000000000000001111111111111111111111111111111111111111111111111111111111111111110000000000000011
111111111111111111111111111111111111111111111111111111111111111111111111111111111111111111111111110000000000000001111111111111111111111111111111111111111111111111111111111111111110000000000000011
111111111111111111111111111111111111111111111111111111111111111111111111111111111111111111111111110000000000000001111111111111111111111111111111111111111111111111111111111111111110000000000000011
111111111111111111111111111111111111111111111111111111111111111111111111111111111111111111111111110000000000000001111111111111111111111111111111111111111111111111111111111111111110000000000000011
111111111111111111111111111111111111111111111111111111111111111111111111111111111111111111111111111000000000000011111111111111111111111111111111111111111111111111111111111111111110000000000000011
111111111111111111111111111111111111111111111111111111111111111111111111111111111111111111111111111111110000111111111111111111111111111111111111111111111111111111111111111111111111000000000000111
111111111111111111111111111111111111111111111111111111111111111111111111111111111111111111111111111111110000111111111111111111111111111111111111111111111111111111111111111111111111000000000000111
111111111111111111111101111001111111111111111111111111111111111111111111111111111111111111111111111111110000111111111111111111111111111111111111111111111111111111111111111111111111000000000000111
111111111111111111100000000001111111111111111111111111111111111111111111111111111110111111111111111011110000111111100000000000001111111111111111111111111111111111110011111111111110000000000000111
111111111111111111100000000000000011111111111111111111111111111111111111111111111110000000001111100000000000000000000000000000000111111111111111111111111111111111100011111111111110000000000000011
111111111111111111100000000000000011111111111111111111111111111111111111111111111110000000000111100000000000000000000000000000000111111111111111111111111111111111110000001111111100000000000000011
111111111111111111100000000000000011111111111111110001111111111111111111111111111110000000000111100000000000000000000000000000000111111111111111111111111111111111110000001111111100000000000000011
111111111111111111100000000000000000000000000000000000011111111111111111111111111110000000000111000000000000000000000000000000000111111111111111111111111111111111110000001111111100000000000000011
111111111111111111100000000000000000000000000000000000000111111111111111111111111110000000000111000000000000000000000000000000000111111111111111111111111111111111110000000111111100000000000001111
111111111111111111111000000000000000000000000000000000000111111111111111111111111110000000000011000000000000000000000000000000000111111111111111111111111111111111111000000111111110000000000001111
111111111111111111111000000000000000000000000000000000000011111111111111111111111110000000000000000000000000000000000000000000000111111111111111111111111111111111111000000111111110000000000001111
111111111111111111111000000000000000000000000000000000000111111111111111111111111110000000000000000000000000000000000000000000000111111111111111111111111111111111111000000011111110000000000000111
111111111111111111111000000000000000000000000000000000000111111111111111111111111110000000000000000000000000000000000000000000000111111111111111111111111111111111111000000011110100000000000000011
111111111111111111111000000000000000000000000000000000000111111111111111111111111110000000000000000000000000000001000000000000000111111111111111111111111111111111110000000011110100000000000000011
111111111111111111111000000000000000000000001000000000000111111111111111111111111110000000000000000000000000001111000000000000000111111111111111111111111111111111110000000011110100000000000000011
111111111111111111111000000000001110000000011011111000000111111111111111111111111110000000000000000000000000001111000000000000001111111111111111111111111111111111110000000000000100000000000000011
111111111111111111111000000000011111111111111111111100000011111111111111111111111111000000000000000000000000001111000000000000011111111111111111111111111111111111110000000000001111000000000000111
111111111111111111111110000000011111111111111111111100000011111111111111111111111111000000000000000000000000001111000000000000011111111111111111111111111111111111110000000000011111000000000000111
111111111111111111111110000000011111000111100111111100000011111111111111111111111111000000000000000000000000000011000000000000011111111111111111111111100000111111110000000000011111000000000000111
111111111111111111111110000000001111110100000111111000000011111111100000000000001111000000000000000000000000000011000000000000001111111111111111111111100000111111100000000000011110000000000000111
111111111111111111111110000000000011110000000000000000000011110011110000000000001111000000000000000000000000000011000000000000001111111111111111110000000000000000000000000000011111000000000000011
111111111111111111111110000000000111110000000000000000000000000011110000000000001111000000000000000000000000000011000000000000001111111111111111110000000000000000000000000000011111000000000000011
111111111111111111011110000000001110000000000000000000000000000011110000000000001111000000000000000000000000000011000000000000111111111111111111110000000000000000000000000000011111000000000000011
111111111111111111011110000000001110000000000000000000000000000011110000000000001111000000000000000000000000000011000000001111111111111111111111110000000000000000000000000000011111000000000000011
111111111111111111011110000000001110000000000000000000000000000000000000000000000000000000000000000000000000000011000000001111111111111111111111110000000000000000000000000000000000000000000000011
111111111111111111011110000000001110000000000000000000000000000000000000000000000000000000000000000000000000000011000000001111111111111111111111110000000000000000000000000000000000000000000000011
111111111111111111011110000000000100000000000000000000000000000000000000000000000000000000000000000000000000000011000000000000011111111111111111110000000000000000000000000000000000000000000000011
111111111111111111011110000000000100000000000000000000000000000000000000000000000000000000000000000000000000000011000000000000000111111111111111110000110000000000000000000000000000000000000000011
111111111111111111001100000000000100000000000000000000000000000011110000000000001111000000000000000000000000000011000000000000000111111111111111110000110000000000000000000000001111000000000000011
111111111111111111100000000000000000000000000000000000000000000011110000000000001111000000000000000000000000000011000000000000000111111111111111110011111111111111111111110000001111000000000000011
111111111111111111100000000000000000000000000000000000000000000011110000000000001111000000000000000000000000000011000000000000000111111111111111110011111111111111111111110000001111000000000000011
111111111111111111100000000000001110000000000000111000000000000011100000000000001111000000000000000000000000000011000000000000000111111111111111110011111111111111111111110000001110000000000000011
111111111111111111110000000000011111111000000111111100000000000111110000000000011111000000000000000000000000000011000000000000001111111111111111111111111111111111111111111111111111000000000000111
111111111111111111110000000000011111111111110111111100000000000111111111111111111111100001000011111110000100001111110000000000011111111111111111111111111111111111111111111111111111000000000000111
111111111111111111110000000000011111111111110111111100000000000111111111111111111111111111111111111111111111111111110000000000011111111111111111111111111111111111111111111111111111000000000000111
111111111111111111100000000000001111111111111111111000000000011111111111111111111111111111111111111111111111111111110000000000001111111111111111111111111111111111111111111111111110000000000000111
111111111111111111100000000000000011111111111111110000000000011111111111111111111111111111111000111000011111001111100000000000000111111111111111111111111111111111111111111111111100000000000000011
111111111111111111111100000000000011111111111111110000000000000011111111111111111111111111111000000000001111001110000000000000000111111111111111111111111111111111111111111111111100000000000000011
111111111111111111111100000000000011111111111111110000000000001111111111111111111111111111111000000000000000000000000000000000000111111111111111111111111111111111111111111111111100000000000000011
111111111111111111111100000000000000000000000000000000000000111111111111111111111111111111110000000000000000000000000000000000000111111111111111111111111111111111111111111111111100000000000000011
111111111111111111111100000000000000000000000000000000000011111111111111111111111111111111110000000000000000000000000000000000000111111111111111111111111111111111111111111111111100000000000011111
111111111111111111111100000000000000000000000000000000000111111111111111111111111111111111110000000000000000000000000000000000000111111111111111111111111111111111111111111111111100000000000011111
111111111111111111111110000000000000000000000000000000011111111111111111111111111111111111110000000000000000000000000000000000001111111111111111111111111111111111111111111111111100000000000011111
111111111111111111111111111111110000000000000000000001111111111111111111111111111111111111110000000000000000000000000000000000001111111111111111111111111111111111111111111111111100000000000011111
111111111111111111111111111111110000000000000000000011111111111111111111111111111111111111110000000000000000000000000000000000001111111111111111111111111111111111111111111111111100000000000000011
111111111111111111111111111111110000100000000000001111111111111111111111111111111111111111111000000000000000000001100000000000001111111111111111111111111111111111111111111111111100000000000000011
111111111111111111111111111111111111110000000011111111111111111111111111111111111111111111111000000000000000000011100000000000001111111111111111111111111111111111111111111111111100000000000000011
111111111111111111111111111111111111111000000011111111111111111111111111111111111111111111111000111000000000000011110000000000011111111111111111111111111111111111111111111111111100000000000000011
111111111111111111111111111111111111111100001111111111111111111111111111111111111111111111110001111100000000000111110000000011111111111111111111111111111111111111111111111111111111000000000000111
111111111111111111111111111111111111111100001111111111111111111111111111111111111111111111111111111111111111111111111111111111111111111111111111111111111111111111110011111100001111000000000000111
111100000000000011111111111111111111111100001111111111111111111111111111111111111111111111111111111111111111111111111111111111111111111111111111111111111111111111110011111100001111000000000000111
111000000000000011100000000000001111111100001111111111111111111111111111111111111111111111111111111111111111111111111111111111111111111111111111111111111111111111110000001100001110000000000000111
110000000000000000000000000000000000000000000000011111111111111111111111111111111111111111111111111111111111111111111111111111111111111111111111111111111111111111110000000000000100000000000000011
110000000000000000000000000000000000000000000000011111111111111111111111111111111111111111111111111111111111111111111111111111111111111111111111111111111111111111110000000000000100000000000000011
110000000000000000000000000000000000000000000000011111111111111111111111111111111111111111111111111111111111111111111111111111111111111111111111111111111111111111111000000000000100000000000000011
110000000000000000000000000000000000000000000000011111111111111111111111111111111111111111111111111111111111111111111111111111111111111111111111111111111111111111111000000000001110000000000000011
110000000000000000000000000000000000000000000000011111111111111111111111111111111111111111111111111111111111111111111111111111111111111111111111111111111111111111111000000000001110000000000000011
110000000000000000000000000000000000000000000000011111111111111111111111111111111111111111111111111111111111111111111111111111111111111111111111111111111111111111111000000000001110000000000000011
110000000000000000000000000000000000000000000000011111111111111111111111111111111111111111111111111111111111111111111111111111111111111111111111111111111111111111110000000000100100000000000000011
110000000000000000000000000000000000000000000000011111111111111111111111111111111111111111111111111111111111111111111111111111111111111111111111111111111111111111110000000011110100000000000000011
110000000000000000000000000000000000000000000000011111111111111111111111111111111111111111111111111111111111111111111111111111111111111111111111111111111111111111110000000011110100000000000000011
110000000000000000000000000000000000000000000000011111111111111111111111111111111111111111111111111111111111111111111111111111111111111111111111111111111111111111110000000011110100000000000000011
110000000000000000000000000000000000000000000000011111111111111111111111111111111111111111111111111111111111111111111111111111111111111111111111111111111111111111000000000011111110000000000000011
110000000000000000000000000000000000000000000000011111111111111111111111111111111111111111111111111111111111111111111111111111111111111111111111111111111111111111000000000011111110000000000000011
111100000000000011110000000000001111000000000000111111111111111111111111111111111111111111111111111111111111111111111111111111111111111111111111111111111111111111000000000011111111000000000000111
111100000000000011111111111111111111111111111111111111111111111111111111111111111111111111111111111111111111111111111111111111111111111111111111111111111111111111000000000011111111000000000000111
111100000000000011111111111111111111111111111111111111111111111111111111111111111111111111111111111111111111111111111111111111111111111111111111111111111111111111000000000011111111000000000000111
111000000000000011111111111111111111111111111111111111111111111111111111111111111111111111111111111111111111111111111111111111111111111111111111111111111111111111000000000011111110000000000000111
110000000000000001111111111111111111111111111111111111111111111111111111111111111111111111111111111111111111111111111111111111111111111111111111111111111111111111000000000011111111000000000000011
110000000000000001111111111111111111111111111111111111111111111111111111111111111111111111111111111111111111111111111111111111111111111111111111111111111111111111000000000011111111000000000000011
110000000000000001111111111111111111111111111111111111111111111111111111111111111111111111111111111111111111111111111111111111111111111111111111111111111111111111000000000000001111000000000000011
110000000000000001111111111111111111111111111111111111111111111111111111111111111111111111111111111111111111111111111111111111111111111111111111111111111111111111110000000000001111000000000000011
110000000000000001111111111111111111111111111111111111111111111111111111111111111111111111111111111111111111111111111111111111111111111111111111111111111111111111110000000000000000000000000011111
110000000000000001111111111111111111111111111111111111111111111111111111111111111111111111111111111111111111111111111111111111111111111111111111111111111111111111110000000000000000000000000011111
110000000000000001111111111111111111111111111111111111111111111111111111111111111111111111111111111111111111111111111111111111111111111111111111111111111111111111110000000000000000000000000011111
110000000000000001111111111111111111111111111111111111111111111111111111111111111111111111111111111111111111111111111111111111111111111111111111111111111111111111110000000000000000000000000011111
110000000000000001111111111111111111111111111111111111111111111111111111111111111111111111111111111111111111111111111111111111111111111111111111111111111111111111110000000000001111000000000000011
110000000000000001111111111111111111111111111111111111111111111111111111111111111111111111111111111111111111111111111111111111111111111111111111111111111111111111110000000000001111000000000000011
110000000000000001111111111111111111111111111111111111111111111111111111111111111111111111111111111111111111111111111111111111111111111111111111111111111111111111110000000000001111000000000000011
110000000000000001111111111111111111111111111111111111111111111111111111111111111111111111111111111111111111111111111111111111111111111111111111111111111111111111110000011111111110000000000000011
111100000000000011111111111111111111111111111111111111111111111111111111111111111111111111111111111111111111111111111111111111111111111111111111111111111111111111111111111111111111000000000000111
111100000000000111111111111111111111111111111111111111111111111111111111111111111111111111111111111111111111111111111111111111111111111111111111111111111111111111111111111111111111000000000000111
111100000000000111110000000000001111111111111111111111111111111111111111111111111111111111111111111111111000001111111111111111111111111111111111111111111111111111111111111111111111000000000000111
111000000000000011100000000000001111111111111111111111111111111111111111111111111111111111111111111111111000001111111111111111111111111111111111111111111111111111111111111111111110000000000000111
110000000000000011100000000000000011111111111111111111111111111111111111111111111111111111111111111111111000001111111111111111111111111111111111111111111111111111111111111111111100000000000000011
110000000000000011100000000000000011111111111111111111111111111111111111111111111111111111111111111111111000001111111111111111111111111111111111111111111111111111111111111111111100000000000000011
110000000000000011100000000000000011111111111111111111111111111111111111111111111111111111111111111111111000001111111111111111111111111111111111111111111111111111111111111111111100000000000000011
110000000000000011100000000000000011111111111111111111111111111111111111111111111111111111111111111111111000001111111111111111111111111111111111111111111111111111111111111111111100000000000000011
110000000000000011100000000000000011111111111111111111111111111111111111111111111111111111111111111111111000000000000001111111111111111111111111111111111111111111111111111111111100000000000000011
110000000000000011100000000000000011111111111111111111111111111111111111111111111111111111111111111111111000000000000000011111111111111111111111111111111111111111111111111111111100000000000000011
110000000000000011100000000000000011111111111111111111111111111111111111111111111111111111111111111111111000000000000000000111111111111111111111111111111111111111111111111111111100000000000000011
110000000000000011100000000000000011111111111111111111111111111111111111111111111111111111111111111111111000000000000000000011111111111111111111111111111111111111111111111111111100000000000000011
110000000000000011100000000000000011111111111111111111111111111111111111111111111111111111111111111111111000100000000000000011111111111111111111111111111111111111111111111111111100000000000000011
110000000000000011100000000000000011111111111111111111111111111111111111111111111111111111111111111111111100000000000000000011111111111111111111111111111111111111111111111111111100000000000000011
110000000000000011100000000000000011111111111111111111111111111111111111111111111111111111111111111111111000000000001000000011111111111111111111111111111111111111111111111111111111110000000111011
110000000000000011100000000000000011111111111111111111111111111111111111111111111111111111111111111111111000000000011000000011111111111111111111111111111111111111111111111111111111110000000111011
111100000000000011111110000111111111111111111111111111111111111111111111111111111111111111111111111111111000000000000000000011111111111111111111111111111111111111111111111111111111111100001111111
111100000000000111111110000111111111111111111111111111111111111111111111111111111111111111111111111111111000000000000000000011111111111111111111111111111111111111111111111111111111111100001111111
111100000000000111111111000111111111011111111000000011110001111111111111111111111111111111111111111111110000000000000000000011111111111111111111111111111111111111111111111111111111111100001111111
111000000000000011111111000000001110011111111110000011111001111111111111111111111111111111111111111111110000000000000000000011111111111111111111111111111111111111111111111111111111111100001111111
110000000000000011111111000000000000011111011110000000000001111111111111111111111111111111111111111111110000000000000000000011111111111111111111111111111111111111111111111111111100000000000000011
110000000000000011101110000000000000011110011110000000000001111111111111111111111111111111111111111111110000000000000000000011111111111111111111111111111111111111111111111111111100000000000000011
110000000000000011100000000000000000001100000000000000000000001111111111111111111111111111111111111111110000000000000000000011111111111111111111111111111111111111111111111111111100000000000000111
110000000000000011100000000000000000000000000000000000000000001111111111111111111111111111111111111111110000000000000000000011111111111111111111111111111111111111111111111111111100000000000000111
110000000000000000000000000000000000000000000000000000000000001101111111111111111111111111111111111111111000000000000000000011111111111111111111111111111111111111111111111111111100000000000000111
110000000000000000000000000000000000000000000000000000000000000001111111111111111111111111111111111111111000010000000000000000000111111111111111111111111111111111111111111111111110000000000000111
110000000000000000000000000000000000000000000000000000000000000001111111111111111111111111111111111111111000000000000000000000000111111111111111111111111111111111111111111111111100000000000000111
110000000000000000000000000000000000000000000000000000000000000001111111111111111111111111111111111111110000000000000000000000000111111111111111111111111111111111111111111111111100000000000000111
110000000000000011100000000000000000000000000000000000000000000001111111111111111111111111111111110111100000000000000000000000000111111111111111111111111111111111111111111111111100000000000000111
110000000000000011111000000000000000000000000000000000000000000001111111111111111111111111111111110000000000000000000000000000000111111111111111111111111111111111111111111111111100110000000000011
110000000000000011111000000000000011000000000000000000000000000001111111111111111111111111111111110000000000000000000000000000000111111111111111111111111111111111111111111111111101111000000000011
110000000000000011111000000000000111110000000000000000000000000001111111111111111111111111111111110000000000011111000000000000000111111111111111111111111111111111111111111111111101111000000000011
111100000000000111111111000011111111111100001111111100000000000011111111111111111111111111111111111100000000111111110000000000000111111111111111111111111111111111111111111111111111110000000000111
111111111111111111111111000011111111111100001111111100000000000011111111111111111111111111111111111111111111111111110000000000000111111111111111111111111111111111111111111111111111111000000000111
111111111111111111111111000011111111111100001111111100000000000011111111111111111111111111111111111111111111111111110000000000000111111111111111111111111111111111110000000000001111111000000000111
111111111111111111100000000000001110000000000000111000000000000011111111111111111111111111111111111111111111111111100000000000000111111111111111111111111111111111100000000000001110000000000000111
111111111111111111000000000000011110000000000011111000000000000001111111111111111111111111111111111111111111111111000000000000000111111111111111111111111111111111000000000000000000000000000000011
111111111111111111000000000000111110000000000111111000000000000001111111111111111111111111111111111111111111111111000000000000000111111111111111111111111111111111000000000000000000000000000000011
111111111111111111000000000000111110000000000111111000000000000001111111111111111111111111111111111111111111111111000000000000000111111111111111111111111111111111000001100000000000000000000000011
111111111111111111000000000000111110000000000011111000000000000001111111111111111111111111111111111111111111111111000000000000000111111111111111111111111111111111111111100000000000000000000000111
111111111111111111000000000000001110000000000011111000000000000001111111111111111111111111111111111111111111111111000000000000000111111111111111111111111111111111111111100000000000000000000000111
111111111111111111000000000000001110000000000000111000000000000001111111111111111111111111111111111111111111111111000000000000000111111111111111111111111111111111111111100000000000000000000000111
111111111111111111000000000000001110000000000000111000000000000001111111111111111111111111111111111111111111111111000000000000000111111111111111111111111111111111111111100000000000000000000000111
111111111111111111000000000000001110000000000000111000000000000001111111111111111111111111111111111111111111111111000000000000000111111111111111111111111111111111111110000000000000000000000000111
111111111111111111000000000000001110000000000000111000000000000001111111111111111111111111111111111111111111111111000000000000000111111111111111111111111111111111111110000000000000000000000000111
111111111111111111000000000000001110000000000000111000000000000001111111111111111111111111111111111111111111111111000000000000000111111111111111111111111111111111111110000010000000000000000000111
111111111111111111000000000000001110000000000000111000000000000001111111111111111111111111111111111111111111111111000000000000000111111111111111111111111111111111111111111111000000000000000000011
111111111111111111000000000000001110000000000000111000000000000011111111111111111111111111111111111111111111111111100000000000000111111111111111111111111111111111111111111111000110000000000000011
111111111111111111110000000000001111000000000000111111110000111111111111111111111111111111111111111111111111111111111111000011111111111111111111111111111111111111111111111110001111111100001111111
111111111111111111111111111111111111111111111111111111110000111111111111111111111111111111111111111111111111111111111111000011111111111111111111111111111111111111111111111111111111111100001111111
111111111111111111111111111111111111111111111111111111110000111111110000000000001111000011110000111100000000000011111111000011111111111111111111111111111111111111111111111111111111111100001111111
111111111111111111111111111111111111111111111111111000000000000000000000000000001110000011110000111000000000000001000000000000001111111111111111111111111111111111111111111111111111111100001111111
111111111111111111111111111111111111111111111111110000000000000000000000000000000000000011100000000000000000000000000000000000000111111111111111111111111111111111111111111111111100000000000000011
111111111111111111111111111111111111111111111111110000000000000000000000000000000000000000000000000000000000000000000000000000000111111111111111111111111111111111111111111111111100000000000000011
111111111111111111111111111111111111111111111111110000000000000000000000000000000000000000000000000000000000000000000000000000000111111111111111111111111111111111111111111111111100000000000000011
111111111111111111111111111111111111111111111111110000000000000000000000000000000000000000000000000000000000000000000000000000000111111111111111111111111111111111111111111111111100000000000000011
111111111111111111111111111111111111111111111111110000000000000000000000000000000000000000000000000000000000000000000000000000000111111111111111111111111111111111111111111111111100000000000000011
111111111111111111111111111111111111111111111111110000000000000000000000000000000000000000000000000000000000000000000000000000000111111111111111111111111111111111111111111111111100000000000000011
111111111111111111111111111111111111111111111111110000000000000000000000000000000000000000000000000000000000000000000000000000000111111111111111111111111111111111111111111111111100000000000000011
111111111111111111111111111111111111111111111111110000000000000000000000000000000000000000000000000000000000000000000000000000000111111111111111111111111111111111111111111111111100000000000000011
111111111111111111111111111111111111111111111111110000000000000000000000000000000000000000000000000000000000000000000000000000000111111111111111111111111111111111111111111111111100000000000000011
111111111111111111111111111111111111111111111111110000000000000000000000000000000000000000000000000000000000000000000000000000000111111111111111111111111111111111111111111111111100000000000000011
111111111111111111111111111111111111111111111111110000000000000000000000000000000000000000000000000000000000000000000000000000000111111111111111111111111111111111111111111111111100000000000000011
111111111111111111111111111111111111111111111111110000000000000000000000000000000000000000000000000000000000000001100000000000000111111111111111111111111111111111111111111111111100000000000000011
111111111111111111111111111111111111111111111111111100000000000011110000000000001111000000000000111100000000000011111111000011111111111111111111111111111111111111111111111111111111000000000000111
111111111111111111111111111111111111111111111111111111111111111111111111111111111111111111111111111111111111111111111111000011111111111111111111111111111111111111111111111111111111000000000000111
111111111111111111111111111111111111111111111111111111111111111111111111111111111111111111111111111111111111111111111111000011111111111111111111111111111111111111110000000000001111000000000000111
111111111111111111111111111111111111111111111111111111111111111111111111111111111111111111111111111111111111111111111100000000001111111111111111111111111111111111100000000000001110000000000000111
111111111111111111111111111111111111111111111111111111111111111111111111111111111111111111111111111111111111111111111100000000000111111111111111111111111111111111000000000000000000000000000000011
111111111111111111111111111111111111111111111111111111111111111111111111111111111111111111111111111111111111111111111100000000000111111111111111111111111111111111000000000000000000000000000000011
111111111111111111111111111111111111111111111111111111111111111111111111111111111111111111111111111111111111111111111100000000000111111111111111111111111111111111000000000000000000000000000000011
111111111111111111111111111111111111111111111111111111111111111111111111111111111111111111111111111111111111111111111100000000001111111111111111111111111111111111000000000000000000000000000000011
111111111111111111111111111111111111111111111111111111111111111111111111111111111111111111111111111111111111111111111100000000001111111111111111111111111111111111000000000000000000000000000000011
111111111111111111111111111111111111111111111111111111111111111111111111111111111111111111111111111111111111111111111100000000001111111111111111111111111111111111000000000000000000000000000000011
111111111111111111111111111111111111111111111111111111111111111111111111111111111111111111111111111111111111111111111100000000000111111111111111111111111111111111000000000000000000000000000000011
111111111111111111111111111111111111111111111111111111111111111111111111111111111111111111111111111111111111111111111100000000000111111111111111111111111111111111000000000000000000000000000000011
111111111111111111111111111111111111111111111111111111111111111111111111111111111111111111111111111111111111111111111100000000000111111111111111111111111111111111000000000000000000000000000000011
111111111111111111111111111111111111111111111111111111111111111111111111111111111111111111111111111111111111111111111100000000000111111111111111111111111111111111000000000000000000000000000000011
111111111111111111111111111111111111111111111111111111111111111111111111111111111111111111111111111111111111111111111100000000111111111111111111111111111111111111000000000000000000000000000000011
111111111111111111111111111111111111111111111111111111111111111111111111111111111111111111111111111111111111111111111100000011111111111111111111111111111111111111000000000000000000000000000000011
111111111111111111111111111111111111111111111111111111111111111111111111111111111111111111111111111111111111111111111100000011111111111111111111111111111111111111110000000000001111000000000000111
111111111111111111111111111111111111111111111111111111111111111111111111111111111111111111111111111111111111111111111100000011111111111111111111111111111111111111110000000000001111111111111111111
111111111111111111111111111111111111111111111111111111111111111111111111111111111111111111111111111111111111111111111100000001110000111111111111111110000000000011110000000000001111111111111111111
111111111111111111111111111111111111111111111111111111111111111111111111111111111111111111111111111111111111111111111100000000000000111111111111111110000000000011100000000000001111111111111111111
111111111111111111111111111111111111111111111111111111111111111111111111111111111111111111111111111111111111111111111100000000000000111111111111111100000000000000000000000000000111111111111111111
111111111111111111111111111111111111111111111111111111111111111111111111111111111111111111111111111111111111111111111100000000000000000000011111111100000000000000000000000000000111111111111111111
111111111111111111111111111111111111111111111111111111111111111111111111111111111111111111111111111111111111111111111100000000000000000000000011111100000000000000000000000000000111111111111111111
111111111111111111111111111111111111111111111111111111111111111111111111111111111111111111111111111111111111111111111100000000000000000000000000111100000000000000000000000000000111111111111111111
111111111111111111111111111111111111111111111111111111111111111111111111111111111111111111111111111111111111111111111100000000000000000000000000000000000000000000000000000000000111111111111111111
111111111111111111111111111111111111111111111111111111111111111111111111111111111111111111111111111111111111111111111100000000000000000000000000000000000000000000000000000000000111111111111111111
111111111111111111111111111111111111111111111111111111111111111111111111111111111111111111111111111111111111111111111000000000000000000000000000000000000000000000000000000000000111111111111111111
111111111111111111111111111111111111111111111111111111111111111111111111111111111111111111111111111111111111111111111000000000000000000000000000000000000000000000000000000000000111111111111111111
111111111111111111111111111111111111111111111111111111111111111111111111111111111111111111111111111111111111111111110000000000000000000000000000111100000000000000000000000000000111111111111111111
111111111111111111111111111111111111111111111111111111111111111111111111111111111111111111111111111111111111111111110000000000000000000000000000111100000000000000000000000000000111111111111111111
111111111111111111111111111111111111111111111111111111111111111111111111111111111111111111111111111111111111111111110000000000000000000000000000111100000000000000000000000000000111111111111111111
111111111111111111111111111111111111111111111111111111111111111111111111111111111111111111111111111111111111111111110000000000001110001100011100111100000000000000000000000000000111111111111111111
111111111111111111111111111111111111111111111111111111111111111111111111111111111111111111111111111111111111111111110000000000011111111101111101111110000000000011110000000000001111111111111111111
111111111111111111111111111111111111111111111111111111111111111111111111111111111111111111111111111111111111111111110000000000011111111111111111111111111111111111111111111111111111111111111111111
111111111111111111111111111111111111111111111111111111111111111111111111111111111111111111111111111111111111111111110000000000011111111111111111111111111111111111111111111111111111111111111111111
111111111111111111111111111111111111111111111111111111111111111111111111111111111111111111111111111111111111110011100000000000011111111111111111111111111111111111111111111111111111111111111111111
111111111111111111111111111111111111111111111111111111111111111111111111111111111111111111111111111111111111110000000000000000011111111111111111111111111111111111111111111111111111111111111111111
111111111111111111111111111111111111111111111111111111111111111111111111111111111111111111111111111111111111110000000000000000011111111111111111111111111111111111111111111111111111111111111111111
111111111111111111111111111111111111111111111111111111111111111111111111111111111111111111111111111000000000000000000000000001111111111111111111111111111111111111111111111111111111111111111111111
111111111111111111111111111111111111111111111111111111111111111111111111111111111111111111111111111000000000000000000000000001111111111111111111111111111111111111111111111111111111111111111111111
111111111111111111111111111111111111111111111111111111111111111111111111111111111111111111111111111000000000000000000000000001111111111111111111111111111111111111111111111111111111111111111111111
111111111111111111111111111111111111111111111111111111111111111111111111111111111111111111111111111000000000000000000000000011111111111111111111111111111111111111111111111111111111111111111111111
111111111111111111111111111111111111111111111111111111111111111111111111111111111111111111111111111000000000000000000000000011111111111111111111111111111111111111111111111111111111111111111111111
111111111111111111111111111111111111111111111111111111111111111111111111111111111111111111111111111110000000000000000000000011111111111111111111111111111111111111111111111111111111111111111111111
111111111111111111111111111111111111111111111111111111111111111111111111111111111111111111111111111111110000000000000000000011111111111111111111111111111111111111111111111111111111111111111111111
111111111111111111111111111111111111111111111111111111111111111111111111111111111111111111111111111000111110000000000000000011111111111111111111111111111111111111111111111111111111111111111111111
111111111111111111111111111111111111111111111111111111111111111111111111111111111111111111111111111000001100000000000000000011111111111111111111111111111111111111111111111111111111111111111111111
111111111111111111111111111111111111111111111111111111111111111111111111111111111111111111111111111000011000000000000000000011111111111111111111111111111111111111111111111111111111111111111111111
111111111111111111111111111111111111111111111111111111111111111111111111111111111111111111111111111100011000000000000000000011111111111111111111111111111111111111111111111111111111111111111111111
111111111111111111111111111111111111111111111111111111111111111111111111111111111111111111111111111100110000000000000000000011111111111111111111111111111111111111111111111111111111111111111111111
111111111111111111111111111111111111111111111111111111111111111111111111111111111111111111111111111101100000000000000000000011111111111111111111111111111111111111111111111111111111111111111111111
111111111111111111111111111111111111111111111111111111111111111111111111111111111111111111111111111100000000000000000000000011111111111111111111111111111111111111111111111111111111111111111111111
111111111111111111111111111111111111111111111111111111111111111111111111111111111111111111111111111111000000000000000000000011111111111111111111111111111111111111111111111111111111111111111111111
111111111111111111111111111111111111111111111111111111111111111111111111111111111111111111111111111000000000000000000000000011111111111111111111111111111111111111111111111111111111111111111111111
111111111111111111111111111111111111111111111111111111111111111111111111111111111111111111111111111000000000000000000000000011111111111111111111111111111111111111111111111111111111111111111111111
111111111111111111111111111111111111111111111111111111111111111111111111111111111111111111111111111000000000000000000000000011111111111111111111111111111111111111111111111111111111111111111111111
111111111111111111111111111111111111111111111111111111111111111111111111111111111111111111111111111000000000000000000000000011111111111111111111111111111111111111111111111111111111111111111111111
111111111111111111111111111111111111111111111111111111111111111111111111111111111111111111111111111111110000000000000000000011111111111111111111111111111111111111111111111111111111111111111111111
111111111111111111111111111111111111111111111111111111111111111111111111111111111111111111111111111111111100000000000000001111111111111111111111111111111111111111111111111111111111111111111111111
111111111111111111111111111111111111111111111111111111111111111111111111111111111111111111111111111111111111000011111111111111111111111111111111111111111111111111111111111111111111111111111111111
111111111111111111111111111111111111111111111111111111111111111111111111111111111111111111111111111111111111000011111111111111111111111111111111111111111111111111111111111111111111111111111111111
111111111111111111111111111111111111111111111111111111111111111111111111111111111111111111111111111111111111111111111111111111111111111111111111111111111111111111111111111111111111111111111111111
111111111111111111111111111111111111111111111111111111111111111111111111111111111111111111111111111111111111111111111111111111111111111111111111111111111111111111111111111111111111111111111111111
111111111111111111111111111111111111111111111111111111111111111111111111111111111111111111111111111111111111111111111111111111111111111111111111111111111111111111111111111111111111111111111111111
111111111111111111111111111111111111111111111111111111111111111111111111111111111111111111111111111111111111111111111111111111111111111111111111111111111111111111111111111111111111111111111111111
111111111111111111111111111111111111111111111111111111111111111111111111111111111111111111111111111111111111111111111111111111111111111111111111111111111111111111111111111111111111111111111111111
111111111111111111111111111111111111111111111111111111111111111111111111111111111111111111111111111111111111111111111111111111111111111111111111111111111111111111111111111111111111111111111111111
