1111111111111111111111111111111111111111111111111111111111111111111111111111111111111111111111111111111111111111111111111111111111111111111111111111111111111111111111111111111111111111111111111111
1111111111111111111111111111111111111111111111111111111111111111111111111111111111111111111111111111111111111111111111111111111111111111111111111111111111111111111111111111111111111111111111111111
1111111111111111111111111111111111111111111111111111111111111111111111111111111111111111111111111111101111111111111111111111111111111111111111111111111111111111111111111111111111111111111111111111
1111111111111111111111111111111111111111111111111111111111111111111111111111111111111111111111111111101111111111111111111111111111111111111111111111111111111111111111111111111111111111111111111111
1111111111111111111111111111111111111111111111111111111111111111111111111111111111111111111111111111101111111111111111111111111111111111111111111111111111111111111111111111111111111111111111111111
1111111111111111111111111111111111111111111111111111111111111111111111111111111111111111111111000000001111111111111111111111111111111111111111111111111111111111111111111111111111111111111111111111
1111111111111111111111111111111111111111111111111111111111111111111111111111111111111111111111000000001111111111111111111111111111111111111111111111111111111111111111111111111111111111111111111111
1111111111111111111111111111111111111111111111111111111111111111111111111111111111111111111111000000001111111111111111111111111111111111111111111111111111111111111111111111111111111111111111111111
1111111111111111111111111111111111111111111111111111111111111111111111111111111111111111111111000000001111111111111111111111111111111111111111111111111111111111111111111111111111111111111111111111
1111111111111111111111111111111111111111111111111111111111111111111111111111111111111111100000000000000000011111111111111111111111111111111111111111111111111111111111111111111111111111111111111111
1111111111111111111111111111111111111111111111111111111111111111111111111111111111111111000000000000000000001111111111111111111111111111111111111111111111111111111111111111111111111111111111111111
1111111111111111111111111111111111111111111111111111111111111111111111111111111111111111000000000000000000001111111111111111111111111111111111111111111111111111111111111111111111111111111111111111
1111111111111111111111111111111111111111111111111111111111111111111111111111111111111111000000000000000000001111111111111111111111111111111111111111111111111111111111111111111111111111111111111111
1111111111111111111111111111111111111111111111111111111111111111111111111111111111111111001000000000000001001111111111111111111111111111111111111111111111111111111111111111111111111111111111111111
1111111111111111111111111111111111111111111111111111111111111111111111111111111111111111100000000000000000011111111111111111111111111111111111111111111111111111111111111111111111111111111111111111
1111111111111111111111111111111111111111111111111111111111111111111111111111111111111111100000000000000000011111111111111111111111111111111111111111111111111111111111111111111111111111111111111111
1111111111111111111111111111111111111111111111111111111111111111111111111111111111111111000000000000000000001111111111111111111111111111111111111111111111111111111111111111111111111111111111111111
1111111111111111111111111111111111111111111111111111111111111111111111111111111111111111000000000000000000001111111111111111111111111111111111111111111111111111111111111111111111111111111111111111
1111111111111111111111111111111111111111111111111111111111111111111111111111111111111111000000000000000000001111111111111111111111111111111111111111111111111111111111111111111111111111111111111111
1111111111111111111111111111111111111111111111111111111111111111111111111111111111111111000000000000000000001111111111111111111111111111111111111100111111111111111111111111111111111111111111111111
1111111111111111111111111111111111111111111111111111111111111111111111111111111111111111100000000000000000111111111111111111111111111111111111111100011111011111111111111111111111111111111111111111
1111111111111111111111111111111111111111001111111111111111111111111111111111111111111111110000000000000000111111111111111111111111111111111111111100000011011111111111111111111111111111111111111111
1111111111111111111111111111111111111110000111111111111111111111111111111111111111111111110000000000000000111111111111111111111111111111111111111111000000011111111111111111111111111111111111111111
1111111111111111111111111111111111111000000001111011111111111111111111111111111111111111110000000000000000111111111111111111111111111111111111111111100000001110111111111111111111111111111111111111
1111111111111111111111111111111111111111000000000001111111111111111111111111111111111111110000000000000000111111111111111111111111111111111111111111110000000000011111111111111111111111111111111111
1111111111111111111111111111111111111111000000000001111111111111111111111111111111111110000000000000000000001111111111111111111111111111111111111111110000000000111111111111111111111111111111111111
1111111111111111111111111111111111111111000000000000111111111111111111111111111111111100000000000000000000000111111111111111111111111111111111111111110000000001111111111111111111111111111111111111
1111111111111111111111111111111111111000000000000000011111111111111111111111111111111100000000000000000000000111111111111111111111111111111111111111100000000011111111111111111111111111111111111111
1111111111111111111111111111111111000000000000000000011111111111111111111111111111111000000000000000000000000111111111111111111111111111111111011111100000000001111111111111111111111111111111111111
1111111111111111111111111111111110000000000010000000001111111111111111111111111111111100000000000110000000000111111111111111111111111111111100000111000000001101111111111111111111111111111111111111
1111111111111111111111111111111111000000011110000000001111111111111111111111111111111000000000001111000000000111111111111111111111111111111111000000000000011111101111111111111111111111111111111111
1111111111111111111111111111111110000000011110000000000111111111111111111111111111110000000000001111100000000111111111111111111111111111111111110000000000111111000111111111111111111111111111111111
1111111111111111111111111111111110000000011110000000000111111111111111111111111111110000000000111111110000000011111111111111111111111111111111111000000001111111100011111111111111111111111111111111
1111111111111111111111111110001110000000001100000000000011111111111111111111111111100000000000111111110000000011111111111111111111111111111111111000000011111111110001111111111111111111111111111111
1111111111111111111111111100000000000000001000000000000001111111111111111111111111100000000000111111100000000011111111111111111111111111111111111000000001111111111000111110111111111111111111111111
1111111111111111111111111000000000000000000000011110000001111111111111111111111111100000000000111111100000000001111111111111111111111111111111111100000000111111111100001100111111111111111111111111
1111111111111111111111110000000000000000000000111110000000111111111111111111111111100000000000111111100000000111111111111111111111111111011111111100011000011111111110000000111111111111111111111111
1111111111111111111111110000000000000000000000111100000000111111111111111111111111100000000000111111100000000111111111111111111111111111000111111100111110001111111110000000001111111111111111111111
1111111111111111111111100000000000000000000000011100000000011111111111111111110111100000000000011111000000000111111111111111111111111111000001100000111111000111111111000000011111111111111111111111
1111111111111111111111100000000000000000000000000000000000001111111111111111000000000000000000000000000000000111100111111111111111111111110000000000011111100011111111000000011111111111111111111111
1111111111111111111111000000000000000000000000000000111100001111111111111111000000000000000000000000000000000000000001111111111111111111111000000000011111110001111110000000011111111111111111111111
1111111111111111111111000000000000000000000000000001111100000111111111110000000000000000000000000000000000000000000000110111111111111111111100000000111111111000111100000000000011111111111111111111
1111111111111111111110000000001110000000000000000001111000000111111111100000000000000000000000000000000000000000000000000001111111111111111100000000111111111100011000000000000011111111111111111111
1111111111111111111110000000011111000000000000000001111000000111111111000000001100000000000000000000000000000000000000000000111111111111111100000000011011111110000000000000000001111111111111111111
1111111111111111111110000000011110000000000000000000000000000111111111000000010000000000000000000000000000000000000000000000011111111111101000000000000011111110000000000000000000111111111111111111
1111111111111111111110000000011100000000000000000000000000000111111111001100100010000000000000000000000000000000000000000000011111111111100000000000000011111111000000000000001110111111111111111111
1111111111111111111110000000000000000000000000000000000000000111111111111111000010000000000000000000000000000000000000000000011111111111100000000000000011101110000000000000011110011111111111111111
1111111111111111111111000000000000001100000000000000000000000011111111111110000100000000000000000000000000000000000000000000111111111111100000000000000001000100000000000000001111111111111111111111
1111111111111111111111100000000000011110000000000000000000000011111111111100001000000000000000000000000000000000000000000000111110111111100000000000000000000000000000000110001111111111111111111111
1111111111111111111111000000000000011110000000000000000000000011111111111100010000000000000000000000000000000000000000000000011110011111110000000000000000000000000000011110001111111111111111111111
1111111111111111111111100000000000111100000000000000000000000000000111111100110000000000000000000000000000000000000000000000001100001111111000000000000000000000000000111111000111111111111111111111
1111111111111111111111110000000000011000000000000000000000000000000111111111111000001111000000000000000000011000000000000000000000000111111100000000000000000000000001111111100111111111111111111111
1111111111111111111111111100000000000000011000000000000000000000000011111111111000001111010000001111000001111111100000000000000000000011111100000000000000000000000001111111100011111111111111111111
1111111111111111111111111111000000000000111100000000000000000000000011111111111000011111110000011111100001111111100000000000000000000001111000000000000000000000110001111111110011111111111111111111
1111111111111111111111111111100000000001111100000000000000000000000011111111111000011111110001111111111000111111110000001000000000000000110000000000000000000001111000111111110001111101111111111111
1111111111111111111111111111111000000001111000000000000000000000000001111111111000011111111111111111111111111111110000011110000000000000000000110000000000000001111100111111111000111100111111111111
1111111111111111100011111111111100000000100000000000000000000000000011111111111100000111111111111111111111111111000000011111000000000000000001111000000000000011111100011111111100111110011111111111
1111111111111100000001111111111111000000000000000000000000000000000111111111111101111111111111111111111111111111110000111111000000000000000011111101110000000011111110001111111100011100111111111111
1111111111110000000000011111111111110000000000000000000000000000000111111111111111111111111111111111111111111111111111111110000000000000000011111111111000000011111111001111111100000000011111111111
1111111111100000000000000111111111111100000000000000000000000000000111111111111111111111111111111111111111111111111111111110000000000000000001111111110000000011111111000111111110000000011111111111
1111111111100000000000000001111111111111000000000000000000000000000111111111111111111111111111111111111111111111111111111110000000000000000000111111100110000000001111100111111110000000001111111111
1111111111000000000000000000011111111111111111000000000000000000000111111111111111111111111111111111111111111111111111111110000000000000000000011111111111000000001111100011111000000000001111111111
1111111110000000000000000000000111111111111111110000000000000000000011111111111111111111111111111111111111111111111111111110000000000000000000001111111111000000000111110001110000000000000111111111
1111111110000000000000000000000011111111111111111000000000000000000001111111111111111111111111111111111111111111111111111111000000000000000000000111111111000000000011110000000000000000000111111111
1111111100000000000000000000000001111111111111111100000000000000000000111111111111111111111111111111111111111111111111111111100000000000000000000011111111100000000011100000000000000000000011111111
1111111100000000000000000000000000001111111111111100000000000000000001111111011111111111111111111111111111111111111111111111110000000000000000000001111111100000000000000000000000000000000011111111
1111111110000000110000000000000000111111111111111100000000000000000001111110001111111111111111111111111111111111111111111111111000000000000000000000111111100000000000000000001111000000000001111111
1111111110000001110000000000000000111011111111111100000000000000000000111100001111111111111111111111111111111111111111111111111100000000000000000000111111101100000000000000011111001110000000111111
1111111110000011110000011000000000001001111111111100000000000000000000000000000111111111111111111111111111111111111111111111111110000000000000000000111111111100000000011100011111001111000000111111
1111111000000011110000111000000000000001111111111100000000000000011000000000000011111111111111111111111111111111111111111111111111000000000000000000011111111100000000011110001110001111000000011111
1111111001100001110000111100001100000000111111111000000000000000111100000000000011111111111111111111111111111111111111111111111111100000000000000000001111111100000000011110000000001111000000111111
1111111001110000100001111000011100000000111111111000000000001111111100000000000001111111111111111111111111111111111111111111111111110000000000000000000111110000000000011110011000000000000000111111
1111110001110000000000111000011100000100001111100000000001111111111100000000000001111111111111111111111111111111111111111111111111111000000000000000000111111110000000001000111100000000000000000111
1111111111110000000000000000111100011110000000000000000001111111111100000000000000111111111111111111111111111111111111111111111111111111111100000000000111111111000000000000111100000000000000000111
1111111111100000000000000000001100011110000000000000000011111111111000000000000000011111111111111111111111111111111111111111111111111111111100000000000111111111000000000000111000000000000000001111
1111100011100000000000000000000000011100000000000000000011111111110000000000000000001111111111111111111111111111111111111111111111111111111000000000000011111110000000000000010000000000000000001111
1111100011100000000000000000000000000000000000000000000011111111100000000000000000001111111111111111111111111111111111111111111111111111111000000000000011111000000000000000000000000000000000000111
1111100000000000000000000000000000000000000000000000000011111111110000000000000000000111111111111111111111111111111111111111111111111111111000000000000011111000000000000000000000000000000000000111
1111000000000000000000000000000000000000000000000000000011111111111000000000000000000111111111111111111111111111111111111111111111111111110000000000000001111000000000000000000000000000000000000011
1111001110000000000000000000000000000000000000000000000011111111111110000000000000000111111111000000000111111111111111111111111111111111110000000000000001111000000000000000000000000000001110011111
1111001110001000000000000000000000000000000000000000000011111111111111100000000000000111100000000000000000111111111111111111111111111111110000000000000001100000000000000001110000000000001110011111
1111000111011110000000000000000000000000000000000000000011111111111111111000000000000001100000000000000000010111111111111111111111111111110000000000000000000000000000011001111110000001111111111111
1110000111011100001100000000000000000000000000000000000011111111111111111110000000000000000000000000000000000011111111111111111111111111111000000000000000000000000000111101111110000001111111111111
1110000000011100001111000000000000000000000000000000000111111111111111111111100000000000000000000000000000000011111111111111111111111111111000000000000000000000000111111111111110000001111111111111
1110000000011000001111000110000000000000000000000000000011111111111111111111110000000000000000000000000000000001111111111111111111111111111000000000000000001110011111111111111110000001111101111111
1110000000000000001111000111100000000000000000000000111111111111111111111111111111000000000000000000000000000000111111111111111111111111111100000000000000011110011111111111011000000000011101111111
1110000000000000001100000111100011000000000000000000111111111111111111111111111111000000000000000000000000000000011111111111111111111111111100000000000000011111111111110000000000000000011101111111
1110000000000000000000000111000001110000000000000000011111111111111111111111111111000000000000000000000000000000001111111111111111111111111100000000000000011111111100000000000000000000011101111111
1111000000000000000000000110000011110000000000000000001111111111111111111111111111000000000000000000000000000000001111111111111111111111111100000000000000011111000000000000000000000000000000001111
1111000000000000000000000000000011110000000000000000001111111111111111111111111110000000000000000000000000000000000111111111111111111111111110000000000000011111000000000000000000000000000000001111
1111000000000000000000000000000001000000000000000000001111111111111111111111111100000000000000000000000000000000000111111111111111111111111110000000000000001111100000000000000000000000000000001111
1111100000000000000000000000000000000000000000000000001111111111111111111111111100000000000000000000110000000000000011111111111111111111111110000000000000001111100000000000000000000000000000001111
1111110000000000000000000000000000000000000000000000011111111111111111111111111100000000000000000000110000000000000011111111111111111111111110000000000000001111100010100100001111111111111101111111
1111111000000000000000000000000001111110000000000000111111111111111111111111111000000000000011100001110000000000000011111111111111111111111111000000000000000111110011111101101111111111111101111111
1111111100000000000000000000000011111111000000000001111111111111111111111111111000000000000011100000000000000000000001111111111111111111111111000000000000000111110011111101101111111111111101111111
1111111110000000000000000000000111111111100000000001111111111111111111111111111000000000000001000000000000000000000001111111111111111111111111100000000000000111111000111100001111111111111101111111
1111111111111111111111111111111111111111100000000011111111111111111111111111111000000000000000000000000000000000000001111111111111111111111111111100000000000111111111111111111111111111111111111111
1111111111111111111111111111111111111111110000000011111111111111111111111111111000000000000000000000000000000000000011111111111111111111111111111100000000000111111111111111111111111111111111111111
1111111111111111111111111111111111111111110000000011111111111111111111111111111000000000000000000000000000000000000011111111111111111111111111111100000000000111111111111111111111111111111111111111
1111111111111111111111111111111111111111110000000011111111111111111111111111110000000000000000000000001000000000000001111111111111111111111111111100000000000111111111111111111111111111111111111111
1111111111111111111111111111111111111111110000000001111111111111111111111111111000000000000000000000011100000000000001111111111111111111111111100000000000000111111001110101111111010111111101111111
1111111111111111111111111111111111111111100000000001111111111111111111111111111000000000000000110000011100000000000001111111111111111111111111000000000000000111110001110001111111000111111100011111
1111111110000000000000000000000111111111100000000000111111111111111111111111111000000000000000111000001000000111000001111111111111111111111111000000000000001111100001110001111111000111111100011111
1111111000000000000000000000000011111111000000000000011111111111111111111111111000000000000001110000000000001111100011111111111111111111111110000000000000001111100001110111111111000111111100011111
1111110000000000000000000000000000111100000000000000011111111111111111111111111000000000000000000000000000000111110011111111111111111111111110000000000000001111100001110111111111000111111100011111
1111100000001110000000000000000000000000000000000000011111111111111111111111111100000000000000000000000000000011111011111111111111111111111110000000000000001111100001110111111111000111111100011111
1111000000111110000000000000000000000000000000000000001111111111111111111111111100000000000000000000000000000001111111111111111111111111111110000000000000011111000001110111111111000111111100001111
1111000001111110000000000000000000000000000000000000000111111111111111111111111111000000000000000000000000000000111111111111111111111111111100000000000000011111000000000000000000000000000000001111
1110000011110000000000000000000000000000000000000000000111111111111111111111111111000000000000000000000100000000011111111111111111111111111100000000000000011111000000000000000000000000000000000111
1110000011100000000000000000000000000000000000000000000111111111111111111111111111000000000000000000001110000000001111111111111111111111111100000000000000111110000000000000000000000000000000000111
1110000000000000000000000000000000000000000000000000000111111111111111111111111111100000000000000000001111000000000111111111111111111111111000000000000000111110000000000000000000000000000000001111
1110000000000000000000000000000000000000000000000000000111111111111111111111111111110000000000000000001111100000000011111111111111111111111000000000000000001100000000000000000111000000000000001111
1110000000000000000000000000000000000000000000000000000011111111111111111111111111111000000000000000000111110000000001111111111111111111111000000000000000000000000000000000001111000000000000001111
1110000000000000000000000000000111100000000000000000001111111111111111111111111111111100100000000000000011111000000000111111111111111111111000000000000000000000000000000001101111000111100000000011
1110000000000000000000000011111111100000000000000000011111111111111111111111111111111111100000000000000001111100000000011111111111111111110000000000000000000000000000000001111111001111111000000111
1110000000000000000001111111111111100000000000000000111111111111111111111111111111111111110000000000000001111110000000001111111111111111110000000000000001100000000000000001111111001111111000110011
1110000000000000011111111111111111100000000000000000111111111111111111111111111111111111111110000110001111111111000000000111111111111111110000000000000001111000000000000001111110001111111000111111
1110000000000111111111111111111111110000000000000001111111111111111111111111111111111111111111111111111111111111100000000011111111111111110000000000000011111000000000000000111110001111111001111111
1110000000000111111111111111111110000000000000000001111111111111111111111111111111111111111111111111111111111111110000000111111111111111110000000000000011111000000000000011111110011111111001111111
1110000000000111111111111111100000000000000000000001111111111111111111111111111111111111111111111111111111111111111000000011111111111111111100000000000011111000000000000111111100011111110001111111
1111111000000011111111110000000000000000000000000111111111111111111111111111111111111111111111111111111111111111111100000001111111111111111100000000000011111100000000000111111100011111110001111111
1111111100000011111100000000000000000000000000000111111111111111111111111111111111111111111111111111111111111111111110100000111111111111111100000000000111111110000000000011111100111111110011111111
1111111100000010000000000000000000000000000000000111111111111111111111111111111111111111111111111111111111111111111111110000011111111111111100000000000111111110000000000001111100111111100011111111
1111111100000000000000000000000000000000001111100111111111000001111111111111111111111111111111111111111111111111111111111000001111111000000000000000000111111110000000000001111000111111100011111111
1111111100000000000000000000000000000000111111111111111110000000111111111111111111111111111111111111111111111111111111111100000111110000000000000000001111111000000000000001111000111111100111111111
1111111000000000000000000000000000000001111111111111111000000000011111111111111111111111111111111111111111111111111111111110000001100000000000000000001111111100000000000000000000111111100111111111
1111110000000000000000000000000000000011111111111111100000000000001111111111111111111111111111111111111111111111111111111111000011000000000000000000011111111100000000000000000000111111000111111111
1111110000000000000000000000000000000011111111111110000000000000000111111111111111111111111111111111111111111111111111111111100110000000000000000000111111111100000000000000000000000111000111111111
1111111000000000000000000000000000000111111111111100000000000000000011111111111111111111111111111111111111111111111111111111101100000000000000000000111111111000000000000000000000000000000111111111
1111111100000000000000000000000000011111111111110000000000000000000001111111111111111111111111111111111111111111111111111111111000000000000000000001111111100000000000100000000000000000000111111111
1111111100000000000000000000000000111111111111110000000000000000000000111111111111111111111111111111111111111111111111111111110000000000000000000011111111100000000001111000000000000000000111111111
1111111100000000000000000000000001111111111111100000000000000000000000011111111111111111111111111111111111111111111111111111100000000000000000000111111111100000000011111000000000000000000111111111
1111111110000000000000000000000111111111111111000000000000000000000000001111111111111111111111111111111111111111111111111111000000000000000000001111111110000000000011110000000000000000000011111111
1111111111000000000000000000000011111111110000000000000000000000000000000111111111111111111111111111111111111111111111111110000000000000000000011111111111000000000111110001110000000000011111111111
1111111111100000000000000000001111111111000000000000000000000000000000000111111111111111111111111111111111111111111111111110000000000000000000111111111111000000000111100011111100000000011111111111
1111111111101111000000000000001111111100000000000000000110000000000000000111111111111111111111111111111111111111111111111110000000000000000001111111111111000000001111100111111110000000011111111111
1111111111111111111000000000001111110000000000000000000111100000000000000111111111111111111111111111111111111111111111111110000000000000000001111111110000000000011111000111111110000000011111111111
1111111111111111111000110100000111100000000000000000000111100000000000001111111111111111111111111111111111111111111111111111000000000000000001111111111000000000011111001111111110001000001111111111
1111111111111111111111111110000000000000000000000000000111110000000000011111100000111111111111111111111111111111110000011111000000000000000001111001111000000000111110001111111100011110011111111111
1111111111111111111111111111000000000000000000000000001111110000000000011111100000000111111111111111111111111100000000011111100000000000000000110000110000000000111110011111111100111110011111111111
1111111111111111111111111111000000000000000000000000011111111000000000001111000000000000011111111111111111100000000000001111100000000000000000000000000000000001111100011111111000111110111111111111
1111111111111111111111111110000000000000000000000001111111111100000000001111000000000000000001111111111000000000000000000110000000000001111000000000000000000001111000111111111001111100111111111111
1111111111111111111111111100000000000000000000000011111111111111000000000010000000000000000000011111100000000000000000000000000000000011111100000000000000000000010000111111110001111101111111111111
1111111111111111111111111110000000000000000000000011111111111111000000000000000000000000000000001111000000000000000000000000000000000111111100000000000000000110000001111111100011111111111111111111
1111111111111111111111111110000000000000000000000111111111111111100000000000000000000000000000000000000000000000000000000000011000001111111000000000000000001111000001111111100111111111111111111111
1111111111111111111111111110000000000000000000101111111111111111110111100000000000000000000000000000000000000000000000000000111100011111111100000000000000001111000000111111000111111111111111111111
1111111111111111111111111111000000000000000011111111111111111111111111111000000000000000000000000000000000000000000000000000111110111111111111110000000000001111000000001110001111111111111111111111
1111111111111111111111111111100000000000000111111111111111111111111111110000000000000000000000000000000000000000000000000000111111111111001111111000000000000110000000000000001111111111111111111111
1111111111111111111111111111110000000000000011111111111111111111111111110000000000000000000000000000000000000000000000000000111111111110000111111000000000000000011100000000011111111111111111111111
1111111111111111111111111111110000000000000111111111111111111111111111100000000000000000000000000000000000000000000000000000011111111100000011111111000000001100111110000000011110011111111111111111
1111111111111111111111111111110000000000111111111111111111111111111111000000000000000000000000000000000000000000000000000000011111111000000001111111000000011110111110000000000110111111111111111111
1111111111111111111111111111111000000011111111111111111111111111111111100000000000000000000000000000000000000000000000000000001111111000000000111111000000011110001110000000000000111111111111111111
1111111111111111111111111111111000000011111111111111111111111111111111100000000000000000000000000000000000000000000000000000001111111110000000011110011000011110000000000000000011111111111111111111
1111111111111111111111111111111111101111111111111111111111111111111111000000000000000000000000000000000000000000000000000000001111111110000000001111111000000000000000000000000011111111111111111111
1111111111111111111111111111111111111111111111111111111111111111111111000000000000000000000000000000000000000000000000000000000111111111100000000111111100000000000011000000000111111111111111111111
1111111111111111111111111111111111111111111111111111111111111111111000000000000000000000000000111001000000000000000000000000000011111111100000000011111000000000000111100000001111111111111111111111
1111111111111111111111111111111111111111111111111111111111111111111000000000000000000000000001111101110000000000000000000000000001111111110000000001111100000000000111100000001111111111111111111111
1111111111111111111111111111111111111111111111111111111111111111110000000000000000000000000001111111111000000000000000000000000011111111111000000001111100000000000111100000011111111111111111111111
1111111111111111111111111111111111111111111111111111111111111111110000000000000000000000000000111111110000000000000000000011111111111111111000000001111000000000000011000000011111111111111111111111
1111111111111111111111111111111111111111111111111111111111111111100000000000000000000000000000111111110000000000001100000111111111111111111100000000110000000000000000000000111111111111111111111111
1111111111111111111111111111111111111111111111111111111111111111100000000000000000000000000000111111110000000000001111111111111111111111111100000000000000000000000000000001111111111111111111111111
1111111111111111111111111111111111111111111111111111111111111111000000000000000000000000000000011111110000000000011111111111111111111111111111000000000000000000000000000001111111111111111111111111
1111111111111111111111111111111111111111111111111111111111111110000000000000000000000000000000011111100000000000011111111111111111111111111111100000000000000000000000000011111111111111111111111111
1111111111111111111111111111111111111111111111111111111111111110000000000000000000000000000000001111000000000000001111111111111111111111111111100000000000110000000000000011111111111111111111111111
1111111111111111111111111111111111111111111111111111111111111100000000000000000000000000000000000000000000000000001111111111111111111111111111110000000001111000000001111111111111111111111111111111
1111111111111111111111111111111111111111111111111111111111111100000000000000000000000000000000000000000000000000001111111111111111111111111111110000000011111110000001111111111111111111111111111111
1111111111111111111111111111111111111111111111111111111111111000000000000000000000000000000000000000000000000000001111111111111111111111111111111000000011111111000011111111111111111111111111111111
1111111111111111111111111111111111111111111111111111111111111000000000000000000000000000000000000000000000000000001111111111111111111111111111111000000011111111000011111111111111111111111111111111
1111111111111111111111111111111111111111111111111111111111110000000000000000000000000000000000000000000000000000001111111111111111111111111111111100000111111110000011111111111111111111111111111111
1111111111111111111111111111111111111111111111111111111111100000000000000000000000000000000000000000000000000000011111111111111111111111111111111110000011111110110011111111111111111111111111111111
1111111111111111111111111111111111111111111111111111111111100000000000000000000000000000000000000000000000000000011111111111111111111111111111111110000011111111110111111111111111111111111111111111
1111111111111111111111111111111111111111111111111111111111000000000000000000000000000000000000000000000000000000011111111111111111111111111111111110000011111111110111111111111111111111111111111111
1111111111111111111111111111111111111111111111111111111111000000000000000000000000000000000000000000000000000000011111111111111111111111111111111111000001111111111111111111111111111111111111111111
1111111111111111111111111111111111111111111111111111111110000000000000000000000000000000000000000000000000000000011111111111111111111111111111111111000000111111111111111111111111111111111111111111
1111111111111111111111111111111111111111111111111111111110000000000000000000000000000000000000000000000000000000011111111111111111111111111111111111100000000111111111111111111111111111111111111111
1111111111111111111111111111111111111111111111111111111100000000000000000000000000000000000000000000000000000000111111111111111111111111111111111111110011001111111111111111111111111111111111111111
1111111111111111111111111111111111111111111111111111111000000000000000000000000000000000000000000000000000000011111111111111111111111111111111111111110111111111111111111111111111111111111111111111
1111111111111111111111111111111111111111111111111111111000000000000000011100000000000000000000000000000000000011111111111111111111111111111111111111100111111111111111111111111111111111111111111111
1111111111111111111111111111111111111111111111111111110000000000000000011100000000000000000000000000000000000011111111111111111111111111111111111111101111111111111111111111111111111111111111111111
1111111111111111111111111111111111111111111111111111110000000000000000011000000011000000000000000000000000000011111111111111111111111111111111111111111111111111111111111111111111111111111111111111
1111111111111111111111111111111111111111111111111111111000000000000000111000000111000000000000000000000000000001111111111111111111111111111111111111111111111111111111111111111111111111111111111111
1111111111111111111111111111111111111111111111111111110000000000000000111000000111000000000000000000000000000000111111111111111111111111111111111111111111111111111111111111111111111111111111111111
1111111111111111111111111111111111111111111111111111110000000000000000111000000110000000000000000000000000000000111111111111111111111111111111111111111111111111111111111111111111111111111111111111
1111111111111111111111111111111111111111111111111111111000000000000000110000000110000000000000000000000000000000111111111111111111111111111111111111111111111111111111111111111111111111111111111111
1111111111111111111111111111111111111111111111111111111100000000000001110000001110000000000000000000000000000000111111111111111111111111111111111111111111111111111111111111111111111111111111111111
1111111111111111111111111111111111111111111111111111111111000000000001110000001110000000000000000000000000000000111111111111111111111111111111111111111111111111111111111111111111111111111111111111
1111111111111111111111111111111111111111111111111111111111110000000001100000001100000000000000000000000000000001111111111111111111111111111111111111111111111111111111111111111111111111111111111111
1111111111111111111111111111111111111111111111111111111111111100000011100000011100000000000000000000000000000001111111111111111111111111111111111111111111111111111111111111111111111111111111111111
1111111111111111111111111111111111111111111111111111111111111110000011100000011100000000000000000000000000000000111111111111111111111111111111111111111111111111111111111111111111111111111111111111
1111111111111111111111111111111111111111111111111111111111111111100011100000011100000000000000000000000000000000111111111111111111111111111111111111111111111111111111111111111111111111111111111111
1111111111111111111111111111111111111111111111111111111111111111111011000000011000000000000000000000000000000000111111111111111111111111111111111111111111111111111111111111111111111111111111111111
1111111111111111111111111111111111111111111111111111111111111111111111000000111000000000000000111111110000000000111111111111111111111111111111111111111111111111111111111111111111111111111111111111
1111111111111111111111111111111111111111111111111111111111111111111111111100111000000000000000111111110000000001111111111111111111111111111111111111111111111111111111111111111111111111111111111111
1111111111111111111111111111111111111111111111111111111111111111111111111111111000000000000000111111110000000001111111111111111111111111111111111111111111111111111111111111111111111111111111111111
1111111111111111111111111111111111111111111111111111111111111111111111111111111111111111111111111111111111111111111111111111111111111111111111111111111111111111111111111111111111111111111111111111
1111111111111111111111111111111111111111111111111111111111111111111111111111111111111111111111111111111111111111111111111111111111111111111111111111111111111111111111111111111111111111111111111111
