11111111111111111111111111111111111111111111111111111111111111111111111111111111111111111111111111111111111111111111111111111111111111111111111111111111111111111111111111
11111111111111111111111111111111111111111111111111111111111111111111111111111111111111111111111111111111111111111111111111111111111111111111111111111111111111111111111111
11111111111111111111111111111111111111111111111111111111111111111111111111111111111111111111111111111111111111110000011111111111111111111111111111111111111111111111111111
11111111111111111111111111111111111111111111111111111111111111111111111111111111111111111111111111111111111110000000000011111111111111111111111111111111111111111111111111
11111111111111111111111111111111111111111111111111111111111111111111111111111111111111111111111111111111111000000000000000001111111111111111111111111111111111111111111111
11111111111111111111000111111111111111111111111111111111111111111111111111111111111111111111111111111111100000000000000000000011111111111111111111111111111111111111111111
11111111111111111111000000111111111111111111111111111111111111111111111111111111111111111111111111111110000000000000000000000001111111111111111111111111111111111111111111
11111111111111111111000000000011111111111111111111111111111111111111111111111111111111111111111111110000000000000000000000000000011111111111111111111111111111111111111111
11111111111111111111000000000000001111111111111111111111111111111111111111111111111111111111111111000000000000000000000000000000001111111111111111111111111111111111111111
11111111111111111111000000000000000001111111111111111111111111111111111111111111111111111111111100000000000000000000000000000000000000111111111111111111111111111111111111
11111111111111111111000000000000000000000111111111111111111111111111111111111111111111111111100000000000000000000000000000000000000000000001111111111111111111111111111111
11111111111111111111000000000000000000000000000111111111111111111111111111111111111111111110000000000000000000000000000000000000000000000000000111111111111111111111111111
11111111111111111111111111111110000000000000000000000111111111111111111111111111111111111000000000000000000000000000000000000000000000000000000000011111111111111111111111
11111111111111111111111111111110000000000000000000000000000011111111111111111111111111100000000000000000000000000000000000000000000000000000000000000000111111111111111111
11111111111111111111111111111110000000000000000000000000000000000000000000000000000000000000000000000000000000000000000000000000000000000000000000000000111111111111111111
11111111111111111111111111111110000000000000000000000000000000000000000000000000000000000000000000000000000000000000000000000000000000000000000000000000111111111111111111
11111111111111111111111111111110000000000000000000000000000000000000000000000000000000000000000000000000000000000000000000000000000000000000000000000000011111111111111111
11111111111111111111111111111110000000000000000000000000000000000000000000000000000000000000000000000000000000000000000000000000000000000000000000000000011111111111111111
11111111111111111111111111111110000000111111111111111111111111111111111111111111100000000000000000000000000000000000000000000000000000000000000000000000001111111111111111
11111111111111111111111111111110000000111111111111111111111111111111111111111111100000000000000000000000000000000000000000000000000000000000000000000000001111111111111111
11111111111111111111111111111110000000111111111111111111111111111111111111111111100000000000000000000000000000000000000000000000000000000000000000000000001111111111111111
11111111111111111111111111111110000000111111111111111111111111111111111111111111100000000000000000000000000000000000000000000000000000000000000000000000000111111111111111
11111111111111111111111111111110000000111111111111111111111111111111111111111111100000000000000000000000000000000000000000000000000000000000000000000000000111111111111111
11111111111111111111111111111110000000111111111111111111111111111111111111111111100000000000000000000000000000000000000000000000000000000000000000000000000111111111111111
11111111111111111111111111111110000000111111111111111111111111111111111111111111100000000000000000000000000000000000000000000000000000000000000000000000000011111111111111
11111111111111111111111111111110000000111111111111111111111111111111111111111111100000000000000000000000000000000000000000000000000000000000000000000000000011111111111111
11111111111111111111111111111110000000111111111111111111111111111111111111111111100000000000000000000000000000000000000000000000000000000000000000000000000001111111111111
11111111111111111111111111111110000000111111111111111111111111111111111111111111100000000000000000000000000000000000000111110000000000000000000000000000000001111111111111
11111111111111111111111111111110000000111111111111111111111111111111111111111111100000000000000000000000000000000000001111111000000000000000000000000000000001111111111111
11111111111111111111111111111110000000111111111111111111111111111111111111111111100000000000000000000000000000000000011111111100000000000000000000000000000000111111111111
11111111111111111111111111111110000000111111111111111111111111111111111111111111100000000000000000000000000000000000011111111100000000000000000000000000000000111111111111
11111111111111111111111111111110000000111111111111111111111111111111111111111111100000000000000000000000000000000000011111111100000000000000000000000000000000111111111111
11111111111111111111111111111110000000111111111111111111111111111111111111111111100000000000000000000000000000000000011111111100000000000000000000000000000000011111111111
11111111111111111111111111111110000000000000000000000000000000000000000000000000000000000000000000000000000000000000011111111100000000000000000000000000000000011111111111
11111111111111111111111111111110000000000000000000000000000000000000000000000000000000000000000000000000000000000000001111111000000000000000000000000000000000011111111111
11111111111111111111111111111110000000000000000000000000000000000011100000000000000000000000000000000000000000000000000111110000000000000000000000000000000000001111111111
11111111111111111111111111111110110000000000000000000000000000001111111000000000000000000000000000000000000000000000000000000000000000000000000000000000000000001111111111
11111111111111111111111111111111111100000000000000000000000000011111111100000000000000000000000000000000000000000000000000000000000000000000000000000000000000001111111111
11110111111111111111111111111111111110000000000000000000000000011111111100000000000000000000000000000000000000000000000000000000000000000000000000000000000000000111111111
11110011111111111111111111111111111110000000000000000000000000011111111100000000000000000000000000000000000000000000000000000000000000000000000000000000000000000111111111
11110001111111111111111111111111111110000000000000000000000000011111111100000000000000000000000000000000000000000000000000000000000000000000000000000000000000000011111111
11110001111111111111111111111111111110000000000000000000000000011111111100000000000000000000000000000000000000000000000000000000000000000000000000000000000000000011111111
11110000111111111111111111111111111110000000000000000000000000001111111000000000000000000000000000000000000000000000000000000000000000000000000000000000000000000001111111
11110000111111111111111111111111111110000000000000000000000000000111110000000000000000000000000000000000000000000000000000000000000000000000000000000000111100000001111111
11100000111111111111111111111111111100000000000000000000000000000000000000000000000000000000000000000000000000000000000000000000000000000000000000000011111110000000111111
11100000111111111111111111111110000000000000000000000000000000000000000000000000000000000000000000000000000000000000000000000000000000000000000000000011111111000000111111
11100000000111111111111111111110000000000000000000000000000000000000000000000000000000000000000000000000000000000000000000000000000000000000000000000111111111000000011111
11100000000011111111111111111110000000000000000000000000000000000000000000000000000000000000000000000000000000000000000000000000000000000000000000000111111111000000011111
11100000000000001111111111111110000000000000000000000000000000000000000000000000000000000000000000000000000000000000000000000000000000000000000000000111111111000000001111
11100000000000000000000111111100000000000000000000000000000000000000000000000000000000000000000000000000000000000000000000000000000000000000000000000011111111000000001111
11000000000000000000000000000000000000000000000000000000000000000000000000000000000000000000111110000000000000000000000000000000000000000000000000000011111111000000000111
11000000000000000000000000000000000000000000000000000000000000000000000000000000000000000001111111000000000000000000000000000000000000000000000000000001111100000000000111
11000000000000000000000000000000000000000000000000000000000000000000000000000000000000000011111111000000000000000000000000000000000000000000000000000000000000000000000011
11000000000000000000000000000000000000000000000000000000000000000000000000000000000000000011111111100000000000000000000000000000000000000000000000000000000000000000000011
11000000000000000000000000000000000000000000000000000000000000000000000000000000000000000011111111100000000000000000000000000000000000000000000000000000000000000000000011
11000000000000000000000000000000000000000000000000000000000000000000000000000000000000000011111111100000000000000000000000000000000000000000000000000000000000000000000011
11000000000000000000000011111100000000000000000000000000000000000000000000000000000000000011111111000000000000000000000000000000000000000000000000000000000000000000000011
11000000000000000000000111111111111000000000000000000000000000000000000000000000000000000001111111000000000000000000000000000000000000000001111100000000000000000000000011
11000000000000000000001111111111111100000000000000000000000000000000000000000000000000000000111110000000000000000000000000000000000000000011111110000000000000000000000011
11000000000000000000011111111111111110000000000000000000000000000000000000000000000000000000000000000000000000000000000000000000000000000111111111000000000000000000000011
11000000000000000001111111111111111111000000000000000000000000000000000000000000000000000000000000000000000000000000000000000000000000001111111111000000000000000000000011
11000000000000000011111111111111111111100000000000000000000000000000000000000000000000000000000000000000000000000000000000000000000000001111111111100000000000000000000011
11100000000000000111111111111111111111110000000000000000000000000000000000000000000000000000000000000000000000000000000000000000000000001111111111100000000000000000000011
11100000000000001111111111111111111111110000000000000000000000000000000000000000000000000000000000000000000000000000000000000000000000001111111111000000000000000110000011
11100000000000011111111111111111111111111000000000000000000000000000000000000000000000000000000000000000000000000000000000000000000000000111111111000000000000111111110011
11100000000001111111111111111111111111111100000000000000000000000000000000000000000000000000000000000000000000000000000000000000000000000111111111000000000001111111111011
11100000000011111111111111111111111111111110000000000000000000000000000000000000000000000000000000000000000000000111100000000000000000000011111100000000000001111111111111
11100000000111111111111111111111111111111111000000000000000000000000000000000000000000000000000000000000000000111111111000000000000000000000000000000000000011111111111111
11110000001111111111111111111111111111111111100000000000000000000000000000000000000000000000000000000000000001111111111100000000000000000000000000000000000011111111111111
11110000011111111111111111111111111111111111100000000000000000000000000000000000000000000000000000000000000011111111111110000000000000000000000000000000000011111111111111
11110001111111111111111111111110011111111111110000000000000000000000000000000000000000000000000000000000000011111111111111000000000000000000000000000000000011111111111111
11110011111111111111111111111111111000111111111000000000000000000000000000000000000000000000000000000000000011111111111111000000000000000000000000000000000011111111111111
11110111111111111111111111111111111100000001111100000000000000000000000000000000000000000000000000000000000111111111111111000000000000000000000000000000000001111111111111
11111111111111111111111111111111111100000000011000000000000000000000000000000000000000000000000000000000000111111111111111000000000000011111111111000000000000111111111011
11111111111111111111111111111111111101110000110000000000000000000000000000000000000000000000000000000000000111111111111111000000000000111111111111110000000000011111110011
11111111111001111111111111111111111101111111100000000000000000000000000000000000000000000000000000000000000111111111111111000000000011111111111111111000000000000111000011
11111111000011111111111111111111111111111110000000000000000000000000000000000000000000000000000000000000000011111111111111000000000111111111111111111100000000000000000011
11111000000111111111111111111111111111111100000000000000000000000000000000000000000000000000000000000000000011111111111110000000001111111111111111111110000000000000000011
11111000111111111111111111111111111111111000000000000000000000000000000000000000000000000000000000000000000001111111111100000000001111111111111111111110000000000000000011
11110011111111111111111111110011110111110000000000000000000000000000000000000000000000000000000000000000000000111111111000000000011111111111111111111111111111000000000011
11110111111111111111111111000111000000000000000000000000000000000000000000000000000000000000000000000000000000001111110000000000011111111111111111111111111111000000000011
11110111111111111111111100001100000000000000000000000000000000000000000000000000000000000000000000000000000000000000000000000000111111111111111111111111111111100000000111
11111111111111111111100000011000000000000000000000000000000000000000000000000000000000000000000001111100000000000000000000000000111111111111111111111111111111100000000111
11111111111111111110000001110000000000000000000000000000000000000000000000000000000000000000000011111110000000000000000000000000111111111111111111111111111111100000000111
11111111111111111000000011100000000000000000000000000000000000000000000000000000000000000000000111111111000000000000000000000000111111111111111111111111111111100000000111
11111111111111000000000110000000000000000000000000000000000000000000000000000000000000000000000111111111000000000000000000000000111111111111111111111111111111100000000111
11111111111100000000011100000000000000000000000000000000000000000000000000000000000000000000000111111111000000000000000000000000111111111111111111111111111111000000001111
11111111100000000000111000000000000000000010000000000000000000000000000000000000000000000000000111111111000000000000000000000000111111111111111111111111111100000000001111
11111111110000000001110000000000000000000000000000000000000000000000000000000000000000000000000111111111000000000000000000000000011111111111111111111111000000000000001111
11111111011000000011000000000000000000000000000000000000000000000000000000000000000000000000000011111110000000000000000000000000011111111111111111111111000000000000001111
11111111001100001110000000000000000000000001000000000000000000000000000000000000000000000000000000111000000000000000000000000000011111111111111111111111000000000000001111
11111110000110011100000000000000000000000001000000000000000000000000000000000000000000000000000000000000000000000000000000000000001111111111111111111110000000000000001111
11111100000010110011111111111111100000000001000000000000000000000000000000000000000000000000000000000000000000000000000000000000000111111111111111111100000000000000011111
11111100000011100011111000000000000000000001100000000000000000000000000000000000000000000000000000000000000000000000000000000000000111111111111111111100000000000000011111
11111000000000000000000000000000000000000001100000000000000000000000000000000000000000000000000000000000000000000000000000000000000001111111111111110000000000000000011111
11111000000000000000000000000000000000000000100000000000000000000000000000000000000000000000000000000000000000000000000000000000001110111111111111100000000000000000011111
11110000000000000000000000000000000000000000100000000000000000000000000000000000000000000000000000000000000000000000000000000000111111001111111110000000000000000000111111
11100000000000000000000000000000000000000000110000000000000000000000000000000000000000000000000000000000000000000000000000000001111111100000000000000000000000000000111111
11100000000000000000000000000000000000000000110000000000000000000000000000000000000000000000000000000000000000000000000000000001111111110000000000000000000000000000111111
11100000000000000000000000000000000000000000110000000000000000000000000000000000000000000000000000000000000000000000000000000001111111110000000000000000000000000000111111
11100000000000000000000001000000000000000000111000000000000000000000000000000000000000000000000000000000000000000000000000000001111111110000000000000000000000000001111111
11100000000000000000000001000000000000000000011000000000000000000000000000000000000000000000000000000000000000000000000000000001111111110000000000000000000000000001111111
11110000000000000000000001000000000000000000011000000000000000000000000000000000000000000000000000000000000000000000000000000001111111100000000000000000000000000001111111
11110000000000000000000011000000000000000000011000000000111111000000000000000000000000000000000000000000000000000000000000000000111111000000000000000000000000000001111111
11111000000000000000000011000000000000000000011100000001111111100000000000000000000000000000000000000000000000000000000000000000000000000000000000000000000000000011111111
11111000000000000000000011100000000000000000011100000001111111100000000000000000000000000000000000000000000000000000000000000000000000000000000000000000000000000011111111
11111000000000000000000111100000000000000000011100000011111111100000000000000000000000000000000000000000000000000000000000000000000000000000000000000000000000000011111111
11111100000000000000000111001000000000000000011111000011111111100000000000000000000000000000000000000000000000000000000000000000000000000000000000000000000000000011111111
11111100000000000000000100010010000000000000011111110011111111100000000000000000000000000000000000000000000000000000000000000000000000000000000000000000000000000111111111
11111100000000000000000000010001100000000000011111111101111111100000000000000000000000000000000000000000000000000000000000000000000000000000000000000000000000000111111111
11111110000000000000000000011000011000000000111111111111111111000000000000000000000000000000000000000000000000000000000000000000000000000000000000000000000000000111111111
11111110000000000000000000011100001110000011111111111111111110000000000000000000000000000000000000000000000000000000000000000000000000000000000000000000000000000111111111
11111110000000000000000000011100000011100111111111111111111110000000000000000000001111111000001111110000010000000000000000000000000000000000000000000000000000000111111111
11111110000000000000000000011111000000111111111111111111111111100000000011111111111111111111110111110000000000000000000000000000000000000000000000000000000000000111111111
11111111000000000000000000011111100000011111000000000000000001111111111111111111111111111111111111111000000000000000000000000000000000000000000000000000000000000111111111
11111111000000000000000000001111110000000111111100000000000000000000000000000000000000000000000000011000000000000000000000000000000000000000000000000000000000000111111111
11111111000000000000000000111111110100000001111111100000000000000000000000000000000000000000000000000000000000000000000000000000000000000000000000000000000000000111111111
11111111000000000000000000011101101100110010000111111110000000000000000011111000000000000000000000000000000000000000000000000000000000000000000000000000000000000111111111
11111111000000000000000000001111001000100000001111000111110000000000000011111111000000000000000000000000000000000000000000000000000000000000000000000000000000000011111111
11111111000000000000000000001110010001000100000111111111001111000000000011011111111100000000000000000000000000000000000000000000000000000000000000000000000000000011111111
11111111100000000000000000001100110011001100000001111111111110000000000111111111111111110000000000000000000000000000000000000000000000000000000000000000000000000011111111
11111111100000000000000000001100100010011000000000011111111111110000000111111101111111110000000000000000000000000000000000000000000000000000000000000000000000000011111111
11111111110000000000011000001001100100010000000000000111111111110000000111101111111111100010011001000100000000000000000000000000000000000000000000000000000000000011111111
11111111110000000000001111111101001100110000000000000011111111110000000101111111111110011001000100110010000000000000000000000000000000000000000000000000000000000111111111
11111111111000000000000111111111101000100100000000000000111111110000001111111111110000000100110010000000000000000000000000000000000000000000000000000000000000001111111111
11111111111100000000000001111111111111000100000000000000001111110000001111111110000000110010001000000000000000000000000000000000000000000000000000000000000000001111111111
11111111111100000000000000011111111111111100000000000000000111110000001110000000000000001001100000000000000000000000000000000000000000000000000000000000000000011111111111
11111111111110000000000000001111111111111110000000000000000001110000000000000000000000100000000000000000000000000000000000000000000000000000000000000000000000111111111111
11111111111111000000000000000011111111111110000000000000000000010000000000000000000000000000000000000000000000000000000000000000000000000000000000000000000001111111111111
11111111111111100000000000000000111111111111100000000000000000000000000000000000000000111111111111111100000000000000000000000000000000000000000000000000000011111111111111
11111111111111100000000000000000001111111111111000000000000000000000000000000000000000111111111111111111111111110000000000000000000000000000000000000000000111111111111111
11111111111111110000000000000000000111111111111100000000000000000000000000000000000000111111111111111111110000000000000000000000000000000000000000000000011111111111111111
11111111111111111000000000000000000001111111111110000000000000000000000000000000000000111111111111110000000000000000000000000000000000000000000000000000111111111111111111
11111111111111111100000000000000000000011111111111100000000000000000000000000000000000111111100000000000000000000000000000000000000000000000000000000001111111111111111111
11111111111111111110000000000000000000001111111111111000000000000000000000000000000000100000000000000000000000000000000000000000000000000000000000000111111111111111111111
11111111111111111111110000000000000000000001111111111100000000000000000000000000000000000000000000000000000000000000000000000000000000000000000111111111111111111111111111
11111111111111111111111100000000000000000000000111111111000000000000000000000000000000000000000000000000000000000000000000000000000000001111111111111111111111111111111111
11111111111111111111111111000000000000000000000000011111100000000000000000000000000000000000000000000000000000000000000000001111111111111111111111111111111111111111111111
11111111111111111111111111110000000000000000000000000001111000000000000000000000000000000000000000000000001111111111111111111111111111111111111111111111111111111111111111
11111111111111111111111111111111111111111111000000000000001110000000000000000000000000000000000000000011111111111111111111111111111111111111111111111111111111111111111111
11111111111111111111111111111111111111111111111000000000000000000000000000000000000000000000000000111111111111111111111111111111111111111111111111111111111111111111111111
11111111111111111111111111111111111111111111111111100000000000000000000000000000000000000000001111111111111111111111111111111111111111111111111111111111111111111111111111
11111111111111111111111111111111111111111111111111111100000000000000000000000000000000000011111111111111111111111111111111111111111111111111111111111111111111111111111111
11111111111111111111111111111111111111111111111111111111110000000000000000000000000000111111111111111111111111111111111111111111111111111111111111111111111111111111111111
11111111111111111111111111111111111111111111111111111111111110000000000000011111111111111111111111111111111111111111111111111111111111111111111111111111111111111111111111
11111111111111111111111111111111111111111111111111111111111111111111111111111111111111111111111111111111111111111111111111111111111111111111111111111111111111111111111111
11111111111111111111111111111111111111111111111111111111111111111111111111111111111111111111111111111111111111111111111111111111111111111111111111111111111111111111111111
