1111111111111111111111111111111111111111111111111111111111111111111111111111111111111111111111111111111111111111111111111111111111111111111111111111111111111111111111111111111111111111111111111111
1111111111111111111111111111111111111111111111111111111111111111111111111111111111111111111111111111111111111111111111111111111111111111111111111111111111111111111111111111111111111111111111111111
1111111111111111111111111111111111111111111111111111111111111111111111111111111111111111111111111111111111111111111111111111111111111111111111111111111111111111111111111111111111111111111111111111
1111111111111111111111111111111111111111111111111111111111111111111111111111111111111111111111111111111111111111111111111111111111111111111111111111111111111111111111111111111111111111111111111111
1111111111111111111111111111111111111111111111111111111111111111111111111111111111111111111111111111111111111111111111111111111111111111111111111111111111111111111111111111111111111111111111111111
1111111111111111111111111111111111111111111111111111111111111111111111111111111111111111111111111111111111111111111111111111111111111111111111111111111111111111111111111111111111111111111111111111
1111111111111111111111111111111111111111111111111111111111111111111111111111111111111111111111111111111111111111111111111111111111111111111111111111111111111111111111111111111111111111111111111111
1111111111111111111111111111111111111111111111111111111111111111111111111111111111111111111111111111111111111111111111111111111111111111111111111111111111111111111111111111111111111111111111111111
1111111111111111111111111111111111111111111111111111111111111111111111111111111111111111111111111111111111111111111111111111111111111111111111111111111111111111111111111111111111111111111111111111
1111111111111111111111111111111111111111111111111111111111111111111111111111111111111111111111111111111111111111111111111111111111111111111111111111111111111111111111111111111111111111111111111111
1111111111111111111111111111111111111111111111111111111111111111111111111111111111111111111111111111111111111111111111111111111111111111111111111111111111111111111111111111111111111111111111111111
1111111111111111111111111111111111111111111111111111111111111111111111111111111111111111111111111111111111111111111111111111111111111111111111111111111111111111111111111111111111111111111111111111
1111111111111111111111111111111111111111111111111111111111111111111111111111111111111111111111111111111111111111111111111111111111111111111111111111111111111111111111111111111111111111111111111111
1111111111111111111111111111111111111111111111111111111111111111111111111111111111111111111111111111111111111111111111111111111111111111111111111111111111111111111111111111111111111111111111111111
1111111111111111111111111111111111111111111111111111111111111111111111111111111110111100111000111111110000011111000000111111111111111111111111111111111111111111111111111111111111111111111111111111
1111111111111111111111111111111111111111111111111111111111111111111111111111011110111100111000111111110000011111001110001111111111111111111111111111111111111111111111111111111111111111111111111111
1111111111111111111111111111111111111111111111111111111111111111111111111111011110001000111000111111110000011111111110001111111111111111111111111111111111111111111111111111111111111111111111111111
1111111111111111111111111111111111111111111111111111111111111111111000111100011110000000111000111111110000011111111111001111111111111111111111111111111111111111111111111111111111111111111111111111
1111111111111111111111111111111111111111111111111111111111111111111000000000011110011100111000111111110000011111101111001111101111111111111111111111111111111111111111111111111111111111111111111111
1111111111111111111111111111111111111111111111111111111111111111111100000000000011111110010000111111110000011011000111000111000111111111111111111111111111111111111111111111111111111111111111111111
1111111111111111111111111111111111111111111111111111111111111111111100000000000011111110010000111111110000011000011111100000000001111101111111111111111111111111111111111111111111111111111111111111
1111111111111111111111111111111111111111111111111111111111111111111100111000000111100000010000111111110000010000011111100000100000111000011111111111111111111111111111111111111111111111111111111111
1111111111111111111111111111111111111111111111111111111111001111110000111111001111100000010000111111110000010000001110000011110000000000000111111111111111111111111111111111111111111111111111111111
1111111111111111111111111111111111111111111111111111111110000111000000111111001100000000111000111111110000010000000001100011110000000000000011111111111111111111111111111111111111111111111111111111
1111111111111111111111111111111111111111111111111111111000000100000001111111000000000000111000000000000000111000000001100001111000000000000000111111111111111111111111111111111111111111111111111111
1111111111111111111111111111111111111111111111111111110000000000000000000000000000011000010000000000000000111000000001100001111000000000000000011111111111111111111111111111111111111111111111111111
1111111111111111111111111111111111111111111111111111110111000000000000000000000000111000010000000000000000111000011000100000111000000000000000111111111111111111111111111111111111111111111111111111
1111111111111111111111111111111111111111111111111111111111000000000000000000000001111000010000000000000000010000011000000000110000000000000110111111111111111111111111111111111111111111111111111111
1111111111111111111111111111111111111111111111111111111111100000000000000000000001111000010000000000000000010000011100000000000000000000001111111111111111111111111111111111111111111111111111111111
1111111111111111111111111111111111111111111111011111111111100000111000000000000000000000111000000000000000010000011000000000000000000000011111111111110111111111111111111111111111111111111111111111
1111111111111111111111111111111111111111111110001111111111110000111100000000000000000001111000000000000000010000000000000000000000000000011111111111100011111111111111111111111111111111111111111111
1111111111111111111111111111111111111111111000011111111111110000111100000000000000000001111000000000000000111000000000000000000000011000111111111000000011111111111111111111111111111111111111111111
1111111111111111111111111111111111111111100000011111111111111000011110000000000000000001111000000000000000111100000000000000000000011111111111111100000011111111111111111111111111111111111111111111
1111111111111111111111111111111111111110000000001111111111110011111100000000000000000001111000000000000001111100000000000000000000011111111111111100000011111111111111111111111111111111111111111111
1111111111111111111111111111111111111100000000000111111111000011111000000000000000000011110000000000000001111100000000000000000000011111111111111100000000111111111111111111111111111111111111111111
1111111111111111111111111111111111110000000000000001111111001111100000000000000000000000100000000000000000111100110000000000000000111111111111111000000000001111111111111111111111111111111111111111
1111111111111111111111111111111111000001100000000001111111001111100000000000000000000000000000000000000000011100000000000000000000111111111111111100000000000111111111111111111111111111111111111111
1111111111111111111111111111111110000001111000000000111111111111100000000000000000000000000000000000000000011000000000000000000000111111111111111100000000000011111111111111111111111111111111111111
1111111111111111111111111111111100000011111110110000001111111011000000000000000000001100000000000000000000000000000000000000000000111111111111111100000000000011111101111111111111111111111111111111
1111111111111111111111111111111100000011111111111000111111111000000000000000000000001110000000000000000000000000000000000000000001111111111111111100000000000001110001111111111111111111111111111111
1111111111111111111111111111111100000011111111111111111111111000000000000000000000001110000000000000000000000011000000000000000001111111111101111100000000000000100001111111111111111111111111111111
1111111111111111111111111111111100011111111110111111111111111000000000000000000000000000000000000000000000000111000000000000000001111111111001110000000000000000000000001111111111111111111111111111
1111111111111111111111111111111000111111111100011111111111111100000000000000000000000000000000000000000000000011000000000000000011111111111011111100000000000000000000011111111111111111111111111111
1111111111111111111111111111100001111111111000001111111111111100011000000000000000000000000000000000000000000000000000000000000011111111110011111000000000000000000000011111111111111111111111111111
1111111111111111111111111110000001111111110000011111111111111110011100000000000000100000000000011111110000000000000000000000000011111111110000111000000000000000000000000111111111111111111111111111
1111111111111111111111111000000001111111110000011111111111111111011100000000000011110000000001111111110000000000000000000000000011111111100000000000000000000000000000000111111111111111111111111111
1111111111111111111111110000000000111111110000000001111011111111011100000000000011110000000001111111111000000000010000111100111111111111100000000000000000000000000010000111111111111111111111111111
1111111111111111111111110000000000011111110000000000100001111111100001100000001111110000001111111111111100000000111101111111111111111111000000000000000000000000000000000111111111111111111111111111
1111111111111111111111100000000000011110000000000000000011111111100001111000001111110000001111111111111100000000111111111111111111111110000000000000000000000000000000000110011111111111111111111111
1111111111111111111111100000000000000000000000000000000111111111110011111000111110000000001111111111111110000001111111111111111111111110000000000000000000000001000100000000011111111111111111111111
1111111111111111111111000000000000000000000000000000001111111111111111111111110000000000001111111111111110000000111111111111111111111100000000000000000000000000000000000000001111111111111111111111
1111111111111111111111100000000000000000000000000000001111111111111111111111000000000000001111111111111110000000000000111111111111111100000000000000000000000000000000000000001111111111111111111111
1111111111111111111111100000000000000000000000000000000111111111111111111111000000000000001101111111111000000000000000001111111111111000000000000000000000000000000000000000000111111111111111111111
1111111111111111111111100000000000000000000000000000000111111111111111110000000000000000000000111111111000000000000000000111111111111000000000000000000000000000000000000000011111111111111111111111
1111111111111111111111111000000000000000000000000000011111111111111111100000000000000000000000011111111000000000000000000000111111110000000000000000000000000000000000000001111111111111111111111111
1111111111111111111111111000000000000000000000000000011111111111111111000000000000000000000000010000000000000000000000000000011111111000000000000000000000000000000000000001111111111111111111111111
1111111111111111111111111101110000000000000000000000000011111111111111000000000000000000000000000000000000000000000000000000011111111000000000000000111000000000000000000000111111111111111111111111
1111111111111111111111111111110000000000000000000000000011111111111111000000000000000000000000000000000000000000000000000000011111111100000000000111111100000000000000000000000111111111111111111111
1111111111111111111111111111111100000000000000000000000011111111111111000000000000000000000000000000000000000000000000000000111111111100000000011111111100000000000000000000000011111111111111111111
1111111111111111111111111111111100000000000000000000000000001111111000000000000000000000000000000000000000000000000000000000111110111100000000111111111100000000000000000000000001111111111111111111
1111111111111111111111111111111100000000000000000000000000011111110000000000000000000000000000000000000000000000000000000001111100110000000000111111111000000000000000000000000011111111111111111111
1111111111111111111111111111110000000000000000000000000000111111100000000000000000000000000000000000000001100000000000000001111100000000000000111100000000000000000000000000000011111111111111111111
1111111111111111111111111110110000000000000000000000000001111111000000000000000000000000000000000000110001110000000000000011111000000000000001111000011100000000000000000000000011111111111111111111
1111111111111111111111111110000000000000000000000000000011111110000000000000000000000000000000000001111111110000111000000111111000000000000001111110111110000000000000000000000000111111111111111111
1111111111111111111111111110000000000000000000000000000011111100000000000000000000000000000000011111111111110000111100000111110000000000000111111111111111000000000000000000000000111111111111111111
1111111111111111111111111100000000000000000000000000000001111000000000000000000000000000000000011111111111100000111000001111110000000000001111111111111111100000000000000000000000011111111111111111
1111111111111111111111111111000000000000001111000000000000110000000000001100000000000000000011111111111111100000111000001111100000000000001111111111111111110000000000000000000000000001111111111111
1111111111111111111111111111100111000001111111000000000000000000000000011110000000000000111111111111111111100001111110011111000000000000001111111111111111110000000000110000000000000000111111111111
1111111111111111111111111111111111000111111111011101110000000000000000011110000000001111111111111111111111100001111110011111000000000000000111111111111111110000000011111000000000000000111111111111
1111111111111111111111111111111111001111111111111111111000000000000000011110000011111111111111111111111111000001111100111110000000000000000000111111111111110000011111111000000000000011111111111111
1111111111111111111111111111111111100111111111111111111100000000000000111111111111111111111111111111111111000011111111111110000000000000000000011111111111111000111111111100000000000011111111111111
1111111111111111111111111111111111110111111111111111111000000000000001111111111111111111111111111111111111000011111111111100000000000000000000111111111111111000111111111000000000000001111111111111
1111111111111111111111111110111111111111111111111111111100000000000001111111111111111111111111111111111111000011111111111110001100000000000000111111111111111101111111111000000000000000111111111111
1111111110011100111111111000001111111111111111111111111100000000000001111111111111111111111111111111111110000011111111111110000000000000000001111111111111111111111111111000000000000000111111111111
1111111100001000111111111000000011111111111111111111111100000000000011111111111111111111111111111111111110000111111111111111000000000000000001111111111111111111111111111000000000000000011111111111
1111111100000000111111111000001111111111111111111111111100000000000001111111111111111111111111111111111110000111111111111111100000000000000011111111111111111111111111101000000000000000011111111111
1111111000000000011111110000001111111111111111111111111000000000000000111111111111111111111111111111111100000111111111111111110000000000001111111111111111111111101100001100000000000000111111111111
1111110000000000001111100000110111111111111111111111111000000000000000111111111111111111111111111111111111110111111111111111110000000000011111111111111111111111100000001110000000000000111111111111
1111110000000000000111000001110000111111111111110000011000000000000000111110111111111111111111111111111111111111111111111111110000000000011111111111111111111111100000001100000000000000011111111111
1111110000000000000000000011110000111111111111110000011000000000000000011100111111111111111111111111111111111111111111110011100000000000111111111111111111111111000000000110000000000000001111111111
1111110000000000000000000011110000111111111111100000000000001100000000001000011111111111111111111111111111111111111100000001000000000001111111111111111111111111000000000110000000000000000110111111
1111110000000000000000000011110000111111111111100000000000011111011000000000001111111111111111111111111111111111111000000000000001100111111111111111111111111111000000000010000000000000000000111111
1111110000000000000000000000100000111111111110000000000000011111111100000000001111111111111111111111111111111111111000000000000011111111111111111111111111100111000000000011100000000000000000111111
1111110000000000000000000000000000111111111110000000000000011111111110000000000111111111111111111111111111111111111000000000000111111111111111111111111111000000000000000111110000000000000000111111
1111110000000000000000000000000001111111111110000000000000001111111110000000000011111111111111111111111111111111110000000000000111111111111111111111111111111100000000000111110000000000000000001111
1111110000000000000000000000000001111000111111110000000000011111111100000000000011111111111111111111111111111111100000000000000011111111111111111111111111111100000000000111110000000000000000000111
1111110000000000000000000000000000111001111111110000000000111111111000000000000001111111111111111111111111111111000000000000000001111111111111111111111111111100000000000011110000000000000000011111
1111110000000000000000000000000000011001111111110000000000111111110000000000000001111111111111111111111111111100000000000000000001111111111111111111111111100000000000000000000000000000000000011111
1111000000000000000000000000000000011001111111100000000000111111111000000000000000111111111111111111111100000000000000000000000111111111111111111111111111100000000000000000000000000000000001111111
1100000000111100000000000000000000000001111100100000000000111111111110000000000000001111111111111111111000000000000000000000011111111111111111111111111111110000000000000000010000000000000001111111
1100000000111100000000000000000000000001111000000000000000111111111111000000000000000000111111110011111000000000000000000000111111111111111111111111111111110000001110000000100000000000000001111111
1100000000111101100000000000000000000000110000000000000000111111111111110000000000000000000111000000110000000000000000000011111111111111111111111111111111111001111110000000000000000000000001111111
1100000000111111100000000000000000000000000000000000000011111111111111111100000000000000000000000000000000000000000000001111111111111111111111111111111111111111111100000000000000000000000001111111
1100000000111111110000000000000000000000000000000000000011111111111111111110000000000000000000000000000000000000000000001111111111111111111111111111111111111111100000000000000000000000000001111111
1100000000111111110000000000000000000000000000000000000011111111111111111111000000000000000000000000000000000000000000011111111111111111111111111111111111111110000000000000000000000000000001111111
1100000000000000100000000000000000000110000000000000000011111111111111111111000000000000000000000000000000000000000000011111111111111111111111111111111111111100000000000000000000000000001001111111
1100000000000000000110000000000001110111100000000000000011111111111111111111000000000000000000000000000000000000000000111111111111111111111111111111111111111000000000000000000000000001111101111111
1100000000000000000110000000000001111111100000000000000011111111111111111110000000000000000000000000000000000000000000111111111111111111111111111111100000000000000000000000000000000011111101111111
1100000000111000000111000000011111111111100000000000000011111111111111111110000000000000000000000000000000000000000000000111111111111111111111110000000000000000000000000000000000000111111101111111
1100000000111000000111000001111111111111100000000000000011111111111111111111000000000000000000000000000000000000000000000111111111111111111111000000000000000000000000000000000000001111110001111111
1100000000111011111110000011111111111111111110000000000011111111111111111111000000000000000000000000000000000000000000000111111111111111111111000000000000000000000000000000000000011110110001111111
1111100000000011111110000111111111111111111110000000001111111111111111111111000000000000000000000000011100000000000000000011111111111111111111100000000000000000000000000000000000011110000001111111
1111111100000011111110000111111111111111111100000000001111111111111111111111000000000000000000000000111101110000000000000111111111111111111111111000000000000000000000000000000000011111000001111111
1111111100000011111110000011111111111111111110000000001111111111111111111111000000000000000001111111111111100000000000000111111111111111111111111000000000000000000000000000000000111010000001111111
1111111100000011111111110011111111111111111110000000001111111111111111111111000000000000000001111111111111100000000000000011111111111111111111111000000000000000000000000000000000000000000011111111
1111111110111011111111111001111111111111111111000000001111111111111111111111000000000000000011111111111111100000000000000001111111111111111111110000000000000000000000000000000000000000001111111111
1111111111111011111111111000111111111111111111000000001111111111111111111111100000000000000011111111111111000000000000000001111111111111111111110000000000000011110000000000000001111111111111111111
1111111111111111111111111111111111111111111111100011111111111111111111111111100000000000000111111111111110000000000000000001111111111111111111111110000001111111111111111111111111111111111111111111
1111111111111111111111111111111111111111111111111111111111111111111111111111100000000000000111111111111110000000000000000001111111111111111111111111000011111111111111111111111111111111111111111111
1111111111111111111111111111111111111111111111111111111111111111111111111111100000000000001111111111111110000000000000000011111111111111111111111111000011111111111111111111111111111111111111111111
1111111111111111111111111111111111111111111111111111111111111111111111111111100000000000011111111111111100000000000000000011111111111111111111111111000011111111111111111111111111111111111111111111
1111111111111111111111111111111111111111111111111111111111111111111111111111100000000000011111111111111100000000000000000001111111111111111111111111000011111111111111111111111111111111111111111111
1111111111111111111111111111111111111111111111111111111111111111111111111111100000000000011111111111111100000000000000000000111111111111111111100000000000000011111111111111111110000000111111111111
1111111111111111111111111111111111111111111111111111111111111111111111111111110000000000001111111111111110000000000000000000011111111111111111000000000000000001111111000111111110000000111111111111
1111111111111111111111111111111111111111111111111111111111111111111111111111100000000000000111111111111110000000000000000000001111111111111111000000000000000001111111100111111110000001111111111111
1111111111111111111111111111111111111110000011111111111111111111111111111111110000000000000011111111111000000000000000000000001111111111111111000000000000000000011111100011111110000001111111111111
1111111111111111111111111111111111111100010011111111111111111111111111111111110000000000000111111111110000000000000000000000011111111111111111000000000000000000001111100001111110000001111111111111
1111111111111111111111111111111101110001111000111111111111111111111111111111110000000000000111111111110000000000000000011100111111111111111110000000000000000000000111000000111110000001111111111111
1111111111111111111111111111111100000001111000011111111111111111111111111111110000000000000001111111110000000000000001111100111111111111111100000000000000000000000011111100000000000000111111111111
1111111111110001111000000000000000000000111100000111111111111111111111111111111000000000000000001111110000000000000011111111111111111111100000000000000000000000000001111111110000000000111111111111
1100000000000000000000000000000000000000011100000011111111111111111111111111110000000000000000001111110000000000000111111111111111111111100000000000000000000000000011111111111100000000111111111111
1100000000000000000000000000000000000000001000000011111111111111111111111111110000000000000000000000000000000000011111111111111111111111100000000000000000000000000011111111111100000000011111111111
1100000000000000000000000000000000000000000000000011111111111111111111111111100000000000000000000000000000000000111111111111111111111111100000000000000000000000000000001111111100000000011111111111
1111111111111100000000000000000000000000000000000001111111111111111111111111100000000000000000000000000000000011111111111111111111111111111000000000000000000000000000000001111000000000001111111111
1111111111111100000000000000000000000000000000000111111111111111111111111111111000000000000000000000000000000111111111111111111111111111111100000000000000000000000000000000000000000000000011111111
1111111111111111111111111111111100000000000000000111111111111111111111111111111100000000000000000000000000011111111111111111111111111111111100000000000000000000000000000000000000000001010001111111
1111111111111111111111111111111100000000000000000111111111111111111111111111111111000000000000000000000000111111111111111111111111111111111000000000000000000000000000000000000000001001010000000111
1111111111111111111111111111111100000000000000000011111111111111111111111111111111111000000000000000000001111111111111111111111111111111111110000000000000000000000010000000000000100001110000000011
1111111111111111111110000000000000000000000000000001111111111111111111111111111111111111111111111111111111111111111111111111111111111111111111100000000000000000000111000000000000000001110000000011
1111111111111111111110000000000000000000000000000000111111111111111111111111111111111111111111111111111111111111111111111111111111111111111111100000000000000000000110000000000000000011110000000011
1111111111111111110110000000000000000000000000000000111111111111111111111111111111111111111111111111111111111111111111111111111111111111111111000000000000001111100000000000000000000011111000000111
1111111111111111100000000000000000000000000000000000111111111111111111111111111111111111111111111111111111111111111111111111111111111111111111000000000000001111110000000000000000000011111100000111
1111111111111111000000000000000000000000001100000000111111111111111111111111111111111111111111111111111111111111111111111111111111111111111110000000000000011111110000011000000000000011111100011111
1111111111111111000000000000000000000000001100000000001111111111111111111111111111111111111111111111111111111111111111111111111111111111111110000000000000011111110000111110000000000001111000011111
1111111111111111000000000000000000000000111110000000000111111111111111111111111111111111111111111111111111111111111111111111111111111100111100000000000000000011100000111111100011000000000000000111
1111111111111100000000000000000000000001111111111110000111111111111111111111111111111111111111111111111111111111111111111111111111111000001100000000000000000000000000111111100111100000001100001111
1111111111000000000000000000000000000001111111111110000001111111111111111111111111111111111111111111111111111111111111111111111111110000000000000000000000000000000000011111001111111000011100111111
1111111111000000000000000000000000000001111111111111000000111111111111111111111111111111111111111111111111111111111111111111111111100000000000000000001111000000000000000111011111111000011001111111
1111111111000000000000000000000000000011111111111111000000011111111111111111111111111111111111111111111111111111111111111111111111000000000000000000011111111100000000000011111111111100000000111111
1111111110000000000000000000011000000011111111111110000000001111111111111111111111111111111111111111111111111111111111111111111110000000000000000000111111111111000000000111111111111100000000111111
1111111110000000000000000000000000000011111111111110000000000111111111111111111111111111111111111111111111111111111111111111111100000000000000000000111111111111100000000011111110000000000000111111
1111111110000000000000000000000000000011111111111110000000000011111111111111111111111111111111111111111111111111111111111111111000000000000000000000111111111111111000000011111100000000000000111111
1111111000000000000000000000000111000111111111111111000000000001111111111111111111111111111111111111111111111111111111111111110000000000000000000001111111111111111111111001100000001111110001111111
1111111000000000000000000000011111011111111111111111000000000000111111111111111111111111111111111111111111111111111111111111100000000000000000000011111111111111111111111110000001111111111111111111
1111111100011000000000000000111111111111111111111110000000000000011111111111111111111111111111111111111111111111111111111111100000000000000000000011111111111111111111111111100011111111111111111111
1111111110111110000000000011111111111111111111111100000000000000000111111111111111111111111111111111111111111111111111111111110000000000000000000011111111111111111111111111100111111111111111111111
1111111110111111110000001111111111111111111111110000000000000000000111111111111111111111111111111111111111111111111111111111111000000000000000000111111111111111111111111111101111111111111111111111
1111111111111111111100011111111111111111111111100000000000000000000111111111111111111111111111111111111111111111111111111111111000000000000000000111111111111111111111111111111111111111111111111111
1111111111111111111111111111111111111111111110000000000000000000000000000111111111111111111111111111111111111111111111111111110000000000000000001111111111111111111111111111111111111111111111111111
1111111111111111111111111111111111111111111000000000000000000000000000001111111111111111111111111111111111111111111111111111100000000000000000011111111111111111111111111111111111111111111111111111
1111111111111111111111111111111111111111110000000000000000000000000000001111111111111111111111111111111111111111111111111111000000000000000011111111111111111111111111111111111111111111111111111111
1111111111111111111111111111111111111111000000000000000000000000000000001111111111111011111111111111111111111001111111111111000000000111000111111111111111111111111111111111111111111111111111111111
1111111111111111111111111111111111111110000000000000000000000000000000001111111111110011100111111111111111000001111111111111000000001111111111111111111111111111111111111111111111111111111111111111
1111111111111111111111111111111011111000000000000000000000000000000000000011111100000011100000011111110000000000111111101100000011101111111111111111111111111111111111111111111111111111111111111111
1111111111111111111111111111100001100000000000000000000000000000000000000000000000000011100000011111100000000000011110000000000011111111111111111111111111111111111111111111111111111111111111111111
1111111111111111111111111110000000000000000000000000000000000000000000000000000000000000000000000110000000000000000000000000000111111111111111111111111111111111111111111111111111111111111111111111
1111111111111111111111111000000000000000000000000000000000000000000011100000000000000000000000000000000000000000000000000000011111111111111111111111111111111111111111111111111111111111111111111111
1111111111111111111111110000000000000000000000000000000000000000001111111000000000000000000000000000000000000000000000000001111111111111111111111111111111111111111111111111111111111111111111111111
1111111111111111111111100000000000000000000000000000000000000000011111111100000000000000000000000000000000000000000000000001111111111111111111111111111111111111111111111111111111111111111111111111
1111111111111111111111100001111000000000000000000000000000000000011111111110000000000000000000000000000000000000000000000001111111111111111111111111111111111111111111111111111111111111111111111111
1111111111111111111111100001111000000000000000000000000000000000111111111110000000000000000000000000000000000000000000000011111111111111111111111111111111111111111111111111111111111111111111111111
1111111111111111111111100001111000000000000000000000000000000001111111111110000000000000000000000000000000000000000000000011111111111111111111111111111111111111111111111111111111111111111111111111
1111111111111111111111100000000000000000000000000000000000000001111111111110000000000000000000000000000000000000000000000111111111111111111111111111111111111111111111111111111111111111111111111111
1111111111111111111111110000000000000000000000000000000000000011111111111111000000000000000000000000000000000000000000001111111111111111111111111111111111111111111111111111111111111111111111111111
1111111111111111111111110000000000000000000000000000000000000111111111111111111100000000000000000000000111000000000001111111111111111111111111111111111111111111111111111111111111111111111111111111
1111111111111111111111111000000000000000000000000000000000000111111111111111111110000000000000001111111111110000000111111111111111111111111111111111111111111111111111111111111111111111111111111111
1111111111111111111111111000000000000000000000000000000000011111111111111111111100000111000000011111111111111110000111111111111111111111111111111111111111111111111111111111111111111111111111111111
1111111111111111111111111110000000000000000000000000001111111111111111111111111100001111111000111111111111111110000011111111000011111111111111111111111111111111111111111111111111111111111111111111
1111111111111111111111111110000000000000000000000001111111111111111111111100111000001111111111111111111111111111000011110000001111111111111111111111111111111111111111111111111111111111111111111111
1111111111111111111111111111111111100000000000011111111111111111111111111100000000001111111111111111111111111111000000000000001111111111111111111111111111111111111111111111111111111111111111111111
1111111111111111111111111111111111100000000001111111111111111111111111111000000000001111111111111111111111111111000000000000111111111111111111111111111111111111111111111111111111111111111111111111
1111111111111111111111111111111111100000000011111111111111111111111111111000000000000001111111111111111111111000000000000001111111111111111111111111111111111111111111111111111111111111111111111111
1111111111111111111111111111111111110000000111111111111111111111111111111000000000000010000111111111111110000000000000000011111111111111111111111111111111111111111111111111111111111111111111111111
1111111111111111111111111111111111110000001111111111111111111111111111100000000000000011001111111111111100000000000000000011111111111111111111111111111111111111111111111111111111111111111111111111
1111111111111111111111111111111111110000001111111111111111111111111111000000000000000001100111111111111100000000000000000001111111111111111111111111111111111111111111111111111111111111111111111111
1111111111111111111111111111111111111100011111111111111111111111111111000000000000000000001111111111111110000000000000000000111111111111111111111111111111111111111111111111111111111111111111111111
1111111111111111111111111111111111111111111111111111111111111111111111000000000000000000011111111111111111000000000000000000011111111111111111111111111111111111111111111111111111111111111111111111
1111111111111111111111111111111111111111111111111111111111111111111111000000000000000000011111111111111111000000000000000000001111111111111111111111111111111111111111111111111111111111111111111111
1111111111111111111111111111111111111111111111111111111111111111111110000000000000000000011111111111111111000000000000000000000011111111111111111111111111111111111111111111111111111111111111111111
1111111111111111111111111111111111111111111111111111111111111111111110000000000000000000111111111111111100000000000000000000000011111111111111111111111111111111111111111111111111111111111111111111
1111111111111111111111111111111111111111111111111111111111111111111110000000000000000011111111111111001000000000000000000000000001111111111111111111111111111111111111111111111111111111111111111111
1111111111111111111111111111111111111111111111111111111111111111111110000000000010000111111111111111011000000000000000000000000000111111111111111111111111111111111111111111111111111111111111111111
1111111111111111111111111111111111111111111111111111111111111111111110000000011110011111111111111111000000000000000000000000000000011111111111111111111111111111111111111111111111111111111111111111
1111111111111111111111111111111111111111111111111111111111111111111100000000111111111111111111111111110000000000000000000000000000001111111111111111111111111111111111111111111111111111111111111111
1111111111111111111111111111111111111111111111111111111111111111111100000000111111111111111111111111110100000000000000000000000000000111111111111111111111111111111111111111111111111111111111111111
1111111111111111111111111111111111111111111111111111111111111111111100000000011111111111111111111111110110000000000000000000000000000011111111111111111111111111111111111111111111111111111111111111
1111111111111111111111111111111111111111111111111111111111111111111100000000011111111111111111111111111111000000000000000000000000000001111111111111111111111111111111111111111111111111111111111111
1111111111111111111111111111111111111111111111111111111111111111111000000001111111111111111111111111111111000000000000000000000000000000111011111111111111111111111111111111111111111111111111111111
1111111111111111111111111111111111111111111111111111111111111111110000000011111111111111111111111111111110000000000000000000000000000000010001111111111111111111111111111111111111111111111111111111
1111111111111111111111111111111111111111111111111111111111111111100000000011111111111111111111111111111100000000000000000000000000000000000001111111111111111111111111111111111111111111111111111111
1111111111111111111111111111111111111111111111111111111111111110000000000011111111111111111111111111110000000000000000000000000000000000000100111111111111111111111111111111111111111111111111111111
1111111111111111111111111111111111111111111111111111111111111110000000000001111111111110111111111111110001110000111110000000000000000000001111111111111111111111111111111111111111111111111111111111
1111111111111111111111111111111111111111111111111111111111111110000000000000111111111110111111111111110111110000111110000000000000000000000111111111111111111111111111111111111111111111111111111111
1111111111111111111111111111111111111111111111111111111111111111000000000000111111110000111111111111110111110000111110000000000000000000001111111111111111111111111111111111111111111111111111111111
1111111111111111111111111111111111111111111111111111111111111111000000000000111111000000111111111111110111111000111110000000000000000000001111111111111111111111111111111111111111111111111111111111
1111111111111111111111111111111111111111111111111111111111111111000000000000011000000000111111111111110011111000111100000000000000000000011111111111111111111111111111111111111111111111111111111111
1111111111111111111111111111111111111111111111111111111111111110000000000000000000000001111111111111110011111100111100000000000000001111111111111111111111111111111111111111111111111111111111111111
1111111111111111111111111111111111111111111111111111111111111100000000000000000000000001111111111111110001111100111100111111110000001111111111111111111111111111111111111111111111111111111111111111
1111111111111111111111111111111111111111111111111111111111111110000000000000000000000001111111111111110001111110111100111111110000111111111111111111111111111111111111111111111111111111111111111111
1111111111111111111111111111111111111111111111111111111111111111100000000000000000000011111111111111110000111110111100111111110111111111111111111111111111111111111111111111111111111111111111111111
1111111111111111111111111111111111111111111111111111111111111111111000000000000000000011111111111111110000111110111100111111111111111111111111111111111111111111111111111111111111111111111111111111
1111111111111111111111111111111111111111111111111111111111111111111100100000000000000011111111111111111000011111111100111111111111111111111111111111111111111111111111111111111111111111111111111111
1111111111111111111111111111111111111111111111111111111111111111111111110000001110000001111111111111111000011111111100000000111111111111111111111111111111111111111111111111111111111111111111111111
1111111111111111111111111111111111111111111111111111111111111111111111110011011111000000011111111111110000011111111100001100111111111111111111111111111111111111111111111111111111111111111111111111
1111111111111111111111111111111111111111111111111111111111111111111111111111111111000000111111111111110000001111111100111111111111111111111111111111111111111111111111111111111111111111111111111111
1111111111111111111111111111111111111111111111111111111111111111111111111111111111111111111111111111111111111111111111111111111111111111111111111111111111111111111111111111111111111111111111111111
1111111111111111111111111111111111111111111111111111111111111111111111111111111111111111111111111111111111111111111111111111111111111111111111111111111111111111111111111111111111111111111111111111
