111111111111111111111111111
111111111111111111111111111
111111111111111111111111111
111111111111111111001111111
111111111111111111011111111
111111111111111111011111111
111111111111111111001111111
111111111111111111000110011
111111111101111111000000011
111111111100000000000000011
111111111100000000000001111
111111111100000000000001111
111111111100000000000001111
111111111110000000000001111
111111111110000000000000111
111111000000000000000000111
111111100000000000000000111
111111100000000000000000001
111111100000000000000000001
111111100000000000000000111
111111111000000111100000111
111111111110000111100000111
111111111110000111100000011
111111111111000011100000011
111111111111000000000000011
111111111111000000000000011
111111111111000000000000011
111111111111000000000000011
111111111111000000000000011
111111111110000000000000111
111111111110000000000000111
111111111111000000000000011
111111111111101111111110011
111111111111111111111111111
111111111111111111111111111
