11111111111111111111111111111111111111111111111111
11111111111111111111111000111111111111111111111111
11111111111111111001111000111000111111111111111111
11111111111111111000000000000000111111111111111111
11111111111111111000000000000000111111111111111111
11111111111111111000000000000000111111111111111111
11111111111111111000000000000000111111111111111111
11111111111111111000000000000000111111111111111111
11111111111111111000000000000000111111111111111111
11111111111111111000000000000000111111111111111111
11111111111111111000000000000000111111111111111111
11111111111111111000000000000000111111111111111111
11111111111111111000000000000000111111111111111111
11111111111111111110000000000011111111111111111111
11111111111111111110000000000111111111111111111111
11111111111111111110000000000111111111111111111111
11111111111111111110000000000011111111111111111111
11111111111111111110000000000011111111111111111111
11111111111111111000000000000000111111111111111111
11111111111111111100000000000000111111111111111111
11111111111111111110000000000000111111111111111111
11111111111111111111100000000000111111111111111111
11111111111111111111100000000001111111111111111111
11111111111111111111000000000001111111111111111111
11111111111111111110000000000011111111111111111111
11111111111111111110000000000111111111111111111111
11111111110011111100000000000111111011111111111111
11111111000001111000000000000111110001000000111111
11110000000000010000000000000111110000000000111111
11110000000000000000000000001111100000000000111111
11110000000000000000000000001111100000000000001111
11110000000000000000000000001111100000000000001111
11110000000000000000000000001111100000000000111111
11110000000000000000000000001111100011111111111111
11110000001110000000000000001111100011111111111111
11110000001110000000000000001111100011111111111111
11110000001110000000000000001111100001111111111111
11110000001110000000000000001111100001111111111111
11110000000000000000000000001111100001111111111111
11110000000000000000000000011111100001111111111111
11110000000000001100000000011111100001111111111111
11110000000111111100000000001111100001111111111111
11110000011111111100000000111111111101111111111111
11110000011111111110000000111111111100111111111111
11110000011111111110000000111111111100111111111111
11110000001111100000000000111111111100111111111111
11110000000000000000000000000000000000000011111111
11111111110000000000000000000000000000000111111111
11111111110000000000000000000000000000001111111111
11111111110000000000000000000000000000001111111111
11111111110000000000000000000000000000000111111111
11111111110000000000000000000000000000000111111111
11111111110000000000000000000000000000000000111111
11111111110000000000000000000000000000000000111111
11111111100000001111111111111110000000000000111111
11111111100000001111111111111110000000000000111111
11111111100000001111111111111110000000000001111111
11111111100000000111111111111110000000000011111111
11111100000000000111111111111110000000000111111111
11111110000000000111111111111110000000000111111111
11111110000000000111111111111110000000000111111111
11111111111000000011111111111110000001111111111111
11111111111000000000111111111000000001111111111111
11111111111000000000111111111000000001111111111111
11111111111000000000111111111000000000111111111111
11111111111000000000111111111000000000111111111111
11111111111100000000111111110000000001111111111111
11111111111100000000001111100000000001111111111111
11111111111100000000001111000000000001111111111111
11111111111100000000001111000000000001111111111111
11111111111000000000001111000000000000111111111111
11111111111000000000000000000000000000111111111111
11111111111000000000000000000000000001111111111111
11111111111000000000000000000000000001111111111111
11111111111000000000000000000000000001111111111111
11111100000000000000001111000000000000000001111111
11111000000000000000001111000000000000000000111111
11111000000000000000001111000000000000000000111111
11111000000000000000001111100000000000000000111111
11111000000000000000001111100000000000000000111111
11111000000000000000111111110000000000000000111111
11111100000000000001111111111100000000000001111111
11111100000000000001111111111100000000000001111111
11111111000000000111111111111111111111111111111111
11111111111111111111111111111111111111111111111111
11111111111111111111111111111111111111111111111111
11111111111111111111111111111111111111111111111111
11111111111111111111111111111111111111111111111111
11111111111111111111111111111111111111111111111111
11111111111111111111111111111111111111111111111111
11111111111111111111111111111111111111111111111111
11111111111111111111111111111111111111111111111111
11111111111111111111111111111111111111111111111111
11111111111111111111111111111111111111111111111111
11111111111111111111111111111111111111111111111111
11111111111111111111111111111111111111111111111111
11111111111111111111111111111111111111111111111111
