1111111111111111111111111111111111111111111111111111111111111111111111111111111111111111111111111111111111111111111111111111111111111111111111111111
1111111111111111111111111111111111111111111111111111111111111111111111111111111111111111111111111111111111111111110000000000000001111111111111111111
1111111111111111111111111111111111111111111111111111111111111111111111111111111111111111111111111111111111111111110000000000000001111111111111111111
1111111111111111111111111111111111111111111111111111111111111111111111111111111111111111111111111111111111111111110000000000000001111111111111111111
1111111111111111111111111111111111111111111111111111111111111111111111111111111111111111111111111111111111111111110000000000000001111111111111111111
1111111111111111111111111111111111111111111111111111111111111111111111111111111111111111111111111111111111111111110000000000000001111111111111111111
1111111111111111111111111111111111111111111111111111111111111111111111111111111111111111111111111111111111111111110000000000000001111111111111111111
1111111111111111111111111111111111111111111111111111111111111111111111111111111111111111111111111111111111111111110000000000000001111111111111111111
1111111111111111111111111111111111111111111111111111111111111111111111111111111111111111111111111111111111111111110000000000000001111111111111111111
1111111111111111111111111111111111111111111111111111111111111111111111111111111111111111111111111111111111111111110000000000000001111111111111111111
1111111111111111111111111111111111111111111111111111111111111111111111111111111111111111111111111111111111111111110000000000000001111111111111111111
1111111111111111111111111111111111111111111111111111111111111111111111111111111111111111111111111111111111111111110000000000000001111111111111111111
1111111111111111111111111111111111111111111111111111111111111111111111111111111111111111111111111111111111111111110000000000000001111111111111111111
1111111111111111111111111111111111111111111111111111111111111111111111111111111111111111111111111111111111111111110000000000000001111111111111111111
1111111111111111111111111111111111111111111111111111111111111111111111111111111111111111111111111111111111111111110000000000000001111111111111111111
1111111111111111111111111111111111111111111111111111111111111111111111111111111111111111111111111111111111111111111111000000011111111111111111111111
1111111111111111111111111111111111111111111111111111111111111111111111111111111111111111111111111111111111111111111111000000011101111111111111111111
1111111111111111111111111111111111111111111111111111111111111111111111111111111111111111111111111111111111111111110110000000011101111111111111111111
1111111111111111111111111111111111111111111111111111111111111111111111111111111111111111111111111111111111111111110000000000000001111111111111111111
1111111111111111111111111111111111111111111111111111111111111111111111111111111111111111111111111111111111111111110000000000000001111111111111111111
1111111111111111111111111111111111111111111111111111111111111111111111111111111111111111111111111111111111111111110000000000000001111111111111111111
1111111111111111111111111111111111111111111111111111111111111111111111111111111111111111111111111111111111111111110000000000000001111111111111111111
1111111111111111111111111111111111111111111111111111111111111111111111111111111111111111111111111111111111111111110000000000000001111111111111111111
1111111111111111111111111111111111111111111111111111111111111111111111111111111111111111111111111111111111111111110000000000000001111111111111111111
1111111111111111111111111111111111111111111111111111111111111111111111111111111111111111111111111111111111111111110000000000000001111111111111111111
1111111111111111111111111111111111111111111111111111111111111111111111111111111111111111111111111111111111111111111100000000000111111111111111111111
1111111111111111111111111111111111111111111111111111111111111111111111111111111111111111111111111111111111111111111100000000001111111111111111111111
1111111111111111111111111111111111111111111111111111111111111111111111111111111111111111111111111111111111111111111100000000000111111111111111111111
1111111111111111111111111111111111111111111111111111111111111111111111111111111111111111111111111111111111111111111100000000000111111111111111111111
1111111111111111111111111111111111111111111111111111111111111111111111111111111111111111111111111111111111000111111100000000000111111111111111111111
1111111111111111111111111111111111111111111111111111111111111111111111111111111111111111111111111111111110000000000000000000000000000000001111111111
1111111111111111111111111111111111111111111111111111111111111111111111111111111111111111111111111111111100000000000000000000000000000000000111111111
1111111111111111111111111111111111111111111111111111111111111111111111111111111111111111111111111111111000000000000000000000000000000000000011111111
1111111111111111111111111111111111111111111111111111111111111111111111111111111111111111111111111111111000000000000000000000000000000000000001111111
1111111111111111111111111111111111111111111111111111111111111111111111111111111111111111111111111111111000000000000000000000000000001111100000111111
1111111111111111111111111111111111111111111111111111111111111111111111111111111111111111111111111111111000000000000000000000000000001111100000111111
1111111111111111111111111111111111111111111111111111111111111111111111111111111111111111111111111111111000000000000000000000000000001111100000111111
1111111111111111111111111111111111111111111111111111111111111111111111111111111111111111111111111111111000000000000000000000000000001111100001111111
1111111111111111111111111111111111111111111111111111111111111111111111111111111111111111111111111111111000000000000000000000000000001111100001111111
1111111111111111111111111111111111111111111111111111111111111111111111111111111111111111111111111111111100000000000000000000000000001111100000111111
1111111111111111111111111111111111111111111111111111111111111111111111111111111111111111111111111111111100000000000000000000000000000000000001111111
1111111111111111111111111011111111111111111111111111111111111111111111111111111111111111111111111111111100000000000000000000000000000000000011111111
1111111111111111111111011011111111111111111111111111111111111111100000000000000000000000000000000111111100000000000000000000000000000000000111111111
1111111111111111111110000000111111111111111111111111111100011111000000000000000000000000000000000011011100000000000000000000000000000000001111111111
1111111111111111111100000000011111111111111111111111111100000000000000000000000000000000000000000000000000000000000000000000000000011111111111111111
1111111111111111111000000000000111111111111111111111111000000000000000000000000000000000000000000000000000000000000000000000000000111111111111111111
1111111111111111110000000000000111111111111111111111111000000000000000000000000000000000000000000000000000000000000000000000000000111111111111111111
1111111111111111100000000000000000111111111111111111111000000000000000000000000000000000000000000000000000000000000000000000111111111111111111111111
1111111111111111100000000000011000111111111111111111111000000000000000000000000000000000000000000000000000000000000000000000111111111111111111111111
1111111111111111100000000000000000111111111111111111111000000000000000000000000000000000000000000000000000000000000000000000111111111111111111111111
1111111111111111100000000000000000111111111111111111111000000000000000000000000000000000000000000000000000000000000000000000111111111111111111111111
1111111111111111110000000000000000111111111111111111111000000000000000000000000000000000000000000000000000000000000000000000000000111111111111111111
1111111111111111111110000000000000111111111111111111111000000000000000000000000000000000000000000000000000000000000000000000000000111111111111111111
1111111111000000011111000001111111111111111111111111111100000000000000000000000000000000000000000000000000000000000000000000000000000111111111111111
1111111110000000011111000001111111111111111111111111111100011111000000000000000000000000000000000011111100000000000000000000000000000111111111111111
1111111100000000011111000001111111111111111111111111111111111111000000000000000000000000000000000111111100000000000000000000000000000000001111111111
1111111000000000011111000001111111111111111111111111111111111111110000000000000001111111111111111111111100000000000000000000000000000000000111111111
1111110000000000001110000000000000111111111111111111111111111111110000000000000001111111111111111111111100000000000000000000000000000000000001111111
1111100000000000001110000000000000111111111111111111111111111111111000000000000011111111111111111111111100000000000000000000000000000000000011111111
1111110000000000000000000000000000111111111111111111111111111111111110000000011111111111111111111111111000000000000000000000000000000000000011111111
1111110000000000000100000000000000111111111111111111111111111111111110000000011111111111111111111111111000000000000000000000000000000000000011111111
1111110000000000000100000000000011111111111111111111111111111111111110000000011111111111111111111111111000000000000000000000000000000000000011111111
1111110000000000000100000000000011111111111111111111111111111111111000000000000011111111111111111111111000000000000000000000000000000000000011111111
1111110001110000000100000000000011111111111111111111111111111111110000000000000001111111111111111111111000000000000000000000000000000000000011111111
1111111111110000000100000000000011111111111111111111111111111111110000000000000001111111111111111111111000000000000000000000000000000000000001111111
1111111111110000000100000000000011111111111111111111111111111111110000000000000001111111111111111111111000000000000000000000000000000000000011111111
1111111111110000000000000000000011111111000000000000000000000000000000000000000000111111111111111111111100000000000000000000000000000000000111111111
1111111111111000000000000000000000011111000000000000000000000000000000000000000000111111111111111111111110000000000000000000000000000111111111111111
1111111111111000000100000000000000011111000000000000000000000000000000000000000000111111111111111111111111000000000000000000000000000111111111111111
1111111111110000000100000000000000011110000000000000000000000000000000000000000000111111111111111111111111111111100000000000000000111111111111111111
1111110001110000000100000000000000011110000000000000000000000000000000000000000000111111111111111111111111111111111110000000011110111111111111111111
1111110000000000000100000000000000000000000000000000000000000000000000000000000000111111111111111111111111111111111110000000011110111111111111111111
1111110000000000000100000000000000000000000000000000000000000000000000000000000000111111111111111111111111111111111110000000011111111111111111111111
1111110000000000000100000000000000000000000000000000000000000000000000000000000001111111111111111111111111111111111110000000011111111111111111111111
1111110000000000000100000000000000000000000000000000000000000000000000000000000001111111111111111111111111111111111110000000011111111111111111111111
1111100000000000001110000000000000011110000000000000000000000000000000000000000000111111111111111111111111111111100000000000000001111111111111111111
1111110000000000001110000000000000011110000000000000000000000000000000000000000000111111111111111111111111111111100000000000000001111111111111111111
1111111000000000001110000000000000011111000000000000000000000000000000000000000000111111111111111111111111111111100000000000000001111111111111111111
1111111100000000011111000000000000011111000000000000000000000000000000000000000000111111111111111111111111111111100000000000000001111111111111111111
1111111110000000011111000000000011111111000000000000000000000000000000000000000000111111111111111111111111111111100000000000000001111111111111111111
1111111111000000011111000000000011111111110000000000000001111111110000000000000001111111111111111111111111111111111000000000000011111111111111111111
1111111111111111111111000000000011111111110000000000000001111111110000000000000001111111111111111111111111111111111000000000000111111111111111111111
1111111111111111111110000000000011111111110000000000000001111111110000000000000001111111111111111111111111111111111100000000001111111111111111111111
1111111111111111100000000000000011111111110011110001110001111111110011110001110001111111111111111111111111111111111110000000001111111111111111111111
1111111111111111110000000000000011111111111111110001111111111111111111110001111111111111111111111111111111111111111100000000001111111111111111111111
1111111111111111111000000111000011111111111111111111111111111111111111111111111111111111111111111111111111111111110000000000000001111111111111111111
1111111111111111111000000111000001111111111111111111111111111111111111111111111111111111111111111111111111111111110000000000000001111111111111111111
1111111111111111110000000000000001111111111111111111111111111111111111111111111111111111111111111111111111111111110000000000000001111111111111111111
1111111111111111111000000000000011111111111111111111111111111111111111111111111111111111111111111111111111111111110000000000000001111111111111111111
1111111111111111111100000000000111111111111111111111111111111111111111111111111111111111111111111111111111111111110000000000000001111111111111111111
1111111111111111111110000000001111111111111111111111111111111111111111111111111111111111111111111111111111111111110000000000000001111111111111111111
1111111111111111111111000000011111111111111111111111111111111111111111111111111111111111111111111111111111111111110000000000000001111111111111111111
1111111111111111111111000000011111111111111111111111111111111111111111111111111111111111111111111111111111111111110000000000000001111111111111111111
1111111111111111111111111111111111111111111111111111111111111111111111111111111111111111111111111111111111111111110000000000000001111111111111111111
1111111111111111111111111111111111111111111111111111111111111111111111111111111111111111111111111111111111111111110000000000000001111111111111111111
1111111111111111111111111111111111111111111111111111111111111111111111111111111111111111111111111111111111111111111111000000011101111111111111111111
1111111111111111111111111111111111111111111111111111111111111111111111111111111111111111111111111111111111111111111111000000011111111111111111111111
1111111111111111111111111111111111111111111111111111111111111111111111111111111111111111111111111111111111111111111111000000011111111111111111111111
1111111111111111111111111111111111111111111111111111111111111111111111111111111111111111111111111111111111111111111111000000011101111111111111111111
1111111111111111111111111111111111111111111111111111111111111111111111111111111111111111111111111111111111111111110000000000000001111111111111111111
1111111111111111111111111111111111111111111111111111111111111111111111111111111111111111111111111111111111111111110000000000000001111111111111111111
1111111111111111111111111111111111111111111111111111111111111111111111111111111111111111111111111111111111111111110000000000000001111111111111111111
1111111111111111111111111111111111111111111111111111111111111111111111111111111111111111111111111111111111111111110000000000000001111111111111111111
1111111111111111111111111111111111111111111111111111111111111111111111111111111111111111111111111111111111111111110000000000000001111111111111111111
1111111111111111111111111111111111111111111111111111111111111111111111111111111111111111111111111111111111111111110000000000000001111111111111111111
1111111111111111111111111111111111111111111111111111111111111111111111111111111111111111111111111111111111111111110000000000000001111111111111111111
1111111111111111111111111111111111111111111111111111111111111111111111111111111111111111111111111111111111111111110000000000000001111111111111111111
1111111111111111111111111111111111111111111111111111111111111111111111111111111111111111111111111111111111111111110000000000000001111111111111111111
1111111111111111111111111111111111111111111111111111111111111111111111111111111111111111111111111111111111111111110000000000000001111111111111111111
1111111111111111111111111111111111111111111111111111111111111111111111111111111111111111111111111111111111111111111100000000000111111111111111111111
1111111111111111111111111111111111111111111111111111111111111111111111111111111111111111111111111111111111111111111100000000001111111111111111111111
1111111111111111111111111111111111111111111111111111111111111111111111111111111111111111111111111111111111111111111100000000000111111111111111111111
1111111111111111111111111111111111111111111111111111111111111111111111111111111111111111111111111111111111111111111100000000000111111111111111111111
1111111111111111111111111111111111111111111111111111111111111111111111111111111111111111111111111111111111000111111100000000000111111100011111111111
1111111111111111111111111111111111111111111111111111111111111111111111111111111111111111111111111111111110000000000000000000000000000000001111111111
1111111111111111111111111111111111111111111111111111111111111111111111111111111111111111111111111111111100000000000000000000000000000000000111111111
1111111111111111111111111111111111111111111111111111111111111111111111111111111111111111111111111111111000000000000000000000000000000000000011111111
1111111111111111111111111111111111111111111111111111111111111111111111111111111111111111111111111111110000000000000000000000000000000000000001111111
1111111111111111111111111111111111111111111111111111111111111111111111111111111111111111111111111111100000000000000000000000000000000000000000111111
1111111111111111111111111111111111111111111111111111111111111111111111111111111111111111111111111111100000000000000000000000000000000000000001111111
1111111111111111111111111111111111111111111111111111111111111111111111111111111111111111111111111111100000000000000000000000000000000000000001111111
1111111111111111111111111111111111111111111111111111111111111111111111111111111111111111111111111111100000000000000000000000000000000000000001111111
1111111111111111111111111111111111111111111111111111111111111111111111111111111111111111111111111111100000000000000000000000000000000000000001111111
1111111111111111111111111111111111111111111111111111111111111111111111111111111111111111111111111111100000000000000000000000000000000000000001111111
1111111111111111111111111111111111111111111111111111111111111111111111111111111111111111111111111111100000000000000000000000000000000000000001111111
1111111111111111111111111111111111111111111111111111111111111111111111111111111111111111111111111111100000000011111111111100000000111000000000111111
1111111111111111111111111111111111111111111111111111111111111111111111111111111111111111111111111111100000000111111111111100000001111100000000111111
1111111111111111111111111111111111111111111111111111111111111111111111111111111111111111111111111111111111111111111111111100000001111111111111111111
1111111111111111111111111111111111111111111111111111111111111111111111111111111111111111111111111111111111111111111111111100000001111111111111111111
1111111111111111111111111111111111111111111111111111111111111111111111111111111111111111111111111111111111111111111111111100000011111111111111111111
1111111111111111111111111111111111111111111111111111111111111111111111111111111111111111111111111111111111111111101111110000000111111111111111111111
1111111111111111111111111111111111111111111111111111111111111111111111111111111111111111111111111111111111111111001111110000000111111111111111111111
1111111111111111111111111111111111111111111111111111111111111111111111111111111111111111111111111111111111111111001110000000000011111111111111111111
1111111111111111111111111111111111111111111111111111111111111111111111111111111111111111111111111111111111111111001110000000000011111111111111111111
1111111111111111111111111111111111111111111111111111111111111111111111111111111111111111111111111111111111111111001110000000000011111111111111111111
1111111111111111111111111111111111111111111111111111111111111111111111111111111111111111111111111111111111111111000000000000000011111111111111111111
1111111111111111111111111111111111111111111111111111111111111111111111111111111111111111111111111111111111111111000000000000000011111111111111111111
1111111111111111111111111111111111111111111111111111111111111111111111111111111111111111111111111111111111111111110000000000000011111111111111111111
1111111111111111111111111111111111111111111111111111111111111111111111111111111111111111111111111111111111111111110000000000000011111111111111111111
1111111111111111111111111111111111111111111111111111111111111111111111111111111111111111111111111111111111111111110000000000000011111111111111111111
1111111111111111111111111111111111111111111111111111111111111111111111111111111111111111111111111111111111111111000000000000000011111111111111111111
1111111111111111111111111111111111111111111111111111111111111111111111111111111111111111111111111111111111111111111111111111111111111111111111111111
1111111111111111111111111111111111111111111111111111111111111111111111111111111111111111111111111111111111111111111111111111111111111111111111111111
1111111111111111111111111111111111111111111111111111111111111111111111111111111111111111111111111111111111111111111111111111111111111111111111111111
1111111111111111111111111111111111111111111111111111111111111111111111111111111111111111111111111111111111111111111111111111111111111111111111111111
1111111111111111111111111111111111111111111111111111111111111111111111111111111111111111111111111111111111111111111111111111111111111111111111111111
1111111111111111111111111111111111111111111111111111111111111111111111111111111111111111111111111111111111111111111111111111111111111111111111111111
