1111111111111111111111111111111111111111111111111111111111111111111111111111111111111111111111111111111111111111111111111111111111111111111111111111111111111111111111111111111111111111
1111111111111111111111111111111111111111111111111111111111111111111111111111111111111111111111111111111111111111111111111111111111111111111111111111111111111111111111111111111111111111
1111111111111111111111111111111111111111111111111111111111111111111111111111111111111111111111111111111111111111111111111111111111111111111111111111111111111111111111111111111111111111
1100000111001111100000000000000111000000000000011100000111111111111111111111111111111111111110000000011111111111111111111111111000000111111111111111111111111111111111111111111111111111
1100000000001111100000000000000000000000000000000000000111111000000001111111111111111111111110000000011111111111111111111111111000000111111111100000001111111110000000111110001111111111
1100000000000000000000000000000000000000000000000000000111110000000001111111011111111111111110000000000111111111111111111000000000000000111100000000000001111000000000000000001111111111
1100000011110000011110000000001111000000000000000000000111110000000001111111111111111111111110000000000111111111111111111000000000000000011100000000000000111000000000000000001111111111
1111000011100000011111000000001111100000000000000000000111110000000001111111011100000111111110000000000001111111111111111000000000000000000000000000000000000000000000000000001111111111
1111000000000000001111000000001111100000000000011100000111110000000000011100000000000000111000000000000001111111111111111000000000000000000000000000000000000000000000000000001111111111
1111000000000000001110000000001111100000000000011100001111110000000000011100000000000110111000000000000001111111111111111000000000000000000000000000000000000000000000000000001111111111
1111000000000000001110000000001111100000000000011100001111110000000000011100000000011110111000000000000001111111111111111000000000000000000000000000000000000000000000000000001111111111
1111000000000000001110000000001111100000000000000000001111110000000000011100000000011011111000000000000001111111111111111000000000000000000000000000000000000000000000000000001111111111
1111000000000000001110000000001111110000000000000000000111110000000000000000000000001100000000000000000001111111111111111000000000000000000000000000000000000000000000000000001111111111
1100000000000000001111100000001111110000000000000000000111110000000000000000000000000000000000000000000001111111111111111000000000000000011100000000000000000000000000000000001111111111
1100000000000000001111100000000111000000000000000000000111110000000000000000000000000000000000000000000001111111111111111000000000000000111100000000000000000000000000000000001111111111
1100000011111000001111100000000111000000000000000000000111110000000000000000000000000000000000000000000001111111111111111111110000000011111100000000000000000000000000000000001111111111
1100000011111000001111100000000111000000000000000000001111110000000000000000000000000000000000000000000111111111111111111111111000000111111100000000000000000000000000000000011111111111
1111000000000000001111100000000111000000000000000000001111110000000000000000000000000000000000000000000111110011111111111111111000000111111100000000000000000000000000000000011111111111
1111011111111000001111100000000111000000000000000000001111110000000000000000000000000000000000000000000011111111111111111111111000000111111100000000000000000000000000000000011111101111
1111011111111000001111100000000111100000000000000000000111110000000000000000000000000000000000000000000000111111111111111000000000000000000000000000000000000000000000000000001111111111
1100011111111000001110000000000111000000000000000000000111110000000000000000000000000000000000000000000000011111111111100000000000000000000000000000000000000000000000000000000011111111
1100011111000000000000000000000000000000000000000000000111110000000000000000000000000000000000000000000000000111111110000000000000000000000000000000000000000000000000000000000000111111
1100011111000000000000000000000000000000000000000000000111000000000000000000000000000000000000000000000000000000011100000000000000000000000000000000000000000000000000000000000000011111
1100011111000000000000000000000000000000000000000000000111000000000000000000000000000000000000000000000000000000000000000000000000000000000000000000000000000000000000000000000000000111
1100111111000000000000000000000000000000000000000000000000000000000000000000000000000000000000000000000000000000000000000000000000000000000000000000000000000000000000000000000000000111
1100111111000000000000000000000000000000000000000000000000000000000000000000000000000000000000000000000000000000000000000000000000000000000000000000000000000000000000000000000000000111
1100111111000000000000000000000000000000000000000000000000000000000000000000000000000000000000000000000000000000000000000000000000000000000000000000000000000000000000000000000000000111
1100011111000000000000000000000000000000000000000000000111000000000000000000000000000000000000000000000000000000000000000000000000000000000000000000000000000000000000000000000000000111
1100011111000000000000000000000000000000000000000000000111000000000000000000000000000000000000000000000000000000000000000000000000000000000000000000000000000000000000000000000000000111
1100011111011000000000000000000000000000000000000000000111110000000000000000000000000000000000000000000000000011100000000000000000000000000000000000000000000000000000000000000000000111
1100011111111100001110000000000111100000000000000000000111110000000000000000000000000000000000000000000000000111111110000000000000000000000000000000000000000000000000000000000000011111
1111011111111000001110000000000111100000000000000000000111110000000000000000000000000000000000000000000000011111111111100000000000000000000000000000000000000000000000000000000001111111
1111000111111000001110000000000111111000000000000000001111110000000000000000000000000000000000000000000001111111111111111000000000000000000000000000000000000000000000000000000111111111
1111000000000000001110000000000111111000000000000000001111110000000000000000000000000000000000000000000111111111111111111111110000000011111000000000000000000000000000000000011111111111
1111000000000000001110000000000111110000000000000000001111110000000000000000000000000000000000000000000111111111111111111111111000000111111100000000000000000000000000000000011111111111
1111000000000000001110000000000111111100000000000000000111110000000000000000000000000000000000000000000011111111111111111111111000000111111100000000000000000000000000000000011111111111
1111000011111000001110000000000111111100000000000000000111110000000000000000000000000000000000000000000001111111111111111111111000000111111100000000000000000000000000000000011111111111
1111000011111000001110000000000111110000000000000000000111110000000000000000000000000000000000000000000001111111111111111000000000000000111100000000000000000000000000000000001111111111
1111000000000000001111110111111111111111111111110111111111110000000000000000000000000000000000000000000001111111111111111000000000000000011100000000000000000000000000000000001111111111
1111000000000000001111110111111111111111111111111111111111110000000000000000000000000001111000000000000001111111111111111000000000000000000000000000000000000000000000000000001111111111
1111111111111111111111111111111111111111111111111111111111110000000000011100000000000001111000000000000001111111111111111000000000000000000000000000000000000000000000000000001111111111
1111111111111111111111111111111111111111111111111111111111110000000000011100000000000001111000000000000001111111111111111000000000000000000000000000000000000000000000000000001111111111
1111111111111111111111111111111111111111111111111111111111110000000000011100000000000001111000000000000001111111111111111000000000000000000000000000000000000000000000000000001111111111
1111111111111111111111111111111111111111111111111111111111110000000000011100011100111001111000000000000001111111111111111000000000000000000000000000000000000000000000000000001111111111
1111111111111111111111111111111111111111111111111111111111110000000000011100011111111001111000000000000111111111111111111000000000000000000000000000000000000000000000000000001111111111
1111111111111111111111111111111111111111111111111111111111110000000000011100011111111001111000000000000111111111111111111000000000000000000000000000000001110000000000000000001111111111
1111111111111111111111111111111111111111111111111111111111110000000000111111011111111011111100000000000111111111111111111000000000000000111100000000000001111000000000000000001111111111
1111111111111111111111111111111111111111111111111111111111111000000001111111111111111111111110000000011111111111111111111111110000000011111111000000001111111110000000011110001111111111
1111111111111111111111111111111111111111111111111111111111111111111111111111111111111111111111111111111111111111111111111111111000000111111111100000001111111110000000111110001111111111
1111111111111111111111111111111111111111111111111111111111111111111111111111111111111111111111111111111111111111111111111111111111111111111111111111111111111111111111111111111111111111
1111111111111111111111111111111111111111111111111111111111111111111111111111111111111111111111111111111111111111111111110111111111111111111111111111111111111111111111111111111111111111
1111111111111111111111111111111111111111111111111111111111111111111111111111111111111111111111111111111111111111111111111111111111111111111111111111111111111111111111111111111111111111
