11111111111111111111111111111111111111111111111111111111111111111111111111111111111111111111111111111111111111111111111111111111111111111111111111111111111111111111111111110000000001111111111111111111111111111111111111111111111
11111111111111111111111111111111111111111111111111111111111111111111111111111111111111111111111111111111111111111111111111111111111111111111111111111111111111111111111111110000000001111111111111111111111111111111111111111111111
11111111111111111111111111111111111111111111111111111111111111111111111111111111111111111111111111111111111111111111111111111111111111111111111111111111111111111111111111110000000001111111111111111111111111111111111111111111111
11111111111111111111111111111111111111111111111111111111111111111111111111111111111111111111111111111111111111111111111111111111111111111111111111111111111111111111111111110000000001111111111111111111111111111111111111111111111
11111111111111111111111111111111111111111111111111111111111111111111111111111111111111111111111111111111111111111111111111111111111111111111111111111111111111111111111111110000000001111111111111111111111111111111111111111111111
11111111111111111111111111111111111111111111111111111111111111111111111111111111111111111111111111111111111111111111111111111111111111111111111111111111111111111111111111110000000001111111111111111111111111111111111111111111111
11111111111111111111111111111111111111111111111111111111111111111111111111111111111111111111111111111111111111111111111111111111111111111111111111111111111111111111111111110000000001111111111111111111111111111111111111111111111
11111111111111111111111111111111111111111111111111111111111111111111111111111111111111111111111111111111111111111111111111111111111111111111111111111111111111111111111111110000000001111111111111111111111111111111111111111111111
11111111111111111111111111111111111111111111111111111111111111111111111111111111111111111111111111111111111111111111111111111111111111111111111111111111111111111111111111110000000001111111111111111111111111111111111111111111111
11111111111111111111111111111111111111111111111111111111111111111111111111111111111111111111111111111111111111111111111111111111111111111111111111111111111111111111111111110000000001111111111111111111111111111111111111111111111
11111111111111111111111111111111111111111111111111111111111111111111111111111111111111111111111111111111111111111111111111111111111111111111111111111111111111111111111111110000000001111111111111111111111111111111111111111111111
11111111111111111111111111111111111111111111111111111111111111111111111111111111111111111111111111110000000000001111111111111111111111111111111111111111111111111111111111110000000001111111111111111111111111111111111111111111111
11111111111111111111111111111111111111111111111111111111111111111111111111111111111111111111111111111000000000000111111111111111111111111111111111111111111111111111111111110000000001111111111111111111111111111111111111111111111
11111111111111111111111111111111111111111111111111111111111111111111111111111111111111111111111111111100000000000011111111111111111111111111111111111111111111111111111111110000000001111111111111111111111111111111111111111111111
11111111111111111111111111111111111111111111111111111111111111111111111111111111111111111111111111111110000000000001111111111111111111111111111111111111111111111111111111110000000001111111111111111111111111111111111111111111111
11111111111111111111111111111111111111111111111111111111111111111111111111111111111111111111111111111111000000000000111111111111111111111111111111111111111111110000000000000000000001111111111111111111111111111111111111111111111
11111111111111111111111111111111111111111111111111111111111111111111111111111111111111111111111110000000000000000000000000000000000011111111111111111111111111110000000000000000000001111111111111111111111111111111111111111111111
11111111111111111110000000000000000000000000000000111111111111111111111111111111111111111111111111000000000000000000000000000000000001111111111111111111111000000000000000000000000001111111111111111111111111111111111111111111111
11111111111111111100000000000000000000000000000001111111111111111111111111111111111111111111111111100000000000000000000000000000000000111111000000000000000000000000000000000000000001111111111111111111111111111111111111111111111
11111111111111111000000000000000000000000000000000111111111111111111111111111111111111111111111111110000000000000000000000000000000000011111000000000000000000000000000000000000000001111111111111111111111111111111111111111111111
11111111111111110000000000000000000000000000000001111111111111111111111111111111111111111111111111111000000000000000000000000000000000001111000000000000000000000000000000000000000001111111111111111111111111111111111111111111111
11111111111111100000000000000000000000000000000011111111111111111111111111111111111111111111111111111100000000000000000000000000000000000111000000000000000000000000000000000000000001111111111111111111111111111111111111111111111
11111111111111000000000000000000000000000000000111111111111111111111111111111111111111111111111111111110000000000000000000000000000000000011000000000000000000000000000000000000000001111111111111111111111111111111111111111111111
11111111111110000000000000000000000000000000001111111111111111111111111111111111111111111111111111111111000000000000000000000000000000000001000000000000000000000000000000000000000001111111111111111111111111111111111111111111111
11111111111100000000000000000000000000000000011111111111111111111111111111111111111111111111111111111111100000000000000000000000000000000000000000000000000000000000000000000000000001111111111111111111111111111111111111111111111
11111111111000000000000000000000000000000000111110000000000000000000000000000000000000000000000000000000000000000000000000000000000000000000000000000000000000000000000000000000000001111111111111111111111111111111111111111111111
11111111110000000000000000000000000000000001111110000000000000000000000000000000000000000000000000000000000000000000000000000000000000000000000000000000000000000000000000000000000001111111111111111111111111111111111111111111111
11111111100000000000000000000000000000000011111110000000000000000000000000000000000000000000000000000000000000000000000000000000000000000000000000000000000000000000000000000000000001111111111111111111111111111111111111111111111
11111111000000000000000000000000000000000111111110000000000000000000000000000000000000000000000000000000000000000000000000000000000000000000000000000000000000000000000000000000000001111111111111111111111111111111111111111111111
11111110000000000000000000000000000000001111111110000111111111111111111111111111111111111111111111111111110000000000000000000000000000000000000000000000000000000000000000000000000000000000000000000000001111111111111111111111111
11111100000000000000000000000000000000011111111110000111111111111111111111111111111111111111111111111111110000000000000000000000000000000000000000000000000000000000000000000000000000000000000000000000001111111111111111111111111
11111000000000000000000000000000000000111111111110000111111111111111111111111111111111111111111111111111110000000000000000000000000000000000000000000000000000000000000000000000000000000000000000000000001111111111111111111111111
11110000000000000000000000000000000001111111111110000111111111111111111111111111111111111111111111111111110000000000000000000000000000000000000000000000000000000000000000000000000000000000000000000000001111111111111111111111111
11100000000000000000000000000000000011111111111110000110000000000000000000000000000000111111111111111111110000000000000000000000000000000000000000000000000000000000000000000000000000000000000000000000001111111111111111111111111
11000000000000000000000000000000000111111111111110000111000000000000000000000000000000011111111111111111110000000000000000000000000000000000000000000000000000000000000000000000000000000000000000000000001111111111111111111111111
10000000000000000000000000000000001111111111111110000111100000000000000000000000000000001111111111111111111111111111000000000000000000000000000000000000000000000000000000000000000000000000000000000000001111111111111111111111111
00000000000000000000000000000000011111111111111110000111110000000000000000000000000000000111111111111111111111111111000000000000000000000000000000000000000000000000000000000100000000001111000000000000001111111111111111111111111
00000000000000000000000000000000111111111111111110000111111000000000000000000000000000000011111111111111111111111111000000000000000000000000000000000000000000000000000000000110000000000111000000000000001111111111111111111111111
00000000000000000000000000000001110000000111111110000111111100000000000000000000000000000000000011111111111111111111000000000000000000000000000000000000000000000000000000000111000000000011000000000000001111111111111111111111111
00000000000000000000000000000011110000000011111110000111111110000000000000000000000000000000000011111111111111111111000000000000000000000000000000000000000000000000000000000111100000000001000000000000001111111111111111111111111
00000000000000000000000000000111110000000011111110000111111111000000000000000000000000000000000000000000111111111111000000000000000000000000000000000000000000000000000000000111110000000000000000000000001111111111111111111111111
00000000000000000000000000001111110000000011111110000111111111100000000000000000000000000000000000000000111111111111000000000000000000000000000000000000000000000000000000000111111000000000000000000000001111111111111111111111111
00000000000000000000000000011111110000000011111110000111111111110000000000000000000000000000000000000000111111111111000000000000000000000000000000000000000000000000000000000111111111111111000000000000001111111111111111111111111
00000000000000000000000000111111110000000011111110000111111111111000000000000000000000000000000000000000111111111111000000000000000000000000000000000000000000000000000000000111111111111111000000000000001111111111111111111111111
00000000000000000000000001111111110000000011111110000111111111111100000000000000000000000000000000000000111111111111000000000000000000000000000000000000000000000000000000000111111111111111000000000000001111111111111111111111111
00000000000000000000000011111111110000000011111110000111111111111100000000000000000000000000000000000000111111111111000000000000000000000000000000000000000000000000000000000111111111111111000000000000001111111111111111111111111
00000000000000000000000111111111110000000011111110000111111111111100000000000000000000000000000000000000111111111111000000000000000000000000000000000000000000000000000000000111111111111111000000000000001111111111111111111111111
00000000000000000000001111111111110000000011111110000111111111111100000000000000000000000000000000000000111111111111000000000000000000000000000000000000000001111111111111111111111111111111000000000000001111111111111111111111111
00000000000000000000011111111111110000000011111110000111111111111100000000000000000000000000000000000000111111111111000000000000000000000000000000000000000001111111111111111111111111111111000000000000001111111111111111111111111
00000000000000000000000000000000000000000000000000000000000000000000000000000000000000000000000000000000000000000000000000000000000000000000000000000000000001111111111111111111111111111111000000000000001111111111111111111111111
00000000000000000000000000000000000000000000000000000000000000000000000000000000000000000000000000000000000000000000000000000000000000000000000000000000000001111111111111111111111111111111000000000000001111111111111111111111111
00000000000000000000000010000000000000000000000000000000000000000000000000000000000000000000000000000000000000000000000000000000000000000000000000000000000001111111111111111111111111111111000000000000001111111111111111111111111
00000000000000000000000110000000000000000000000000000000000000000000000000000000000000000000000000000000000000000000000000000000000000000000000000000000000111111111111111111111111111111111000000000000001111111111111111111111111
00000000000000000000001110000000000000000000000000000000000000000000000000000000000000000000000000000000000000000000000000000000000000000000000000000000000111111111111111111111111111111111000000000000011111111111111111111111111
00000000000000000000011110000000000000000000000000000000000000000000000000000000000000000000000000000000000000000000000000000000000000000000000000000000000111111111111111111111111111111111000000000000011111111111111111111111111
00000000000000000000111110000000000000000000000000000000000000000000000000000000000000000000000000000000000000000000000000000000000000000000000000000000000111111111111111111111111111111111000000000000011111111111111111111111111
00000000000000000001111110000000000000000000000000000000000000000000000000000000000000000000000000000000000000000000000000000000000000000000000000000000000111111111111111111111111111111111000000000000011111111111111111111111111
00000000000000000011111110000000000000000000000000000000000000000000000001000000000000000000000000000000000000000000000000000000000000000011111111111111111111111111111111111111111111111111000000000000011111111111111111111111111
00000000000000000111111110000000000000000000000000000000000000000000000001000000000000000000000000000000000000000000000000000000000000000111111111111111111111111111111111111111111111111111000000000000011111111111111111111111111
00000000000000001111111110000000000000000000000000000000000000000000000001000000000000000000000000000000000000000000000000000000000000001111111111111111111111111111111111111111111111111111000000000000011111111111111111111111111
00000000000000011111111110000000000000000000000000000000000000000000000001111111110000000000000000000000000000000000000000000000000000011111111111111111111111111111111111111111111111111111000000000000011111111111111111111111111
00000000000000111111111110000000000000000000000000000000000000000000000000000001111000000000000000000000000000000000000000000000000000111110000000000000000000000000000000001111111111111111000000000000011111111111111111111111111
00000000000001111111111110000000000000000000000000000000000000000000000000000001111000000000000000000000000000000000000000000000000001111100000000000000000000000000000000011111111111111111000000000000011111111111111111111111111
00000000000011111111111110000000000000000000000000000000000000000000000000000001111000000000000000000000000000000000000000000000000000000000000000000000000000000000000000111111111111111111000000000000011111111111111111111111111
00000000000000000000000000000000000000000000000000000000000000000000000000000001111000000000000000000000000000000000000000000000000000000000000000000000000000000000000001111111111111111111000000000000011111111111111111111111111
00000000000000000000000000000000000000000000000000000000000000000000000000000001110000000000000000000000000000000000000000000000000000000000000000000000000000000000000011111111111111111111000000000000011111111111111111111111111
00000000010000000000000000000000000000000000000000000000000000000000000001111111100000000000000000000000000000000000000000000000000000000000000000000000000000000000000111111111111111111111000000000000011111111111111111111111111
00000000000000000000000000000000000000000000000000000000000000000000000001111111000000000000000000000000000000000000000000000000000000000000000000000000000000000000001111111111111111111111000000000000011111111111111111111111111
00000000000000000000000000000000000000000000000000000000000000000000000001111110000000000000000000000000000000000000000000000000000000000000000000000000000000000000011111111111111111111111000000000000011111111111111111111111111
00000000000000000000000000000000000000000000000000000000000000000000000001111100000000000000000000000000000000000000000000000000000000000000000000000000000000000000111111111111111111111111000000000000011111111111111111111111111
00000000000000000000000000000000000000000000000000000000000000000000000001111000000000000000000000000000000000000000000000000000000000000000000000000000000000000001111111111111111111111111000000000000011111111111111111111111111
00000000000000000001111110000000000000000000000000000000000000000000000001110000000000000000000000000000000000000000000000000000000000000000000000000000000000000011111111111111111111111111000000000000011111111111111111111111111
00000000000000001111111110000000000000000000000000000000000000000000000001100000000000000000000000000000000000000000000000000000000000000000000000000000000000000111111111111111111111111111000000000000011111111111111111111111111
00000000000000011111111110000000000000000000000000000000000000000000000001000000000000000000000000000000000000000000000000000000000000000000000000000000000000001111111111111111111111111111000000000000011111111111111111111111111
00000000000000111111111110000000000000000000000000000000000000000000000000000000000000000000000000000000000000000000000000000000000000000000000000000000000000011111111111111111111111111111000000000000011111111111111111111111111
00000000000000111111111110000000000000000000000000000000000000000000000000000000000000000000000000000000000000000000000000000000000000000000000000000000000000111111111111111111111111111111111111111111111111111111111111111111111
00000000000000111111111111000000000000000000000000000000000000001111111000000000000000000000000000000000000000000000000000000000000000000000000000000000000001111111111111111111111111111111111111111111111111111111111111111111111
00000000000000111111111111000000000000000000000000000000000000001111110000000000000000000000000000000000000000000000000000000000000000000000000000000000000011111111111111111111111111111111111111111111111111111111111111111111111
00000000000000111111111111000000000000000000000000000000000000001111100000000000000000000000000000000000000000000000000000000000000000000000000000000000000011111111111111111111111111111111111111111111111111111111111111111111111
00000000010000111111111111000000000000000000000000000000000000001111000000000000000000000000000000000000000000000000000000000000000000000000000000000000000001111111111111111111111111111111111111111111111111111111111111111111111
00000000110000111111111111111111111111111111111110000011111111111110000000000000000000000000000000000000000000000000000000000000000000000000000000000000000000111111111111111111111111111111111111111111111111111111111111111111111
00000001110000111111111111111111111111111111111110000011111111111100000000000000000000000000000000000000000000000000000000000000000000000000000000000000000000011111111111111111111111111111111111111111111111111111111111111111111
00000011110000111111111111111111111111111111111110000011111111111000000000000000000000000000000000000000000000000000000000000000000000000000000000000000000000001111111111111111111111111111111111111111111111111111111111111111111
00000111110000111111111111111111111111111111111110000011111111110000000000000000000000000000000000000000000000000000000000000000000000000000000000000000000000000111111111111111111111111111111111111111111111111111111111111111111
00001111110000111111111111111111111111111111111110000011111111100000000000000000000000000000000000000000000000000000000000000000000000000000000000000000000000000011111111111111111111111111111111111111111111111111111111111111111
00011111111111111111111000000000000000000000000000000011111111000000000000000000000000000000000000000000000000000000000000000000000000000000000000000000000000000000000000000000000001111111111111111111111111111111111111111111111
00111111111111111111110000000000000000000000000000000011111110000000000000000000000000000000000000000000000001111100000000000000000000000000000000000000000000000000000000000000000001111111111111111111111111111111111111111111111
01111111111111111111100000000000000000000000000000000011111100000000000000000000000000000000000000000000000011111000000000000000000000000000000000000000000000000000000000000000000001111111111111111111111111111111111111111111111
01111111111111111111000000000000000000000000000010000011111000000000000000000000000000000000000000000000000000110000000000000000000000000000000000000000000000000000000000000000000001111111111111111111111111111111111111111111111
01111111111111111110000000000000000000000000000110000011110000000000000000000000000000000000000000000000000000000000000000000000000000000000000000000000000000000000000000000000000001111111111111111111111111111111111111111111111
01111111111111111100000000000000000000000000000000000000000000000000000000000000000000000000000000000000000000000000000000000000000000000000000000000000000000000000000000000000000001111111111000000000000000011111111111111111111
01111111111111111000000000000000000000000000000000000000000000000000000000000000000000000000000000000000000000000000000000000000000000000000000000000000000000000000000000000000000001111111111100000000000000001111111111111111111
01111111111111110000000000000000000000000000000000000000000000000000000000000000000000000000000000000000000000000000000000000000000000000000000000000000000000000000000000000000000001111111111110000000000000000111111111111111111
01111111111111100000000000000000000000000000000000000001111111111111111111000000000000000000000000000000000000000000000000000000000000000000111111111000000000000000000000000000000001111111111111000000000000000011111111111111111
01111111111111000000000000000000000000000000000000000011111111111111111111000000000000000000000000000000000000000000000000000000000000000001111111111100000000000000000000000000000001111111111111100000000000000001111111111111111
01111111111110000000000000000000000000000000000000000111111111111111111111000000000000000000000000000000000000000000000000000000000000000011111111111110000000000000000000000000000001111111111111110000000000000000111111111111111
01111111111100000000000000000000000000000000000000000111111111111111111111000000000000000000000000000000000000000000000000000000000000000111111111111111000000000000000000000000000001111111111111111000000000000000011111111111111
01111111111000000000000000000000000000000000000000000111111111111111111111000000000000000000000000000000000000000000000000000000000000001111111111111111100000000000000000000000000001111111111111111100000000000000001111111111111
01111111110000000000000000000000000000000000000000000111111111111111111111000000000000000000000000000000000000000000000000000000000000011111111111111111110000000000000000000000000001111111111111111110000000000000000111111111111
01111111100000000000000000000000000000000000000000000111111111111111111111000000000000000000000000000000000000000000000000000000000000111111111111111111111000000000000000000000000001111111111111111111000000000000000011111111111
01111111000000000000000000000000000000000000000011111111111111111111111111000000000000000000000000000000000000000000000000000000000001111111111111111111111100000000000000000000000001111111111111111111100000000000000001111111111
01111110000000000000000000000000000000000000000111111111111111111111111111000000000000000000000000000000000000000000000000000000000011111111111111111111111110000000000000000000000001111111111111111111110000000000000000111111111
11111111111111111111111000000000000000000000001111111111111111111111111111000000000000000000000000000000000000000000000000000000000111111111111111111111111111111111111111111100000001111111111111111111111000000000000000011111111
11111111111111111111110000000000000000000000011111111111111111111111111111000000000000000000000000000000000000000000000000000000001111111111111111111111111111111111111111111100000001111111111111111111111100000000000000001111111
11111111111111111111100000000000000000000000111111111111111111111111111111000000000000000000000000000000000000000000000000000000011111111111111111111111111111111111111111111100000001111111111111111111111110000000000000000111111
11111111111111111111000000000000000000000001111111111111111111111111111111000000000000000000000000000000000000000000000000000000111111111111111111111111111111111111111111111100000001111111111111111111111111000000000000000011111
11111111111111111110000000000000000000000011111111111111111111111111111111000000000000000000000000000000000000000000000000000000111111111111111111111111111111111111111111111100000001111111111111111111111111100000000000000001111
11111111111111111100000000000000000000000111111111111111111111111111111111000000000000000000000000000000000000000000000000000000011111111111111111111111111111111111111111111100000001111111111111111111111111110000000000000000111
11111111111111111111111111111111111111111111111111111111111111111111111111000000000000000000000000000000000000000000000000000000001111111111111111111111111111111111111111111100000001111111111111111111111111111000000000000000011
11111111111111111111111111111111111111111111111111111111111111111111111111000000000000000000000000000000000000000000000000000000000111111111111111111111111111111111111111111100000001111111111111111111111111111100000000000000001
11111111111111111111111111111111111111111111111111111111111111111111111111000000000000000000000000000000000000000000000000000000000011111111111111111111111111111111111111111100000001111111111111111111111111111110000000000000000
11111111111111111111111111111111111111111111111111111111111111111111111111000000000000000000000000000000000000000000000000000000000001111111111111111111111111111111111111111100000001111111111111111111111111111111000000000000000
11111111111111111111111111111111111111111111111111111111111111111111111111000000000000000000000000000000000000000000000000000000000000111111111111111111111111111111111111111100000001111111111111111111111111111111100000000000000
11111111111111111111111111111111111111111111111111111111111111111111111111000000000000000000000000000000000000000000000000000000000000011111111111111111111111111111111111111100000001111111111111111111111111111111110000000000000
11111111111111111111111111111111111111111111111111111111111111111111111111000000000000000000000000000000000000000000000000000000000000001111111111111111111111111111111111111100000000000000000000000000111111111111111000000000000
11111111111111111111111111111111111111111111111111111111111111111111111111000000000000000000000000000000000100000000000000000000000000000111111111111111111111111111111111111100000000000000000000000000111111111111111100000000000
11111111111111111111111111111111111111111111111111111111111111111111111111000000000000000000000000000000000110000000000000000000000000000011111111111111111111111111111111111100000000000000000000000000111111111111111110000000000
11111111111111111111111111111111111111111111111111111111111111111111111111000000000000000000000000000000000111000000000000000000000000000001111111111111111111111111111111111100000000000000000000000000111111111111111111000000000
11111111111111111111111111111111111111111111111111111111111111111111111111000000000000000000000000000111111111100000000000000000000000000000111111111111111111111111111111111111111111111111111111111111111111111111111111100000000
11111111111111111111111111111111111111111111111111111111111111111111111111000000000000000000000000000111111111111111111111111111111111111111111111111111111111111111111111111111111111111111111111111111111111111111111111110000000
11111111111111111111111111111111111111111111111111111111111111111111111111000000000000000000000000000111111111111111111111111111111111111111111111111111111111111111111111111111111111111111111111111111111111111111111111111000000
11111111111111111111111111111111111111111111111111111111111111111111111111000000000000000000000000000111111111111111111111111111111111111111111111111111111111111111111111111111111111111111111111111111111111111111111111111100000
11111111111111111111111111111111111111111111111111111111111111111111111111000000000000000000000000000000000000000000000000000000111111111111111111111111111111111111111111111111111111111111111111111111111111111111111111111110000
11111111111111111111111111111111111111111111111111111111111111111111111111000000000000000000000000000000000000000000000000000001111111111111111111111111111111111111111111111111111111111111111111111111111111111111111111111111000
11111111111111111111111111111111111111111111111111111111111111111111111111000000000000000000000000000000000000000000000000000011111111111111111111111111111111111111111111111111111111111111111111111111111111111111111111111111100
11111111111111111111111111111111111111111111111111111111111111111111111111000000000000000000000000000000000000000000000000000111111111111111111111111111111111111111111111111111111111111111111111111111111111111111111111111111110
11111111111111111111111111111111111111111111111111111111111111111111111111000000000000000000000000000000000000000000000000001111111111111111111111111111111111111111111111111111111111111111111111111111111111111111111111111111110
11111111111111111111111111111111111111111111111111111111111111111111111111000000000000000000000000000000000000000000000000011111111111111111111111111111111111111111111111111111111111111111111111111111111111111111111111111111110
11111111111111111111111111111111111111111111111111111111111111111111111111000000000000000000000000000000000000000000000000111111111111111111111111111111111111111111111111111111111111111111111111111111111111111111111111111111110
11111111111111111111111111111111111111111111111111111111111111111111111110000000000000000000000000000000000000000000000001111111111111111111111111111111111111111111111111111111111111111111111111111111111111111111111111111111110
11111111111111111111111111111111111111111111111111111111111111111111111100000000000000000000000000000000000000000000000011111111111111111111111111111111111111111111111111111111111111111111111111111111111111111111111111111111110
11111111111111111111111111111111111111111111111111111111111111111111111000000000000000000000000000000000000000000000000011111111111111111111111111111111111111111111111111111111111111111111111111111111111111111111111111111111110
11111111111111111111111111111111111111111111111111111111111111111111110000000000000000000000000000000000000000000000000001111111111111111111111111111111111111111111111111111111111111111111111111111111111111111111111111111111110
11111111111111111111111111111111111111111111111111111111111111111111100000000000000000000000000000000000000000000000000000111111111111111111111111111111111111111111111111111111111111111111111111111111111111111111111111111111110
11111111111111111111111111111111100000000000000000000111111111111111000000000000000000000000000000000000000000000000000000011111111111111111111111111111111111111111111111111111111111111111111111111111111111111111111111111111110
11111111111111111111111111111111100000000000000000000111111111111110000000000000000000000000000000000000000000000001000000001111111111111111111111111111111111111111111111111111111111111111111111111111111111111111111111111111110
11111111111111111111111111111111100000000000000000000111111111111100000000000000000000000000000000000000000000000001100000000111111111111111111111111111111111111111111111111111111111111111111111111111111111111111111111111111110
11111111111111111111111111111111100000000000000000000111111111111000000000000000000000000000000000000000000000000000110000000011111111111111111111111111111111111111111111111111111111111111111111111111111111111111111111111111110
11111111111111111111111111111111100000000000000000000111111111110000000000000000000000000000000000000000000000000000011000000001111111111111111111111111111111111111111111111111111111111111111111111111111111111111111111111111110
11111111111111111111111111111111100000000000000000000111111111100000000000000000000000000000000000000000000000000000001100000000111111111111111111111111111111111111111111111111111111111111111111111111111111111111111111111111111
11111111111111111111111111111111100000000000000000000111111111000000000000000000000000000000000000000000000000000000000110000000011111111111111111111111111111111111111111111111111111111111111111111111111111111111111111111111111
11111111111111111111111111111111100000000000000000000111111110000000000000000000000000000000000000000000000000000000000011111111111111111111111111111111111111111111111111111111111111111111111111111111111111111111111111111111111
11111111111111111111111111111111100000000000000000000111111100000000000000000000000000000000000000000000000000000000000000000000000000000000000000000000000000000000011111111111111111111111111111111111111111111111111111111111111
11111111111111111111111111111111100000000000000000000111111000000000000000000000000000000000000000000000000000000000000000000000000000000000000000000000000000000000011111111111111111111111111111111111111111111111111111111111111
11111111111111111111111111111111100000000000000000000111110000000000000000000000000000000000000000000000000000000000000000000000000000000000000000000000000000000000011111111111111111111111111111111111111111111111111111111111111
11111111111111111111111111111000000000000000000000000111100000000000000000000000000000000000000000000000000000000000000000000000000000000000000000000000000000000000001111111111111111111111111111111111111111111111111111111111111
11111111111111111111111111111000000000000000000000000111000000000000000000000000000000000000000000000000000000000000000000000000000000000000000000000000000000000000001111111111111111111111111111111111111111111111111111111111111
11111111111111111111111111111000000000000000000000000110000000000000000000000000000000000000000000000000000000000000000000000000000000000000000000000000000000000000001111111111111111111111111111111111111111111111111111111111111
11111111111111111111111111111000000000000000000000000100000000000000000000000000000000000000000000000000000000000000000000000000000000000000000000000000000000000000001111111111111111111111111111111111111111111111111111111111111
10000000000000000000000000000000000000000000000000000000000000000000000000000000000000000000000000000000000000000000000000000000000000000000000000000000000000000000001111111111111111111111111111111111111111111111111111111111111
10000000000000000000000000000000000000000000000000000000000000000000000000000000000000000000000000000000000000000000000000000000000000000000000000000000000000000000001111111111111111111111111111111111111111111111111111111111111
10000000000000000000000000000000000000000000000000000000000000000000000000000000000000000000000000000000000000000000000000000000000000000000000000000000000000000000001111111111111111111111111111111111111111111111111111111111111
10000000000000000000000000000000000000000000000000000000000000000000000000000000000000000000000000000000000000000000000000000000000000000000000000000000000000000000001111111111111111111111111111111111111111111111111111111111111
10000000000000000000000000000000000000000000000000000000000000000000000000000000000000000000000000000000000000000000000000000000000000000000000000000000000000000000001111111111111111111111111111111111111111111111111111111111111
10000000000000000000000000000000000000000000000000000000000000000000000000000000000000000000000000000000000000000000000000000000000000000000000000000000000000000000001111111111111111111111111111111111111111111111111111111111111
10000000000000000000000000000000000000000000000000000000000000000000000000000000000000000000000000000000000000000000000000000000000000000000000000000000000000000000001111111111111111111111111111111111111111111111111111111111111
10000000000000000000000000000000000000000000000000000000000000000000000000000000000000000000001000000000000000000000000000000000000000000000000000000000000000000000001111111111111111111111111111111111111111111111111111111111111
10000000000000000000000000000000000000000000000000000000000000000000000000000000000000000000011000000000000000000000000000000000000000000000000000000000000000000000001111111111111111111111111111111111111111111111111111111111111
10000000000000000000000000000000000000000000000000000000000000000000000000000000000000000000111000000000000000000000000000000000000000000000000000000000000000000000001111111111111111111111111111111111111111111111111111111111111
10000000000000000000000000000000000000000000000000000000000000000000000000000000000000000001111000000000000000000000000000000000000000000000000000000000000000000000001111111111111111111111111111111111111111111111111111111111111
10000000000000000000000000000000000000000000000000000000000000000000000000000000000000000011111000000000000000000000000000000000000000000000000000000000000000000000011111111111111111111111111111111111111111111111111111111111111
10000000000000000000000000000000000000000000000000000000000000000000000000000000000000000111111000000000000000000000000000000000000000000000000000000000000000000000011111111111111111111111111111111111111111111111111111111111111
10000000000000000000000000000000000000000000000000000000000000000000000000000000000000001111111000000000000000000000000000000000000000000000000000000000000000000000011111111111111111111111111111111111111111111111111111111111111
10000000000000000000000000000000000000000000000000000110000000111111111111111111111111111111111000000000000000000000000000000000000000000000000000000000000000000000011111111111111111111111111111111111111111111111111111111111111
10000000000000000000000000000000000000000000000000000110000000111111111111111111111111111111111111111111000000000000000000000000000000000000000000000000000000000000011111111111111111111111111111111111111111111111111111111111111
10000000000000000000000000000000000000000000111111111110000000111111111111111111111111111111111111111111000000000000000000000000000000000000000000000000000000000000011111111111111111111111111111111111111111111111111111111111111
10000000000000000000000000000000000000000000111111111110000000111111111111111111111111111111111111111111000000000000000000000000000000000000000000000000000000000000011111111111111111111111111111111111111111111111111111111111111
11111111111111111111111111111000000000000000111111111110000000111111111111111111111111111111111111111111000000000000000000000000000000000000000000000000000000000000011111111111111111111111111111111111111111111111111111111111111
11111111111111111111111111111000000000000000111111111110000000111111111111111111111111111111111111111111000000000000000000000000000000000000000000000000000000000000011111111111111111111111111111111111111111111111111111111111111
11111111111111111111111111111000000000000000111111111110000000111111111111111111111111111111111111111111000000000000000000000000000000000000000000000000000000000000011111111111111111111111111111111111111111111111111111111111111
11111111111111111111111111111000001111111111111111111110000000111111111111111111111111111111111111111111000000000000000000000000000000000000000000000000000000000000011111111111111111111111111111111111111111111111111111111111111
11111100000000000000000000000000000000000000000000000110000000111111111111111111111111111111100000000000000000000000000000000000000000000000000000000000000000000000001111111111111111111111111111111111111111111111111111111111111
11111000000000000000000000000000000000000000000000001110000000111111111111111111111111111111110000000000000000000000000000000000000000000000000000000000000000000000000111111111111111111111111111111111111111111111111111111111111
11110000000000000000000000000000000000000000000000011110000000111111111111111111111111111111111000000000000000000000000000000000000000000000000000000000000000000000000011111111111111111111111111111111111111111111111111111111111
11100000000000000000000000000000000000000000000000111110000000111111111111111111111111111111111100000000000000000000000000000000000000000000000000000000000000000000000001111111111111111111111111111111111111111111111111111111111
11000000000000000000000000000000000000000000000001111110000000111111111111111111111111111111111110000000000000000000000000000000000000000000000000000000000000000000000000111111111111111111111111111111111111111111111111111111111
10000000000000000000000000000000000000000000000011111110000000111111111111111111111111111111111111000000000000000000000000000000000000000000000000000000000000000000000000011111111111111111111111111111111111111111111111111111111
00000000000000000000000000000000000000000000000111111110000000111111111111111111111111111111111111100000000000000000000000000000000000000000000000000000000000000000000000001111111111111111111111111111111111111111111111111111111
00000000000000000000000000000000000000000000001111111110000000111111111111111111111111111111111111110000000000000000000000000000000000000000000000000000000000000000000000000111111111111111111111111111111111111111111111111111111
00000000000000000000000000000000000000000000011111111110000000111111111111111111111111111111111111111000000000000000000000000000000000000000000000000000000000000000000000000011111111111111111111111111111111111111111111111111111
00000000000000000000000000000000000000000000111111111110000000111111111111111111111111111111111111111100000000000000000000000000000000000000000000000000000000000000000000000001111111111111111111111111111111111111111111111111111
00000000000000000000000000000000000000000000000000000000000000111111111111111111111111111111111111111110000000000000000000000000000000000000000000000000000000000000000000000000111111111111111111111111111111111111111111111111111
00000000000000000000000000000000000000000000000000000000000000111111111111111111111111111111111111111111000000000000000000000000000000000000000000000000000000000000000000000000011111111111111111111111111111111111111111111111111
00000000000000000000000000000000000000000000000000000000000000111111111111111111111111111111111111111111000000000000000000000000000000000000000000000000000000000000000000000000001111111111111111111111111111111111111111111111111
00000000000000000000000000000000000000000000000000000000000000111111111111111111111111111111111111111111000000000000000000000000000000000000000000000000000000000000000000000000000111111111111111111111111111111111111111111111111
00000000000000000000000000000000000000000000000000000000000000000000001111111111111111111111111111111111000000000000000000000000000000000000000000000000000000000000000000000000000011111111111111111111111111111111111111111111111
00000000000000000000000000000000000000000000000000000000000000000000001111111111111111111111111111111111000000000000000000000000000000000000000000000000000000000000000000000000000001111111111111111111111111111111111111111111111
00000000000000000000000000000000000000000000000000000000000000000000001111111111111111111111111111111111000000000000000000000000000000000000000000000000000000000000000000000000000000111111111111111111111111111111111111111111111
00000000000000000000000000000000000000000000000000000000000000000000000000000000000000000000000000000000000000000000000000000000000000000000000000000000000000000000000000000000000000011111111111111111111111111111111111111111111
00000000000000000000000000000000000000000000000000000000000000000000000000000000000000000000000000000000011111100000000000000000000000000000000000000000000111000011111111111111111111111111111111111111111111111111111111111111111
00000000000000000000000000000000000000000000000000000000000000000000000000000000000000000000000000000000011111110000000000000000000000000000000000000000000111000011111111111111111111111111111111111111111111111111111111111111111
11111111111000000000000000000000000000000000000000000000000000000000000000000000000000000000000000000000011111110000000000000000000000000000000000000000000111000011111111111111111111111111111111111111111111111111111111111111111
11111111111000000000000000000000000000000000000000000000000000000000000000000000000000000000000000000000011111110000000000000000000000000000000000000000000111000011111111111111111111111111111111111111111111111111111111111111111
11111111111000000000000000000000000000000000000000000000000000000000000000000000000000000000000000000000011111110000000000000000000000000000000000000000000111000011111111111111111111111111111111111111111111111111111111111111111
11111111111000000000000000000000000000000000000000000000000000111111111111111111111111111000000000000000111111110000000000000000000000000000000000000000000111000011111111111111100000000000000000000011111111111111111111111111111
11111111111000000000000000000000000000000000000000000000000000111111111111111111111111111000000000000000111111110000000000000000000000000000000000000000000111000011111111111111000000000000000000000111111111111111111111111111111
11111111111000000000000000000000000000000000000000000000000000111111111111111111111111111000000000000000111111110000000000000000000000000000000000000000000111000011111111111110000000000000000000001111111111111111111111111111111
11111111111111111111110000000000000000000000000000000000000000111111111111111111111111111000000000000000111111110000000000000000000000000000000000000000000111000011111111111100000000000000000000011111111111111111111111111111111
11111111111111111111110000000000000000000000000000000000000000111111111111111111111111111000000000000000111111110000000000000000000000000000000000000000000111000011111111111000000000000000000000111111111111111111111111111111111
11111111111111111111110000000000000000000000000000000000000000111111111111111111111111111000000000000000111111110000000000000000000000000000000000000000000111000011111111110000000000000000000001111111111111111111111111111111111
11111111111111111111110000000000000000000000000000000000000000111111111111111111111111111000000000000000111111110000000000000000000000000000000000000000000111000011111111100000000000000000000011111111111111111111111111111111111
11111111111111111111110000000000000000000000000000000000000000111111111111111111111111111000000000000000111111110000000000000000000000000000000000000000000111000011111111000000000000000000000111111111111111111111111111111111111
11111111111111111111110000000000000000000000000000000000000000111111111111111111111111111000000000000000111111110000000000000000000000000000000000000000000111000000000000000000000000000000001111111111111111111111111111111111111
11111111111111111111110000000000000000000000000000000000000000111111111111111111111111111000000000000000111111110000000000000000000000000000000000000000000111000000000000000000000000000000011111111111111111111111111111111111111
11111111111111111111110000000000000000000000000000000000000000111111111111111111111111111000000000000000111111110000000000000000000000000000000000000000000111000000000000000000000000000000111111111111111111111111111111111111111
11111111111111111111110000000000000000000000000000000000000000111111111111111111111111111000000000000000111111110000000000000000000000000000000000000000000111000000000000000000000000000000111111111111111111111111111111111111111
11111111111111111111110000000000000000000000000000000000000000111111111111111111111111111000000000000000111111111111111111111111000000000000000000000001111111111111100000000000000000000011111111111111111111111111111111111111111
11111111111111111111111111111111111111111111111111111111111111111111111111111111111111111000000000000000111111111111111111111111100000000000000000000000111111111111000000000000000000000111111111111111111111111111111111111111111
11111111111111111111111111111111111111111111111111111111111111111111111111111111111111111000000000000000111111111111111111111111110000000000000000000000011111111110000000000000000000001111111111111111111111111111111111111111111
11111111111111111111111111111111111111111111111111111111111111111111111111111111111111111000000000000000111111111111111111111111111000000000000000000000001111111100000000000000000000011111111111111111111111111111111111111111111
11111111111111111111111111111111111111111111111111111111111111111111111111111111111111111000000000000000111111111111111111111111111111111111111111111111111111111000000000000000000000111111111111111111111111111111111111111111111
11111111111111111111111111111111111111111111111111111111111111111111111111111111111111111000000000000000111111111111111111111111111111111111111111111111111111111111111111111111111111111111111111111111111111111111111111111111111
11111111111111111111111111111111111111111111111111111111111111111111111111111111111111111000000000000000111111111111111111111111111111111111111111111111111111111111111111111111111111111111111111111111111111111111111111111111111
11111111111111111111111111111111111111111111111111111111111111111111111111111111111111111000000000000000111111111111111111111111111111111111111111111111111111111111111111111111111111111111111111111111111111111111111111111111111
11111111111111111111111111111111111111111111111111111111111111111111111111111111111111111000000000000000111111111111111111111111111111111111111111111111111111111111111111111111111111111111111111111111111111111111111111111111111
11111111111111111111111111111111111111111111111111111111111111111111111111111111111111111000000000000000111111111111111111111111111111111111111111111111111111111111111111111111111111111111111111111111111111111111111111111111111
11111111111111111111111111111111111111111111111111111111111111111111111111111111111111111000000000000000111111111111111111111111111111111111111111111111111111111111111111111111111111111111111111111111111111111111111111111111111
11111111111111111111111111111111111111111111111111111111111111111111111111111111111111111000000000000000111111111111111111111111111111111111111111111111111111111111111111111111111111111111111111111111111111111111111111111111111
11111111111111111111111111111111111111111111111111111111111111111111111111111111111111111000000000000000111111111111111111111111111111111111111111111111111111111111111111111111111111111111111111111111111111111111111111111111111
11111111111111111111111111111111111111111111111111111111111111111111111111111111111111111000000000000000111111111111111111111111111111111111111111111111111111111111111111111111111111111111111111111111111111111111111111111111111
11111111111111111111111111111111111111111111111111111111111111111111111111111111111111111111111111111111111111111111111111111111111111111111111111111111111111111111111111111111111111111111111111111111111111111111111111111111111
11111111111111111111111111111111111111111111111111111111111111111111111111111111111111111111111111111111111111111111111111111111111111111111111111111111111111111111111111111111111111111111111111111111111111111111111111111111111
11111111111111111111111111111111111111111111111111111111111111111111111111111111111111111111111111111111111111111111111111111111111111111111111111111111111111111111111111111111111111111111111111111111111111111111111111111111111
11111111111111111111111111111111111111111111111111111111111111111111111111111111111111111111111111111111111111111111111111111111111111111111111111111111111111111111111111111111111111111111111111111111111111111111111111111111111
11111111111111111111111111111111111111111111111111111111111111111111111111111111111111111111111111111111111111111111111111111111111111111111111111111111111111111111111111111111111111111111111111111111111111111111111111111111111
11111111111111111111111111111111111111111111111111111111111111111111111111111111111111111111111111111111111111111111111111111111111111111111111111111111111111111111111111111111111111111111111111111111111111111111111111111111111
11111111111111111111111111111111111111111111111111111111111111111111111111111111111111111111111111111111111111111111111111111111111111111111111111111111111111111111111111111111111111111111111111111111111111111111111111111111111
