11111111111111111111111111111111111111111111111111111111111111111111111111111111111111111111111111111111111111111111111111111111111111111111111111111111111111111111111111111111111111111111111111111111111111111111111111111111111
11111111111111111111111111111111111111000000000000000011111111111111111111111111111111111111111111111111111111111111111111111111111111111111111111111111111111111111111111111111111111111111111111100000000000000000000000000000111
11111111111111111111111111111111111111000000000000000011111111111111111111111111111111111111111111111111111111111111111111111111111111111111111111111111111111111111111111111111111111111111111111100000000000000000000000000000111
11111111111111111111111111111111111111000000000000000011111111111111111111111111111111111111111111111111111111111111111111111111111111111111111111111111111111111111111111111111111111111111111111100000000000000000000000000000111
11111111111111111111111111111111111111000000000000000011111111111111111111111111111111111111111111111111111111111111111111111111111111111111111111111111111111111111111111111111111111111111111111100000000000000000000000000000111
11111111111111111111111111111111111111000000000000000011111111111111111111111111111111111111111111111111111111111111111111111111111111111111111111111111111111111111111111111111111111111111111111100000000000000000000000000000111
11111111111111111111111111111111111111000000000000000011111111111111111111111111100000000000000000000000000000000000000000000000111111111111111111111111111111111111111111111111111111111111111111100000000000000000000000000000111
11111111111111111111111111111111111111000000000000000011111111111111111111111111100000000000000000000000000000000000000000000000111111111111111111111111111111111111111111111111111111111111111111100000000000000000000000000000111
11111100000000000000000000000000000111000000000000000011111111111111111111111111100000000000000000000000000000000000000000000000111111111111111111111111111111111111111111111111111111111111111111100000000000000000000000000000111
11111110000000000000000000000000000011000000000000000011111111111111111111111111100000000000000000000000000000000000000000000000111111111111111111111111111111111111111111111111111111111111111111100000000000000000000000000000111
11111111000000000000000000000000000001000000000000000010000000000000111111111111100000000000000000000000000000000000000000000000111111111111111111111111111111111111111111111111111111111111111111100000000000000000000000000000111
11111111100000000000000000000000000000000000000000000010000000000000111111111111100000000000000000000000000000000000000000000000111111111111111111111111111111111111111111111111111111111111111111100000000000000000000000000000111
11111111110000000000000000000000000000000000000000000010000000000000111111111111100000000000000000000000000000000000000000000000111111111111111111111111111111111111111111111111111111111111111111100000000000000000000000000000111
11111111111000000000000000000000000000000000000000000010000000000000111111111111100000000000000000000000000000000000000000000000111111111111111111111111111111111111111111111111111111111111111111100000000000000000000000000000111
11111111111100000000000000000000000000000000000000000010000000000000111111111111100000000000000000000000000000000000000000000000111111111111111111111111111111111111111111111111111111111111111111100000000000000000000000000000111
11111111111110000000000000000000000000000000000000000010000000000000111111111111100000000000000000000000000000000000000000000000111111111111111111111111111111111111111111111111111111111111111111100000000000000000000000000000111
11111111111111000000000000000000000000000000000000000000000000000000000001111111100000000000000000000000000000000000000000000000111111111111111111111111111111111111111111111111111111111111111111100000000000000000000000000000111
11111111111111100000000000000000000000000000000000000000000000000000000001111111100000000000000000000000000000000000000000000000111111111111111111111111111111111111111111111111111111111111111111100000000000000000000000000000111
11111111111111110000000000000000000000000000000000000000000000000000000001111111100000000000000000000000000000000000000000000000111111111111111111111111111111111111111111111111111111111111111111100000000000000000000000000000111
11111111111111111000000000000000000000000000000000000000000000000000000001111111100000000000000000000000000000000000000000000000111111111111111111111111111111111111111111111111111111111111111111100000000000000000000000000000111
11111111111111111100000000000000000000000000000000000010000000000000000001111111100000000000000000000000000000000000000000000000111111111111111111111111111111111111111111111111111111111111111111100000000000000000000000000000111
11111111111111111110000000000000000000000000000000000010000000000000000001111111100000000000000000000000000000000000000000000000111111111111111111111111111111111111111111111111111111111111111111100000000000000000000000000000111
11111111111111111111000000000000000000000000000000000010000000000000000001111111100000000000000000000000000000000000000000000000111111111111111111111111111111111111111111111111111111111111111111100000000000000000000000000000111
11111111111111111111000000000000000000000000000000000010000000000000000001111111100000000000000000000000000000000000000000000000111111111111111111111111111111111111111111111111111111111111111111100000000000000000000000000000111
11111111111111111111000000000000000000000000000000000010000000000000000001111111100000000000000000000000000000000000000000000000111111111111111111111111111111111111111111111111111111111111111111100000000000000000000000000000111
11111111111111111111000000000000000000000000000000000010000000000000000001111111100000000000000000000000000000000000000000000000111111111111111111111111111111111111111111111111111111111111111111100000000000000000000000000000111
11111111111111111111000000000000000000000000000000000010000000000000000001111111100000000000000000000000000000000000000000000000111111111111111111111111111111111111111111111111111111111111111111100000000000000000000000000000111
11111111111111111111111110000000000000000000000000000010000000000000000001111111100000000000000000000000000000000000000000000000111111111111111111111111111111111111111111111111111111111111111111100000000000000000000000000000111
11111111111111111111111111000000000000000000000000000000000000000000000001111111100000000000000000000000000000000000000000000000111111111111111111111111111111111111111111111111111111111111111111100000000000000000000000000000111
11111111111111111111111111100000000000000000000000000000000000000000000001111111100000000000000000000000000000000000000000000000111111111111111111111111111111111111111111111111111111111111111111100000000000000000000000000000111
11111111111111111111111111110000000000000000000000000000000000000000000001111111100000000000000000000000000000000000000000000000111111111111111111111111111111111111111111111111111111111111111111100000000000000000000000000000111
11111111111111111111111111111000000000000000000000000000000000000000000001111111100000000000000000000000000000000000000000000000111111111111111111111111111111111111111111111111111111111111111111100000000000000000000000000000111
11111111111111111111111111111100000000000000000000000000000000000000000001111111100000000000000000000000000000000000000000000000111111111111111111111111111111111111111111111111111111111111111111100000000000000000000000000000111
11111111111111111111111111111110000000000000000000000000000000000000000001111111100000000000000000000000000000000000000000000000111111111111111111111111111111111111111111111111111111111111111111100000000000000000000000000000111
11111111111111111111111111111111000000000000000000000000000000000000000001111111100000000000000000000000000000000000000000000000111111111111111111111111111111111111111111111111111111111111111111111111111111100000000000001111111
11111111111111111111111111111111100000000000000000000000000000000000000001111111111111111111111111111111111111110000000000011111111111111111111111111111111111111111111111111111111111111111111111111111111111100000000000001111111
11111111111111111111111111111111110000000000000000000000000000000000000001111111111111111111111111111111111111110000000000011111111111111111111111111111111111111111111111111111111111111111111111111111111111100000000000001111111
11111111111111111111111111111111111000000000000000000000000000000000000001111111111111111111111111111111111111110000000000011111111111111111111111111110000000000000000000000000000000000000000000000000000000000000000000001111111
11111111111111111111111111111111111100000000000000000000000000000000000000000000000000000000000000000000000000000000000000011111111111111111111111111110000000000000000000000000000000000000000000000000000000000000000000011111111
11111111111111111111111111111111111110000000000000000000000000000000000000000000000000000000000000000000000000000000000001111111111111111111111111111110000000000000000000000000000000000000000000000000000000000000000000011111111
11111111111111111111111111111111111111000000000000000000000000000000000000000000000000000000000000000000000000000000000001111111111111111111111111111110000000000000000000000000000000000000000000000000000000000000000000011111111
11111111111111111111111111111111111111100000000000000000000000000000000000000000000000000000000000000000000000000000000001111111111111111111111111111110000000000000000000000000000000000000000000000000000000000000000000011111111
11111111111111111111111111111111111111110000000000000000000000000000000000000000000000000000000000000000000000000000000001111111111111111111111111111110000000000000000000000000000000000000000000000000000000000000000000011111111
11111111111111111111111111111111111111111000000000000000000000000000000001111111111111111111111111111111111111110000000001111111111111111111111111111110000000000000000000000000000000000000000000000000000000000000000000011111111
11111111111111111111111111111111111111111111111111111111111111111100000001111111111111111111111111111111111111110000000001111111111111111111111111111110000000000000000000000000000000000000000000000000000000000000000000011111111
11111111111111111111111111111111111111111111111111111111111111111100000001111111111111111111111111111111111111110000000001111111111111111111111111111110000000011111111111111111111111111111111111111111111111100000000000011111111
11111111111111111111111111111111111111111111111111111111111111111100000001111111111111111111111111111111111111110000000001111111111111111111111111111110000000011111111111111111111111111111111111111111111111100000000000011111111
11111111111111111111111111111111111111111111111111111111111111111100000001111111111111111111111111111111111111110000000001111111111111111111111111111110000000011111111111111111111111111111111111111111111111100000000000011111111
11111111111111111111111111111111111111111111111111111111111111111100000001111111111111111111111111111111111111110000000001111111111111111111111111111110000000011111111111111111111111111111111111111111111111100000000000011111111
11111111111111111111111111111111111111111111111111111111111111111100000001111111111111111111111111111111111111110000000001111111111111111111111111111110000000011111111111111111111111111111111111111111111111100000000000011111111
11111111111111111111111111111111111111111111111111111111111111111100000001111111111111111111111111111111111111110000000001111111111111111111111111111110000000011111111111111111111111111111111111111111111111100000000000011111111
11111111111111111111111111111111111111111111111111111111111111111100000001111111111111111111111111111111111111110000000001111111111111111111111111111110000000011111111111111111111111111111111111111111111111100000000000011111111
11111111111111111111111111111111111111111111111111111111111111111100000001111111111111111111111111111111111111110000000001111111111111111111111111111110000000011111111111111111111111111111111111111111111111100000000000011111111
11111111111111111111111111111111111111111111111111111111111111111100000001111111111111111111111111111111111111110000000001111111111111111111111111111110000000011111111111111111111111111111111111111111111111100000000000011111111
11111111111111111111111111111111111111111111111111111111111111111100000001111111111111111111111111111111111111110000000001111111111111111111111111111110000000011111111111111111111111111111111111111111111111100000000000011111111
11111111111111111111111111111111111111111111111111111111111111111100000001111111111111111111111111111111111111110000000001111111111111111111111111111110000000011111111111111111111111111111111111111111111111100000000000011111111
11111111111111111111111111111111111111111111111111111111111111111100000001111111111111111111111111111111111111110000000001111111111111111111111111111110000000011111111111111111111111111111111111111111111111100000000000011111111
11111111111111111111111111111111111111111111111111000000000000000000000000000000001111111111111111111111111111110000000001111111111111111111111111111110000000011111111111111111111111111111111111111111111111100000000000011111111
11111111111111111111111111111111111111111111111111000000000000000000000000000000001111111111111111111111111111110000000001111111111111111111111111111110000000011111111111111111111111111111111111111111111111100000000000011111111
11111111111111111111111111111111111111111111111111000000000000000000000000000000001111111111111111111111111111110000000001111111111111111111111111111110000000011111111111111111111111111111111111111111111111100000000000011111111
11111111111111111111111111111111111111111111111111000000000000000000000000000000001111111111111111111111111111110000000001111111111111111111111111111110000000011111111111111111111111111111111111111111111111100000000001111111111
11111111111111111111111111111111111111111111111111000000000000000000000000000000001111111111111111111111111111110000000001111111111111111111111111111110000000011111111111111111111111111111111111111111111111111111111111111111111
11111111111111111111111111111111111111111111111111000000000000000000000000000000001111111111111111111111111111110000000001111111111111111111111111111110000000011111111111111111111111111111111111111111111111111111111111111111111
11111111111111111111111111111111111111111111111111000000000000000000000000000000001111111111111111111111111111111111111111111111111111111111111111111110000000011111111111111111111111111111111111111111111111111111111111111111111
11111111111111111111111111111111111111111111111111000000000000000000000000000000001111111111111111111111111111111111111111111111111111111111111111111110000000011111111111111111111111111111111111111111111111111111111111111111111
11111111111111111111111111111111111111111111111111000000000000000000000000000000001111111111111111111111111111111111111111111111111111111111111111111110000000011111111111111111111111111111111111111111111111111111111111111111111
11111111111111111111111111111111111111111111111111000000000000000000000000000000001111111111111111111111111111111111111111111111111111111111111111111110000000011111111111111111111111111111111111111111111111111111111111111111111
11111111111111111111111111111111111111111111111111000000000000000000000000000000001111111111111111111111111111111111111111111111111111111111111111111110000000011111111111111111111111111111111111111111111111111111111111111111111
11111111111111111111111111111111111111111111111111000000000000000000000000000000001111111111111111111111111111111111111111111111111111111111111111111110000000011111111111111111111111111111111111111111111111111111111111111111111
11111111111111111111111111111111111111111111111111111111111111111100000111111111111111111111111111111111111111111111111111111111111111111111111111111110000000011111111111111111111111111111111111111111111111111111111111111111111
11111111111111111111111111111111111111111111111111111111111111111100000111111111111111111111111111111111111111111111111111111111111111111111111111111110000000011111111111111111111111111111111111111111111111111111111111111111111
11111111111111111111111111111111111111111111111111111111111111111100000111111111111111111111111111111111111111111111111111111111111111111111111111111110000000011111111111111111111111111111111111111111111111111111111111111111111
11111111111111111111111111111111111111111111111111111111111111111100000111111111111111111111111111111111111111111111111111111111111111111111111111111110000000011111111111111111111111111111111111111111111111111111111111111111111
11111111111111111111111111111111111111111111111111111111111111111100000111111111111111111111111111111111111111111111111111111111111111111111111111111110000000011111111111111111111111111111111111111111111111111111111111111111111
11111111111111111111111111111111111111111111111111111111111111111100000111111111111111111111111111111111111111111111111111111111111111111111111111111110000000011111111111111111111111111111111111111111111111111111111111111111111
11111111111111111111111111111111111111111111111111111111111000000000000000000000000000111111111111111111111111111111111111111111111111111111111111111110000000011111111111111111111111111111111111111111111111111100000000000000111
11111111111111111111111111111111111111111111111111111111110000000000000000000000000001111111111111111111111111111111111111111111111111111111111111111110000000011111111111111111111111111111111111111111111111111100000000000000111
11111111111111111111111111111111111111111111111111111111100000000000000000000000000011111111111111111111111111111111111111111111111111111111111111111110000000011111111111111111111111111111111111111111111111111100000000000000111
11111111111111111111111111111111111111111111111111111111000000000000000000000000000111111111111111111111111111111111111111111111111111111111111111111110000000011111111111111111111111111111111111111111111111111100000000000000111
11111111111111111111111111111111111111111111111111111110000000000000000000000000001111111111111111111111111111111111111111111111111111111111111111111110000000011111111111111111111111111111111111111111111111111100000000000000111
11111111111111111111111111111111000000000000000000000000000000000000000000000000011111111111111111111111111111111111111111111111111111111111111111111110000000011111111111111111111111111111111111111111111111111100000000000000011
11111111111111111111111111111111000000000000000000000000000000000000000000000000111111111111111111111111111111111111111111111111111111111111000000000000000000000000000000000000000000000000000000000000000000001100000000000000011
11111111111111111111111111111111000000000000000000000000000000000000000000000001111111111111111111111111111111111111111111111111111111111111000000000000000000000000000000000000000000000000000000000000000000001100000000000000011
11111111111111111111111111111111000000000000000000000000000000000000000000000011111111111111111111111111111111111111111111111111111111111111000000000000000000000000000000000000000000000000000000000000000000001100000000000000011
11111111111111111111111111111111000000000000000000000000000000000000000000000111111111111111111111111111111111111111111111111111111111111111000000000000000000000000000000000000000000000000000000000000000000001100000000000000011
11111111111111111111111111111111000000000000000000000000000000000000000000001111111111111111111111111111111111111111111111111111111111111111000000000000000000000000000000000000000000000000000000000000000000001100000000000000011
11111111111111111111111111111111000000000000000000000000000000000000000000011111111111111111111111111111111111111111111111111111111111111111000000000000000000000000000000000000000000000000000000000000000000001111111110000000011
11111111111111111111111111111111000000000000000000000000000000000000000000001111111111111111111111111111111111111111111111111111111111111111000000000000000000000000000000000000000000000000000000000000000000001111111110000000011
11111111111111111111111111111111000000000000000000000000000000000000000000001111111111111111111111111111111111111111111111111111111111111111000000000000000000000000000000000000000000000000000000000000000000001111111110000000011
11111111111111111111111111111111000000000000000000000000000000000000000000001111111111111111111111111111111111111111111111111111111111111111000000000000000000000000000000000000000000000000000000000000000000001111111110000000011
11111111111111111111111111111111000000000000000000000000000000000000000000001111111111111111111111111111111111111000000000000001111111111111000000000000000000000000000000000000000000000000000000000000000000001111111110000000011
11111111111111111111111111111111000000000000000000000000000000000000000000001111111111111111111111111111111111111100000000000000000000000000000000000000000000000000000000000000000000000000000000000000000000001111111110000000011
11111111111111111111111111111111000000000000000000000000000000000000000000001111111111111111111111111111111111111110000000000000000000000000000000000000000000000000000000000000000000000000000000000000000000001111111110000000011
11111111111111111111111111111111000000000000000000000000000000000000000000001111111111111111111111111111111111111111000000000000000000000000000000000000000000000000000000000000000000000000000000000000000000001111111110000000011
11111111111111111111111111111111000000000000000000000000000000000000000000001111111111111111111111111111111111111111100000000000000000000000000000000000000000000000000000000000000000000000000000000000000000001111111110000000011
11111111111111111111111111111111000000000000000000000000000000000000000000001111111111111111111111111111111111111111110000000000000000000000000000000000000000000000000000000000000000000000000000000000000000001111111110000000011
11111111111111111111111111111111000000000000000000000000000000000000000000001111111111111111111111111111111111111111111000000000000000000000000000000000000000000000000000000000000000000000000000000000000000001111111110000000011
11111111111111111111111111111111000000000000000000000000000000000000000000001111111111111111111111111111111111111111111100000000000000000000000000000000000000000000000000000000000000000000000000000000000000001111111110000000011
11111111111111111111111111111111000000000000000000000000000000000000000000001111111111111111111111111111111111111111111110000000000000011111000000000000000000000000000000000000000000000000000000000000000000001111111110000000011
11111111111111111111111111111111000000000000000000000000000000000000000000001111111111111111111111111111111111111111111111000000000000001111000000000000000000000000000000000000000000000000000000000000000000001111111110000000011
11111111111111111111111111111111000000000000000000000000000000000000000000001111111111111111111111111111111111111111111111100000000000000111000000000000000000000000000000000000000000000000000000000000000000001111111110000000011
11111111111111111111111111111111000000000000000000000000000000000000000000001111111111111111111111111111111111111111111111100000000000000011000000000000000000000000000000000000000000000000000000000000000000001111111110000000011
11111111111111111111111111111111000000000000000000000000000000000000000000001111111111111111111111111111111111111111111111100000000000000001111111110000000000000000000000000000000000000000000000000000000000001111111110000000011
11111111111111111111111111111111000000000000000000000000000000000000000000001111111111111111111111111111111111111111111111100000000000000000111111111000000000000000000000000000000000000000000000000000000000001111111110000000011
11111111111111111111111111111111000000000000000000000000000000000000000000001111111111111111111111111111111111111111111111100000000000000000011111111100000000000000000000000000000000000000000000000000000000001111111110000000011
11111111111111111111111111111111000000000000000000000000000000000000000000001111111111111111111111111111111111111111111100000000000000000000001111111110000000000000000000000000000000000000000000000000000000001111111110000000011
11111111111111111111111111111111000000000000000000000000000000000000000000001111111111111111111111111111111111111111111100000000000000000000000111111110000000000000000000000000000000000000000000000000000000000000000000000000011
11111111111111111111111111111111000000000000000000000000000000000000000000001111111111111111111111111111111111111111111100000000000000000000000011111110000000000000000000000000000000000000000000000000000000000000000000111111111
11111111111111111111111111111111000000000000000000000000000000000000000000001111111111111111111111000000000000000000000000000000000000000000000000001111110000000000000000000000000000000000000000000000000000000000000000111111111
11111111111111111111111111111111111111111111111111111111111111111111111100001111111111111111111111000000000000000000000000000000000000000000000000001111100000000000000000000000000000000000000000000000000000000000000000111111111
11111111111111111111111111111111111111111111111111111111111111111111111100001111111111111111111111000000000000000000000000000000000000000000000000001111110000000000000000000000000000000000000000000000000000000111111111111111111
11111111111111111111111111111111111111111111111111111111111111111111111100001111111111111111111111000000000000000000000000000000000000000000000000001111111000000000000000000000000000000000000000000000000000001111111111111111111
11111111111111111111111111111111111111111111111111111111111111111111111100001111111111111111111111000000000000000000000000000000000000000000000000000111111100000000000000000000000000000000000000000000000000001111111111111111111
11111111111111111111111111111111111111111111111111111111111111111111111100001111111111111111111111000000000000000000000000000000000000000000000000000011111110000000000000000000000000000000000000000000000000001111111111111111111
11111111111111111111111111111111111111111111111111111111111111111111111100001111111111111111111111000000000000000000000000000000000000000000000000000001111111000000000000000000000000000000000000000000000000001111111111111111111
11111111111111111111111111111111111111111111100000000000000000011111111100001111111111111111111111000000000000000000000000000000000000000000000000000000111111100000000000000000000000000000000000000000000000000111111111111111111
11111111111111111111111111111111111111111111100000000000000000011111111100001111111111111111111111000000000000000000000000000000000000000000000000000000011111110000000000000000000000000000000000000000000000000011111111111111111
11111111111111111111111111111111111111111111100000000000000000011111111100001111111111111111111111000000000000000000000000000000000000000000000000000000001111111000000000000000000000000000000000000000000000000001111111111111111
11111111111111111111111111111111111111111111100000000000000000011111111100001111111111111111111111000000000000000000000000000000000000000000000000000000000111111000000000000000000000000000000000000000000000000000111111111111111
11111111111111111111111111111111111111111111100000000000000000011111111100001111111111111111111111000000000000000000000000000000000000000000000000000000000011111000000000000000000000000000000000000000000000000000011111111111111
11111111111111111111111111111111111111111111100000000000000000011111111100001111111111111111111111000000000000000000000000000000000000000000000000000000000001111000000000000000000000000000000000000000000000000000001111111111111
11111111111111111111111111111111111111111111100000000000000000011111111100001111111111111111111111000000000000000000000000000000000000000000000000001111111111111000000000000000000000000000000000000000000000000000000111111111111
11111111111111111111111111111111111111111111100000000000000000011111111100001111111111111111111111000000000000000000000000000000000000000000000000001111111111111000000000000000000000000000000000000000000000000000000011111111111
11111111111111111111111111111111111111111111100000000000000000011111111100001111111111111111111111000000000000000000000000000000000000000000000000001111111111111000000000000000000000000000000000000000000000000000000001111111111
11111111111111111111111111111111111111100000000000000000000000011111111100001111111111111111111111000000000000000000000000000000000000000000000000001111111111111000000000000000000000000000000000000000000000000000000000111111111
11111111111111111111111111111111111111100000000000000000000000011111111100001111111111111111111111000000000000000000000000000000000000000000000000001111111111111111111110000000000000000000000000000000000000000000000000011111111
11111111111111111111111111111111111111100000000000000000000000000000000000000000000000000000000000000000000000000000000000000000000000000000000000001111111111111111111111000000000000000000000000000000000000000000000000001111111
11111111111111111111111111111111111111100000000000000000000000000000000000000000000000000000000000000000000000000000000000000000000000000000000000001111111111111111111111100000000000000000000000000000000000000000000000000111111
11111111111111111111111111111111110000000000000000000000000000000000000000000000000000000000000000000000000000000000000000000000000000000000000000001111111111111111111111000000000000000000000000000000000000000000000000000011111
11111111111111111111111111111111111000000000000000000000000000000000000000000000000000000000000000000000000000000000000000000000000000000000000000001111111111111111111110000000000000000000000000000000000000000000000000000001111
11111111111111111111111111111111111100000000000000000000000000000000000000000000000000000000000000000000000000000000000000000000000000000000000000001111111111111111111100000000000000000000000000000000000000000000000000000000111
11111111111111111111111111111111111110000000000000000000000000000000000000000000000000000000000000000000000000000000000000000000000000000000000000001111111111111111111000000000000000000000000000000000000000000000000000000000011
11111111111111111111111111111111111111000000000000000000000000011111111100000000000000000000000000000000000000000000000000000000000000000000000000001111111111111111110000000000000000000000000000000000000000000000000000000000001
11111111111111111111111111111111111111100000000000111111111111111111111111111111111111111111111111000000000000000000000000000000000000000000000000001111111111111111100000000000000000000000000000000000000000000000000000000000000
11111111111111111111111111111111111111100000000000011111111111111111111111111111111111111111111111000000000000000000000000000000000000000000000000001111111111111111000000000000000000000000000000000000000000000000000000000000000
11111111111111111111111111111111111111100000000000001111111111111111111111111111111111111111111111000000000000000000000000000000000000000000000000001111111111111110000000000000000000000000000000000000000000000000000000000000000
11111111111111111111111111111111111111100000000000000111111111111111111111111111111111111111111111000000000000000000000000000000000000000000000000001111111111111100000000000000000000000000000000000000000000000000000000000000000
11111111111111111111111111111111111111100000000000000011111111111111111111111111111111111111111111000000000000000000000000000000000000000000000000001111111111111000000000000000000000000000000000000000000000000000000000000000000
11111111111111111111111111111111111111100000000000000001111111111111111111111111111111111111111111000000000000000000000000000000000000000000000000001111111111110000000000000000000000000000000000000000000000000000000000000000000
11111111111111111111111111111111111111100000000000000000111111111111111111111111111111111111111111000000000000000000000000000000000000000000000000001111111111100000000000000000000000000000000000000000000000000000000000000000000
11111111111111111111111111111111111111100000000000000000011111111111111111111111111111111111111111000000000000000000000000000000000000000000000000001111111111000000000000000000000000000000000000000000000000000000000000000000000
11111111111111111111111111111111111111100000000000000000001111111111111111111111111111111111111111000000000000000000000000000000000000000000000000001111111110000000000000000000000000000000000000000000000000000000000000000000000
11111111111111111111111111111111111111100000000100000000000111111111111111111111111111111111111111000000000000000000000000000000000000000000000000001111111100000000000000000000000000000000000000000000000000000000000000000000000
11111111111111111111111111111111111111100000000110000000000011111111111111111111111111111111111111000000000000000000000000000000000000000000000000001111111000000000000000000000000000000000000000000000000000000000000000000000000
11111111111111111111111111000000000000000000000000000000000001111111111111111111111111111111111111000000000000000000000000000000000000000000000000001111110000000000000000000000000000000000000000000000000000000000000000000000000
11111111111111111111111111000000000000000000000000000000000000111111111111111111111111111111111111111111111111111111111111100000111111111111111111111111100000000000000000000000000000000000000000000000000000000000000000000000000
11111111111111111111111111000000000000000000000000000000000000011111111111111111111111111111111111111111111111111111111111100000111111111111111111111111000000000000000000000111111100000000000000000000000000000000000000000000000
11111111111111111111111111000000000000000000000000000000000000001111111111111111111111111111111111111111111111111111111111100000000000000000000000000000000000000000000000001111111100000000000000000000000000000000000000000000000
11111111111111111111111111000000000000000000000000000000000000000111111111111111111111111111111111111111111111111111111111100000000000000000000000000000000000000000000000011111111100000000000000000000000000000000000000000000000
11111111111111111111111111000000000000000000000000000000000000000011111111111111111111111111111111111111111111111111111111100000000000000000000000000000000000000000000000111111111100000000000000000000000000000000000000000000000
11111111111111111111111111000000000000000000000000000000000000000001111111111111111111111111111111111111111111111111111111100000000000000000000000000000000000000011111111111111111100000000000001000000000000000000000000000000000
11111111111111111111111111000000000000000000000000000000000000000000111111111111111111111111111111111111111111111111111111100000000000000000000000000000000000000011111111111111111100000000000001100000000000000000000000000000000
11111111111111111111111111000000000000000000000000000000000000000000000000000000000000001111111111111111111111111111111111100000000000000000000000000000000000000011111111111111111100000000000001110000000000000000000000000000000
11111111111111111111111111000000000000000000000000000000000000000000000000000000000000000111111111111111111111111111111111100000000000000000000000000000000000000011111111111111111100000000000000000000000000000000000000000000000
11111111111111111111111111000000000000000000000000000000000000000000000000000000000000000011111111111111111111111111111111100000000000000000000000000000000000000011111111111111111100000000000000000000000000000000000000000000000
11111111111111111111111111000000000000000000000000000000000011111111110000000000000000000001111111111111111111111111111111100000000000000000000000000000000000000011111111111111111100000000000000000000000000000000000000000000000
11111111111111111111111111000000000000000000000000000000000011111111111000000000000000000000111111111111111111111111111111100000000000000000000000000000000000000011111111111111111100000000000000000000000000000000000000000000000
11111111111111111111111111000000000000000000000000000000000011111111111100000000000000000000011111111111111111111111111111100000000000000000000000000000000000000011111111111111111100000000000000000000000000000000000000000000000
11111111111111111111111111000000000000000000000000000000000011111111111110000000000000000000000000000000000000000000000000000000000000000000000000000000000000000011111111111111111100000000000000000000000000000000000000000000000
11111111111111111111111111000000000000000000000000000000000011111111111111000000000000000000000000000000000000000000000000000000000000000000000000000000000000000011111111111111111100000000000000000000000000000000000000000000000
11111111111111111111111111000000000000000000000000000000000011111111111111100000000000000000000000000000000000000000000000000000000000000000000000000000000000000011111111111111111111000000000000000000000000000000000000000000000
11111111111111111111111111000000000000000000000000000000000011111111111111110000000000000000000000000000000000000000000000000000000000000000000000000000000000000011111111111111111111111110000001111111111111111111111111000000000
11111111111111111111111111000000000000000000000000000000000011111111111111111000000000000000000000000000000000000000000000000000000000000000000000000000000000000011111111111111111111111110000001111111111111111111111111000000000
11111111111111111111111111000000000000000000000000000000000011111111111111111100000000000000000000000000000000000000000000000000000000000000000000000000000000000011111111111111111111111110000001111111111111111111111111000000000
11111111111111111111111111000000000000000000000000000000000011111111111111111111111111110000000000000000000000000000000000000000000000000000000000000000000000000011111111111111111111111110000001111111111111111111111111000000000
11111111111111111111111111000000000000000000000000000000000011111111111111111111111111110000000000000000000000000000000000000000000000000000000000000000000000000011111111111111111111111110000001111111111111111111111111000000000
11111111111111111111111111000000000000000000000000000000000011111111111111111111111111110000000000000000000000000000000000000000000000000000000000000000000000000011111111111111111111111110000001111111111111111111111111000000000
11111111111111111111111111000000000000000000000000000000000011111111111111111111111111110000000000000000000000000000000000000000000000000000000000000000000000000011111111111111111111111110000001111111111111111111111111000000000
11111111111111111111111111000000000000000000000000000000000011111111111111111111111111110000000000000000000000000000000000000000000000000000000000000000000000000011111111111111111111111110000001111111111111111111111111000000000
11111111111111111111111111000000000000000000000000000000000000000001111111111111111111110000000000000000000000000000000000000000000000000000000000000000000000000011111111111111111111111110000001111111111111111111111111000000000
11111111111111111111111111000000000000000000000000000000000000000001111111111111111111110000000000000000000000000000000000000000000000000000000000000000000000000011111111111111111111111110000001111111111111111111111111000000000
11111111111111111111111111000000000000000000000000000000000000000001111111111111111111110000000000000000000000000000000000000000000000000000000000000000000000000011111111111111111111111110000001111111111111111111111111000000000
11111111111111111111111111000000000000000000000000000000000000000001111111111111111111110000000000000000000000000000000000000000000000000000000000000000000000000011111111111111111111111110000001111111111111111111111111000000000
11111111111111111111111111000000000000000000000000000000000000000001111111111111111111110000000000000000000000000000000000000000000000000000000000000000000000000011111111111111111111111110000001111111111111111111111111000000000
11111111111111111111111111111111111111111110000000011000000000000001111111111111111111110000000000000000000000000000000000000000000000000000000000000000000000000011111111111111111111111110000001111111111111111111111111000000000
11111111111111111111111111111111111111111110000000000000000000000000000000000000001111110000000000000000000000000000000000000000000000000000000000000000000000000011111111111111111111111110000001111111111111111111111111000000000
11111111111111111111111111111111111111111110000000000000000000000000000000000000000000000000000000000000000000000000000000000000000000000000000000000000000000000000000000001111111111111110000001111111111111111111111111000000000
11111111100001111111111111111111111111111110000000000000000000000000000000000000000000000000000000000000000000000000000000000000000000000000000000000000000000000000000000000111111111111110000001111111111111111111111111000000000
11111111000011111111111111111111111111111110000000000000000000000000000000000000000000000000000000000000000000000000000000000000000000000000000000000000000000000000000000000000000000000000000000000000011111111111111111000000000
11111110000111111111111111111111111111111110000000000000000000000000000000000000000000000000000000000000000000000000000000000000000000000000000000000000000000000000000000000000000000000000000000000000011111111111111111000000000
11111100001111111111111111111111111111111110000000000000000000000000000000000000000000000000000000000000000000000000000000000000000000000000000000000000000000000000000000000000000000000000000000000000011111111111111111000000000
11111000011111111111111111111111111111111110000000000000000000000000000000000000000000000000000000000000000000000000000000000000000000000000000000000000000000000000000000000000000000000000000000000000011111111111111111000000000
11110000111111111111111111111111111111111110000000011111111100000000000000000000000000000000000000000000000000000000000000000000000000000000000000000000000000000000000000000000000000000000000000000000011111111111111111000000000
11100001111000000000000000000000000000000000000000011111111111100000000000000000000000000000000000000000000000000000000000000000000000000000000000000000000000000000000000000000000000000000000000000000011111111111111111000000000
11000011111000000000000000000000000000000000111111111111111111100000000000000000000000000000000000000000000000000000000000000000000000000000000000000000000000000000000000000000000000000000000000000000011111111111111111000000000
10000111111000000000000000000000000000000000111111111111111111100000000000000000000000000000000000000000000000000000000000000000000000000000000000000000000000000000000000000000000000000000000000000000011111111111111111000000000
00001111111000000000000000000000000000000000111111111111111111100000000000000000000000000000000000000000000000000000000000000000000000000000000000000000000000000000000000000000000000000000000000000000011111111111111111000000000
00011111111000000000000000000000000000000000111111111111111111100000000000000000000000000000000000000000000000000000000000000000000000001100000000000000000000000000000000000000000000000000000000000000011111111111111111000000000
00111111111111111111111111111111111111111111111111111111111111100000000000000000000000000011111111111111111111110000011111100000111111111100000000000000000000000000000000000000000000000000000000000000011111111111111111000000000
11111111111111111111111111111111111111111111111111111111111111100000000000000000000000000011111111111111111111110000011111100000000000000000000000000000000000000000000000000000000000000000000000000000011111111111111111000000000
11111111111111111111111111111111111111111111111111111111111111100000000000000000000000000011111111111111111111110000011111100000000000000000000000000000000000000000000000000000000000000000000000000000011111111111111111000000000
11111111111111111111111111111111111111111111111111111111111111100000000000000000000000000011111111111111111111110000011111100000000000000000000000000000000000000000000000000000000000000000000000000000011111111111111111000000000
11111111111111111111111111111111111111111111111111111111111111100000000000000000000000000000000000000000000000000000011111100000000000000000000000000000000000000000000000000000000000000000000000000000011111111111111111000000000
11111111111111111111111111111111111111111111111111111111111111100000000000000000000000000000000000000000000000000111111111100000000000000000000000000000000000000000000000000000000000000000000000000000011111111111111111000000000
11111111111111111111111111111111111111111111111111111111111111100000000000000000000000000000000000000000000000000111111111100000000000000000000000000000000000000000000000000000000000000000000000000000011111111111111111000000000
11111111111111111111111111111111111111111111111111111111111111100000000000000000000000000000000000000000000000000111111111100000000000000000000000000000000000000000000000000000000000000000000000000000011111111100000000000000000
11111111111111111111111111111111111111111111111111111111111111100000000000000000000000000000000000000000000000000111111111100000000000000000000000000000000000000000000000000000000000000000000000000000011111111000000000000000000
11111111111111111111111111111111111111111111111111111111111111100000000000000000000000000000000000000000000000000111111111111111111111111100000000000000000000000000000000000000000000000000000000000000011111110000000000001000000
11111111111111111111111111111111111111111111111111111111111111100000000000000000000000000011111111111111111111111111111111111111111111111100000000000000000000000000000000000000000000000000000000000000011111100000000000011000000
11111111111111111111111111111111111111111111111111111111111111100000000000000000000000000011111111111111111111111111111111111111111111111100000000000000000000000000000000000000000000000000000000000000011111000000000000111000000
11111111111111111111111111111111111111111111111111111111111111100000000000000000000000000011111111111111111111111111111111111111111111111100000000000000000000000000000000000000000000000000000000000000011110000000000001111000000
11111111111111111111111111111111111111111111111111111111111111100000000000000000000000000011111111111111111111111111111111111111111111111100000000000000000000000000000000000000000000000000000000000000011100000000000011111000000
11111111111111111111111111111111111111111111111111111111111111100000000000000000000000000011111111111111111111111111111111111111111111111100000000000000000000000000000000000000000000000000000000000000011000000000000111111000000
11111111111111111111111111111111111111111111111111111111111111100000000000000000000000000011111111111111111111111111111111111111111111111100000000000000000000000000000000000000000000000000000000000000010000000000001100000000000
11111111111111111111111111111111111111111111111111111111111111100000000000000000000000000011111111111111111111111111111111111111111111111100000000000000000000000000000000000000000000000000000000000000000000000000011100000001111
11111111111111111111111111111111111111111111111111111111111111100000000000000000000000000011111111111111111111111111111111111111111111111100000000000000000000000000000000000000000000000000000000000000000000000000111100000001111
11111111111111111111111111111111111111111111111111111111111111100000000000000000000000000011111111111111111111111111111111111111111111111100000000000000000000000000000000000000000000000000000000000000000000000001111100000001111
11111111111111111111111111111111111111111111111111111111111111100000000000000000000000000011111111111111111111111111111111111111111111111100000000000000000000000000000000000000000000000000000000000000000000000000000000000001111
11111111111111111111111111111111111111111111111111111111111111111111111111111111111111111111111111111111111111111111111111111111111111111100000000000000000000000000000000000000000000000000000000000000000000000000000000000001111
11111111111111111111111111111111111111111111111111111111111111111111111111111111111111111111111111111111111111111111111111111111111111111100000000000000000000000000000000000000000000000000000000000000000000000000000000000001111
11111111111111111111111111111111111111111111111111111111111111111111111111111111111111111111111111111111111111111111111111111111111111111100000000000000000000000000000000000000000000000000000000000000000000000000000000000001111
11111111111111111111111111111111111111111111111111111111111111111111111111111111111111111111111111111111111111111111111111111111111111111100000000000000000000000000000000000000000000000000000000000000000000000000000000000001111
11111111111111111111111111111111111111111111111111111111111111111111111111111111111111111111111111111111111111111111111111111111111111111100000000000000000000000000000000000000000000000000000000000000000000000000000000000011111
11111111111111111111111111111111111111111111111111111111111111111111111111111111111111111111111111111111111111111111111111111111111111111100000000000000000000000000000000000000000000000000000000000000000000000000000000000011111
11111111111111111111111111111111111111111111111111111111111111111111111111111111111111111111111111111111111111111111111111111111111111111100000000000000000000000000000000000000000000000000000000000000000000000000000000000011111
11111111111111111111111111111111111111111111111111111111111111111111111111111111111111111111111111111111111111111111111111111111111111111100000000000000000000000000000000000000000000000000000000000000011111110000000001111111111
11111111111111111111111111111111111111111111111111111111111111111111111111111111111111111111111111111111111111111111111111111111111111111100000000000000000000000000000000000000000000000000000000000000011111110000000001111111111
11111111111111111111111111111111111111111111111111111111111111111111111111111111111111111111111111111111111111111111111111111111111111111100000000000000000000000000000000000000000000000000000000000000011111111111111111111111111
11111111111111111111111111111111111111111111111111111111111111111111111111111111111111111111111111111111111111111111111111111111111111111100000000000000000000000000000000000000000000000000000000000000011111111111111111111111111
11111111111111111111111111111111111111111111111111111111111111111111111111111111111111111111111111111111111111111111111111111111111111111111111111111111111111111111111111111111111111111111111111111111111111111111111111111111111
11111111111111111111111111111111111111111111111111111111111111111111111111111111111111111111111111111111111111111111111111111111111111111111111111111111111111111111111111111111111111111111111111111111111111111111111111111111111
11111111111111111111111111111111111111111111111111111111111111111111111111111111111111111111111111111111111111111111111111111111111111111111111111111111111111111111111111111111111111111111111111111111111111111111111111111111111
11111111111111111111111111111111111111111111111111111111111111111111111111111111111111111111111111111111111111111111111111111111111111111111111111111111111111111111111111111111111111111111111111111111111111111111111111111111111
11111111111111111111111111111111111111111111111111111111111111111111111111111111111111111111111111111111111111111111111111111111111111111111111111111111111111111111111111111111111111111111111111111111111111111111111111111111111
11111111111111111111111111111111111111111111111111111111111111111111111111111111111111111111111111111111111111111111111111111111111111111111111111111111111111111111111111111111111111111111111111111111111111111111111111111111111
11111111111111111111111111111111111111111111111111111111111111111111111111111111111111111111111111111111111111111111111111111111111111111111111111111111111111111111111111111111111111111111111111111111111111111111111111111111111
11111111111111111111111111111111111111111111111111111111111111111111111111111111111111111111111111111111111111111111111111111111111111111111111111111111111111111111111111111111111111111111111111111111111111111111111111111111111
