11111111111111111111111111111111111111111111111111111111111111111111111111111111111111111111111111111111111111111111111111111111111111111111111111111111111111111111111111111111111111111111111111111111111111111111111111111111111
11111111111111111111111111111111111111111111111111111111111111111111111111111111111111111111111111111111111111111111111111111111111111111111111111111111111111111111111111111111111111111111111111111111111111111111111111111111111
11111111111111111111111111111111111111111111111111111111111111111111111111111111111111111111111111111111111111111111111111111111111111111111111111111111111111111111111111111111111111111111111111111111111111111111111111111111111
11111111111111111111111111111111111111111111111111111111111111111111111111111111111111111111111111111111111111111111111111111111111111111111111100000000000000000000000000000000000000000000000000111111111111111111111111111111111
11111111111111111111111111111111111111111111111111111111111111111111111111111111111111111111111111111111111111111111111111111111111111111111111100000000000000000000000000000000000000000000000000111111111000000000000000000001111
11111111111111111111111111111111111111111111111111111111111111111111111111111111111111111111111111111111111111111111111111111111111111111111111100000000000000000000000000000000000000000000000000111111111000000000000000000001111
11111111111111111111111111111111111111111111111111111111111111111111111111111111111111111111111111111111111111111111111111111111111111111111111100000000000000000000000000000000000000000000000000111111111000000000000000000001111
11111111111111111111111111111111111111111111111111111111111111111111111111111111111111111111111111111111111111111111111111111111111111111111111100000000000000000000000000000000000000000000000000111111111000000000000000000001111
11111111111111111111111111111111111111111111111111111111111111111111111111111111111111111111111111111111111111111111111111111111111111111111111100000000000000000000000000000000000000000000000000111111111000000000000000000001111
11111111111111111111111111111111111111111111111111111111111111111111111111111111111111111111111111111111111111111111111111111111111111111111111100000000000000000000000000000000000000000000000000111111111000000000000000000001111
11111111111111111111111111111111111111111111111111111111111111111111111111111111111111111111111111111111111111111111111111111111111111111111111100000000000000000000000000000000000000000000000000111111111000000000000000000001111
11111111111111111111111111111111111111111111111111111111111111111111111111111111111111111111111111111111111111111111100000000000000011111111111111111111111110000000000000000000111111111111111111111111111000000000000000000001111
11111111111111111111111111111111111111111111111111111111111111111111111111111111111111111111111111111111111111111111110000000000000001111111111111111111111110000000000000000000111111111111111111111111111000000000000000000001111
11111111111111111111111111111111111111111111111111111111111111111111111111111111111111111111111111111111111111111111111000000000000000000000000111111111111110000001111110000000111111111111111111111111111000000000000000000001111
11111111111111111111111111111111111111111111111111111111111111111111111111111111111111111111111111111111111111111111111100000000000000000000000111111111111110000001111110000000111111111111111111111111111000000000000000000001111
11111111111111111111111111111111111111111111111111111111111111111111111111111111111111111111111111111111111111111111111110000000000000000000000111111111111110000001111110000000111111111111111111111111111000000000000000000001111
11111111111111111111111111111111111111111111111111111111111111111111111111111111111111111111111111111111111111111111111111110000000000000000000111111111111110000001111110000000111111111111111111111111111000000000000000000001111
11111111111111111111111111111111111111111111111111111111111111111111111111111111111111111111111111111111111111111111111111110000000000000000000111111111111110000001111110000000111111111111111111111111111000000000000000000001111
11111111111111111111111111111111111111111111111111111111111111111000000000001111111111111111111111111111111111111111111111111111111111111100000111111111111110000000011110000000111111111111111111111111111000000000000000000001111
11111111111111111111111111111111111111111111111111111111111111111000000000001111000000000000000000000000000001111111111111111111111111111100000111111111111110000000011110000000111111111111111111111111111000000000000000000001111
11111111111111111111111111111111111111111111111111111111111111111000000000001111000000000000000000000000000001111111111111111111111111111100000111111111111110000000011110000000111111111111111111111111111000000000000000000001111
11111111111111111111111111111111111111111111111111111111111111111000000000001111000000000000000000000000000001111111111111111111111111111100000111111111111110000000011110000000111111111111111111111111111000000000000000000001111
11111111111111111111111111111111111111111111111111111111111111111000000000001111000000000000000000000000000001111111111111111111111111111100000000000000000000000000000000000000111111111111111111111111111000000000000000000001111
11111111111111111111111111111111111111111111111111111111111111111000000000001111000000000000000000000000000001111111111111111111111111111100000000000000000000000000000000000000111111111111111111111111111000000000000000000001111
11111111111111111111111111111111111111111111111111111111111111111000000000001111000000000000000000000000000001111111111111111111111111111100000000000000000000000000000000000000111111111111111111111111111000000000000000000001111
11111111111111111111111111111111111111111111111111111111111111111000000000001111000000000000000000000000000001111111111111111111111111111100000000000000000000000000000000000000111111111111111111111111111000000000000000000001111
11111111111111111111111111111111111111111111111111111111111111111000000000001111000000000000000000000000000001111111111111111111111111111100000000000000000000000000000000111111111111111111111111111111111000000000000000000001111
11111111111111111111111111111111111111111111111111111111111111111000000000001111000000000000000000000000000001111111111111111111111111000000000000000000000000000000000000111111111111111111111111111111111000000000000000000001111
11111111111111111111111111111111111111111111111111111111111111111000000000001111000000000000000000000000000001111111111111111111111111100000000000000000000000000000000000111111111111111111111111111111111000000000000000000001111
11111111111111111111111111111110000000000000000000000000000000000000000000001111000000000000000000000000000001111111111111111111111111100000000000000000000000000000000000111111111111111111111111111111111000000000000000000001111
11111111111111111111111111111110000000000000000000000000000000000000000000001111000000000000000000000000000001111111111111111111111111000000000000000000000000000000000000111111111111111111111111111111111000000000000000000001111
11111111111111111111111000000000000000000000000000000000000000000000000000001111000000000000000000000000000001111111111111111111111110000000000000000000000000000000000000111111111111111111111111111100000000000000000000000001111
11111111111111111111111000000000000000000000000000000000000000000000000000001111000000000000000000000000000001111111111111111111111100000000000000000000000000000000000000111111111111111111111111111100000000000000000000000001111
11111111111111111111111000000000000000000000000000000000000000000000000000001111000000000000000000000000000001111111111111111111111000000000000000000000000000000001111111111111111111111111111111111100000000000000000000000001111
11111111111111111111111000000000000000000000000000000000000000000000000000001111000000000000000000000000000001111111111111111111110000000000000000000000000000000001111111111111111111111111111111111100000000000000000000001111111
11111111111111111111111000000000000000000000000000000000000000000000000000001111000000000000000000000000000001111111111111111111100000000000000000000000000000000001111111111111111111111111111111111100000000000000000000001111111
11111111111111111111111000000000000000001111111111111111111111111000000000001111000000000000000000000000000001111111111111111111000000000000000000000000000000000001111111111111111111111111111111111100000000000000000000001111111
11111111111111111111111000000000000000001111111111111111111111111000000000001111000000000000000000000000000001111111111111111110000000000000000000000000000000000001111111111111111111111111111111111100000000000000000000001111111
11111111111111111111111000000000000000001111111111111111111111111000000000001111000000000000000000000000000001111111111111111100000000000000000000000000000010000001111111111111111111111111111111111100000000000000000000001111111
11111111111111111111111000000000000000001111111111111111111111111000000000001111000000000000000000000000000001111111111111111000000000000000000000000000000110000001111111111111111111111111111111111100000000000000000000001111111
11111111111111111111111000000000000000001111111111111111111111111111111111111111000000000000000000000000000001111111111111110000000000000000000000000000000010000001111111111111111111111111111111111100000000000000000000001111111
11111111111111111111111000000000000000001111111111111111111111111111111111111111000000000000000000000000000001111111111111100000000000000000000000000000000000000001111111111111111111111111111111111100000000000000000000001111111
11111111111111111111111000000000000000001111111111111111111111111111111111111111000000000000000000000000000001111111111111000000000000000000000000000000000000000001111111111111111111111111111111111100000000000000000000001111111
11111111111111111111111000000000000000001111111111111111111111111111111111111100000000000000000000000000000000000000000000000000000000000000000000000000000000000000000000000000001111111111111111111100000000000000000000001111111
11111111111111111111111000000000000000001111111111111111111111111111111111111100000000000000000000000000000000000000000000000000000000000000000000000000000000000000000000000000000111111111111111111100000000000000000000001111111
11111111111111111111111000000000000000001111111111111111111111111111111111111100000000000000000000000000000000000000000000000000000000000000000000000000000000000000000000000000000011111111111111111100000000000000000000001111111
11111111111111111111111000000000000000001111111111111111111111111111111111111100000000000000000000000000000000000000000000000000000000000000000000000000000000000000000000000000000001111111111111111100000000000000000000001111111
11111111111111111111111000000000000000001111111111111111111111111111111111111100000000000000000000000000000000000000000000000000000000000000000000000000000000000000000000000000000000111111111111111100000000000000000000001111111
11111111111111111111111000000000000000001111111111111111111111111111111111111100000000000000000000000000000001111111000000000000000000000000000000000000000000000000000000000000000000011111111111111100000000000000000000001111111
11111111111111111111111000000000000000001111111111111111111111111111111111111100000000000000000000000000000001111110000000000000000000000000000000000000000000000000000000000000000000000000000000000000000000000000000000001111111
11111111111111111111111000000000000000001111111111111111111111111111111111111100000000000000000000000000000001111100000000000000000000000000000000000000000000000000000000000000000000000000000000000000000000000000000000001111111
11111111111111111111111000000000000000001111111111111111111111111111111111111100000000000000000000000000000001111000000000000000000000000000000000000000000000000000000000000000000000000000000000000000000000000000000000001111111
11111111111111111111111000000000000000001111111111111111111111111111111111111100000000000000000000000000000001110000000000000000000000000000000000000000000000000000000000000000000000000000000000000000000000000000000000001111111
11111111111111111111111000000000000000001111111111111111000000000000000000000000000000000000000000000000000001100000000000000000000000000000000000000000000000000000000000000000000000000000111111111100000000000000000000001111111
11111111111111111111111000000000000000001111111111111111000000000000000000000000000000000000000000000000000001000000000000000000000000000000000000000000000000000000000000000000000000000000011111111100000000000000000000001111111
11111111111111111111111000000000000000001111111111111111000000000000000000000000000000000000000000000000000000000000000000000000000000000000000000000000000000000000000000000000000000000000001111111100000000000000000000001111111
11111111111111111111111000000000000000001111111111111111000000000000000000000000000000000000000000000000000000000000000000000000000000000000000000000000000000000000000000000000000000000000000111111100000000000000000000001111111
11111111111111111111111111111111111111111111111111111111000000000000000000000000000000000000000000000000000000000000000000000000000000000000000000000000000000000000000000000000000000000000000011111100000000000000000000001111111
11111111111111111111111111111111111111111111111111111111000000000000000000000000000000000000000000001111110000000000000000000000000000000000000000000000000000000000000000000000000000000000000001111100000000000000000000001111111
11111111111111111111111111111111111111111111111111111111000000000000000000000000000000000000000000001111100000000000000000000000000000000000000000000000000000000000000000000000000000000000000000111100000000000000000000001111111
11111111111111111111111111111111111111111111111111111111000000000000000000000000000000000000000000001111000000000000000000000000000000000000000000000000000000000000000000000000000000000000000000011100000000000000000000001111111
11111111111111111111111111111111111111111111111111111111000000000000000000000000000000000000000000001110000000000000000000000000000000000000000000000000000000000000000000000000000000000001111111111100000000000000000000001111111
11111111111111111111111111111111111111111111111111111111000000000000000000000000000000000000000000001100000000000000000000000000000000000000000000000000000000000000000000000000000000000001111111111100000000000000000000001111111
11111111111111111111111111111111111111111111111111111111000000000000000000000000000000000000000000001000000000000000000000000000000100000000000000000000000000000000000000000000000000000001111111111100000000000000000000001111111
11111111111111111111111111111111111111111111111111111111000000000000000000000000000000000000000000000000000000000000000000000000001110000000000000000000000000000000000000000000000000000001111111111100000000000000000000001111111
11111111111111111111111111111111111111111111111111111111000000000000000000000000000000000000000000000000000000000000000000000000011111000000000000000000000000000000000000000000000000000001111111111100000000000000000000001111111
11111111111111111111111111111111111111111111111111111111000000000000000000000000000000000000000000000000000000000000000000000000111111100000000000000000000000000000000000000000000000000001111111111100000000000000000000001111111
11111111111111111111111111111111111111111111111111111111000000000000000000000000000000000000000000001111111111111111111111111111111111110000000000000000000000000000000000000000000000000001111111111100000000000000000000001111111
11111111111111111111111111111111111111111111111111111111000000000000000000000000000000000000000000001111111111111111111111111111111111111000000000000000000000000000000000000000000000000001111111111111111111111111111111111111111
11111111111111111111111111111111111111111111111111111111000000000000000000000000000000000000000000001111111111111111111111111111111111111100000000000000000000000000000000000000000000000001111111111111111111111111111111111111111
11111111111111111111111111111111111111111111111111111111000000000000000000000000000000000000000000001111111111111111111111111111111111111110000000000000000000000000000000000000000000000001111111111111111111111111111111111111111
11111111111111111111111111111111111111111111111111111111000000000000000000000000000000000000000000001111111111111111111111111111111111111111000000000000000000000000000000000000000000000000111111111111111111111111111111111111111
11111111111111111111111111111111111111111111111111111111000000000000000000000000000000000000000000001111111111111111111111111111111111111111111111000000000000000000000000000000000000000001111111111111111111111111111111111111111
11111111111111111111111111111111111111111111111111111111000000000000000000000000000000000000000000001111111111111111111111111111111111111111111111000000000000000000000000000000000000000001111111111111111111111111111111111111111
11111111111111111111111111111111111111111111111111111111000000000000000000000000000000000000000000001111111111111111111111111111111111111111111111000000000000000000000000000000000000000001111111111111111111111111111111111111111
11111111111111111111111111111111111111111111111111111111000000000000000000000000000000000000000000001111111111111111111111111111111111111111111111000000000000000000000000000000000000000001111111111111111111111111111111111111111
11111111111111111111111111111111111111110000000000000000000000000000000000000000000000000000000000001111111111111111111111111111111111111111111111000000000000000000000000000000000000000001111111111111111111111111111111111111111
11111111111111111111111111111111111111100000000000000000000000000000000000000000000000000000000000001111111111111111111111111111111111111111111111000000000000000000000000000000000000000001111111111111111111111111111111111111111
11111111111111111111111111111111111111000000000000000000000000000000000000000000000000000000000000001111111111111111111111111111111111111111111111000000000000000000000000000000000000000001111111111111111111111111111111111111111
11111111111111111111111111111111111110000000000000000000000000000000000000000000000000000000000000001111111111111111111111111111111111111111111111000000000000000000000000000000000000000001111111111111111111111111111111111111111
11111111111111111111111111111111111100000000000000000000000000000000000000000000000000000000000000001111111111111111111111111111111111111111111111000000000000000000000000000000000000000001111111111111111111111111111111111111111
11111111111111111111111111111111111000000000000000000000111111111111110000000000000111111111111111111111111111111111111111111111111111111111111111000000000000000000000000000000000000000001111111111111111111111111111111111111111
11111111111111111111111111111111110000000000000000000001111111111111110000000000000111111111111111111111111111111111111111111111111111111111111111000000000000000000000000000000000000000000000111111111111111111111111111111111111
11111111111111111111111111111111100000000000000000000011111111111111110000000000000111111111111111111111111111111111111111111111111111111111111111000000000000000000000000000000000000000000000111111111111111111111111111111111111
11111100000011111111111111111111000000000000000000000111111111111111110000000000000111111111111111111111111111111111111111111111111111111111111111000000000000000000000000000000000000000000000111111111111111111111111111111111111
11111100000011111111111111111110000000000000000000001111111111111111110000000000000111111111111111111111111111111111111111111111111111111111111111000000000000000000000000000000000000000000000111111111111111111111111111111111111
11111100000011111111111111111100000000000000000000011111111111111111110000000000000111111111111111111111111111111111111111111111111111111111111111000000000000000000000000000000000000000000000111111111111111111111111111111111111
11111100000011111111111111111000000000000000000000111111111111111111110000000000000111111111111111111111111111111111111111111111111111111111111111000000000000000000000000000000000000000000000111111111111111111111111111111111111
11111100000011111111111111110000000000000000000001111111111111111111110000000000000111111111111111111111111111111111111111111111111111111111111111000000000000000000000000000000000000000000000111111111111111111111111111111111111
11111100000011111111111111100000000000000000000011111111111111111111110000000000000111111111111111111111111111111111111111111111111111111111111111000000000000000000000000000000000000000000000111111111111111111111111111111111111
11111100000011111111111111000000000000000000000111111111111111111111110000000000000111111111111111111111111111111111111111111111111111111111111111000000000000000000000000000000000000000000000111111111111111111111111111111111111
11111100000011111111111110000000000000000000001111111111111111111111110000000000000111111111111111111111111111111111111111111111111111111111111111000000000000000000000000000000000000000000000111111111111111100000000000011111111
11111100000011111111111100000000000000000000011111111111111111111111110000000000000111111111111111111111111111111111111111111111111111111111111111000000000000000000000000000000000000000000000111111111111111100000000000011111111
11111100000011111111111000000000000000000000111111000000111111111111110000000000000111111111111111111111111111111111111111111111111111111111111111000000000000000000000000000000000000000000000111111111111111100000000000011111111
11111100000011111111110000000000000000000001111111000000111111111111110000000000000111111111111111111111111111111111111111111111111111111111111111000000000000000000000000000000000000000000000111111111111111100000000000011111111
11111100000011111111100000000000000000000011111111000000111111111111110000000000000111111111111111111111111111111111111111111111111111111111111111000000000000000000000000000000000000000000000111111111111111100000000000011111111
11111100000011111111000000000000000000000111111111000000111111111111110000000000000111111111111111111111111111111111111111111111111111111111111111000000000000000000000000000000000000000000000111111111111111100000000000011111111
11111100000011111110000000000000000000001111111111000000111111111111110000000000000111111111111111111111111111111111111111111111111111111111111111000000000000000000000000000000000000000000000000000111111111100000000000011111111
11111100000011111100000000000000000000011111111111000000111111111111110000000000000111111111111111111111111111111111111111111111111111111111111111000000000000000000000000000000000000000000000000001111111111100000000000011111111
11111100000011111000000000000000000000111110000000000000000000000000010000000000000111111111111111111111111111111111111111111111111111111111111111000000000000000000000000000000000000000000000000011111111111100000000000011111111
11111100000011110000000000000000000001111111000000000000000000000000000000000000000111111111111111111111111111111111111111111111111111111111111111000000000000000000000000000000000000000000000000111111111111100000000000011111111
11111100000011100000000000000000000011111111100000000000000000000000000000000000000111111111111111111111111111111111111111111111111111111111111111000000000000000000000000000000000000000000000000000000000000000000000000011111111
11111100000011000000000000000000000111111111110000000000000000000000000011111111111111111111111111111111111111111111111111111111111111111111111111000000000000000000000000000000000000000000000000000000000000000000000000011111111
11111100000010000000000000000000001111111111111000000000000000000000000001111111111111111111111111111111111111111111111111111111111111111111111111000000000000000000000000000000000000000000000000000000000000000000000000011111111
11111100000000000000000000000000011111111111111100000000000000000000000000111111111111111111111111111111111111111111111111111111111111111111111111000000000000000000000000000000000000000000000000000000000000000000000000011111111
11111100000000000000000000000000111111111111111110000000000000000000000000011111111111111111111111111111111111111111111111111111111111111111111111000000000000000000000000000000000000000001111111111111111111100000000000011111111
11111100000000000000000000000001111111111111111111000000000000000000000000001111111111111111111111111111111111111111111111111111111111111111111111000000000000000000000000000000000000000001111111111111111111100000000000011111111
11111100000000000000000000000000000000000000000111000000000000000000000000000111111111111111111111111111111111111111111111111111111111111111111111000000111111111111111111111111111111111111111111111111111111100000000000011111111
11111100000000000000000000000000000000000000000000000000000000000000000000000011111111111111111111111111111111111111111111111111111111111111111111000000111111111111111111111111111111111111111111111111111111100000000000011111111
11111100000000000000000000000000000000000000000001000000000000000000000000000001111111111111111111111111111111111111111111111100000000000000000000000000000000000000000000000001111111111111111111111111111111100000000000011111111
11111100000000000000000000000000000000000000000011000000000000000000000000000000000000000000000000000000001111111111111111111110000000000000000000000000000000000000000000000000111111111111111111111111111111100000000000011111111
11111100000000000000000000000000000000000000000111000000000000000000000000000000000000000000000000000000001111111111111111111111000000000000000000000000000000000000000000000000011111111111111111111111111111111111111111111111111
11111100000000000111111111111111000000000000000111000000000000000000000000000000000000000000000000000000001111111111111111111111100000000000000000000000000000000000000000000000001111111111111111111111111111111111111111111111111
11111100000000000000000000000000000000000000000111000000100000000000000000000000000000000000000000000000001111111111111111111111110000000000000000000000000000000000000000000000000111111111111111111111111111111111111111111111111
11111100000000000000000000000000000000000000000111000000110000000000000000000000000000000000000000000000001111111111111111111111111000000000000000000000000000000000000000000000000011111111111111111111111111111111111111111111111
11111100000000000000000000000000000000000000000111000000110000000000000000000000000000000000000000000000001111111111111111111111111100000000000000000000000000000000000000000000000001111111111111111111111111111111111111111111111
11111100000000000000000000000000000000000000000111000000110000000000000000000000000000000000000000000000001111111111111111111111111110000000000000000000000000000000000000000000000000111111111111111111111111111111111111111111111
11111100000000000000000000000000000000000000000111000000110000000000000000000000000000000000000000000000001111111111111111111111111111000000000000000000000000000000000000000000000000011111111111111111111111111111111111111111111
11111100000000000000000000000000000000000000000111000000110000000000000000000000000000000000000000000000001111111111111111111111111111100000000000000000000000000000000000000000000000000000000000000000000001111111111111111111111
11111100000000000000000000000000000000000000000111000000110000000000000000000000000000000000000000000000000000000000000000000000000000000000000000000000000000000000000000000000000000000000000000000000000001111111111111111111111
11111100000000000000000000000000000000000000000111000000110000000000000000000000000000000010000001100000000000000000000000000000000000000000000000000000000000000000000000000000000000000000000000000000000001111111111111111111111
11111100000000000000000000000000000000000000000111000000110000000000000000000000000000000000000001100000000000000000000000000000000000000000000000000000000000000000000000000000000000000000000000000000000001111111111111111111111
11111100000000000000000000000000000000000000000111000000110000000000000000000000000000000000000001100000000000000000000000000000000000000000000000000000000000000000000000000000000000000000000000000000000001111111111111111111111
11111100000000000000000000000000000000000000000111000000110000000000000000000000000000000000000001111111111111111110000000000000111111111111000000000000000000000000000000000000000000000000000000000000000001111111111111111111111
11111100000000000000000000000000000000000000000000000000000000000000000000000000000000000000000001111111111110000000000000000000111111111111100000000000000000000000000000000000000000000000000000000000000001111111111111111111111
11111100000000000000000000000000000000000000000000000000000000000000000000000000000000000000000111111111111111000000000000000000111111111111110000000000000000000000000000000000000000000000000000000000000001111111111111111111111
11111100000000000000000000000000000000000000000000000000000000000000000000000000000000000000000011111111111111100000000000000000111111111111111000000000000000000000000000000000000000000000000000000000000001111111111111111111111
11111100000000000000000000000000000000000000000000000000000000000000000000000000000000000000000001111111111111110000000000000000111111111111111100000000000000000000000000000000000000000000000000000000000001111111111111111111111
11111100000000000000000000000000000000000000000000000000000000000000000000000000000000000000000000111111111111111000000000000000111111111111111110000000000000000000000000000000000000000000000000000000000001111111111111111111111
11111100000000000000000000000000000000000000000000000000000000000000000000000000000000000000000000011111111111111100000000000000111111111111111111000000000000000000000000000000000000000000000000000000000001111111111111111111111
11111111100000000000000000000000000000000000000111000000010000000000000000000000000000000000000000001111111111111110000000000000111111111111111111000000000000000000000000000000000000000000000000000000000001111111111111111111111
11111111100000000000000000000000000000000000000000000000000000000000000000000000000000000000000000000111111111111110000000000000111111111111111111000000000000000000000000000000000000000000000000000000000001111111111111111111111
11111111100000000000000000000000000000000000000000000000000000000000000000110000000000000000000000000011111111111110000000000000011111111111111111000000000000000000000000000000000000000000000000000000000001111111111111111111111
11111111100000000000000000000000000000000000000000000000000000000000000000111000000000000000000000000001111111111110000000000000001111111111111111000000000000000000000000000000000000000000000000000000000001111111111111111111111
11111110000000000000000000000000000000000000000000000000000000000000000000111100000000000000000000000000111111111110000000000000000111111111111111000000000000000000000000000000000000000000000000000000000001111111111111111111111
11111100000000000000000000000000000000000000000000000000000000000000000000111110000000000000000000000000011111111110000000000000000011111111111111000000000000000000000000000000000000000000000000000000000001111111111111111111111
11111000000000000000000000000000000000000000000000000000000000000000000000111111000000000000000000000000001111111110000000000000000001111111111111000000100000000000000000000000000000000000000000000000000001111111111111111111111
11110000000000000000000000000000000000000000000000000000000000000000000000111111100000000000000000000000000111111111111100000000000000111111111111000000110000000000000000000000000000000000000000000000000001111111111111111111111
11100000000000000000000000000000000000000000000000000000000000000000000000111111110000000000000000000000000011111111111100000000000000011111111111000000111000000000000000000000000000000000000000000000000001111111111111111111111
11000000000000000001111111100000000000000000000000000000000000000011111111111111111000000000000000000000000001111111111100000000000000001111111111000000111100000000000000000000000000000000000000000000000001111111111111111111111
10000000100000000111111111100000000000000000000000000000000000000011111111111111111100000000000000000000000000111111111100000000000000000111111111000000111110000000000000000000000000000000000000000000000000111111111111111111111
00000001100000000111111111100000000000000000000000000000000000000011111100000000000110000000000000000000000000011111111100000000000000000011111111000000111111000000000000000000000000000000000000000000000000011111111111111111111
00000011100000000111111111100000000000000000000000000000000000000011111100000000000111000000000000000000000000001111111100000000000000000000000000000000000000000000000000000000000000000000000000000000000000001111111111111111111
00000111100000000111111111100000000000000000000000000000000000000011111100000000000111100000000000000000000000000111111100000000000000000000000000000000000000000000000000000000000000000000000000000000000001111111111111111111111
00001111100000000111111111100000000000000000000000000000000000000011111100000000000111110000000000000000000000000011111100000000000000000000000000000000000000000000000000000000000000000000000000000000000011111111111111111111111
00011111100000000111111111100000000000000000000000000000000000000011111100000000000111111000000000000000000000000001111100000000000000000000000000000000000000000000000000000000000000000000000000000000000011111111111111111111111
00111111100000000111111111100000000000000000000000000000000000000011111100000000000111111100000000000000000000000000111100000000000000000000000000000000000000000000000000000000000000000000000000000000000011111111111111111111111
01111111100000000111111111100000000000000000000000000000000000000011111100000000000111111110000000000000000000000000011100000000000000000000000000000000000000000000000000000000000000000000000000000000000011111111111111111111111
01111111100000000111111111100000000000000000000000000000000000000011111100000000000111111111000000000000000000000000001100000000000000000000000000000000000000000000000000000000000000000000000000000000000011111111111111111111111
01111111100000000111111111100000000000000000000000000000000000000000000000000000000111111111111111111111111111111111111111111111111111111111111111000000000000000000000000000000000011111111000000000000000011111111111111111111111
01111111100000000111111111100000000000000000000000000000000000000000000000000000000111111111111111111111111111111111111111111111111111111111111111111111111111111111000000000000000001111111100000000000000011111111111111111111111
01111111100000000111111111100000000000000000000000000000000000000000000000000000000111111111111111111111111111111111111111111111111111111111111111111111111111111111000000000000000000111111110000000000000011111111111111111111111
01111111100000000111111111100000000000000000000000000000000000000000000000000000000111111111111111111111111111111111111111111111111111111111111111111111111111111111000000000000000000011111111000000000000001111111111111111111111
01111111100000000111111111100000000000000000000000000000000000000011111100000000000111111111111111111111111111111111111111111111111111111111111111111111111111111111000000000000000000001111111100000000000000111111111111111111111
01111111100000000111111111100000000000000000000000000000000000000011111100000000000111111111111111111111111111111111111111111111111111111111111111111111111111111111000000001000000000000111111110000000000000011111111111111111111
01111111100000000111111111100000000000000000000000000000000000000011111100000000000111111111111111111111111111111111111111111111111111111111111111111111111111111111000000001100000000000011111111000000000000001111111111111111111
01111111100000000111111111111110000000000000000000000000000000111111111100000000000111111111111111111111111111111111111111111111111111111111111111111111111111111111000000001110000000000001111111100000000000000111111111111111111
01111111100000000111111111111111000000000000000000000000000000011111111100000000000111111111111111111111111111111111111111111111111111111111111111000000000000000000000000000000000000000000000000010000000000000011111111111111111
01111111100000000111111111111111100000000000000000000000000000001111111111111100000000000000000000000000000000000000000111111111111111111111111111000000000000000000000000000000000000000000000000011000000000000001111111111111111
01111111100000000111111111111111110000000000000000000000000000000111111111111000000000000000000000000000000000000000001111111111111111111111111111000000000000000000000000000000000000000000000000011000000000000000111111111111111
01111111100000000111111111111111111000000000000000000000000000000011111111110000000000000000000000000000000000000000011111111111111111111111111111000000000000000000000000000000000000000000000000011000000000000000011111111111111
01111111100000000111111111111111111100000000000000000000000000000001111111100000000000000000000000000000000000000000011111111111111111111111111111000000000000000000000000000000000000000000000000011000000000000000001111111111111
11111111100000000111111111111111111110000000000000000000000000000000111111000000000000000000000000000000000000000000011111111111111111111111111111000000000000000000000000000000000000000000000000011000000000000000000111111111111
11111111100000000000000000000000000000000000000000000000000000000000011110000000000000000000000000000000000000000000000000111111111111111111111111000000000000000000000000000000000000000000000000011000000000000000000011111111111
11111111100000000000000000000000000000000000000000000000000000000000001100000000000000000000000000000000000000000000000000111111111111111111111111000000000000000000000000000000000000000000000000011000000000000000000001111111111
11111111100000000000000000000000000000000000000000000000000000000000000000000000000000000000000000000000000000000000000000111111111111111111111111000000000000000000000000000000000000000000000000001000000000000000000000111111111
11111111100000000000000000000000000000000000000000000000000000000000000000000000000000000000000000000000000000000000000000111111111111111111111111000000000000000000000000000000000000000000000000000000000011111111111111111111111
11111111100000000000000000000000000000000000000000000000000000000000000000000000000000000000000000000000000000000000000000111111111111111111111111000000000000000000000000000000000000000000000000000000000011111111111111111111111
11111111100000000111111111111111000000011110000000000000000000000000000000000000000000000000000000000000000000000000000000111111111111111111111111000000000000000000000000000000000000000000000000000000000011111111111111111111111
11111111100000000111111111111111000000011111000000000000000000000000000000000000000000000000000000000000000000000000000000111111111111111111111111000000000000000000000000000000000000000000000000000000000011111111111111111111111
11111111100000000111111111111111000000011111100000000000000000000000000000000000000000000000000000000000000000000000000000111111111111111111111111000000000000000000000000000000000000000000000000000000000011111111111111111111111
11111111100000000111111111111111000000011111110000000000000000000000000000000000000000000000000000000000000000000000000000111111111111111111111111000000000000000000000000000000000000000000000000000000000011111111111111111111111
11111111100000000111111111111111000000011111111000000000000000000000000000000000000000000000000000000000000000000000000000111111111111111111111111000000000000000000000000000000000000000000000000000000000011111111111111111111111
11111111100000000000000000000000000000000000000000000000000000000000000000000000000000000000000000000000000000000000000000111111111000000000000000000000000000000000000000000000000000000000000000000000000011111111111111111111111
11111111100000000000000000000000000000000000000000000000000000000000000000000000000000000000000000000000000000000000000000111111110000000000000000000000000000000000000000000000000000000000000000000000000001111111111111111111111
11111111100000000000000000000000000000000000000000000000000000000000000000000000000000000000000000000000000000000000000000111111100000000000000000000000000000000000000000000000000000000000000000000000000000111111111111111111111
11111111100000000000000000000000000000000000000000000000000000000000000000000000000000000000000000000000000000000000000000111111000000000000000000000000000000000000000000000000000000000000000000000000000000011111111111111111111
11111111100000000000000000000000000000000000000000000000000000000000000000000000000000000000000000000000000000000000000000111110000000000000000000000000000000000000000000000000000000000000000000010000000000001111111111111111111
11111111100000000000000000000000000000000000000000000000000000000000000000000000000000000000000000000000000000000000000000111100000000000000000000000000000000000000000000000000000000000000000000000000000000000000001111111111111
11111111100000000000000000000000000000000000000000000000000000000000000000000000000000000000000000000000000000000000000000111000000000000000000000000000000000000000000000000000000000000000000000000000000000000000001111111111111
11111111100000000000000000000000000000000000000000000000000000000000000000000000000000000000000000000000000000000000000000110000000000000000000000000000000000000000000000000000000000000000000000000000000000000000001111111111111
11111111100000000000000000000000000000000000000000000000000000000000000000000000000000000000000000000000000000000000000000100000000000000000000000000000000000000000000000000000000000000000000000000000000000000000001111111111111
11111111100000000000000000000000000000000000000000000000100000000000000000000000000000000000000000000000000000000000000000000000000000000000000000000000000000000000000000000000000000000000000000000000000000000000001111111111111
11111111100000000000000000000000000000000000000000000000110000000000000000000000000000000000000000000000000000000000000000000000000000000000000000000000000000000000000000000000000000000000000000000000000000000000001111111111111
11111111100000000000000000000000000000000000000000000000111000000000000000000000000000000000000000000000000000000000000000000000000000000000000000000000000000000000000000000000000000000000000000000000000000000000001111111111111
11111111100000000000000000000000000000000000000000000000111100000000000000000000000000000000000000000000000000000000000000000000000000000000000000000000000000000000000000000000000000000000000000000000000000000000001111111111111
11111111100000000000000000000000000000000000000000000000111110000000000000000000000000000000000000000000000000000000000000000000000000000000000000000000000000000000000000000000000000000000000000000000000000000000001111111111111
11111111100000000000000000000000000000000000000000000000111110000000000000000000000000000000000000000000000000000000000000000000000000000000000000000000000000000000000000000000000000000000000000000000000000000000001111111111111
11111111100000000000000000000000000000000000000000000000111110000000000000000000000000000000000000000000000000000000000000000000000000000000000000000000000000000000000000000000000000000000000000000000000000000000001111111111111
11111111100000000000000000000000000000000000000000000000111110000000000000000000000000000000000000000000000000000000000000000000000000000000000000000000000000000000000000000000000000000000000000000000000000000000001111111111111
11111111100000000000000000000000000000000000000000000000111110000000000000000000000000000000000000000000000000000000000000000000000000000000000000000000000000000000000000000000000000000000000000000000000000000000001111111111111
11111111100000000000000000000000000000000000000000000000111110000000000000000000000000000000000000000000000000000000000000000000000000000000000000000000000000000000000000000000000000000000000000000000000000000000001111111111111
11111111100000000000000000000000000000000000000000000000111110000000000000000000000000000000000000000000000000000000000000000000000000000000000000000000000000000000000000000000000000000000000000000000000000000000001111111111111
11111111100000000000000000000000000000000000000000000000111110000000000000000000000000000000000000000000000000000000000000000000000000000000000000000000000000000000000000000000000000000000000000000000000000000000001111111111111
11111111100000000000000000000000000000000000000000000000000000000000000000000000000000000000000000000000000000000000000000000000000000000000000000000000000000000000000000000000000000000000000000000000000000000000001111111111111
11111111100000000000000000000000000000000000000000000000000000000000000000000000000000000000000000000000000000000000000000000000000000000000000000000000000000000000000000000000000000000000000000000000000000000000001111111111111
11111111100000000000000000000000000000000000000000000000000000000000000000000000000000000000000000000000000000000000000000000000000000000000000000000000000000000000000000000000000000000000000000000000000000000000001111111111111
11111111100000000000000000000000000000000000000000000000000000000000000000000000000000000000000000000000000000000000000000000000000000000000000000000000000000000000000000000000000000000000000000000000000000000000001111111111111
11111111100000000000000000000000000000000000000000000000000000000000000000000000000000000000000000000000000000000000000000000000000000000000000000000000000000000000000000000000000000000000000000000000000000000000001111111111111
11111111100000000000000000000000000000000000000000000000000000000000000000000000000000000000000000000000000000000000000000000000000000000000000000000000000000000000000000000000000000000000000000000000000000000000001111111111111
11111111100000000000000000000000000000000000000000000000000000000000000000000000000000000000000000000000000000000000000000000000000000000000000000000000000000000000000000000000000000000000000000000000000000000000001111111111111
11110000000000000000000000000000000000000000000000000000000000000000000000000000000000000000000000000000000000000000000000000000000000000000000001000000000000000000000000000000000000000000000000000000000000000000001111111111111
11111000000000000000000000000000000000000000000000000000000000000000000000000000000000000000000000000000000000000000000000000000000000000000000011000000000000000000000000000000000000000000000000000000000000000000001111111111111
11111100000000000000000000000000000000000000000000000000000000000000000000000000000000000000000000000000000000000000000000000000000000000000000111111111111111111111000000001111111110000000000000000000000000000000001111111111111
11111110000000000000000000000000000000000000000000000000000000000000000000000000001111111111111111110000000000000000000000000000000000000000001111111111111111111111000000001111111110000000000000000000000000000000001111111111111
11111111000000000000000000000000000000000000000000000000000000000000000000000000001111111111111111100000000000000000000000000000000000000000011111111111111111111111000000001111111110000000000000000000000000000000001111111111111
11111111100000000000000000000000000000000000000000000000000000000000000000000000001111111111111111000000000000000000000000000000000000000000111111111111111111111111000000001111111110000000000000000000000000000000001111111111111
11111111100000000000000000000000000000000000000000000000000000000000000000000000000000000000000000000000000000000000000000000000000000000000000000000000000000000000000000001111111110000000000000000000000000000000001111111111111
11111111100000000000000000000000000000000000000000000000000000000000000000000000000000000000000000000000000000000000000000000000000000000000000000000000000000000000011111111111111110000000000000000000000000000000001111111111111
11111111100000000000000000000000000000000000000000000000000000000000000000000000000000000000000000000000000000000000000000000000000000000000000000000000000000000000011111111111111111111111111111111111111111111111111111111111111
11111111100000000000000000000000000000000000000000000000000000000000000000000000000000000000000000000000000000000000000000000000000000000000000000000000000000000000011111111111111111111111111111111111111111111111111111111111111
11111111100000000000000000000000000000000000000000000000000000000000000000000000000000000000000000000000000000000000000000000000000000000000000000000000000000000000011111111111111111111111111111111111111111111111111111111111111
11111111100000000000000000000000000000000000000000000000000000000000000000000000000000000000000000000000000000000000000000000000000000000000000000000000000000000000011111111111111111111111111111111111111111111111111111111111111
11111111100000000000000000000000000000000000000000000000000000000000000000000000000000000000000000000000000000000000000000000000000000000000000000000000000000000000011111111111111111111111111111111111111111111111111111111111111
11111111100000000000000000000000000000000000000000000000000000000000000000000000111111111111111111111111111111111111111111111111111111111111111111111111111111111111111111111111111111111111111111111111111111111111111111111111111
11111111111111000000000000000000000000000000000000000000000000000000000000000000111111111111111111111111111111111111111111111111111111111111111111111111111111111111111111111111111111111111111111111111111111111111111111111111111
11111111111111111111111111111111111111111111111111111111111111111111111111111111111111111111111111111111111111111111111111111111111111111111111111111111111111111111111111111111111111111111111111111111111111111111111111111111111
11111111111111111111111111111111111111111111111111111111111111111111111111111111111111111111111111111111111111111111111111111111111111111111111111111111111111111111111111111111111111111111111111111111111111111111111111111111111
11111111111111111111111111111111111111111111111111111111111111111111111111111111111111111111111111111111111111111111111111111111111111111111111111111111111111111111111111111111111111111111111111111111111111111111111111111111111
11111111111111111111111111111111111111111111111111111111111111111111111111111111111111111111111111111111111111111111111111111111111111111111111111111111111111111111111111111111111111111111111111111111111111111111111111111111111
11111111111111111111111111111111111111111111111111111111111111111111111111111111111111111111111111111111111111111111111111111111111111111111111111111111111111111111111111111111111111111111111111111111111111111111111111111111111
11111111111111111111111111111111111111111111111111111111111111111111111111111111111111111111111111111111111111111111111111111111111111111111111111111111111111111111111111111111111111111111111111111111111111111111111111111111111
11111111111111111111111111111111111111111111111111111111111111111111111111111111111111111111111111111111111111111111111111111111111111111111111111111111111111111111111111111111111111111111111111111111111111111111111111111111111
11111111111111111111111111111111111111111111111111111111111111111111111111111111111111111111111111111111111111111111111111111111111111111111111111111111111111111111111111111111111111111111111111111111111111111111111111111111111
11111111111111111111111111111111111111111111111111111111111111111111111111111111111111111111111111111111111111111111111111111111111111111111111111111111111111111111111111111111111111111111111111111111111111111111111111111111111
11111111111111111111111111111111111111111111111111111111111111111111111111111111111111111111111111111111111111111111111111111111111111111111111111111111111111111111111111111111111111111111111111111111111111111111111111111111111
11111111111111111111111111111111111111111111111111111111111111111111111111111111111111111111111111111111111111111111111111111111111111111111111111111111111111111111111111111111111111111111111111111111111111111111111111111111111
