111111111111111111111111111111111111111111111111111111111111111111111111111111111111111111111111111111111111111111111111111111111111111111111111111111111111111111111111111111111111111111111111111
111111111111111111111111111111111111111111111111111111111111111111111111111111111111111111111111111111111111111111111111111111111111111111111111111111111111111111111111111111111111111111111111111
111111111111111111111111111111111111111111111111111111111111111111111111111111000000000011110011111111111111111111111111111111111111111111111111111111111111111111111111111111111111111111111111111
111111111111111111111111111111111111111111111111111111111111111111111111001100000000000011110011111111111111111111111111111111111111111111111111111111111111111111111111111111111111111111111111111
111111111111111111111111111111111111111111111111111111111111111111111111000000000000000000000011111111111111111111111111111111111111111111111111111111111111111111111111111111111111111111111111111
111111111111111111111111111111111111111111111111111111111111111111111111111111111111110000000001111111111111111111111111111111111111111111111111111111111111111111111111111111111111111111111111111
111111111111111111111111111111111111111111111111111111111111111111111111111111111111110000000001111111111111111111111111111111111111111111111111111111111111111111111111111111111111111111111111111
111111111111111111111111111111111111111111111111111111111111111111111111111111111111110000000001111111111111111111111111111111111111111111111111111111111111111111111111111111111111111111111111111
111111111111111111111111111111111111111111111111111111111111111111111111111111111111110000000011111111111111111111111111111111111111111111111111111111111111111111111111111111111111111111111111111
111111111111111111111111111111111111111111111111111111111111011011111111111111111111110000000011111111111111111111111111111111111111111111111111111111111111111111111111111111111111111111111111111
111111111111111111111111111111111111111111111111111111111100000011111111111111111111110000011011111111111111111111111111111111111111111111111111111111111111111111111111111111111111111111111111111
111111111111111111111111111111111111111111111111111111110000000000000000000000000000000000011011111111111111111111111111111111111111111111111111111111111111111111111111111111111111111111111111111
111111111111111111111111111111111111111111111111111111000000000000000000000000000000000000011011111111111111111111111111111111111111111111111111111111111111111111111111111111111111111111111111111
111111111111111111111111111111111111111111111111111111000000000000000000000000000000000000000011111111111111111111111111111111111111111111111111111111111111111111111111111111111111111111111111111
111111111111111111111111111111111111111111111111111111000000000000000000001111100000000000000011111111111111111111111111111111111111111111111111111111111111111111111111111111111111111111111111111
111111111111111111111111111111111111111111111111111111100000001100000000001111111100000000000011111111111111111111111111111111111111111111111111111111111111111111111111111111111111111111111111111
111111111111111111111111111111111111111111111111111111100000111101100001101111110000000000000011111111111111111111111111111111111111111111111111111111111111111111111111111111111111111111111111111
111111111111111111111111111111111111111111111101111111000001111111100011111111110000000000000111111111111111111111111111111111111111111111111111111110111111111111111111111111111111111111111111111
111111111111111111111111111111111111111111110000111111110001111110000011111111100000000000000111111111111111111111111111111111111111111111111111111100001111111111111111111111111111111111111111111
111111111111111111111111111111111111111111100000001111111001111111000011011000000000000000000111111111111111111111111111111111111111111111111111110000000011111111111111111111111111111111111111111
111111111111111111111111111111111111111111000001111111111100111111000000000000000000000000000111111111111111111111111111111111111111111111111111100000000000111111111111111111111111111111111111111
111111111111111111111111111111111111111111000011111111111100011111100000000000000000000000000011111111111111111111111111111111111111111111111111100000000000011111111111111111111111111111111111111
111111111111111111111111111111111111100011000011110011111100011111110000000000000000000000000011111111111111111111111111111111111111111111111111000000000000000111111111111111111111111111111111111
111111111111111111111111111111111110000000000011110011111111001111110000000000000000000000000011111111111111111111111111111111111111111111111110000110000000000001111111111111111111111111111111111
111111111111111111111111111111111100000000000000000001111111001111111000000000000000000000000011111111111111111111111111111111111111111111111110000111100000000000011111111111111111111111111111111
111111111111111111111111111111111000000000000000000001111111100111111000000000000000000000000011111111111111111111111111111111111111111111111100011111100000000000011111111111111111111111111111111
111111111111111111111111111111110000000000000000000000111111100111111100000000000000000000000011111111111111111111111111111111111111111111111100011111100000000000001111111111111111111111111111111
111111111111111111111111111111110000000000011110000000111111000011111100000000000000000000000011111111111111111111111111111111111111111111111000011111100000000000001111111111111111111111111111111
111111111111111111111111111100110000000000011110000001111111100001111110000000000000000000000011111111111111111111111111111111111111111111111000011111100000000000001111111111111111111111111111111
111111111111111111111111111100000000000000011110000001111111111001111111000000000000000000000001111111111111111111111111111111111111111111110000000110000000000000001111111111111111111111111111111
111111111111111111111111111110000000000000011110000011111111111000111111000000000000000000000001111111111111111111111111111111111111111111100000000000000000000000001111111111111111111111111111111
111111111111111111111111110100000000000000000110000111111111111100111111100000000000000000000001111111111111111111111111111111111111111111100000000000000000000000011111111111111111111111111111111
111111111111111111111111100000000000000000000000111100000111111100011111100000000000000000000001111111111111111111111111111111111111111111000000000000000000000000111100001111111111111111111111111
111111111111111111111111000000000000001110000001111000000011111110011111110000000000001111001101111111111111111111111111111111111111111111000000000000000000000011111000000111111111111111111111111
111111111111111111111111110000000000111110000011110000000001111110001111110000000000001111111111111111111111111111111111111111111111111110000000000000000000000111110000000011111111111111111111111
111111111111111111111111110000000001111111111110000000000001111111000111111100000000001111111111111111111111111111111111111111111111111100001100000000000000000111000000000011111111111111111111111
111111111111111111111111110000000001111111111000000000000000111111100111111110000000011111111111111111111111111111111111111111111111111101111110000000000000001100000000110001111111111111111111111
111111111111111111111111110000000001111111111000011000000110111111100011111110000000111111111111111111111111111111111111111111111111111001111111000000000000011000000001110001111111111111111111111
111111111111111111111111000000000000011111110000011110000111111111110011111111100000111111111111111100111111111111111111111111111111111000111111000000000011110000000011111000111111111111111111111
111111111111111111111111000000000000111111100000111110001111111111110111111111110000111111100000000000000011111111111111111111111111110001111111000000000111110000001011111100011111111111111111111
111111111111111111111111000000000000011111000000111110001111101111111111111111110000111100000000000000000000011111111111111111111111110001111100000000001111110000111101111100011111111111111111111
111111111111111111111111000000000000001111000000001100000111000111111111111111111000000000000000000000000000000001111111111111111111100000011000000000011111100000111101111100001111111111111111111
111111111111111111101110000000000000011111000000000000000000000111111111111111110000000000000000000000000000000000000111111111111111000000000000000000011111000110111100111000001111111111111111111
111111111111111111000010000000010000011110000000000000000000000111111111111100000000000000000000000000000000000000000000111111111111000000000000000000001110001111001000000000000111111111111111111
111111111111111111000010000011111000011110000000000000000000001111111111100000000000000000000000000000000000000000000000000011111111100000000000000000000000001111000000000000011111111111111111111
111111111111111110000000000011111000000000000000000000000000011111111100000000000000000000000000000000000000000000000000000001111111100000000000000000000000001110000000000000011111111111111111111
111111111111111110000000000001111000000000000000000000000000111111111100000000000000000000000000000000000000000000000000000001111111100000000000000000000000000000000000110000001111111111111111111
111111111111111111000000000001110000000000000000000000111101111111110000000000000000000000000000000000000000000000000000000011111111110000000000000000000000000000000001110000001111111111111111111
111111111111111111100000000000000000000000000000000000111111111110000000000000000000000000000000000000000000000000000000000011111110011110000000000000000000000000000001111000000111111111111111111
111111111111111111100000000000000000000011000000000001111111111100000000000000000000000000000000000000000000000000000000000111111110000111000000000000000000000000011001110000000111111111111111111
111111111111111111110000000000000000001111100000000001111111111000000000000000000000000000000000000000000000000000000000001111111100011111000000000000000000000000111100000000000111111111111111111
111111111111111111110000011100000000000111100000000000011111110000000000000000000000000000000000000000001110000000000000001111111100011111110000000000000000000000111100000000001111111111111111111
111111111111111111100100011100000000000111100000000000111111100000000000000000000000000000000000111100001110000000000000011111111000011110111100000000000000000000111000000001111111111111111111111
111111111111101100001110111000000000000111000000000001111111000000000000000000000000000000000001111110001100000001100000011111110000001110001111000000000000000000000000000011111111111111111111111
111111111111000000001110111000111000000000000000000011111110000000000000000000000000000000000011111111101100000001100000111111110000000000001111110000000000000000000000000111100000111111111111111
111111111110000000000001110000111000000000000000111111111100000000000000000000000000000000011111111111111110000011100000111111100000000000001111110000000000000000000001101111000000001111111111111
111111111110000000000011100001110000100000000000111111111000000000000000000000000000000111111111111111111111000011100001111111100000000000000111100000000000000000000101111010000000000111111111111
111111111111000000000011100001110001110000000000111111110000000000000000000000000001111111111111111111111111001111000011111111000000000000000011000000000000000000011111110000000000000111111111111
111111111111100000000111000011100001110000000000111111100000000000000000001111111111111111111111111111111110011111111111111111000000000000000000000000000000000000011111000000000000000011111111111
111111111111110000000111000011100011100011000001111111000000000000000000011111111111111111111111111111111110011111111111111110000000000000000000000000000000000000011111000000000000000011111111111
111111111111100000000010000111000111000011100011111110000000000000000000011111111111111111111111111111111110011111111111111110000000000000000000000000000000000000001110000000000011110000011111111
111111110100000000000000001110000111000111000111111100000000000000000000011111111111111111111111111111111110011111111111111110000000000000000000000000000000000000001000000000000011110000111111111
111111100000000000111000001110001110000111001111111000000000000000000000111111111111111111111111111111111100111111111111111111000000000000000000000001000000000000000000000000011111111000111111111
111111100000000001111100000100001110001111111111110000000000000000000001111111111111111111111111111111111100111111111111111111100000000000000000000011111101000000000000000000011111111100011111111
111111000000000001111100000000011100001111111111100000000000000000000011111111111111111111111111111111111100111111111111111111110000000000000000001111111111000000000000000000011111111000011111111
111111000000000000111100000000011100011111111111000000000000000000000111111111111111111111111111111111111001111111111100011111111000000000000000001111111111100000000000000000011111111100001111111
111110000000000000100000000000000000111011111110000000000000000000001111111111111111111111111111111111111111111111111100001111111100000000000000001111111110000000000000000000011111110000001111111
111110000000000000000000000000000000111011111110000000000000000000011111111111111111111111111111111111111111111111111100000111111110000000000000001111111110000000000000000000011111110000000111111
111110000000000000000000000111100000110011111110000000000000000000111111111111111111111111111111111111111111111111111100000011111111000000000000000011111110000000000000000000000000000000000011111
111111000000000000000000000111110000000001111110000000000000000001111111111111111101111111111111111111111111111111000000000001111111100000000000000011111100000000000000000000000000000000000001111
111111000000000000000000000111110000000011111000000000000000000011111111111111111101111001111111111111111111111111000000000000111111110000000000000011110000000000000000000000000000000000000011111
111000000000000000000000000011110000000011111000000000000000000111111111111111110000000001111100111111111101111111000000000000011111111000000000000011110000000000000000000000000000000000000011111
111000000000000000000000000000000000000011111000000000000000001111111111111111111100000000100000111011111100011110000000000000001111111100000000000001100000000000000000000000000000000000000111111
111100000000000000000010000000000000001111110000000000000111111111111111111111111111100000000000111000111100011110000000000000000111111100000000000000000000000000000000000000000000000011011111111
111100000000001111110110000000000000111111110000000000000111111111111111111111111111110000000000111000111000011000000000000000000011111110000000000000000000000000000000000000000000000111110011111
111100000000001111111111000000000000011111110000000000001111111111111111111111111111111000000000111000111000110000000000000000000001111111000000000000000000000000000000000000011111111111000001111
111000000000001111111111100000000000011111110000000000000111111111111111111111111111111000000000000000111000100000000000000000000001111111000000000000000000000000000000000011111111110000000000011
110000000000000111111111000000000000011111100000000000000111111111111111111111111111111000000000000000111011111000000000000000000001111111000000000000000000111100000000000011111111000000000000011
110000000000000011111111000000000000000111100000000000000011111111111111111111111111111000000000000000011011111100000000000000000001111111000000000000000000111100000000000011111110000000000000011
110000000000000011111111000000000000000011100000000000000011111111111101111111111111110000000000000000000011111100000000000000000000111110000000000000000000111100000000000001111000000000000000011
110000000000000011110001000000000000000000000000000000000011111111111001111111110000000000000000000000000110111000000000000000000000011111000000000000000000111100000000000000000000000000000000011
110000000000000001110000000000000000000000000000000000000011111111111000111111100000000000000000000000000100000000000000000000000000011111000000000000000000011100000000000000000000000000000000011
110000000000000000110000000000000000000000000000000000000011111111100000000000000000000000000000000000001100000000000000000000000000011111000000000000000000001000000000000000000000000000000000011
110000000000000000100000000000000000011000000000000000000111111111100000000000000000000000000000000000111000000000000000000000000000011111000000000000000000001000000000000000000000000000000000011
111000000000000000100000000000000000111110000000000000000111111111000000000000000000000000000000000001111100000000000000000000000000011110000000000000000000001000000000000000000000000000000000011
111100000001110000100001110000000011111110000000000000000111111111000000000000000000000000000000000001111100000000000000000000000000001100000000000000000000111100000000000000000000000000000000011
111110000011111001110011111000000111111110000000000000000111111111000000000000000000000000000000000001111000000000000000000000000000000000000000000000000001111100000000000000000000000000000000011
111110000011111001110011111000001111111110000000000000001111111111000000000000000000000000000000000001111000000000000000000000000000000000000000000000000001111110000000000110000000000110000000011
111100000001111001110011111000000111111100000000000000001111011111000000000000000000000000000000100000000000000000000000000000000000000000000000000000000001111100000000011111100000000111110000011
111000000000110000100001110000000011111100000000000000001111000000000000000000000000000000000001110000000000000000000000000000000000000001100000000000000000000100000000011111100000001111110000011
110000001100000000100000000111000001111100000000000000001111111000000000000000000000000000000001110000000000000000000000000000000000000111111000000000000000000100000000011111100000001111110000011
110000011110000000100000000111100001111100000000000000011111111000000000000000000000000011110000000000000000000000000000000000000000000111111000000000000000000100000000011111100000001111110000011
110000111111000000100000001111100011111000000000000000011111111000000000000000000000000011110000000000000000000000000000000000000000000011111000000000000000000110000000011111100000001111000000011
110000011110000001100000000111100011111000000000000000011111111000000111111111000000001111110000000000000000000000000000000000000000000011111000000000000000001111000000000110000000000011000000011
111110001100000011110000000011000011111000000000000000111111110000000111111100000110011111110000000000000000000000000000000000000000000001111100000000000000001111000000000000000000000000000011111
111110000000000011110000000000000111110000000000000001111111110000000000111000001111111111100000000000000000000000000000000000000000000001111111111000000111111111111111111111111111111111111111111
111111111111111111111111111111111111111000000000000011111111110000000001111101111111000000000000000000000000000000000000000000000111000001111111111100001111111111111111111111111111111111111111111
111111111111111111111111111111111111111000000000000011111111111111111111111111101111000000000000000000000000000000000000000000000111100011111111111100001111111111111111111111111111111111111111111
111111111111111111111111111111111111111000000000000011111111100011100001111100001111000000000000000000000000000000000000000000001111101111111111111100001111111111111111111111111111111111111111111
111111111111111111111111111111111111111000000000000011111111100111100001111000001111000000000000000000000000000000000000000000000111111111111111111100001111111111111111111111111111111111111111111
111111111111111111111111111111111111111000000000000001111100000111100000000000000000000000000000000000000000000000000000011011011111111111111110000000000000011111111111111111101011101111111111111
111111111111111111111111111111111111111000000000000000111110000111100000000000000000000000000000000000000000000000000000111111111111111111111100000000000000011111111000000011100011100011111100011
111111000100001111111111111111111111111000000000000000111110000000000000000000000000000000000000000000000000000000000000111111111111111111111000000000000000011111111000000011000000000000000000011
111110000000000011100111111000011111111100000000000000111110000000000000000000000000000000000000000000000000000000000000111111111111111111111000000000000000111110000000111011000000000000000000011
111111100000000011100111111110000111111100000000000000111110000000000000000000000000000000000000000000000000000000000000111111111111111111111000000000000000111110000000111111000000000000000000011
111111100000000011100001111110000111111100000000000000011110000000000000000000000000000000000000000000000000000000001100111111111111111111111000000000000000111110000000111111000000000000000000011
111110000000000011000001111000000111111100000000000000011000000000000000000000000000000000000000000000000000000000011111111111111111111111110000000000000001111100000000111111000000000000000000011
111110000000000010000001111000000111111110000000000000000000000000000000000000000000000000000000000000000000000000011111111111111111111111110000000000000001111100000000111111000000000000000000011
111110000000000011000001111000000011111110000000000000000000000000000000000000000000000000000000000000000000000000011111111111111111111111110000000000000001111100000000000010000000111100000000011
111111000000000011000001111100000011111110000000000000000000000000000000000000000000000000000000000000000000000000001111111111111111111111110000000000000001111100000000000000000000111111100000011
111111000000000111000001111100000011111110000000000000000011000000000000000000000000000000000000000000000000000000000111111111111111111111100000000000000001111000000000000000000000111111100000011
111100000000000010000001110000000111111111000000000000001111100000000000000000000000000000000000000000000000000000001111111111111111111111100000000000000011111000000000000000000000111111100000011
111100000000000010000001110000000111111111000000000000001111110000000000000000000000000000000000000000000000000000001111111111111111111111100000000000000000010000000000000000000000000111100111111
110000000000000010000000000000000111111111000000000000000111110000000000000000000000000000000000000000000000000000111111111111111111111111100000000000000000000000000000000001111000011111110111111
110000000000000010000000000000000111111111000000000000000111110000000000000000000000000000000000000000000000000011111111111111111111111111000000000000000000000000000000000001111111011111110111111
110000000000000111000000000000000001111111100000000000000011111000000000000000000000000000000000000000000000000011111111111111111111111111000000000000000000000000000000000011111111111111100111111
110000000000000111100000000000000000111111100000000000000011111100000000000000000000000000000000000000000000000011111111111111111111111111000000000000000111000000000000000011111111111111100111111
110000000000000111100000000000000000111111100000000000000011111110000000000000000000000000000000000000000000000011111111111111111111111111000000000000001111100000000000000011111111111111100000111
111000000000000111100000000000000000011111110000000000000011111110000000000000000000000000000000000000000000000001111111111111111111111111000000000000001111100000000000000011111111111111100000011
111100000000000111100000000000000000011111110000000000001111111110000000000000000000000000000000000000000000000001111111111111111111111111110000000000001111111000000000000111111111111111100001111
111100000000000000000000000000000000011111110000000000011111111110000000000000000000001000000000000000000000000000011111111111111111111111110000000000001111111100000000000001111111111111000001111
111000000000000000000000000000000000011111110000000000001111111111000000000000000000001100000000000000000000000000011111111111111111111111110000000000011111111100000000000000000111111111000001111
111000000000000000000000000000000000001111111000000000001111111111100000000000000000011100000000000000000000000000011111111111111111111111100000000000011111111001000000000000000001111111000000011
111000000000000000000000000000000000001111111000000000000100000111110000000000000000011100000011000000000000000000011111111111111111110000000000000000011111111011100000000000000011111000000001111
111010000000000000000000000000000000001111111000000000000000000011111000000000000111111100000011000000000000000001111111111111111111100000000000000000011111111011000000000000000011111000000011111
111111000000000000000000000000000000001111111000000000000000000001111100000000000111111000000111000000000000000001111111111111111111000000000000000000111111110000000000000000001111110000000011111
111110000000000000000000000000000000000111111110000000000000000000111110000000000111111000000111000000000000000001111111111111111110000000000000000001111111111000000000000000011111111000000011111
111110000000000000000000010000000000000111111110000000000000000000011111000000001111111000000111000000000000000001110111111111111100000000000000000011111111111110000000000000011111111000000001111
111110000000000000000001111000000000000111111111000000000000000000001111100000001111111000000111111000000000000000000111111111111000000000000000000011111111111111100000000000001111111000000011111
111110111000000000000011111100000000000111111111000000000000000000000111110000001111110000001111111000000000000000000111111111110000000000000000000011111111111111100000000000000000110000000011111
111111111001100000000011111100000000001111111111000000000000000000000011111000001111110000001111110000000000000000000111111111100000000000000000000111111111111111100000000000000000000000000011111
111111111101100000000011111110000000001111111111100000000000000000000001111111111111110000001111110000000000000000000111111111000000000000000000001111111111111111000000000000000000000000000111111
111111111101100000000001111110000000001111111111110000000000000000000000111111111111100000011111110000000000000000001111111110000000000000000000011111111111111111100000000000000000000000000111111
111111111111000000000001111111000000000110011111111000000000000000000000011111111111100000011111110000000000000000011111111100000000000000000000111111100001111111111001110000000000000000111111111
111111111111100000000000111111000000000000011111111100000000000000000000011111111111000000011111100000000000000000111111111000000000000000000001111111000000011111111111111100000000000000111111111
111111111111111110000000011111100000000000001111111110000000000000000000011111111111000000011111100000000000001111111111111000000000000000000011111110000000001111111111111110000000000111111111111
111111111111111110000000011111110000000000000111111111000000000000000000011111111111111000001111100000000011111111111111110000000000000000000111111100000000000011111111111110000000000111111111111
111111111111111110000000001111110000000000000011111111000000000000000000111111111111111111111111111110111111111111111111100000000000000000000111111110000000000000111111111110000000001111111111111
111111111111111110000000001111111000000000000001111111000000000000000001111110000001111111111111111111111111111110000000000000000000000000000111111110000000000000011111111110000000001111111111111
111111111111111100000000000111111000000000000000111110000000000000000001111110000000001111111111111111111111100000000000000000000000000000000011111110000000000000000111111111100000001111111111111
111111111111111100000000000111111100000000000000000000000000000000000001111100000000000000111111111111111100000000000000000000000000000000000000011100000000000000000001111111111000011111111111111
111111111111111100000000000011111110000000000000000000001110000000000000011000000000000000000011111111000000000000000000000000000000000011000000000000000000000000000000011111111100011111111111111
111111111111111100000000000001111110000000000000000000011111000000000000000000000000000000000001111110000000000000000000000000000000000111100000000000000000000000000000001111111111111111111111111
111111111111111110000000000001111111000000000000000000011111100000000000000000000000000000000000111100000000000000000000000000000000001111110000000000000000000000000000000011111111111111111111111
111111111111111111000000000000111111000000000000000000011111110000001100000000000000000000000000111100000000000000000000000000000000011111110000000000000000000000000000000001111111111111111111111
111111111111111111000000000000111111100000000000000000111111111000011111000000000000000000000000111100000000000000000000000000000000111111110000000000000000000000000000000001111111111111111111111
111111111111111111100000000000011111100000000000000000111111111100011111000000000000000000000000000000000000000000000000000000000001111111111000000000000000000000111000000011111111111111111111111
111111111111111111100000000000001110000000000000000000011111111110111111000000000000000000000000000000000000000000000000000000000011111111111000000000000000000001111000001111111111111111111111111
111111111111111111111111100000001000000000000000000000000001111111111110000000000000000000000000000000000000000000000000000000011111111101110000000000000000000011110000001111111111111111111111111
111111111111111111111111100000000000000000000000000000000000111111111110000000000000000000000000000000000000000000000000000000111111111000000000000000000000000111111000000011111111111111111111111
111111111111111111111111100000000000000000000000001110000000011111111100000000000000000000000000000000000000000000000000000001111111110000000000000000000000001111111000000001111111111111111111111
111111111111111111111111100000000000000000000000011111000000001111111111110000000000000000000000000000000000000000000000001111111111100000000000000000000000011111111000000000011111111111111111111
111111111111111111111111000000000000000000000000011111110000011111111111111111000000000000000000000000000000000000000011111111111111100000000000000000000000111111111000000000111111111111111111111
111111111111111111111111000000000000000000000000111111111000111111111111111111110000000000000000000000000000000000011111111111111111000000000000000000000000111111111000000001111111111111111111111
111111111111111111111111000000000000000000000000001111110001111111111111111111111000000000000000000000000000000111111111111111111111000000000000000000000011111111111000000001111111111111111111111
111111111111111111111100000000000000000010000000000111110000111111111111111111111000011110000000000000000001111111111111111111000000000000000000000000000111111111100000000011111111111111111111111
111111111111111111111000000000000000000111000000000001100010111111100111111111110000111111111000000000001111111111111111111100000000000000000000000000000011111110000000000111111111111111111111111
111111111111111111111000000000000000000111100000000000000001111111000001111000100000111111111111111111111111111111111100111100000000000000000000000000000011111000000000000111111111111111111111111
111111111111111111111100000000000000001111111100000000000111111111000000000000000000111111111111111111111111111111111000011100000000000000000000000000000001111100000000001111111111111111111111111
111111111111111111111100000000000000000111111001000000001111111110000000000000000000011111111111111111111111111001111100000000000000000000000000000000000000011110000000001111111111111111111111111
111111111111111111111110000000000000000011111111100000000111111110000000000000000000000111111111111111111111110001111000000000000000000000000001110000000000011111000001111111111111111111111111111
111111111111111111111111000000000000000000111111111100010111111111000000000000000000000111111111111111100011110000110000000000000000000000000111110000000000011111100001111111111111111111111111111
111111111111111111111111000000000000000001111111111110111111111111000000000000000000000111111111111110000011110000000000000000000000000000001111111000000000011111110001111111111111111111111111111
111111111111111111111111110000000000000001111111111100011111111110000000000000000000000111111111111100000000000000000000000000000000000000111111111000000000000111111001111111111111111111111111111
111111111111111111111111111100000000000001111111111111111111111110000000000000000000000001111111111100000000000000000000000000000000000011111111100000000000000111111101111111111111111111111111111
111111111111111111111111111110000000000001111111111111111111111100000000000000000000000000000000111100000000000000000000000000000000001111111111100000000000000111111111111111111111111111111111111
111111111111111111111111111100000000000001111111111111111111111000000000000000000000000000000000111100000000000000000000000000000000011111111111100000000000000011111111111111111111111111111111111
111111111111111111111111111101100000000000000111111111111111111000000000000000000000000000000000111100000000000000000000000000000001111111111111100000000000000001101111111111111111111111111111111
111111111111111111111111111111110000000000000011111111111111110000000000000000000000000000000000111100000000000000000000000000000111111111111110000000000000000000001111111111111111111111111111111
111111111111111111111111111111100000000000000011101111111111111100000000000000000000000000000000111100000000000000000000000000001111111111111110000000000000000110001111111111111111111111111111111
111111111111111111111111111111110001111000000000001111111111111100000000000000000000000000000000111100000000000000000000000000001111111111111110000000000000011110011111111111111111111111111111111
111111111111111111111111111111111001111000000000011111111111111111000000000000000000000001111111111100000000000000000000000000001111111111111110000000000000111111111111111111111111111111111111111
111111111111111111111111111111111111111110000000011111111111111111000000000000000000000001111111111100000000000000000000000000000111111111111100000001110000111111111111111111111111111111111111111
111111111111111111111111111111111111111111111000111111111111111110000000000000000000000001111111111100000000000000000000000000000001111111101110000111111000111111111111111111111111111111111111111
111111111111111111111111111111111111111111111110011111111111111111100000000000100000000011111111111100000000000000000000000000000001111110001111001111111000011111111111111111111111111111111111111
111111111111111111111111111111111111111111111111011111111111111111000000000011100000000011111111111100000000000000000000000000000000111100000111011111111101111111111111111111111111111111111111111
111111111111111111111111111111111111111111111111111111111111111111000000001111110000000011111111111100000000000000001111000000000000110000000111111111111111111111111111111111111111111111111111111
111111111111111111111111111111111111111111111111111111111111111100000000000111110000000011111111111100000000000000011111000000000000000000000011111111111111111111111111111111111111111111111111111
111111111111111111111111111111111111111111111111111111111111111100000000000111110000000011111111111100000000000111111111100000000000000000011111111111111111111111111111111111111111111111111111111
111111111111111111111111111111111111111111111111111111111111111100000000000111100000000011111111111100000000111111111111100000000000000000011111111111111111111111111111111111111111111111111111111
111111111111111111111111111111111111111111111111111111111111111100000000000010000000000011111111111100000011111111100111100000000000000000011111111111111111111111111111111111111111111111111111111
111111111111111111111111111111111111111111111111111111111111110000000000000110000000000011111111111100000011100111100011101000000000000000111111111111111111111111111111111111111111111111111111111
111111111111111111111111111111111111111111111111111111111111110000000000000100000000000011111111111100000000000111000011111110000000000000111111111111111111111111111111111111111111111111111111111
111111111111111111111111111111111111111111111111111111111111100000000000000100000000000011111111111100000000000011000001111110000000001000111111111111111111111111111111111111111111111111111111111
111111111111111111111111111111111111111111111111111111111110000000000000001100000000000011111111111111110000000000000001111100000000111000111111111111111111111111111111111111111111111111111111111
111111111111111111111111111111111111111111111111111111111111000000000000011100000000000000000000111111110000000001111001111000000011111100111111111111111111111111111111111111111111111111111111111
111111111111111111111111111111111111111111111111111111111111110000000000001100000000000000000000111111110000000111111100111000000011111111111111111111111111111111111111111111111111111111111111111
111111111111111111111111111111111111111111111111111111111111111100001110011000000000000000000000111111110000000011111100111011000001111111111111111111111111111111111111111111111111111111111111111
111111111111111111111111111111111111111111111111111111111111111110011110010000000000000000000000111111110000000111111100111011111001111111111111111111111111111111111111111111111111111111111111111
111111111111111111111111111111111111111111111111111111111111111111011100010000000000000000000000111111110000000111111100011111111001111111111111111111111111111111111111111111111111111111111111111
111111111111111111111111111111111111111111111111111111111111111111011111110000000111110001100011111111110000000011111110011111111111111111111111111111111111111111111111111111111111111111111111111
111111111111111111111111111111111111111111111111111111111111111111111111111000000111110000000011111111100011111001111110011111111111111111111111111111111111111111111111111111111111111111111111111
111111111111111111111111111111111111111111111111111111111111111111111111111000000111111111000011111111111111111001111111111111111111111111111111111111111111111111111111111111111111111111111111111
111111111111111111111111111111111111111111111111111111111111111111111111111110000111111111000011111111111111111000000111111111111111111111111111111111111111111111111111111111111111111111111111111
111111111111111111111111111111111111111111111111111111111111111111111111111111111111111111111111111111111111111111111111111111111111111111111111111111111111111111111111111111111111111111111111111
111111111111111111111111111111111111111111111111111111111111111111111111111111111111111111111111111111111111111111111111111111111111111111111111111111111111111111111111111111111111111111111111111
