1111111111111111111111111111111111111111111111111111111111111111111111111111111111111111
1111111111111111111111111111111111111111111111111111111111111111111111111111111111111111
1111111111111111111111111111111111111111111111111111111111111111111111111111111111111111
1111111111111111111111111111111111111111111111111111111111111111111111111111111111111111
1111111111111111111111111111111111111111111111111111111111111111111111111111111111111111
1111111111111111111111111111111111111111111111111111111111111111111111111111111111111111
1111111111111111111111111111111111111111111111111111111111111111111111111111111111111111
1111111111111111111111111111111111111111111111111111111111111111111111111111111111111111
1111111111111111111111111111100011111101111111111111111111111111111111111111111111111111
1111111111111111111111111111000001111001111111111111111111111111111111111111111111111111
1111111111111111111111111110000011110000111111111111111111111111111111111111111111111111
1111111111111111111111111100000111100000111111111111111111111111111111111111111111111111
1111111111111111111111111000001111110000111111111111111111111111111111111111111111111111
1111111111111111111111110000011111111000111111111111111111111111111111111111111111111111
1111111111111111111111100000111111111000111111111111111111111111111111111111111111111111
1111111111111111111111100001111111111000111111111111111111111111111111111111111111111111
1111111111111111111111000011111111110000111111111111111111111111111111111111111111111111
1111111111111111111110000111111111100000001111111111111111111111111111111111111111111111
1111111111111111111110001111111111000000000111111111111111111111111111111111111111111111
1111111111111111111000001111111110000000000011111111111111111111111111111111111111111111
1111111111111111111000011111111100000000000001111111111111111111111111111111111111111111
1111111111111111111000011111111000000000000000111111111111111111111111111111111111111111
1111111111111111111000011111110000000000000000011111111111111111111111111111111111111111
1111111111111111110000001111100000000000000000001111111111111111111111111111111111111111
1111111111111111110000001111000000000000000000000111111111111111111111111111111111111111
1111111111111111111000000111100000000000000000000001111111111111111111111111111111111111
1111111111111111111100000011110000000000000000000000111111111111111111111111111111111111
1111111111111111111110000011110000000000110000000000011111111111111111111111111111111111
1111111111111111111111000001111000000000111110000000001111111111111111111111111111111111
1111111111111111111111100000111100000000011111000000000011111111111111111111111111111111
1111111111111110011111111000011100000000111111110000000000111111111111111111111111111111
1111111111111000001111111100001100000000111111110000000000011111111111111111111111111111
1111111111110000000111111110001000000000011111111000000000001111111111111111111111111111
1111111111100000000000111111000000000000001111111100000000000111111111111111111111111111
1111111111000000000000111111000000000000000111111110000000000001111111111111111111111111
1111111110000000000000110111000000000000000011111111000000000001111111111111111111111111
1111110000000001000000000011000000000000000001111111100000000001111111111111111111111111
1111100000000011100000000001001110000000000000111111110000000000111111111111111111111111
1111000000000111110000000000001110000000000000011111111000000000111111111111111111111111
1111000000000111110000000000000111100000000000001111111100000000011111111111111111111111
1111100000000011110000000000001111111000000000000111111110000000000111111111111111111111
1111110000000001000000000000011111111100000000000011111111000000000001111111111111111111
1111111000000000000000000000011111111110000000000001111111100000000001111111111111111111
1111111100000000000000000000111111111111000000000000111111110000000001111111111111111111
1111111110000000000000000111111111111111100000000000001111111000000001111111111111111111
1111111111000000000000000111111111111111110000000000000111111000000000111111111111111111
1111111111100000000000000011111111111111110000000000000011111000000000011111111111111111
1111111111110000000001100000000011110011100000000000000001111000000000000111111111111111
1111111111111000000011110000000001100001000110000000000000000000000000000011111111111111
1111111111111100000111111000000000000000001111000000000000000000000000000001111111111111
1111111111111110001111111000000000000000001111100000000000000000000000000000011111111111
1111111111111111011111110000000000000000001111100000000000000000111100000000001111111111
1111111111111111111111100000000000000000000111110000000000000000111110000000000111111111
1111111111111111111111000000000000000000000011111000000000000000111110000110001111111111
1111111111111111111110000000000000000000000011111100000000000001111100000111011111111111
1111111111111111111100000000000000000000000011111110000000000001111100001111111111111111
1111111111111111111100000000000000000000000011111110000000000000111000011111111111111111
1111111111111111111110000000000000000000000000111111000000000000000000011111111111111111
1111111111111111111111000000000000000000000000111111100000000000000001111011111111111111
1111111111111111111111100000000000000000000001111111111000001111000001110000111111111111
1111111111111111111111110000000000000000000011111111110000000111110011100000011111111111
1111111111111111111111111000000000000000000011111100100100000001111111000000001111111111
1111111111111111111111111100000000000000000001111000001110000000111111000000011111111111
1111111111111111111111111110000000000000010000111000001111000000001110000000111111111111
1111111111111111111111111111000000000000111100010000000111100000000000000001111111111111
1111111111111111111111111111100000000001111100000000000011110000000000000011111111111111
1111111111111111111111111111110000000011111000000000000001111000000000000111111111111111
1111111111111111111111111111111000000111110000000000000000111100000000001111111111111111
1111111111111111111111111111111100001111100000000000000000111110000000011111111111111111
1111111111111111111111111111111111011111100000000001111000111111000000111111111111111111
1111111111111111111111111111111111111111000000000011111000111111100001111111111111111111
1111111111111111111111111111111111111110000000000011111000011111110011111111111111111111
1111111111111111111111111111111111111100000000000111110000011111111111111111111111111111
1111111111111111111111111111111111111100000000000111110000111111111111111111111111111111
1111111111111111111111111111111111111110000000001111100001111111111111111111111111111111
1111111111111111111111111111111111111111000000001111000011111111111111111111111111111111
1111111111111111111111111111111111111111100000001110000111111111111111111111111111111111
1111111111111111111111111111111111111111110000000000000111111111111111111111111111111111
1111111111111111111111111111111111111111111000000000000111111111111111111111111111111111
1111111111111111111111111111111111111111111100000000000011111111111111111111111111111111
1111111111111111111111111111111111111111111110000000000001111111111111111111111111111111
1111111111111111111111111111111111111111111111000000000011111111111111111111111111111111
1111111111111111111111111111111111111111111111100000000111111111111111111111111111111111
1111111111111111111111111111111111111111111111111000011111111111111111111111111111111111
1111111111111111111111111111111111111111111111111100111111111111111111111111111111111111
1111111111111111111111111111111111111111111111111111111111111111111111111111111111111111
