1111111111111111111111111111111111111111111111111111111111111111111111111111111111111111111111111111111111111111111111111111111111111111111111111111
1111111111111111111111111111111111111111111111111111111111111111111111111111111111111111111111111111111111111111111111111111111111111111111111111111
1111111111111111111111111111111111111111111111111111111111111111111111111111111111111111111111111111111111111111111111111111111111111111111111111111
1111111111111111111111111111111111111111111111111111111111111111111111111111111111111111111111111111111111111111111111111111111111111111111111111111
1111111111111111111111111111111111111111111111111111111111111111111111111111111111111111111111111111111111111111111111111111111111111111111111111111
1111111111111111111111111111111111111111111111111111111111111111111111111111111111111111111111111111111111111111111111111111111111111111111111111111
1111111111111111111111111111111111111111111111111111111111111111111111111111111111111111111111111111111111111111111111111111111111111111111111111111
1111111111111111111111111111111111111111111111111111111111111111111111111111111111111111111111111111111111111111111111111111111111111111111111111111
1111111111111111111111111111111111111111111111111111111111111111111111111111111111111111111111111111111111111111111111111111111111111111111111111111
1111111111111111111111111111111111111111111111111111111111111111111111111111111111111111111111111111111111111111111111111111111111111111111111111111
1111111111111111111111111111111111111111111111111111111111111111111111111111111111111111111111111111111111111111111111111111111111111111111111111111
1111111111111111111111111111111111111111111111111111111111111111111111111111111111111111111111111111111111111111111111111111111111111111111111111111
1111111111111111111111111111111111111111111111111111111111111111111111111111111111111111111111111111111111111111111111111111111111111111111111111111
1111111111111111111111111111111111111111111111111111111111111111111111111111111111111111111111111111111111111111111111111111111111111111111111111111
1111111111111111111111111111111111111111111111111111111111111111111111111111111111111111111111111111111111111111111111111111111111111111111111111111
1111111111111111111111111111111111111111111111111111111111111111101111111111111111111111111111111111111111111111111111111111111111111111111111111111
1111111111111111111111111111111111111111111111111111111111111111001101111111111111111111111111111111111111111111111111111111111111111111111111111111
1111111111111111111111111111111111111111111111111111111111111111001101111111111111111111111111111111111111111111111111111111111111111111111111111111
1111111111111111111111111111111111111111111111111111111111111111000001111111111111111111111111111111111111111111111111111111111111111111111111111111
1111111111111111111111111111111111111111111111111111111111111111000001111111111111111111111111111111111111111111111111111111111111111111111111111111
1111111111111111111111111111111111111111111111111111111111111110000000111111111111111111111111111111111111111111111111111111111111111111111111111111
1111111111111111111111111111111111111111111111111111111111111111000000011111111111111111111111111111111111111111111111111111111111111111111111111111
1111111111111111111111111111111111111111111111111111111111110011000000001111111111111111111111111111111111111111111111111111111111111111111111111111
1111111111111111111111111111111111111111111111111111111111100000000000000111111111111111111111111111111111111111111111111111111111111111111111111111
1111111111111111111111111111111111111111111111111111111111000000000000000011111111111111111111111111111111111111111111111111111111111111111111111111
1111111111111111111111111111111111111111111111111111111110000000000000000111111111111111111111111111111111111111111111111111111111111111111111111111
1111111111111111111111111111111111111111111111111111111110000000000000001111111111111111111111111111111111111111111111111111111111111111111111111111
1111111111111111111111111111111111111111111111111111110000000000000000011111111111111111111111111111111111111111111111111111111111111111111111111111
1111111111111111111111111111111111111111111111111111110000001100000000111111111111111111111111111111111111111111111111111111111111111111111111111111
1111111111111111111111111111111111111111111111111111100000011110000001111111111111111111111111111111111111111111111111111111111111111111111111111111
1111111111111111111111111111111111111111111111111111000000111110000011111101111111011111111111111111111111111111111111111111111111111111111111111111
1111111111111111111111111111111111111111111111111110000000111100000111111101111110001111111111111111111111111111111111111111111111111111111111111111
1111111111111111111111111111111111111111111111111100000000111000000111111001111110001111111111111111111111111111111111111111111111111111111111111111
1111111111111111111111111111111111111111111111111000000000010000001111110001111100001111111111111111111111111111111111111111111111111111111111111111
1111111111111111111111111111111111111111111111100000000000000000011111100000001100000011111111111111111111111111111111111111111111111111111111111111
1111111111111111111111111111111111111111111111100000000000000000011111000000000000000011111111111111111111111111111111111111111111111111111111111111
1111111111111111111111111111111111111111111011100000000000000000011111100000000000000001111111111111111111111111111111111111111111111111111111111111
1111111111111111111111111111111111111111111000000000000000000000011111110000000000000000001111111111111111111111111111111111111111111111111111111111
1111111111111111111111111111111111111111110000000000000000000000001111110000000000000000001111111111111111111111111111111111111111111111111111111111
1111111111111111111111111111111111111111000000000000000000000000000011111000000000000000011111111111111111111111111111111111111111111111111111111111
1111111111111111111111111111111111111110000000000000000000000000000001111100000000000000111111111111111111111111111111111111111111111111111111111111
1111111111111111111111111111111111111100000000000000000000000000000001111100000000000001111111111111111111111111111111111111111111111111111111111111
1111111111111111111111111111111111111000000000000000000000000000000000011100000000000011111111001111111111111111111111111111111111111111111111111111
1111111111111111111111111111111111110000000000000000000000011000000000001000011100000111111110000111111111111111111111111111111111111111111111111111
1111111111111111111111111111111111100000000000000000000000111100000000000000111110001111111110000011111111111111111111111111111111111111111111111111
1111111111111111111111111111111111000000000000000000000001111110000000000001111111011111111111100001111111111111111111111111111111111111111111111111
1111111111111111111111111111111110000000000000000000000001111110000000000001111111111111111111100000111111111111111111111111111111111111111111111111
1111111111111111111111111111111100000000110000000000000011111111000000000000111111111111111111000000011111111111111111111111111111111111111111111111
1111111111111111111111111111111000000001111000000000000011111111100000000000011111111111111111000000001111111111111111111111111111111111111111111111
1111111111111111111111111111110000000011111000000000000111111111110000000000001111111111001111000000001111111111111111111111111111111111111111111111
1111111111111111111111111111100000000111110000000000011111111111111000000000000111111110000011000000001111111111111111111111111111111111111111111111
1111111111111111111111111111000000000011100000000000011111111111111100000000000011111100000000000000000111111111111111111111111111111111111111111111
1111111111111111111111111110000000000001000000000000001101111111111100000000000001111110000000000000000011111111111111111111111111111111111111111111
1111111111111111111111111110000000000000000000000000000001111111111111000000000000111111000000000000000000011111111111111111111111111111111111111111
1111111111111111111111111110000000000000000000000000000001111111111111100000000000011111100000000000000000001111111111111111111111111111111111111111
1111111111111111111111111000000000000000000000000000000001100111111111100000000000001111110000000000000000001111111111111111111111111111111111111111
1111111111111111111111111000000000000000000000000000000000001111111111110000000000000111111000000000000000011111111111111111111111111111111111111111
1111111111111111111111111100000000000000000000000000000000001111111111111100000000000011111000000000000000111111111111111111111111111111111111111111
1111111111111111111111011000000000000000000000000000000000000110111111111110000000000000111000000000000001111111111111111111111111111111111111111111
1111111111111111111110000000000000000000000000000000000000000000111111111111000000000000000000100000000011111111111111111111111111111111111111111111
1111111111111111111110000000000000000000111000000000000000000001111111111111100000000000000001110000000111111111111111111111111111111111111111111111
1111111111111111111110000000000000000011111000000000000000000000111011111111100000000000000011111000011111111111111111111111111111111111111111111111
1111111111111111111110000000000000000011111000000000000000000000110011111111110000000000000011111100111111110111111101111111111111111111111111111111
1111111111111111100000000000000000000111111111000000000000000000000111111111110000000000000001111111111111100111111000111111111111111111111111111111
1111111111111111100000000000000000001111111111000000000000000000000111101111100011100000000000111111111111000011110000011111111111111111111111111111
1111111111111110000001000000000000001111111111000000000000000000000011001111000111110000000000011111111110000011000000011111111111111111111111111111
1111111111111100000011100000000000001111111111101100000000000000000000011111001111111000000000001111111100000000000000011111111111111111111111111111
1111111111111000000111100000000000001111111111111110000000000000000000011110001111111000000000000111111000000000000000001111111111111111111111111111
1111111111110000001111000000000000000111111111111100000000000000000000001100001111111100000000000011111100000000000000000101111111111111111111111111
1111111111100000001110000000000000000011111111111100110000000000000000000000000111111110000000000001111110000000000000000000111111111111111111111111
1111111111000000000000000000000000000001111111111111110000000000000000000000110001111111000000000000111111000000000000000000011111111111111111111111
1111111110000000000000000110000000000000111111111111100000000000000000000001111000111111100000000000011111000000000000000000001111111111111111111111
1111111100000000000000001111000000000000011111111111100100000000000000000011111100011111110000000000001111100000000000000000001111111111111111111111
1111111000000000000000011111100000000000001111111111110110000000000000000111001110001111111100000000000111110000000000000000011111111111111111111111
1111111000000000000000111111110000000000000111111111111110000000000000001110000011000111111110000000000011110000000000000000111111111111111111111111
1111110000000000000001111111111000000000000011111111111100000000000000011100000001100011111111000000000000000000000000000001111110011111111111111111
1111111000000000000011111111111100000000000001111111111110010000000000111000000000110001111111100000000000000011000000000001111100001111111111111111
1111111100000000000111111111111110000000000000111111111111111000000001110000000000011000111111100000000000000111110000000011111000000111111111111111
1111111111000000001111111111111110000000000000111111111111110000000111100000000000001100011111100000000000000111111000000111110000001111111111111111
1111111111100000011111111111111111000000000000001111111111110000001111000000000000001110001111100000000000000011111100001111100000111111111111111111
1111111111110000111111111011111111000000000000000111111111100000011110000000011100000111001111100000000000000001111110001111000001111111111111111111
1111111111111001111111110000011000000000000000000011111111000000011110000000011100000111000010000011000000000000111111111110000001111110111111111111
1111111111111111111110110000000000000110000000000001111110000000011111000000001110000011000000000111100000000000011111111100000011111110111111111111
1111111111111111111100000000000000001111000000000000111110000000011111100000000110000011000000001111110000000000001111111000000011111100011111111111
1111111111111111111000000000000000001111100000000000011100011000001111110000001110000000000000011111111000000000000111111000000000111100001111111111
1111111111111111111000000000000000001111110000000000000000111110000111111000011111000000000000011111111100000000000011111100000000000000000001111111
1111111111111111111000000000000000000111111000000000000001111111000011111111111111000000000000111111111110000000000001111110000000000000000000111111
1111111111111111111100000000011100000011111100000000000001111111100001111111100111100000000001111111111111000000000000111111000000000000000000011111
1111111111111111111110000000111100000011111110000000000001111111110000111111000011100000000011111111111111100000000000011111100000000000000000001111
1111111111111111111111000001111110000011111111000000000000111111111000011110000000000000000001111111111111110000000000001111100000000000000000011111
1111111111111111111111100011111110000111111111100000000000001111111100001110000000000000000000001111111111111000000000000111100000000000000001111111
1111111111111111111111110111111110011111111111110000000000000111111110000111000000000000000000001111011111111100000000000011100000000000001011111111
1111111111111111111111111111111111111111111111111000000000000011111111000011100000000000000000001110001111111110000000000000000111000000011111111111
1111111111111111111111111111111111111111111111111100000000000001111111100001100000000000000000000000001111111111000000000000000111100000111111111111
1111111111111111111111111111111111111111111111111110000000000000111111110000000000000000000000000000011111111111100000000000000111110001111111111111
1111111111111111111111111111111111111111111001111110000000000000011111111000000000000000000000000000111110111111110000000000000011111011111111111111
1111111111111111111111111111111111111001110000111100000000000000001111111100000000000000000000000000011100111111111000000000000001111111111111111111
1111111111111111111111111111111111100000000000011000110000000000000111111110000011000000000000000000001001111111111100000000000000111111111111111111
1111111111111111111111111111111111000000000000000000111000000000000011111110001110000000000000000000000011111111111110000000000000011111111111111111
1111111111111111111111111111111110000000000000000000111100000000000001111100011110010000000000000000000011111011111110000000000000001111111111111111
1111111111111111111111111111111110000000000000000000111110000000000000111000111111111000000000000000000001110011111110000000000000011111111111111111
1111111111111111111111111111111111000000000100000000111111000000000000010001111111111100000000000000000000000011111100000000000000111111111111111111
1111111111111111111111111111111111100000001111000000011111110000000000000011111111111000000000000110000000001111100000000000000001111111111111111111
1111111111111111111111111111111111110000011111100000001111111000000000000011111111111000000000001110000000001111000000000000000011111111111111111111
1111111111111111111111111111111111111000011111110000000111111100000000000011111111111100010000011110000000000110000000000000000111111111111111111111
1111111111111111111111111111111111111100011111110000000011111111000000000001111111111110111000001100000000000000000000000000001111111111111111111111
1111111111111111111111111111111111111110001110000000000011111111100000000000111111111111110000000000000000000000000000000000011111111111111111111111
1111111111111111111111111111111111111111000000000000000111111111100000000000011111111111100000000000000001000000000000000000111111111111111111111111
1111111111111111111111111111111111111111100000000000001111111111110000000000001111111111110001000000000011000000000000000001111111111111111111111111
1111111111111111111111111111111111111111110000000000111111111111111000000000000111111111111111100000000111000000000000000011111111111111111111111111
1111111111111111111111111111111111111111111100000001111111111111111000000000000011111111111111000000001110000000000000000111111111111111111111111111
1111111111111111111111111111111111111111111110000011111111111011111100000000000001111111111111000000001100000000000000001111111111111111111111111111
1111111111111111111111111111111111111111111111000111111111110001111000000000000000011111111111100000000000000000000000011111111111111111111111111111
1111111111111111111111111111111111111111111111101111111111000000000000010000000000001111111111111100000000000000000001111111111111111111111111111111
1111111111111111111111111111111111111111111111111111111110000000000000111000000000000111111111111110000000000000000011111111111111111111111111111111
1111111111111111111111111111111111111111111111111111110000000000000001111100000000000011111111111110000000000000000111111111111111111111111111111111
1111111111111111111111111111111111111111111111111111100000000000000000111110000000000001111111111110000000000000001111111111111111111111111111111111
1111111111111111111111111111111111111111111111111111000000000000000000011111000000000000111111111000000000000000011111111111111111111111111111111111
1111111111111111111111111111111111111111111111111111100000000010000000011111100000000000011111110000000000000000111111111111111111111111111111111111
1111111111111111111111111111111111111111111111111111110000001111000000001111111000000000001111110000000000000001111111111111111111111111111111111111
1111111111111111111111111111111111111111111111111111111000001111110000000111111100000000000111110000000000000111111111111111111111111111111111111111
1111111111111111111111111111111111111111111111111111111100001111110000000011111110000000000011100000000000001111111111111111111111111111111111111111
1111111111111111111111111111111111111111111111111111111111001111100000000111111111000000000000000000000000011111111111111111111111111111111111111111
1111111111111111111111111111111111111111111111111111111111100111000000001111111111100000000000000000000000111111111111111111111111111111111111111111
1111111111111111111111111111111111111111111111111111111111110000000000111111111111110000000000000000000001111111111111111111111111111111111111111111
1111111111111111111111111111111111111111111111111111111111110000000001111111111111110000000000000000000011111111111111111111111111111111111111111111
1111111111111111111111111111111111111111111111111111111111111100000011111111111111111000000000000000000111111111111111111111111111111111111111111111
1111111111111111111111111111111111111111111111111111111111111110000111111111111111111000000000000000001111111111111111111111111111111111111111111111
1111111111111111111111111111111111111111111111111111111111111111001111111011111111111000000000000000011111111111111111111111111111111111111111111111
1111111111111111111111111111111111111111111111111111111111111111111111110001111011111000111000000000111111111111111111111111111111111111111111111111
1111111111111111111111111111111111111111111111111111111111111111111111100000110000000001111000000001111111111111111111111111111111111111111111111111
1111111111111111111111111111111111111111111111111111111111111111111111100000000000000001111100000011111111111111111111111111111111111111111111111111
1111111111111111111111111111111111111111111111111111111111111111111110000000000000000001111110000111111111111111111111111111111111111111111111111111
1111111111111111111111111111111111111111111111111111111111111111111110000000000000000001111111101111111111111111111111111111111111111111111111111111
1111111111111111111111111111111111111111111111111111111111111111111111000000000000000000111111111111111111111111111111111111111111111111111111111111
1111111111111111111111111111111111111111111111111111111111111111111111100000000000000000011111111111111111111111111111111111111111111111111111111111
1111111111111111111111111111111111111111111111111111111111111111111111110000000000000000001111111111111111111111111111111111111111111111111111111111
1111111111111111111111111111111111111111111111111111111111111111111111111000000011110000000111111111111111111111111111111111111111111111111111111111
1111111111111111111111111111111111111111111111111111111111111111111111111110000011110000001111111111111111111111111111111111111111111111111111111111
1111111111111111111111111111111111111111111111111111111111111111111111111111000011111000011111111111111111111111111111111111111111111111111111111111
1111111111111111111111111111111111111111111111111111111111111111111111111111100111111100111111111111111111111111111111111111111111111111111111111111
1111111111111111111111111111111111111111111111111111111111111111111111111111111111111101111111111111111111111111111111111111111111111111111111111111
1111111111111111111111111111111111111111111111111111111111111111111111111111111111111111111111111111111111111111111111111111111111111111111111111111
1111111111111111111111111111111111111111111111111111111111111111111111111111111111111111111111111111111111111111111111111111111111111111111111111111
