1111111111111111111111111111111111111111111111111111111111111111111111111111111111111111
1111111111111111111111111111111111111111111111111111111111111111111111111111111111111111
1111111111111111111111111111111111111111111111111111111111111111111111111111111111111111
1111111111111111111111111111111111111111111111111111111111111111111111111111111111111111
1111111111111111111111111111111111111111111111111111111111111111111111111111111111111111
1111111111111111111111111111111111111111111111111111111111111111111111111111111111111111
1111111111111111111111111111111111111111111111111111111111111111111111111111111111111111
1111111111111111111111111111111111111111111111111111111111111111111111111111111111111111
1111111111111111111111111111111111111111111111111111111111111111111111111111111111111111
1111111111111111111111111111111111111111111111111111111111111111111111111111111111111111
1111111111111111111111111111101111111111111111111111111111111111111111111111111111111111
1111111111111111111111111111000111110011111111111111111111111111111111111111111111111111
1111111111111111111111111110000011100011111111111111111111111111111111111111111111111111
1111111111111111111111111100000111100011111111111111111111111111111111111111111111111111
1111111111111111111111111000001111100001111111111111111111111111111111111111111111111111
1111111111111111111111110000011111100000011111111111111111111111111111111111111111111111
1111111111111111111111100000111111100001111111111111111111111111111111111111111111111111
1111111111111111111111100001111111100001111111111111111111111111111111111111111111111111
1111111111111111111111000011111111100000111111111111111111111111111111111111111111111111
1111111111111111111110000011111111100000011111111111111111111111111111111111111111111111
1111111111111111111100000111111111100000001111111111111111111111111111111111111111111111
1111111111111111111000001111111110000000000101111111111111111111111111111111111111111111
1111111111111111110000011111111100000000000000111111111111111111111111111111111111111111
1111111111111111100000011111111110000000000001111111111111111111111111111111111111111111
1111111111111111100000011111110110000000000000111111111111111111111111111111111111111111
1111111111111111100000001110000110000000000000011111111111111111111111111111111111111111
1111111111111111100000000110000000000000000000001111111111111111111111111111111111111111
1111111111111111110000000010000000000000000000000000111111111111111111111111111111111111
1111111111111111111000000011000000000000000000000000111111111111111111111111111111111111
1111111111111111111100000001000000000000000000000000011111111111111111111111111111111111
1111111111111001111110000001100000000000000000000000011111111111111111111111111111111111
1111111111110000011111000000110000000000000000000000001111111111111111111111111111111111
1111111111111000001111100000011000000000000000000000000011111111111111111111111111111111
1111111111110000000111110000001000000000000000000000000000111111111111111111111111111111
1111111111110000001111111000000000000000000000000000000000011111111111111111111111111111
1111111111110000001111111100000000000000000000000000000110000111111111111111111111111111
1111111111100000000111111100000000000000000000000000000110000011111111111111111111111111
1111111000000000000011101110000000000000000000000000000110000011111111111111111111111111
1111011000000000000000000111000000000000000000000000000000010011111111111111111111111111
1110000000000000000000000111000000000000000000000000000000110001111111111111111111111111
1100000001100011000000000000000000000000000000000000000000110000111111111111111111111111
1110000001111011000000000000001100000000000000000000000000000000111111111111111111111111
1111000001111111100000000000011111000000000000000000000000000000011111111111111111111111
1111100001111111110000000001111111100000000000000000000000000000001111111111111111111111
1111110000111111111000000011111111110000000000000000000000000000001111111111111111111111
1111111000011111111100000111111111111000000000000000000000000000000111111111111111111111
1111111100000110000000000111111111111100000000000000000000000000000011111111111111111111
1111111110000000000000000011111100111110000000000000000000000000000001111111111111111111
1111111111000000000000000011111000001111100000000000000000000000000000111111111111111111
1111111111100000000001100001000000000111100000000000000000000000000000010111111111111111
1111111111110000000011100000000000000111000000000000000000000000000000000011111111111111
1111111111111000000111110000000000000000000000000000000000000000000000000001111111111111
1111111111111100011111110000000000000000000000000000000000000000000000000001111111111111
1111111111111111111111100000000000000000001100000000000000000000000000000000111111111111
1111111111111111111111110000000001100000001110000000000000000000000000000001111111111111
1111111111111111110000110000000011110000001111000000000000000000000000000011111111111111
1111111111111111100000000000000111111000000111110000000000000000000000000111011111111111
1111111111111111110000000000011111111000000011111000000000000000000000001110001111111111
1111111111111111111000000000011111111000000001111100000000000000000000001100000111111111
1111111111111111111100000000001111111000000001111100000000000000000000011000000011111111
1111111111111111111110000000000001110000000000111110000000000000000000110000000001111111
1111111111111111111111000000000001110000000001111111100000000000000001100000000011111111
1111111111111111111111000000000001110000000011111111110000001100000011000000000111111111
1111111111111111111110000000000000100000000111111101100000001110000111000000001111111111
1111111111111111111111000000000000000000000111111100000000000111000110000000011111111111
1111111111111111111111100000000000000000001111011100011011000001111100000000111111111111
1111111111111111111111100000000000000000001110000000001111110000111000000001111111111111
1111111111111111111111110110000000000000001100000000000111111000000000000011111111111111
1111111111111111111111111111000000000001000000000000000011111110000000000111111111111111
1111111111111111111111111111100000000011100000000000000001111111000000001111111111111111
1111111111111111111111111111110000001111110000000000000001111111100000011111111111111111
1111111111111111111111111111111000111111011000000000000000111111111000111111111111111111
1111111111111111111111111111111101111110000000000000000000001111111111111111111111111111
1111111111111111111111111111111111111100000000000000000000000111111111111111111111111111
1111111111111111111111111111111111110000000000000000011111110011111111111111111111111111
1111111111111111111111111111111111100000000000000000111111110001111111111111111111111111
1111111111111111111111111111111111110000000000000110111111110000111111111111111111111111
1111111111111111111111111111111111111000000000000011111111110000111111111111111111111111
1111111111111111111111111111111111111100000000000011111111110001111111111111111111111111
1111111111111111111111111111111111111110000000000011111111110001111111111111111111111111
1111111111111111111111111111111111111111000000000011111111100011111111111111111111111111
1111111111111111111111111111111111111111100000000001111110000111111111111111111111111111
1111111111111111111111111111111111111111110000000000000000011111111111111111111111111111
1111111111111111111111111111111111111111111000000000000000111111111111111111111111111111
1111111111111111111111111111111111111111111100000000000001111111111111111111111111111111
1111111111111111111111111111111111111111111111111111111111111111111111111111111111111111
