111111111111111111111111111111111111111111111111111111111111111111111111111111111111111111111111111111111111111111111111111111111111111111111111111111111111111111111111111111111111111111111111111111111111111111111111
111111111111111111111111111111111111111111111111111111111111111111111111111111111111111111111111111111111111111111111111111111111111111111111111111111111111111111111111111111111111111111111111111111111111111111111111
111111111111111111111111111111111111111111111111111111111111111111111111111111111111111111111111111111111111111111111111111111111111111111111111111111111111111111111111111111111111111111111111111111111111111111111111
111111111111111111111111111111111111111111111111111111111111111111111111111111111111111111111111111111111111111111111111111111111111111111111111111111111111111111111111111111111111111111111111111111111111111111111111
111111111111111111111111111111111111111111111111111111111111111111111111111111111111111111111111111111111111111111111111111111111111111111111111111111111111111111111111111111111111111111111111111111111111111111111111
111111111111111111111111111111111111111111111111111111111111111111111111111111111111111111111111111111111111111111111111111111111111111111111111111111111111111111111111111111111111111111111111111111111111111111111111
111111111111111111111111111111111111111111111111111111111111111111111111111111111111111111111111111111111111111111111111111111111111111111111111111111111111111111111111111111111111111111111111111111111111111111111111
111111111111111111111111111111111111111111111111111111111111111111111111111111111111111111111111111111111111111111111111111111111111111111111111111111111111111111111111111111111111111111111111111111111111111111111111
111111111111111111111111111111111111111111111111111111111111111111111111111111111111111111111111111111111111111111111111111111111111111111111111111111111111111111111111111111111111111111111111111111111111111111111111
111111111111111111111111111111111111111111111111111111111111111111111111111111111111111111111111111111111111111111111111111111111111111111111111111111111111111111111111111111111111111111111111111111111111111111111111
111111111111111111111111111111111111111111111111111111111111111111111111111111111111111111111111111111111111111111111111111111111111111111111111111111111111111111111111111111111111111111111111111111111111111111111111
111111111111111111111111111111111111111111111111111111111111111111111111111111111111111111111111111111111111111111111111111111111111111111111111111111111111111111111111111111111111111111111111111111111111111111111111
111111111111111111111111111111111111111111111111111111111111111111001111111111111111111111111111111111111111111111111111111111111111111111111111111111111111111111111111111111111111111111111111111111111111111111111111
111111111111111111111111111111111111111111111111111111111111111000000011111111111111111111111111111111111111111111111111111111111111111111111111111111111111111111111111111111111111111111111111111111111111111111111111
111111111111111111111111111111111111111111111111111111111111100000000011111111111111111111111111111111111111111111111111111111111111111111111111111111111111111111111111111111111111111111111111111111111111111111111111
111111111111111111111111111111111111111111111111111111111111000000000011111111111111111111111111111111111111111111111111111111111111111111111111111111111111111111111111111111111111111111111111111111111111111111111111
111111111111111111111111111111111111111111111111111111111110000000000000111111111111111111111111111111111111111111111111111111111111111111111111111111111111111111111111111111111111111111111111111111111111111111111111
111111111111111111111111111111111111111111111111111111111100000000000000001111111111111111111111111111111111111111111111111111111111111111111111111111111111111111111111111111111111111111111111111111111111111111111111
111111111111111111111111111111111111111111111111111111111100000000000000000111111111111111111111111111111110001111111111111111111111111111111111111111111111111111111111111111111111111111111111111111111111111111111111
111111111111111111111111111111111111111111111111111111111000000000000000000001111111111111111111111110000000000111111111111111111111111111111111111111111111111111111111111111111111111111111111111111111111111111111111
111111111111111111111111111111111111111111111111111111111000000000000000000000000000000011111111110000000000000011111111111111111111111111111111111111111111111111111111111111111111111111111111111111111111111111111111
111111111111111111111111111111111111111111111111111111110000000000000000000000000000000000110000000000000000000000000001111111111111111111111111111111111111111111111111111111111111111111111111111111111111111111111111
111111111111111111111111111111111111111111111111111111110000000000000000000000000000000000000000000000000000000000000000011111111111111111111111111111111111111111111111111111111111111111111111111111111111111111111111
111111111111111111111111111111111111111111111111111111100000000000000000000000000000000000000000000000000000000000000000000110001111111111111111111111111111111111111111111111111111111111111111111111111111111111111111
111111111111111111111111111111111111111111111111111111000000000000000000000000000000000000000000000000000000000000000000000000001111111111111111111111111111111111111111111111111111111111111111111111111111111111111111
111111111111111111111111111111111111111111111111111111000000000000000000000000000000000000000000000000000000000000000000000000000111111111111111111111111111111111111111111111111111111111111111111111111111111111111111
111111111111111111111111111111111111111111111111111111000000000000000000000000000000000000000000000000000000000000000000000000000011111111111111111111111111111111111111111111111111111111111111111111111111111111111111
111111111111111111111111111111111111111111111111111110000000000000000000000000000000000000000000000000000000000000000000000000000001111111111111111111111111111111111111111111111111111111111111111111111111111111111111
111111111111111111111111111111111111111111111111111100000000000000000000000000000000000000000000000000000000000000000000000000000000111111111111111111111111111111111111111111111111111111111111111111111111111111111111
111111111111111111111111111111111111111111111111111000000000000000000000000000000000000000000000000000000000000000000000000000000000111111111111111111111111111111111111111111111111111111111111111111111111111111111111
111111111111111111111111111111111111111111111111110000000000000000000000000000000000000000000000000000000000000000000000000000000000011111111111111111111111111111111111111111111111111111111111111111111111111111111111
111111111111111111111111111111111111111111111111100000000000001111000000000000000000000000000000000000000000000000000000000000000000001111111111111111111111111111111111111111111111111111111111111111111111111111111111
111111111111111111111111111111111111111111111111000000000000011111110000000000000000000000000000000000000000000000000000000000000000000111111111111111111111111111111111111111111111111111111111111111111111111111111111
111111111111111111111111111111111111111111111110000000000000111111111000000000000000000000000000000000000000000000000000000000000000000011110111111111111111111111111111111111111111111111111111111111111111111111111111
111111111111111111111111111111111111111111111100000000000001111111111100000000000000000000000000000000000000000000000000000000000000000000000011111111111111111111111111111111111111111111111111111111111111111111111111
111111111111111111111111111111111111111111110000000000000001111111111110000000000000000000000000000000000000000000000000000000000000000000000001111111111111111110001111111111111111111111111111111111111111111111111111
111111111111111111111111111111111111111111100000000000000011111111111111110000000000000000000000000000000000000000000000000000000000000000000000111111100010000000000111111111111111111111111111111111111111111111111111
111111111111111111111111111111111111111110000000000000000011111111111111111111000000000000000000000000000000000000000000000000000000000000000000000000000000000000000011111111111111111111111111111111111111111111111111
111111111111111111111111111111111111111100000000000000000111111111111111111111111000000000000000000000000000000000000000000000000000000000000000000000000000000000000000111111000111111111111111111111111111111111111111
111111111111111111111111111111111111111000000000000000000111111111111111111111111111100000000000000000000000000000000000000000000000000000000000000000000000000000000000000000000011111111111111111111111111111111111111
111111111111111111111111111111111111100000000000000000000111111111111111111111111111111110000000000000000000000000000000000000000000000000000000000000000000000000000000000000000001111111111111111111111111111111111111
111111111111111111111111111111111111000000000000000000000111111111110000111111111111111111110000000000000000000000000000000000000000000000000000000000000000000000000000000000000000000000000111111111111111111111111111
111111111111111111111111111111111110000000000000000000000111111111100000000111111111111111111111000000000000000000000000000000000000000000000000000000000000000000000000000000000000000000000001111111111111111111111111
111111111111111111111111111111111100000000000000000000001111110000000000000000011111111111111111111100000000000001110000000000000000000000000000000000000000000000000000000000000000000000000000111111111111111111111111
111111111111111111111111111111111100000000000000000000011111100000000000000000000011111111111111111111111110000011111000000000000000000000000000000000000000000000000000000000000000000000000000111111111111111111111111
111111111111111111111111111111111100000000000000000000111111000000000000000000000000011111111111111111111111111111111100000000000000000000000000000000000000000000000000000000000000000000000000011111111111111111111111
111111111111111111111111111111111000000000000000000001111110000000000000000000000000000011111111111111111111111111111110000000000000000000000000000000000000000000000000000000000000000000000000001111111111111111111111
111111111111111111111111111111111000000000000000000011111100000000000000000000000000000000011111111111111111111111111111000000000000000000000000000000000000000000000000000000000000000000000000001111111111111111111111
111111111111111111111111111111111000000000000000000011111100000000000000000000000000000000000000111111111111111111111111000000000000000000000000000000000000000000000000000000000000000000000000001111111111111111111111
111111111111111111111111111111111000000000000000000111111000000000000000000000000000000000000000000011111111111111111111100000000000000000000000000000000000000000000000000000000000000000000000001111111111111111111111
111111111111111111111111111111111000000000000000001111110000000000000000000000000000000000000000000000001111111111111111111100000000000000000000000000000000000000000000000000000000000000000000001111111111111111111111
111111111111111111111111111111111000000000000000001111100000000000000000000000000000000000000000000000000001111111111111111111100000000000000000000000000000000000000000000000000000000000000000000111111111111111111111
111111111111111111111111111111111000000000000000001111100000000000000000000000000000000000000000000000000000001111111111111111111110000000000000000000000000000000000000000000000000000000000000000111111111111111111111
111111111111111111111111111111111000000000000000001111000000000000000000000000000000000000000000000000000000000111111111111111111111111000000000000000000000000000000000000000000000000000000000000011111111111111111111
111111111111111111111111111111110000000000000000001110000000000000000000000000000000000000000000000000000000000001111111111111111111111111100000000000000000000000000000000000000000000000000000000001111111111111111111
111111111111111111111111111111100000000000000000000100000000000000000000000000000000000000000000000000000000000000000000000111111111111111111100000000000000000000000000000000000000000000000000000001111111111111111111
111111111111111111111111111111000000000000000000000000000000000000000000000000000000000000000000000000000000000000000000000001111111111111111111100000000000000000000000000000000000000000000000000000111111111111111111
111111111111111111111111111100000000000000000000000000000000000000000000000000000000000000000000000000000000000000000000000000000111111111111111111110000000000000000000000000000000000000000000000000011111111111111111
111111111111111111111111100000000000000000000000000000000000000000000000000000000000000000000000000000000000000000000000000000000000001111111111111111111100000000000111110000000000000000000000000000001111111111111111
111111111111111111111110000000000000000011111000000000000000000000000000000000000000000000000000000000000000000000000000000000000000000001111111111111111111111000011111111000000000000000000000000000000011111111111111
111111111111111111111000000000000000001111111100000000000000000000000000000000000000000000000000000000000000000000000000000000000000000000000111111111111111111111111111111100000000000000000000000000000000111111111111
111111111111111111110000000000000000011111111110000000000000000000000000000000000000000000000000000000000000000000000000000000000000000000000000011111111111111111111111111110000000000000000000000000000000011111111111
111111111111111111100000000000000000011111111110000000000000000000000000000000000000000000000000000000000000000000000000000000000000000000000000000011111111111111111111111111000000000000000000000000000000000111111111
111111111111111111100000000000000000011111111110000000000000000000000000000000000000000000000000000000000000000000000000000000000000000000000000000000000011111111111111111111100000000000000000000000000000000111111111
111111111111111111000000000000000000011111111110000000000000000000000000000000000000000000000000000000000000000000000000000000000000000000000000000000000000000111111111111111100000000000000000000000000000000111111111
111111111111111100000000000000000000111111111100000000000000000000000000000000000000000000000000000000000000000000000000000000000000000000000000000000000000000011111111111111100000000000000000000000000000000111111111
111111111111111000000000000000000001111111111000000000000000000000000000000000000000000000000000000000000000000000000000000000000000000000000000000000000000000000011111111111100000000000000000000000000000000111111111
111111111111110000000000000000000001111111100000000000000000000000000000000000000000000000000000000000000000000000000000000100000000000000000000000000000000000000001111111111100000000000000000000000000000000111111111
111111111111100000000000000000000011111111000000000000000000000000000000000000000000000000000000000000000000000000000000001110000000000000000000000000000000000000001111111111100000000000000000000000000000000011111111
111111111111000000000000000000000111111110000000000000000000000000000000000000000000000000000000000000000000000000000000011111000000000000000000000000000000111000000111111111110000000000000000000000000000000011111111
111111111110000000000000000000000111111110000000000000000000000000000000000000000000000000000000000000000000000000000000111111100000000000000000000000000000111000000000011111110000011000000000000000000000000011111111
111111111110000000000000000000001111111100000000000000000000000000000000000000000000000000000000000011111110000000000001111111110000000000000000000000000000111000000000011111110000011000000000000000000000000011111111
111111111110000000000000000000011111111000000000000000000000000000000000000000000000000000000000001111111111000000000011111111111000000000000000000000000000000000000000001111111000011000000000000000000000000011111111
111111111100000000000000000000011111110000000000000000000000000000000000000000000000000000000000011111111111100000000111111111111100000000000000000000000000000000000000001111111000000000000000000000000000000011111111
111111111100000000000000000000111111110000000000000000000000000000000000000000000000000000000000011111111111100000000111111111111110000000000000000000000000000000000000001111111000000000000000000000000000000011111111
111111111100000000000000000001111111100000000000000000000000000000000000000000000000000000000000011111111111110000000111111111111111000000000000000000000000000000000000001111111000000000000000000000000000000111111111
111111111000000000000000000011111111000000000000000000000000000000000000000000000000000000000000111111111111110000000011111111111111100000000000000000000000000000000000000111111100000000000000000000000000000011111111
111111111000000000000000000111111110000000000000000000000000000000000000000000000000000000000001111111111111110000000001111111111111110000000000000000000000000000000000000111111100000000000000000000000000000011111111
111111111000000000000000001111111100000000000000000000000000000000000000000000000000000000000011111111111111110000000000111111111111110000000000000000000000000000000000000111111100000000000000000000000000000011111111
111111110000000000000000011111111000000000000000000000000000000000000000000000000000000000000111111111111111111000000000011111111111110000000000000000000000000000000000000111111100000000000000000000000000000011111111
111111110000000000000000111111110000000000000000000000000000000000000000000000000000000000001111111111111111111100000000001111111111100000000000000000000000000000000000000011111110000000000000000000000000000001111111
111111110000000000000000111111110000000000000000000000000000000000000000000000000000000000111111111111111111111110000000000111111111000000000000000000000000000000000000000011111110000000000000000000000000000001111111
111111110000000000000001111111100000000000000000000000000000000000000000000000000000000001111111111111111111111111000000000011111110000000000000000000000000000000000000000011111110000000000000000000000000000001111111
111111110000000000000011111111000000000000000000000000000000000000000000000000000000000011111111111111111111111111100000000001111100000000011000000000000000000000000000000011111110000000000000000000000000000001111111
111111110000000000000111111110000000000000000000000000000000000000000000000000000000000111111111111111111111111111110000000000111000000000111100000000000000000000000000000011111110000000000000000000000000000001111111
111111100000000000000111111110000000000000000000000000000000000000000000000000000000001111111111111111111111111111111000000000000000000001111110000000000000000000000000000001111111000000000000000000000000000001111111
111111000000000000001111111100000000000000000000000000000000000000000000000000000000011111111111111111111111111111111100000000000000000011111111000000000000000000000000000001111111000000000000000000000000000001111111
111111000000000001111111111000000000000000000000000000000000000000000000000000000000111111111111111111111111111111111110000000000000000111111111100000000000000000000000000001111111000000000000000000000000000001111111
111111000000000011111111110000000000000000000000000000000000000000000000000000000001111111111111111111111111111111111111100000000000001111111111110000000000000000000000000001111111000000000000000000000000000000111111
111110000000000111111111110000000000000000000000000000000000000000000000000000000111111111111111111111111111111111111111100000000000011111111111111000000000000000000000000000111111100001110000000000000000000000111111
111110000000000111111111111000000000000000000000000000000000000000000000000000001111111111111111111111111111111111111111110000000000011111111111111100000000000000000000000000111111100001110000000000000000000000111111
111110000000000111111111111000000000000000000000000000000000000000000000000000011111111111111111111111111111111111111111111100000000001111111111111110000000000000000000000000111111100000000000000000000000000000011111
111110000000000111111111111000000000000000000000000000000000000000000000000000111111111111111111111111111111111111111111111110000000000111111111111111000000000000000000000000111111100000000000000000000000000000011111
111110000000000011111111111000000000000000000000000000000000000000000000000001111111111111111111111111111111111111111111111111000000000011111111111111100000000000000000000000111111110000000000000000000000000000011111
111100000000000001111111110000000000000000000000000000000000000000000000000011111111111111111111111111111111111111111111111111000000000001111111111111000000000000000000000000011111110000000000000000000000000000011111
111100000000000000111111100000000000000000000000000000000000000000000000000111111111111111111111111111111111111111111111111111110000000000111111111110000000000000000000000000011111110000000000000000000000000000011111
111100000000000000001111100000000000000000000000000000000000000000000000001111111111111111111111111111111111111111111111111111111000000000011111111100000000000000000000000000011111110000000000000000000000000000011111
111100000000000000001111100000000000000000000000000000000000000000000000011111111111111111111111111111111111111111111111111111111100000000001111111000000000000000000000000000001111111000000000000011100000000000011111
111100000000000000001111100000000000000000000000000000000000000000000001111111111111111111111111111111111111111111111111111111111111000000000111110000000000000000000000000000001111111000000000000011100000000000011111
111100000000000000001111100000000000000000000000000000000000000000000011111111111111111111111111111111111111111111111111111111111111100000000011100000000000000000000000000000001111111100000000000000000000000000011111
111110000000000000000111110000000000000000000000000000000000000000000111111111111111111111111111111111111111111111111111111111111111110000000001100000000000000000000000000000001111111110000000000000000000000000111111
111110000000000000000111110000000000000000000000000000000000000000011111111111111111111111111111111111111111111111111111111111111111111000000000000000000000000000000000000000001111111110000000000000000000000001111111
111110000000000000000111110000000000000000000000000000000000000000111111111111111111111111111111111111111111111111111111111111111111111100000000000000000000000000000000000000001111111110000000000000000000000011111111
111110000000000000000111110000000000000000000000000000000000000001111111111111111111111111111111111111111111111111111111111111111111111110000000000000000000000000000000000000001111111110000000000000000000000111111111
111110000000000000000011111000000000000000000000000000000000000011111111111111111111111111111111111111111111111111111111111111111111111111100000000000000000000000000000000000001111111110000000000000000000000111111111
111110000000000000000011111000000000000000000000000000000000111111111111111111111111111111111111111111111111111111111111111111111111111111110000000000000000000000000000000000000111111110000000000000000000001111111111
111110000000000000000011111000000000000000000000000000000011111111111111111111111111111111111111111111111111111111111111111111111111111111111100000000000000000000000000000000000011111100000000000000000000001111111111
111110000000000000000011111000000000000000000000000000000111111111111111111111111111111111111111111111111111111111111111111111111111111111111110000000000000000000000000000000000001111100000000000000000000011111111111
111111000000000000000001111100000000000000000000000000000111111111111111111111111111111111111111111111111111111111111111111111111111111111111111000000000000000000000000000000000001111100000000000000000000011111111111
111111000000000000000001111100000000000000000000000000001111111111111111111111111111111111111111111111111111111111111111111111111111111111111111111000000000000000000000000000000001111110000000000000000000011111111111
111111100000000000000001111100000000000000000000000000001111111111111111111111111111111111111111111111111111111111111111111111111111111111111111111000000000000000000000000000000000111110000000000000000000011111111111
111111110000000000000001111100000000000000000000000000001111111111111111111111111111111111111111111111111111111111111111111111111111111111111111111000000000000000000000000000000000111110000000000000000000001111111111
111111111000000000000000111110000000000000000000000000001111111111111111111111111111111111111111111111111111111111111111111111111111111111111111111100000000000000000000000000000000111110000000000000000000001111111111
111111111100000000000000111110000000000000000000000000000111111111111111111111111111111111111111111111111111111111111111111111111111111111111111111100000000000000000000000000000000111111000000000000000000001111111111
111111111000000000000000111110000000000000000000000000000011111111111111111111111111111111111111111111111111111111111111111111111111111111111111111110000000000000000000000000000000011111000011000000000000001111111111
111111111000000000000000111110000000000000000000000000000001111111001111111111111111111111111111111111111111111111111111111111111111111111111111111110000000000000000000000000000000011111000011000000000000001111111111
111111111000000000000000111110000000000000000000000000000000000000000111111111111111111111111111111111111111111111111111111111111111111111111111111110000000000000000000000000000000011111000011000000000000001111111111
111111111000000000000000011111000000000000000000000000000000000000000011111111111111111111111111111111111111111111111111111111111111111111111111111100000000000000000000000000000000011111100000000000000000000111111111
111111110000000000000000011111000000000000000000000000000000000000000001111111111111111111111111111111111111111111111111111111111111111111111111111100000000000000000000000000000000001111100000000000000000000011111111
111111110000000000000000011111000000000000000000000000000000000000000000111111111111111111111111111111111111111111111111111111111111111111111111111000000000000000000000000000000000001111100000000000000000000011111111
111111110000000000000000011111000000000000000000000000000000000000000000011111111111111111111111111111111111111111111111111111111111111111111111000000000000000000000000000000000000001111100000000000000000000011111111
111111110000000000000000011111000000000000000000000000000000000000000000001111111111111111111111111111111111111111111111111111111111111111111111100000000000000000000000000000000000001111110000000000000000000011111111
111111100000000000000000011111100000000000000000000000000000000000000000000111111111111111111111111111111111111111111111111111111111111111111111100000000000000000000000000000000000000111110000000000000000000001111111
111111000000000000000000011111100000000000000000000000000000000000000000000011111111111111111111111111111111111111111111111111111111111111111111110000000000000000000000000000000000000111110000000000000000000001111111
111111000000000000000000011111100000000000000000000000000000001110000000000000111111111111111111111111111111111111111111111111111111111111111111111000000000000000000000000000000000000111110000000000000000000001111111
111111000000000000000000011111100000000000000000000000000000011111000000000000111111111111111111111111111111111111111111111111111111111111111111111100000000000000000000000000000000000111111000000000000000000000111111
111111000000000000000000111111110000000000000000000000000000111111100000000000011111111111111111111111111111111111111111111111111111111111111111111110000000000000000000000000000000000011111000000000000000000000111111
111111000000000000000001111111110000000000000000000000000001111111110000000000000111111111111111111111111111111111111111111111001111111111111111111111000000000000000000000000000000000011111000000000000000000000111111
111111000000000000000001111111110000000000000000000000000011111111111000000000000011111111111111111111111111111111111111111110000111111111111111111111100000000000000000000000000000000011111000000000000000000000011111
111111000000000000000001111111110000000000000000000000000111111111111100000000000001111111111111111111111111111111111111111100000011111111111111111111111000000000000000000000000000000011111100000000000000000000011111
111111000000000000000000111111110000000000000000000000001111111111111110000000000000111111111111111111111111111111111111111000000011111111111111111111111100000000000000000000000000000001111100000000000000000000011111
111111000000000000000000011111110000000000000000000000011111111111111111000000000000011111111111111111111111111111111111110000000001111111111111111111111100000000000000000000000000000001111100000000000000000000011111
111111000000000000000000001111110000000000000000000000011111111111111111100000000000001111111111111111111111111111111111111000000000111111111111111111111000000000000000000000000000000001111100000110000000000000011111
111111000000000000000000000111111000000000000000000000011111111111111111110000000000000111111111111111111111111111111111111000000000011111111111111111110000000000000000000000000000000001111110000110000000000000111111
111111000000000000000000000011111000000000000000000000001111111111111111110000000000000011111111111111111111111111111111111000000000001111111111111111100000000000000000000000000000000000111110000110000000000000111111
111111100000000000000000000011111000000000000000000000000111111111111111110000000000000001111111111111111111111111111111111100000000000111111111111111000000100000000000000000000000000000111110000000000000000001111111
111111110000000000000000000011111000000000000000000000000011111111111111100000000000000000111111111111111111111111111111111110000000000111111111111110000001110000000000000000000000000000111110000000000000000011111111
111111111000000000000000000001111100000000000000000000000001111111111111000000000000000000011111111111111111111111111111111111000000000011111111111100000011111000000000000000000000000000111111000000000000000111111111
111111111100000000000000000001111100000000000000000000000000111111111110000000000000000000001111111111111111111111111111111111100000000001111111111000000111111100000000000000000000000000011111000000000000000111111111
111111111110000000000000000001111100000000000000000000000000011111111100000000011100000000000111111111111111111111111111111111110000000000111111111000001111111110000000000000000000000000011111000000000000000111111111
111111111111000000000000000000111110000000000000000000000000001111111000000000111110000000000011111111111111111111111111111111111000000000011111110000011111111111000000000000000000000000011111100000000000001111111111
111111111111110000000000000000111110000000000000000000000000000111110000000001111111000000000001111111111111111111111111111111111000000000011111100000111111111111100000000000000000000000011111110000000000011111111111
111111111111111000000000000000111110000000000000000000000000000011100000000011111111100000000000111111111111111111111111111111111100000000001111000001111111111111110000000000000000000000011111111000000000011111111111
111111111111111100000000000000011111000000000000000000000000000000000000000111111111110000000000011111111111111111111111111111111110000000000110000011111111111111110000000000000000000000011111111100000000111111111111
111111111111111110000000000000011111000000000000000000000000000000000000001111111111111000000000001111111111111111111111111111111111000000000100000111111111111111110000000000000000000000111111111110000000111111111111
111111111111111110000000000000011111000000000000000000000000000000000000011111111111111100000000000111111111111111111111111111111111100000000000001111111111111111110000000000000000000000111111111110000001111111111111
111111111111111110000000000000011111000000000000000000000000000000000000111111111111111110000000000011111111111111111111111111111111110000000000011111111111111111100000000000000000000001111111111110000001111111111111
111111111111111110000000000000011111000000000000000000000000000000000001111111111111111111000000000011111111111111111111111111111111111000000000111111111111111111000000000000000000000011111111111110000011111111111111
111111111111111110000000000000001111000000000000000000000000000000000001111111111111111111100000000011111111111111111111111111111111111100000000001111111111111110000000000000000000000111111111111100000111111111111111
111111111111111111000000000000001111000000000000000000000000000000000000111111111111111111100000000011111111111111111111111111111111111100000000000111111111111100000000000000000000001111111111111000001111111111111111
111111111111111111000000000000001111100000000000000000000000000000000000011111111111111111100000000011111111111111111111111111111111110000000000000011111111111000000000000000000000011111111111110000001111111111111111
111111111111111111000000000000001111100000000000000000000000000000000000001111111111111111000000000011111111111111111111111111111111100000000000000001111111110000000000000000000000111111100000000000001111111111111111
111111111111111111000000000000001111100000000000000000000000000000000000000111111111111110000000000011111111111101111111111111111111000000110000000000111111100000000000000000000001111111000000000000011111111111111111
111111111111111110000000000000001111100000000000000000000000000000000000000011111111111100000000000011111111111000111111111111111110000001111000000000011111000000000000000000000011111110000000000000011111111111111111
111111111111111110000000000000011111100000000000000000000000000000000000000001111111111000000000000001111111110000011111111111111100000011111100000000001110000000000000000000000111111100000000000000011111111111111111
111111111111111100000000000000011111100000000000000000000000000000000000000000111111110000000000000000111111100000001111111111111000000111111110000000000100000000000000000000001111111000000000000000011111111111111111
111111111111111100000000000000111111100000000000000000000000000000000000000000011111100000000000000000011111000000000111111111110000001111111111000000000000000000000000000000011111110000000000000000011111111111111111
111111111111111100000000000001111111110000000000000000000000000000000000000000001111000000000000000000000000000000000011111111100000011111111111100000000000000000000000000000111111100000000000000000011111111111111111
111111111111111100000000000111111111111000000000000000000000000000000000000000000110000000000000000000000000000000000001111111000000111111111111110000000000000000000000000001111111000000000000000000111111111111111111
111111111111111100000000001111111111111100000000000000000000000000000000000000000000000000000000000000000000000000000000111110000001111111111111111000000000000000000000000011111110000000000000000000111111111111111111
111111111111111100000000011111111111111111100000000000000000000000000000000000000000000000000000000000000000000000000000011100000011111111111111111100000000000000000000000111111100000000000000000000111111111111111111
111111111111111100000000111111111111111111111100000000000000000000000000000000000000000000000000000000000000000000000000001100001111111111111111111000000000000000000000011111111000000000000000000001111111111111111111
111111111111111100000001111111111111111111111111100000000000000000000000000000000000000000000000000000000000000000000000000000001111111111111111110000000000000000000000111111100000000000000000000001111111111111111111
111111111111111100000001111111111111111111111111111110000000000000000000000000000000000000000000000000000000000000000000000000011111111111111111100000000000000000000001111111000000000000000000000011111111111111111111
111111111111111110000011111111111111111111111111111111110000000000000000000000000000000000000000000000000000000000000000000000011111111111111111000000000000000000000011111110000000000000000000000111111111111111111111
111111111111111111000111111111111111111111111111111111111100000000000000000000000000000000000000000000000000000000000000000000000111111111111110000000000000000000000011111100000000000000000000001111111111111111111111
111111111111111111101111111111111111111111111111111111111111100000000000000000000000000000000000000000000000000000000000000000000011111111111100000000000000000000000111111000000000000000000000001111111111111111111111
111111111111111111111111111111111111111111111111111111111111111100000000000000000000000000000000000000000000000000000000000000000001111111111000000000000000000000000111110000000000110000000000111111111111111111111111
111111111111111111111111111111111111111111111111111111111111111111000000000000000000000000000000000000000000000000000000000000000000111111110000000000000000000000000111100000000000110000000000111111111111111111111111
111111111111111111111111111111111111111111111111111111111111111111100000000000000000000000000000000000000000000000000000000000000000011111100000000000000000000000000011000000000000000000000001111111111111111111111111
111111111111111111111111111111111111111111111111111111111111111111111000000000000000000000000000000000000000000000000000000000000000001111000000000000000000000000000000000000000000000000000011111111111111111111111111
111111111111111111111111111111111111111111111111111111111111111111111110000000000000000000000000000000000000000000000000000000000000000110000000000000000000000110000000000000000000000000000011111111111111111111111111
111111111111111111111111111111111111111111111111111111111111111111111111110000000000000000000000000000000000000000000000000000000000000000000000000000000000001111000000000000000000000000000111111111111111111111111111
111111111111111111111111111111111111111111111111111111111111111111111111111100000000000000000000000000000000000000000000000000000000000000000000000000000000011111000000000000000000000000001111111111111111111111111111
111111111111111111111111111111111111111111111111111111111111111111111111111111100000000000000000000000000000000000000000000000000000000000000000000000000000111111000000000000000000000000011111111111111111111111111111
111111111111111111111111111111111111111111111111111111111111111111111111111111111111111110000000000000000000000000000000000000000000000000000000000000000001111110000000000000000000000000111111111111111111111111111111
111111111111111111111111111111111111111111111111111111111111111111111111111111111111111110000000000000000000000000000000000000000000000000000000000000000011111100000000000000000000000001111111111111111111111111111111
111111111111111111111111111111111111111111111111111111111111111111111111111111111111111111000000000000000000000000000000000000000000000000000000000000001111111000000000000000000000000001111111111111111111111111111111
111111111111111111111111111111111111111111111111111111111111111111111111111111111111111111100000000000000000000000000000000000000000000000000000000000011111110000000000000000000000000011111111111111111111111111111111
111111111111111111111111111111111111111111111111111111111111111111111111111111111111111111100000000000000000000000000000000000000000000000000000000000111111100000000000000000000000000011111111111111111111111111111111
111111111111111111111111111111111111111111111111111111111111111111111111111111111111111111111000000000000000000000000000000000000000000000000000000001111111000000000000000000000000000111111111111111111111111111111111
111111111111111111111111111111111111111111111111111111111111111111111111111111111111111111111110000000000000000000000000000000000000000000000000000011111110000000000000000000000000000111111111111111111111111111111111
111111111111111111111111111111111100001111111111111111111111111111111111111111111111111111111111110000000000000000000000000000000000000000000000000111111000000000000000000000000000000111111111111111111111111111111111
111111111111111111111111111111100000000000000111111111111111111111111111111111111111111111111111111110000000000000000000000000000000000000000000001111110000000000000000000000000000000111111111111111111111111111111111
111111111111111111111111111111100000000000000000000111111111111111111111111111111111111111111111111111110000000000000000000000000000000000000000011111100000000000000000000000000000001111111111111111111111111111111111
111111111111111111111111111111100000000000000000000111111111111111111111111111111111111111111111111111111110000000000000000000000000000000000000111111000000000000000000000000000000001111111111111111111111111111111111
111111111111111111111111111111110000000000000000000111111111111111111111111111111111111111111111111111111111110000000000000000000000000000000011111110000000000000000000000000000000011111111111111111111111111111111111
111111111111111111111111111111110000000000000000001111111111111111111111111111111111111111111111111111111111111100000000000000000000000000000111111100000000000000000000000000000000011111111111111111111111111111111111
111111111111111111111111111111110000000000000000001111111111111111111111111100100111111111111111111111111111111111100000000000000000000000001111111000000000000000000000000000000000111111111111111111111111111111111111
111111111111111111111111111111111000000000000000011111111111111111111111111100001111111111111111111111111111111111111100000000000000000000011111100000000000000000000000000000000001111111111111111111111111111111111111
111111111111111111111111111111111000000000000000011111111111111111111111111100001111111111111111111111111111111111111111100000000001100000111111000000000000000000000000000000000011111111111111111111111111111111111111
111111111111111111111111111111111000000000000000011111111111111111111111111000011111111111111111111111111111111111111111111100000111111001111110000110000000000000000000000000000011111111111111111111111111111111111111
111111111111111111111111111111111100000000000000000111111111111111111111111000011111111111111111111111111111111111111111111111001111111111111100001111000000000000000000000000000111111111111111111111111111111111111111
111111111111111111111111111111111100000000000000000000111111111111111111110000111111111111111111111111111111111111111111111111111111111111111000001111000000000000000000000000111111111111111111111111111111111111111111
111111111111111111111111111111111110000000000000000001111111111111111111110000111111111111111111111111111111111111000111111111111111111111110000000000000000000000000000000011111111111111111111111111111111111111111111
111111111111111111111111111111111111000000000000000000011111111111111111100001111111111111111111111111111111111110000000111111111111111111100000000000000000000000000000001111111111111111111111111111111111111111111111
111111111111111111111111111111111111000000000000000000000000011111111111100001111111111111111111111111111111111110000000001111111111111111100000000000000000000000000000011111111111111111111111111111111111111111111111
111111111111111111111111111111111111000000000000000000000000001111111111100001111111111111111111111111111111111111111000000011111111111111100000000000000000000000000000111111111111111111111111111111111111111111111111
111111111111111111111111111111111111100000000000000000000000000011111111000011111111111111111111111111111111111111111000000000011111111111100000000000000000000000000011111111111111111111111111111111111111111111111111
111111111111111111111111111111111111100000000000000000000000000000001111000011111111111111111111111111111111111111111000000000011111111111100000000000000000000000000011111111111111111111111111111111111111111111111111
111111111111111111111111111111111111110000000000000000000000000000000011000011111111111111111111111111111111111111111000000000011111111111100000000000000000000000000111111111111111111111111111111111111111111111111111
111111111111111111111111111111111111110000000000000000000000000000000000000111111111111111111111111111111111111111110000000000001111111111000000000000000000000000000111111111111111111111111111111111111111111111111111
111111111111111111111111111111111111111000000000000000000000000000000000000111111111111111111111111111111111111111110000000000000011111110000000000000000000000000001111111111111111111111111111111111111111111111111111
111111111111111111111111111111111111111100000000000000000000000000000000000111111111111111111111111111111111111111100000000000000000111100000000000000000000000000011111111111111111111111111111111111111111111111111111
111111111111111111111111111111111111111111000000000000000000000000000000000111111111111111111111111111111111111111100000000000000000000000000000000000000000000000011111111111111111111111111111111111111111111111111111
111111111111111111111111111111111111111111000000000000000000000000000000000111111111111111111111111111111111111111000000000000000000000000000000000000000000000000111111111111111111111111111111111111111111111111111111
111111111111111111111111111111111111111111000000000000000000000000000000001111111111111111111111111111111111111111000000000000000000000000000000000000000000000000111111111111111111111111111111111111111111111111111111
111111111111111111111111111111111111111111111000000000000000000000000000011111111111111111111111111111111111111110000000000000000000000000000000000000000000000001111111111111111111111111111111111111111111111111111111
111111111111111111111111111111111111111111111100000000000000000000000000011111111111111111111111111111111111111110000000000000000000000000000000000000000000000011111111111111111111111111111111111111111111111111111111
111111111111111111111111111111111111111111111110000000000000000000000000001111111111111111111111111111111111111110000000000000000000000000000000000000000000001111111111111111111111111111111111111111111111111111111111
111111111111111111111111111111111111111111111110000000000000000000000000000001111111111111111111111111111111111100000000000000000000000000000000000000000000011111111111111111111111111111111111111111111111111111111111
111111111111111111111111111111111111111111111111000000000000000000000000000000111111111111111111111111111111111100111000000000000000000000000000000000000000111111111111111111111111111111111111111111111111111111111111
111111111111111111111111111111111111111111111111000000000000000000000000000000111111111111111111111111111111111100111000000000000000000000000000000000000001111111111111111111111111111111111111111111111111111111111111
111111111111111111111111111111111111111111111111011000000000000000000000000000111111111111111111111111111111111000000000001110000000000000000000000000000001111111111111111111111111111111111111111111111111111111111111
111111111111111111111111111111111111111111111111111100000000000000000000000000000011111110011111111111111111111011000000001110000000000000000000000000000001111111111111111111111111111111111111111111111111111111111111
111111111111111111111111111111111111111111111111110000000000000000000000000000000000001110011111111111111111110011000000000000000000000000000000000000000011111111111111111111111111111111111111111111111111111111111111
111111111111111111111111111111111111111111111111111101100000000000111000000000000000000100011111111111111111110011000000000000000000000000000000000000001111111111111111111111111111111111111111111111111111111111111111
111111111111111111111111111111111111111111111111111111111110001111111110001000000000000000011111111111111111110000000000000000000000000000000000000111111111111111111111111111111111111111111111111111111111111111111111
111111111111111111111111111111111111111111111111111111111111111111111111111111111110000000000011111111111111100000000000111000001111111111111111111111111111111111111111111111111111111111111111111111111111111111111111
111111111111111111111111111111111111111111111111111111111111111111111111111111111111110000000011111111111111100000000000111001111111111111111111111111111111111111111111111111111111111111111111111111111111111111111111
111111111111111111111111111111111111111111111111111111111111111111111111111111111111111111111000011111111111100000000111111111111111111111111111111111111111111111111111111111111111111111111111111111111111111111111111
111111111111111111111111111111111111111111111111111111111111111111111111111111111111111111111111111111111111110001001111111111111111111111111111111111111111111111111111111111111111111111111111111111111111111111111111
111111111111111111111111111111111111111111111111111111111111111111111111111111111111111111111111111111111111111111111111111111111111111111111111111111111111111111111111111111111111111111111111111111111111111111111111
111111111111111111111111111111111111111111111111111111111111111111111111111111111111111111111111111111111111111111111111111111111111111111111111111111111111111111111111111111111111111111111111111111111111111111111111
