1111111111111111111111111111111111111111111111111111111111111111111111111111111111111111111111111111111111111111111111111111111111111111111111111111
1111111111111111111111111111111111111111111111111111111111111111111111111111111111111111111111111111111111111111111111111111111111111111111111111111
1111111111111111111111111111111111111111111111111111111111111111111111111111111111111111111111111111111111111111111111111111111111111111111111111111
1111111111111111111111111111111111111111111111111111111111111111111111111111111111111111111111111111111111111111111111111111111111111111111111111111
1111111111111111111111111111111111111111111111111111111111111111111111111111111111111111111111111111111111111111111111111111111111111111111111111111
1111111111111111111111111111111111111111111111111111111111111111111111111111111111111111111111111111111111111111111111111111111111111111111111111111
1111111111111111111111111111111111111111111111111111111111111111111111111111111111111111111111111111111111111111111111111111111111111111111111111111
1111111111111111111111111111111111111111111111111111111111111111111111111111111111111111111111111111111111111111111111111111111111111111111111111111
1111111111111111111111111111111111111111111111111111111111111111111111111111111111111111111111111111111111111111111111111111111111111111111111111111
1111111111111111111111111111111111111111111111111111111111111111111111111111111111111111111111111111111111111111111111111111111111111111111111111111
1111111111111111111111111111111111111111111111111111111111111111111111111111111111111111111111111111111111111111111111111111111111111111111111111111
1111111111111111111111111111111111111111111111111111111111111111111111111111111111111111111111111111111111111111111111111111111111111111111111111111
1111111111111111111111111111111111111111111111111111111111111111111111111111111111111111111111111111111111111111111111111111111111111111111111111111
1111111111111111111111111111111111111111111111111111111111111111111111111111111111111111111111111111111111111111111111111111111111111111111111111111
1111111111111111111111111111111111111111111111111111111111111111111111111111111111111111111111111111111111111111111111111111111111111111111111111111
1111111111111111111111111111111111111111111111111111111111111111111111111111111111111111111111111111111111111111111111111111111111111111111111111111
1111111111111111111111111111111111111111111111111111111111111111100111111111111111111111111111111111111111111111111111111111111111111111111111111111
1111111111111111111111111111111111111111111111111111111111111110000011111111111111111111111111111111111111111111111111111111111111111111111111111111
1111111111111111111111111111111111111111111111111111111111111100000001111111111111111111111111111111111111111111111111111111111111111111111111111111
1111111111111111111111111111111111111111111111111111111111111000000000111111111111111111111111111111111111111111111111111111111111111111111111111111
1111111111111111111111111111111111111111111111111111111111110000000000111111111111111111111111111111111111111111111111111111111111111111111111111111
1111111111111111111111111111111111111111111111111111111111000011100000011111111111111111111111111111111111111111111111111111111111111111111111111111
1111111111111111111111111111111111111111111111111111111110000011100000001111111111111111111111111111111111111111111111111111111111111111111111111111
1111111111111111111111111111111111111111111111111111111100000000000000001111111111111111111111111111111111111111111111111111111111111111111111111111
1111111111111111111111111111111111111111111111111111111110000000000110000111111111111111111111111111111111111111111111111111111111111111111111111111
1111111111111111111111111111111111111111111111111111111111000000000111000011111111111111111111111111111111111111111111111111111111111111111111111111
1111111111111111111111111111111111111111111111111111111111000000000111100001111111111111111111111111111111111111111111111111111111111111111111111111
1111111111111111111111111111111111111111111111111111100111100000000011111000011111111111111111111111111111111111111111111111111111111111111111111111
1111111111111111111111111111111111111111111111111110000011111000000000111100001111111111111111111111111111111111111111111111111111111111111111111111
1111111111111111111111111111111111111111111111111100000001111100000000011100000111111111111111111111111111111111111111111111111111111111111111111111
1111111111111111111111111111111111111111111111111100000000111100000000011100000000111111111111111111111111111111111111111111111111111111111111111111
1111111111111111111111111111111111111111111111111110000000011110000000001100000000011111111111111111111111111111111111111111111111111111111111111111
1111111111111111111111111111111111111111111111111111000000001111100000000000000000001111111111111111111111111111111111111111111111111111111111111111
1111111111111111111111111111111111111111111111111111100000000111110000000000000000000111111111111111111111111111111111111111111111111111111111111111
1111111111111111111111111111111111111111111111111111110000000011110000000000000000000011111111111111111111111111111111111111111111111111111111111111
1111111111111111111111111111111111111111111110011111111000000001111000000000000000000001111111111111111111111111111111111111111111111111111111111111
1111111111111111111111111111111111111111111000011111111100000000111000000000000111000001111111111111111111111111111111111111111111111111111111111111
1111111111111111111111111111111111111111110000011111111110000000000001000000000111100000011111111111111111111111111111111111111111111111111111111111
1111111111111111111111111111111111111111110000111111111110000000000011100000000111110000001111111111111111111111111111111111111111111111111111111111
1111111111111111111111111111111111111111100000111101111110000000000011111000000011111000000111111111111111111111111111111111111111111111111111111111
1111111111111111111111111111111111111110000000011100111111000000000001111100000000111100000011111111111111111111111111111111111111111111111111111111
1111111111111111111111111111111111111100000000000000001110000000000000111100000000011110000001111111111111111111111111111111111111111111111111111111
1111111111111111111111111111111111111100000000000000000000000000011001111110000000001110000000111111111111111111111111111111111111111111111111111111
1111111111111111111111111111111111111110000000000000000000000000111111111111000000000110000000011111111111111111111111111111111111111111111111111111
1111111111111111111111111111111111111111000000000000000000000001111111111111110000000000000000001111111111111111111111111111111111111111111111111111
1111111111111111111111111111111110111111100000000000000000000000111111111111111000000000000000000111111111111111111111111111111111111111111111111111
1111111111111111111111111111111110011111110000000000000000000000011111111100011100000000000100000011111111111111111111111111111111111111111111111111
1111111111111111111111111111111100011111111000000000000000000000011111111000011110000000001110000001111111111111111111111111111111111111111111111111
1111111111111111111111111111110000011111111100000000000000000000111111110000111111000000001111100000011111111111111111111111111111111111111111111111
1111111111111111111111111111100000111111111110000000000000000001111111100001111111100000001111110000011111111111111111111111111111111111111111111111
1111111111111111111111111111100000111100111111000000000000000001111111000011111111100000000001111000011111111111111111111111111111111111111111111111
1111111111111111111111111111000000001000011111000000000000000001111110000111111111110000000000111100000011111111111111111111111111111111111111111111
1111111111111111111111111100000000000000001111000000000000000001111100001111111100111100000000011100000001111111111111111111111111111111111111111111
1111111111111111111111111110000000000000000000000000000000000001110000011111111000011110000000001100000000111111111111111111111111111111111111111111
1111111111111111111111111111000000000000000000001111000000000000000000111111111000000111000000000000000000011111111111111111111111111111111111111111
1111111111111111111111111111100000000000000000011111000000000000000001111111111100000111100000000000000000001111111111111111111111111111111111111111
1111111111111111111111001111110000000000000000111111001100000000000001111110111100001111110000000000000000000111111111111111111111111111111111111111
1111111111111111111110001111111000000000000001111110011100000000000001111100011000011111111000000000000000000011111111111111111111111111111111111111
1111111111111111111110001111111100000000000001111100111100000000000001111100000000111111111000000000001100000001111111111111111111111111111111111111
1111111111111111111100011111111110000000000000111001111000000000000001100000000001111111111100000000001111000000111111111111111111111111111111111111
1111111111111111110000011111111111000000000000010011110000000000000000000000000011111111001110000000001111100000011111111111111111111111111111111111
1111111111111111100000001110011111100000000000000111100011000000000000000000000111111110000100000000000011110000001111111111111111111111111111111111
1111111111111111100000000100001111100000000000001111000111100000000000000000001111111111000000110000000001111000000111111111111111111111111111111111
1111111111111111110000000000000111000000000000001110001111110000000000000000011111111111100000111100000000111100000001111111111111111111111111111111
1111111111111111111100000000000000000000000000001100011111110011000000000000011111110111100000011110000000111100000000111111111111111111111111111111
1111111111111111111110000000000000000000000000000000011111100111100000000000011111100111000000001111000000000000000000111111111111111111111111111111
1111111111111101111110000000000000000000000000000000011111001111100000000011001111100010000010000111100000000000000000111111111111111111111111111111
1111111111111100111111000000000000000000010000000000001110011110000000000111100111000000000111100111110000000000000000011111111111111111111111111111
1111111111000000011111110000000000000000111000000000000000111100000000001110110000000000001111111111111000000000000000000011111111111111111111111111
1111111110000000001111111000000001110001111100000000000001111000111000011100011000000000001111111111111100000000000000000001111111111111111111111111
1111111110000000000111111000000011110011111100000000000011110001111000111000001100000000000111111111111110000000000110000000111111111111111111111111
1111111100000000000111111100000011100111111000000000000011100111111101110000000110000000000111111111101111000000000111100000011111111111111111111111
1111110000000000000001111110000011001111111000000000000011000111111111100000000011000000000111111111000111100000000111110000001111111111111111111111
1111111000000001100000011110000000011111111000000000000000000111111110000000000001100000001111111110001111100000000001111000000111111111111111111111
1111111100000011110000001100001100111111110000000000000000000011111100000000000001100000001111111100011111110000000000111000000011111111111111111111
1111111110000011111100000000011111111111100000111100000000000001111000000010000000110000001111110000111111111100000000011100000000111111111111111111
1111111111000000111110000000111111111111000001111100000000000001110000000111000000011000011111100001111111111110000000011110000000011111111111111111
1111111111100000001111000001111111111110000011111100000000000001100000000111100000011100011111100011111111101111000000001110000000001111111111111111
1111111111110000000111000000111111111100000111111100000000000011110000000001110000011100011110000111111111000111100000000000000000001111111111111111
1111111111111000000111100000011111111000001111111000000000000111110000000000110000001100000000001111111111100011111000000000000000000011111111111111
1111111111111100000011100000001111111000011111110000000000000111111000000000110000000000000000011111111111100001111100000000000000000001111111111111
1111111111111110000000000000000111111100111111110000000000000111111110000001111000000000000000001111111111100001111100000000000000000000111111111111
1111111111111111000000000000000011111111111111111000000010000011111111111111111000000000000000001111110111000011111110000000000001100000111111111111
1111111111111111100000000000000001111111111111111000000111000001111111111111111000000000000000001111000010000111111111000000000001110000011111111111
1111111111111111110000000000000001111111111111111000001111100000011111111100111000000000000000001100000000001111111111100000000001111000000111111111
1111111111111111111100000000100000011111111110110000011111000000001111111000011000000000000000000000000000011111111111000000000000111110000011111111
1111111111111111111110000001111000001111111100000000111111000000001111110000000000000000000000000000000000011111111000000000000000001111000011111111
1111111111111111111111000001111100000111111110000001111111000000000111110000000000000011100000000000000000111111111000001110000000000111000001111111
1111111111111111111111100000111110000011111111000011111111000000000001111000000000001111110000000000000001111111111000001111000000000111100011111111
1111111111111111111111110000001111000001111111100111111110000000000000011100000000011111110000000000000011111111111000000111100000000001000111111111
1111111111111111111111111000000111100000111111111111111110000000000000001100000000011111110000001000000011111100111000000011110000000000001111111111
1111111111111111111111111100000111110000011111111111111111000000000000000000000000011111100000011100000011111000010000000001111000000000011111111111
1111111111111111111111111110000011110000001111111111111111000000000110000000000000111111000000001110000000111000000000000000111100000000111111111111
1111111111111111111111111111000000000000000011111111100110000000001111000000000000111110000000000110000000000000000000000000011110000001111111111111
1111111111111111111111111111100000000000000001111111000000001100011111000000000000011110000000000000000000000000000000000000001111000011111111111111
1111111111111111111111111111110000000001000001111111000000011110111110000000000000001000000000000000000000000000000000000000000111100111111111111111
1111111111111111111111111111111000000011110001111111100000111111111110000000000000000000000000000000000000000000000110000000000011111111111111111111
1111111111111111111111111111111110000011111000001111110000111111111111000000000000000000000000000000000000000000001111000000000001111111111111111111
1111111111111111111111111111111111000011111100000111100000011111111110000000000000000000000000000000000000000000001111100000000000111111111111111111
1111111111111111111111111111111111100000111110000011000100011111111100000100000000000000000000000000000000000000000111110000000001111111111111111111
1111111111111111111111111111111111110000011110000000001111111111111000001111100000000000000000000000000000000000000111111000000011111111111111111111
1111111111111111111111111111111111111000001111000000011111111111110000011111100000000000000000000000000000000000000011111100000111111111111111111111
1111111111111111111111111111111111111100000111000000011111111111100000111111100000000110000000000001000000000000000001111110001111111111111111111111
1111111111111111111111111111111111111110000011000000001111111111000001111111000000000111000000000011100000000000000011111111011111111111111111111111
1111111111111111111111111111111111111111000000000000000011111111100011111110000000000011000000000111000000000000000111111111111111111111111111111111
1111111111111111111111111111111111111111100000000000000001111111110111111100000000000000000000000010000000000000000111111111111111111111111111111111
1111111111111111111111111111111111111111110000000000000000111111111111111110000000000000000000000000000000000000000011111111111111111111111111111111
1111111111111111111111111111111111111111111000000001100000111111111111111110000000110000000000000000000000100000000000111111111111111111111111111111
1111111111111111111111111111111111111111111100000011110000111111111111111110000011110000000000000000001111110000000000011111111111111111111111111111
1111111111111111111111111111111111111111111110000011111000000111111111111000000111111000000000000000001111111000000000111111111111111111111111111111
1111111111111111111111111111111111111111111111000001111100000011111111100000001111111100000000000000001111111100000001111111111111111111111111111111
1111111111111111111111111111111111111111111111100000011110000001111111110000011111111100000000000000000011111110000011111111111111111111111111111111
1111111111111111111111111111111111111111111111110000001111000000111111111000111111110000000000000000000001111111000111111111111111111111111111111111
1111111111111111111111111111111111111111111111111000000111000000011111111101111111100000000000000000000001111111101111111111111111111111111111111111
1111111111111111111111111111111111111111111111111100000111000000001111111111111111000000000000000000000001111111111111111111111111111111111111111111
1111111111111111111111111111111111111111111111111110000000000000000111111111111111100000000000000000000011111111111111111111111111111111111111111111
1111111111111111111111111111111111111111111111111111000000000000000011111111111111110000000000000000000011111111111111111111111111111111111111111111
1111111111111111111111111111111111111111111111111111110000000000000001111111111111100000000001000000000000111111111111111111111111111111111111111111
1111111111111111111111111111111111111111111111111111111000000000000000111111110011000000000011100000000000011111111111111111111111111111111111111111
1111111111111111111111111111111111111111111111111111111100000000100000011111100000000000000011110000000000001111111111111111111111111111111111111111
1111111111111111111111111111111111111111111111111111111110000001110000001111110000000000000011111100000000011111111111111111111111111111111111111111
1111111111111111111111111111111111111111111111111111111111000001111000001111111000000000000011111110000000111111111111111111111111111111111111111111
1111111111111111111111111111111111111111111111111111111111100001111110000011111000000000000001111111000001111111111111111111111111111111111111111111
1111111111111111111111111111111111111111111111111111111111110000011111000001110000000000000000111111100011111111111111111111111111111111111111111111
1111111111111111111111111111111111111111111111111111111111111000001111000000000001100000000000111111110111111111111111111111111111111111111111111111
1111111111111111111111111111111111111111111111111111111111111100000111100000000011110000000001111111111111111111111111111111111111111111111111111111
1111111111111111111111111111111111111111111111111111111111111110000011100000000111111000000001111111111111111111111111111111111111111111111111111111
1111111111111111111111111111111111111111111111111111111111111111000000000000000011111100000000111111111111111111111111111111111111111111111111111111
1111111111111111111111111111111111111111111111111111111111111111100000000000000001111110000000011111111111111111111111111111111111111111111111111111
1111111111111111111111111111111111111111111111111111111111111111110000000000000000111111000000000111111111111111111111111111111111111111111111111111
1111111111111111111111111111111111111111111111111111111111111111111100000000000000011111100000001111111111111111111111111111111111111111111111111111
1111111111111111111111111111111111111111111111111111111111111111111110000000010000001111110000011111111111111111111111111111111111111111111111111111
1111111111111111111111111111111111111111111111111111111111111111111111000000111000000111111000111111111111111111111111111111111111111111111111111111
1111111111111111111111111111111111111111111111111111111111111111111111100000111100000011111101111111111111111111111111111111111111111111111111111111
1111111111111111111111111111111111111111111111111111111111111111111111110000111111000001111111111111111111111111111111111111111111111111111111111111
1111111111111111111111111111111111111111111111111111111111111111111111111000001111100000111111111111111111111111111111111111111111111111111111111111
1111111111111111111111111111111111111111111111111111111111111111111111111100000111100000011111111111111111111111111111111111111111111111111111111111
1111111111111111111111111111111111111111111111111111111111111111111111111110000011110000111111111111111111111111111111111111111111111111111111111111
1111111111111111111111111111111111111111111111111111111111111111111111111111000001110001111111111111111111111111111111111111111111111111111111111111
1111111111111111111111111111111111111111111111111111111111111111111111111111100000110011111111111111111111111111111111111111111111111111111111111111
1111111111111111111111111111111111111111111111111111111111111111111111111111110000000111111111111111111111111111111111111111111111111111111111111111
1111111111111111111111111111111111111111111111111111111111111111111111111111111000001111111111111111111111111111111111111111111111111111111111111111
1111111111111111111111111111111111111111111111111111111111111111111111111111111100011111111111111111111111111111111111111111111111111111111111111111
1111111111111111111111111111111111111111111111111111111111111111111111111111111110111111111111111111111111111111111111111111111111111111111111111111
