1111111111111111111111111111111111111111111111111111111111111111111111111111
1111111111111111111111111111111111111111111111111111111111111111111111111111
1111111111111111111111111111111111111111111111111111111111111111111111111111
1111111111111111111111111111111111111111111111111111111111111111111111111111
1111111111111111111111111111111111111111111111111111111111111111111111111111
1111111111111111111111111111111111111111111111111111111111111111111111111111
1111111111111111111111111111111111111111111111111111111111111111111111111111
1111111111111110011111111111111111111111111111111111111111111111111111111111
1111111111111000000011111111111111111111111111111111111111111111111111111111
1111111111100000000000011111111111111111111111111111111111111111111111111111
1111111111000000000000001111111111111111111111111111111111111111111111111111
1111111110000000000000000111111111111111111111111111111111111111111111111111
1111111100000000000000000111111111111111111111111111111111111111111111111111
1111111000000000000000000111111111111111111111111111111111111111111111111111
1111111000000000000000000111111111111111111111111111111111111111111111111111
1111111000000000000000000111111111111111111111111111111111111111111111111111
1111111000000001100000000011111111111111111111111111111111111111111111111111
1111110000000011110000000011111111111111111111111111111111111111111111111111
1111110000000001100000000011111111111111111111111111111111111111111111111111
1111110000000000000000000111111111111111111111111111111111111111111111111111
1111111000000000000000000111111111111111111111111111111111111111111111111111
1111111100000000000000000011111111111111111111111111111111111111111111111111
1111111111000000000000000011111111111001111111111111111111111111111111111111
1111111111100000000110000001111111110000111111111111111111111111111111111111
1111111111111111111111000001111111100000011111111111111111111111111111111111
1111111111111111111111000000111111100000001111111111111111111111111111111111
1111111111111111111111000000111110000000000011111111111111111111111111111111
1111111111111111111111100000011110000000000011111111111111111111111111111111
1111111111111111111111100000011110000000000011111111111111111111111111111111
1111111111111111111111110000001110000000000011001111111111111111111111111111
1111111111111111111111110000001111000000000110000111111111111111111111111111
1111111111111111111111111000000111000000000100000011111111111111111111111111
1111111111111111111111111000000110000000000000000011111111111111111111111111
1111111111111111111111111100000110000000000000000001111111111111111111111111
1111111111111111111111111100000010000000000000000000111111111111111111111111
1111111111111111111111111110000010000000000000000000011111111111111111111111
1111111111111111111111110010000000000000000000000000011111111111111111111111
1111111111111111111111110011000000000000000000000000111011111111111111111111
1111111111111111111111110001000000000000000000000000110001111111111111111111
1111111111111111111110110001000000000000000000000000100000111111111111111111
1111111111111111111100110000000000000000000000000000000000011111111111111111
1111111111111111110000000000000000000000000000000000000000001111111111111111
1111111111111111100000000000000000000000000000000000000000000011111111111111
1111111111111111100000000000000000000000000000000000000000000011111111111111
1111111111111111100000000000000000000000000000000000000000000111111111111111
1111111111111111100000000000000000000000000000000000000000001110111111111111
1111111111111111100000000000000000000000000000000000000000001100000000110011
1111111111111111100000000000000000000000000000000000000000001100000000000011
1111111111111111100000000000000000000000000000000000000000000000000000000011
1111111111111111100000000000000000000000000000000000000000000000000000000011
1111111111111111100000000000000000000000000000000000000000000000000000000011
1111111111111111100000000000000000000000000000000000000000000000000000000011
1111111111111111100000000000000000000000000000000000000000000000000000000011
1111111111111111100000000000000000000000000000000000000000000000000000000111
1111111111111111100000000000000000000000000000000000000000000000000000001111
1111111111111111110000000000000000000000000000000000000000000000000000011111
1111111111111111111000000000000000000000000000000000000000000000000000111111
1111111111111111111100000000000000000000000000000000000000000000000001111111
1111111111111111111110000000000000000000000000000000000000000000000011111111
1111111111111111111111000000000000000000000000000000000000000000000111111111
1111111111111111111111100000000000000000000000000000000000000000001111111111
1111111111111111111111110000000000000000000000000000000000000000011111111111
1111111111111111111111111000000000000000000000000000000000000000111111111111
1111111111111111111111111100000000000000000000000000000000000001111111111111
1111111111111111111111111110000000000000000000000000000000000011111111111111
1111111111111111111111111111000000000000000000000000000000000111111111111111
1111111111111111111111111111100000000000000000000000000000001111111111111111
1111111111111111111111111111110000000000000000000000000000011111111111111111
1111111111111111111111111111111000000000000000000000000000111111111111111111
1111111111111111111111111111111100000000000000000000000001111111111111111111
1111111111111111111111111111111110000000000000000000000011111111111111111111
1111111111111111111111111111111111000000000000000000000111111111111111111111
1111111111111111111111111111111111100000000000000000001111111111111111111111
1111111111111111111111111111111111111000000000000000011111111111111111111111
1111111111111111111111111111111111111111111111111111111111111111111111111111
