111111111111111111111111111111111111111111111111111111111111111111111111111111111111
111111111111111111111111111111111111111111111111111111111111111111111111111111111111
111111111111111111111111111111111111111111111111111111111111111111111111111111111111
111111111111111111111111111111111111111111111111111111111111111111111111111111111111
111111111111111111111111111111111111111111111111111111111111111111111111111111111111
111111111111111111111111111111111111111111111111111111111111111111111111111111111111
111111111111111111111111111111111111111111111111111111111111111111111111111111111111
111111111111111111111111111111111111111111111111111111111111111111111111111111111111
111111111111111111111111111111111111111111111111111111111111111111111111111111111111
111111111111111111111111111111111111111111111111111111111111111111111111111111111111
111111111111111111111111111111111111111111111111111111111111111111111111111111111111
111111111111111111111111111111111111111111111111111111111111111111111111111111111111
111111111111111111111111111111111111111111111111111111111111111111111111111111111111
111111111111111111111111111111111111111111111111111111111111111111111111111111111111
111111111111111111111111111111111111111111111111111111111111111111111111111111111111
111111111111111111111111111111111111111111111111111111111111111111111111111111111111
111111111111111111111111111111111111111111111111111111111111111111111111111111111111
111111111111111111111111111111111111111111111111111111111111111111111111111111111111
111111111111111111111111111111111110011111111111111111111111111111111111111111111111
111111111111111111111111111111111110011111111111111111111111111111111111111111111111
111111111111111111111111111111111100011111111111111111111111111111111111111111111111
111111111111111111111111110001111000001111111111111111111111111111111111111111111111
111111111111111111111111110000100000000011111111111111111111111111111111111111111111
111111111111111111111111111000000000000110111111111111111111111111111111111111111111
111111111111111111111111111000000000000110011111111111111111111111111111111111111111
111111111111111111111111100000000000000000001111111111111111111111111111111111111111
111111111111111111111111000000000000000000001111111111111111111111111111111111111111
111111111111111111111000000000000000000000000111111111111111111111111111111111111111
111111111111111111110000000000000000000000000011111111111111111111111111111111111111
111111111111111111100000000000000000000000000001111111111111111111111111111111111111
111111111111111111100000000000000000000000000000111111111111111111111111111111111111
111111111111111111110000000000000000000000000000011111111111111111111111111111111111
111111111111111111111000000000000000000000000000110011111111111111111111111111111111
111111111111111111111100000000000000000000000001100001111111111111111111111111111111
111111111111111111111110000000000000000000000011000000111111111111111111111111111111
111111111111111111111111000000000000000000000110001000011111111111111111111111111111
111111111111111111111111100000000000000000001100011100001111111111111111111111111111
111111111111111111111111110000000000000000011110111110000111111111111111111111111111
111111111111111111111110111000000000000000111111101111000011111111111111111111111111
111111111011111111111000111100000000000001111111100111000001111111111111111111111111
111111111001111111110000011000000000000011111111000000000000111111111111111111111111
111111111000011011111110001000000000000111111100000000000000011111111111111111111111
111111000000001011111111000001100000011111111000000000000000001111111111111111111111
111110000010011011111111000000110000111011110000000000000000000111111111111111111111
111100000011110011111111100000011001110000000000000000000000011111111111111111111111
111000000000000011111111100000001111100000000000000000000000111111111111111111111111
110000000000000011111100000000001111100000000000000000000001111111111111111111111111
111000000000000011000000000000011111110000000000000000000011111111111111111111111111
111100000000000000000000000000111111111000000000000000000001111111111111111111111111
111110000000000000000000000001111111111100000000000000000000111111110011111111111111
111111000000000000000000000000011111111110000000000000000000011111100001111111111111
111111100000000000000000000000001111110000000000000000000000001110000000011111111111
111111110000000000000000000000000111100000000000000000000000000100000000001111111111
111111111000000000000110000000000011000000000000000001100000111100000000000111111111
111111111100000000001111000000000011000000000000000011110001111111100000000011111111
111111111110000000011111100000000000000000000000000111111001100001110000000111111111
111111111111000000111111100000000000000000000000001111111100000011111000001111111111
111111111111100001111111000000000000000000000000011111111110000111111000011111111111
111111111111110011111110001000000000000000000000111111111110001111111100111111111111
111111111111111111111100011100000000000000000000111111111110011111111111111111111111
111111111111111111111000111110000000000000000000011111111000111111110011111111111111
111111111111111111111001111111000000000000000000000111110001111111100000111111111111
111111111111111111111111111111100000000000000000000011100011111111000000011111111111
111111111111111111111111111111110000000000000000001111000001111110000000001111111111
111111111111111111111111111111110000000000000000011110000000111100011000000111111111
111111111111111111111111111111111000000000000000011100000100011001111000000011111111
111111111111111111111111111111111100000000010000010000000110000011100000000001111111
111111111111111111111111111111111110000000111000000000001111000010000000000000111111
111111111111111111111111111111111111000001111100000001011111100000000000000001111111
111111111111111111111111111111111111000011111110000001110110000000000000000011111111
111111111111111111111111111111111111100111111111000000110011000000000000001111111111
111111111111111111111111111111111111100011111111100000011000000000000000011111111111
111111111111111111111111111111111111110001111100000000000000000000000000111111111111
111111111111111111111111111111111111111000111000000010000000000000000001111111111111
111111111111111111111111111111111111111110000000000111100000000000000011111111111111
111111111111111111111111111111111111111111000000000011110000000000000111111111111111
111111111111111111111111111111111111111110000000000011111000000000001111111111111111
111111111111111111111111111111111111111100001100000111111100000000011111111111111111
111111111111111111111111111111111111110000000111001111111110000000111111111111111111
111111111111111111111111111111111111110001100111111111111111100001111111111111111111
111111111111111111111111111111111111111000001111111111111111110011111111111111111111
111111111111111111111111111111111111111100011111111111111111110111111111111111111111
111111111111111111111111111111111111111111011111111111111111111111111111111111111111
111111111111111111111111111111111111111111111111111111111111111111111111111111111111
111111111111111111111111111111111111111111111111111111111111111111111111111111111111
111111111111111111111111111111111111111111111111111111111111111111111111111111111111
111111111111111111111111111111111111111111111111111111111111111111111111111111111111
111111111111111111111111111111111111111111111111111111111111111111111111111111111111
111111111111111111111111111111111111111111111111111111111111111111111111111111111111
111111111111111111111111111111111111111111111111111111111111111111111111111111111111
111111111111111111111111111111111111111111111111111111111111111111111111111111111111
