111111111111111111111111111111111111111111111111111111111111111111111111111111111111111111111111111111111111111111111111
111111111111111111111111111111111111111111111111111111111111111111111111111111111111111111111111111111111111111111111111
111111111111111111111111111111111111111111111111111111111111111111111111111111111111111111111111111111111111111111111111
111111111111111111111111111111111111111111111111111111111111111111111111111111111111111111111111111111111111111111111111
111111111111111111111111111111111111111111111111111111111111111111111111111111111111111111111111111111111111111111111111
111111111111111111111111111111111111111111111111111111111111111111111111111111111111111111111111111111111111111111111111
111111111111111111111111111111111111111111111111111111111111111111111111111111111111111111111111111111111111111111111111
111111111111111111111111111111111111111111111111111111111111111111111111111111111111111111111111111111111111111111111111
111111111111111111111111111111111111111111111111111111111111111111111111111111111111111111111111111111111111111111111111
111111111111111111111111111111111111111111111111111111111111111111111111111111111111111111111111111111111111111111111111
111111111111111111111111111111111111111111111111111111111111111111111111001111111111111111111111111111111111111111111111
111111111111111111111111111111111111111111111111111111111111111111111110000011111111111111111111111111111111111111111111
111111111111111111111111111111111111111111111111111111111111111111111100000001111111111111111111111111111111111111111111
111111111111111111111111111111111111111111111111111111111111111111110000000000111111111111111111111111111111111111111111
111111111111111111111111111111111111111111111111111111111111111111100001110000011111111111111111111111111111111111111111
111111111111111111111111111111111111111111111111111111111111111111000011111000001111111111111111111111111111111111111111
111111111111111111111111111111111111111111111111111111111111111110000111111100000111111111111111111111111111111111111111
111111111111111111111111111111111111111111111111111111111111111100001111111110000011111111111111111111111111111111111111
111111111111111111111111111111111111111111111111111111111111111100011111111111000001111111111111111111111111111111111111
111111111111111111111111111111111111111111111111111111111111111110111111111111100000111111111111111111111111111111111111
111111111111111111111111111111111111111111111111111111111111111111111111001111110000011111111111111111111111111111111111
111111111111111111111111111111111111111111111111111111111111111111111111000111111000001111111111111111111111111111111111
111111111111111111111111111111111111111111111111111111111111111111111100000011111100000111111111111111111111111111111111
111111111111111111111111111111111111111111111111111111111111111111001100000001111110000011111111111111111111111111111111
111111111111111111111111111111111111111111111111111111111111111111000000000000111111000001111111111111111111111111111111
111111111111111111111111111111111111111111111111111111111111111111000000000100011111110000111111111111111111111111111111
111111111111111111111111111111111111111111111111111111110000001111100000011100001111110000111111111111111111111111111111
111111111111111111111111111111111111111111111111111111100000000111100001111110011111100001111111111111111111111111111111
111111111111111111111111111111111111111111111111111111000001110001100001111111011111100011111111111111111111111111111111
111111111111111111111111111111111111111111111111111110000001110111110001111110011111000011111111111111111111111111111111
111111111111111111111111111111111111111111101111111100111100000111110001110110011111000111111111111111111111111111111111
111111111111111111111111111111111111111111000111111100111110001111110000000000011110000111111111111111111111111111111111
111111111111111111111111111111111111111110000011111100011010000111110000000000011110001111111111111111111111111111111111
111111111111111111111111111111111111111100000011111100000000110111110000000000111100001111111111111111111111111111111111
111111111111111111111111111111111111111000000111111100001110110000110000000001111100011111110001111111111111111111111111
111111111111111111111111111111111111110000001111111110001110000000110000000001111000011111110011111111111111111111111111
111111111111111111111111111111111111100000011011111110001110000000100000000000101000111111110011111111111111111111111111
111111111111111111111111111111111111000000110011111111000000000000000000000000000000111111100000111111111111111111111111
111111111111111111111111111111111110000000100011111111100000000100000000000000000001111111000001111111111111111111111111
111111111111111111111111111111111100000000100010111111111111111100000000000000000001111110000011111111111111111111111111
111111111111111111111111111111111100000000110000011111111111111000000000000011100011111100000111111111111111111111111111
111111111111111111111111111111111000011000010000001111110000000000000000000111110111111000011111100111111111111111111111
111111111111111111111111111111100000111000011000000101111000000000000000001111111111110000001111000011111111111111111111
111111111111111111111111111111000001111100001000000000111000000000000000011111111110100000000110000111111111111111111111
111111111111111111111111111110000011111100001100000000010000000000000001111111111110000000000011001111111111111111111111
111111111111111111111111111100000111111100000100000000000001100000000000111111111110000000000000011111111111111111111111
111111111111111111111111110000001111111110000110000000000111110000000000011111111100000000000001111111001111110111111111
111111111111111111111111100000011111111111000010000000000011111000000000011111110000000000000001111110000111110011111111
111111111111111111111111000000111111111101000010000000000011111100000000111111100001000000000000001100001111100011111111
111111111111111111111110000001111111111001100010000000000011111110000001111101100011110000000000000000011111100011111111
111111111111111111111100000011111111110000100000000000001111111111000011111001100111111000000000000000111111000111111111
111111111111111111111000000111111111100000110000000000011111111111100111111001111111111000000000000000111111000111111111
111111111111111111111000001111111111000000000000000000011111111111111111111000111111100000000000000000111110001111111111
111111111111111111110000011111111110000000000000000000001111111111111111111100111111000011000000000000111110001111111111
111111111111111111000000111111111110000000000000000000000001111111111111111100011110000111100000000001111100011111111111
111111111111111110000001111111111111000000000000000000000000111111111111111100011111001111100000000011111100111111111111
111111111111111100000011111111110011100000000000000000000000011111111111111110011111111111110000000011010000111111111111
111111111111111000000111111111100001110000000000000000000000001111111111111110001111111111110100000010000000111111111111
111111111111110000001111111111000000111000000000000000000000000011111111110110000111111110001110000000000000111111111111
111111111111000000011111111110000000011100000000000110000000000011111111110011000111111100011111000000000000111111111111
111111111110000000011111111100000000001100000000000111000000000000110111000011000011111000111111000000000000011111111111
111111111100000000111111111100000000000000000000000111100000000000000111000011000011110001111110000000000000111111111111
111111111000000000111111101110000000000000000000000011110000000000000000000001100011111111111100000000000001111111111111
111111110000000000011111000111000000000000000000000001111000000000000000000000000001111111111000000000000011111111111111
111111110000001100011110000011100000000000000000000000111000000000000000000000011000111111110000000000000111111111111111
111111100000011100001100000001110000000000000000000000000000000000000000000000111100011111100000000000001111111111111111
111111000000111100001100000000111000000111111000000000000000000000000000000001111110001111110000000000011111111111111111
111111000001111110000100000000011000001111111000000000111000000000000000000011111111000111100000000000111111111111111111
111111100011111111000100000000000000011111111000000000111000000000000000000011111111100111000000000001111111111111111111
111111110111111111000110000000000000011111111000000000000000000000000000000111111111100000000110000011111111111111111111
111111111111111111100010000000000000011111111000000000000000011000000000000011111111100000001111000111111111111111111111
111111111111111100100011000000000000000110111000000000000000111110000000000001111111111100000111101111111111111111111111
111111111111111000110000000000000000000000111100000000000011111111000000000000111111011100000011111111111111111111111111
111111111111110000111000000000000000000000111100000000000011111100000000000000011110000000000001111111111111111111111111
111111111111100000111000000000000000000000111000000000000000011100000000000000001110000000000001111111111111111111111111
111111111111000000000000000000011100000000000000000000000000011100000000000000000110000000000011111111111111111111111111
111111111100000000000000000000011100000000000000000000000000011100000000000000000000000000000111111111111111111111111111
111111111100000000000000000000111000000000000000000000001100011100000000000000000000000000001111111111111111111111111111
111111111110000000000000000001111000000000000000000000001110000000000000000000000000000000011111111111111111111111111111
111111111111000000000000000111111110000000000000000000011111000000000000000000000000000000111111111111111111111111111111
111111111111100000000000000111111111000111110000000000011111100000011100000000000000000001111111111111111111111111111111
111111111111110000000000000111111111001111111000000000011111100000111110000000000000000011111111111111111111111111111111
111111111111111000000000000000000000011110111100000000011111000001111111000000000000000111111111111111111111111111111111
111111111111111100000000000000000000111100011111000000001110000011111111100000000000001111111111111111111111111111111111
111111111111111110000000000000000001111000001110000000001100000111111111100000000000011111111111111111111111111111111111
111111111111111111000000000000000011111111000100000000000000001111111111000000000000111111111111111111111111111111111111
111111111111111111100000000000000111111111110000010000000000011111111100001000000001111111111111111111111111111111111111
111111111111111111110000000000001111111111100000111100000000111111111000011100000011111111111111111111111111111111111111
111111111111111111111000000000011111111111100000111110000001111111110000001110000111111111111111111111111111111111111111
111111111111111111111100000000111101111111100000011111000011111111100000000111001111111111111111111111111111111111111111
111111111111111111111110000001111001111111100000001111100111111111100000000011111111111111111111111111111111111111111111
111111111111111111111111000011110001111110000000000111111111111111100000000001111111111111111111111111111111111111111111
111111111111111111111111100111100011111110000000000111111111111111000000000001111111111111111111111111111111111111111111
111111111111111111111111111111000001111100000000001110111111111100000000000011111111111111111111111111111111111111111111
111111111111111111111111111110000000000000000000011100011111111100000000000111111111111111111111111111111111111111111111
111111111111111111111111111100000000000000000000111000001111111000000000001111111111111111111111111111111111111111111111
111111111111111111111111111110000000000000000001110000000111100000000000011111111111111111111111111111111111111111111111
111111111111111111111111111111000000000000000000100000000011110000000000111111111111111111111111111111111111111111111111
111111111111111111111111111111110000000000001100001111111001111000000001111111111111111111111111111111111111111111111111
111111111111111111111111111111111000000000011100001111111000111100000011111111111111111111111111111111111111111111111111
111111111111111111111111111111111100000000111100001111110000011110000111111111111111111111111111111111111111111111111111
111111111111111111111111111111111110000001111100011111110000001111001111111111111111111111111111111111111111111111111111
111111111111111111111111111111111111000011111100011111110000000111111111111111111111111111111111111111111111111111111111
111111111111111111111111111111111111100111111100011111111000000011111111111111111111111111111111111111111111111111111111
111111111111111111111111111111111111111111111000001100110000000001111111111111111111111111111111111111111111111111111111
111111111111111111111111111111111111111110000000000000000000000011111111111111111111111111111111111111111111111111111111
111111111111111111111111111111111111111100000000000000000000000111111111111111111111111111111111111111111111111111111111
111111111111111111111111111111111111111110000000000000000000001111111111111111111111111111111111111111111111111111111111
111111111111111111111111111111111111111111000000000000000000011111111111111111111111111111111111111111111111111111111111
111111111111111111111111111111111111111111100000000000000000111111111111111111111111111111111111111111111111111111111111
111111111111111111111111111111111111111111110000000000000001111111111111111111111111111111111111111111111111111111111111
111111111111111111111111111111111111111111111000000000000011111111111111111111111111111111111111111111111111111111111111
111111111111111111111111111111111111111111111100000000000111111111111111111111111111111111111111111111111111111111111111
111111111111111111111111111111111111111111111110000000001111111111111111111111111111111111111111111111111111111111111111
111111111111111111111111111111111111111111111111000000011111111111111111111111111111111111111111111111111111111111111111
111111111111111111111111111111111111111111111111110001111111111111111111111111111111111111111111111111111111111111111111
111111111111111111111111111111111111111111111111111111111111111111111111111111111111111111111111111111111111111111111111
111111111111111111111111111111111111111111111111111111111111111111111111111111111111111111111111111111111111111111111111
