11111111111111111111111111111111111111111111111111111111111111111111111111111111111111111111111111111111
11111111111111111111111111111111111111111111111111111111111111111111111111111111111111111111111111111111
11111111111111111111111111111111111111111111111111111111111111111111111111111111111111111111111111111111
11111111111111111111111111111111111111111111111111111111111111111111111111111111111111111111111111111111
11111111111111111111111111111111111111111111111111111111111111111111111111111111111111111111111111111111
11111111111111111111111111111111111111111111111111111111111111111111111111111111111111111111111111111111
11111111111111111111111111111111111111111111111111111111111111111111111111111111111111111111111111111111
11111111111111111111111111111111111111111111111111111111111111111111111111111111111111111111111111111111
11111111111111111111111111111111111111111111111111111111111111111111111111111111111111111111111111111111
11111111111111111111111111111111111111111111111111111111111111111111111111111111111111111111111111111111
11111111111111111111111111111111111111111111111111111111111111111111111111111111111111111111111111111111
11111111111111111111111111111111111111111111111111111111111111111111111111111111111111111111111111111111
11111111111111111111111111111111111111111111111111111111111111111111111111111111111111111111111111111111
11111111111111111111111111111111111111111111111111111111111111111111111111111111111111111111111111111111
11111111111111111111111111111111111111111111111111111111111111111111111111111111111111111111111111111111
11111111111111111111111111111111111111111111111111111111111111111111111111111111111111111111111111111111
11111111111111111111111111111111111111111111111111111111111111111111111111111111111111111111111111111111
11111111111111111111111111111111111111111111111111111111111111111111111111111111111111111111111111111111
11111111111111111111111111111111111111111111111111111111111111111111111111111111111111111111111111111111
11111111111111111111111111111111111111111111111111111111111111111111111111111111111111111111111111111111
11111111111111111111111111111111111111111111111111111111111111111111111111111111111111111111111111111111
11111111111111111111111111111111111111111111111111111111111111111111111111111111111111111111111111111111
11111111111111111111111111111111111110111111111111111111111111111111111111111111111111111111111111111111
11111111111111111111111111111111100100011111111111111111111111111111111111111111111111111111111111111111
11111111111111111111111111111111000000001111111111111111111111111111111111111111111111111111111111111111
11111111111111111111111111111110000000000111111111111111111111111111111111111111111111111111111111111111
11111111111101111111111111111100000000000011111111111111111111111111111111111111111110001111111111111111
11111111111001111111111111111110000000000001011111111111111111111111111111111111100110001111111111111111
11111111110000111111111111110111000000000000011111111111111111111111111111111111000010011111111111111111
11111111100000011111111111100001100000000000011111111111111111111111111111111100000000011111111111111111
11111111110000011111111110000000110000000000001111111111111111111111111111111000000000011111111111111111
11111111110000001111111100000000011000000000000111111111111111111111111111110000000000011111111111111111
11111111111000001111111110000000001100000000000011111111111111111111111111111000000001111111111111111111
11111111111100001111110011000000000100000000000110011111111111111111111111111110000011111111111111111111
11111111111100000111100001100000000000000000001100011111111111111111111110000011000011111111111111111111
11111111111110000110000000110000000000000000011000011111111111111111101100000001100011111111111111111111
11111111111111000011000000011000000000000000110000011111111111111111100000000000000011111111111111111111
11111111111111000011100000001100000000000001100000001111111111111111000000000000000011111111111111111111
11111111111111100011110000000110000000000011000000001101111111111111000000000000001111111111111111111111
11111111111111100001111000000010000000000110000000000001111111111111000000000000000111111111111111111111
11111111111111110001111100000000000000001100000000000001111111111111100000000000000011111111111111111111
11111111111111110000111110000000000000001000000000000000111111111111110000000000000001111111111111111111
11111111111110000000011111000000000000001000100000000001111111111111111100000000000000111111111111111111
11111111111100000000011111000000000000011001110000000011111111111111111110000000000000011111111111111111
11111111111000000000001111100000000000010001111000000111111111111111111111000000000000001111111111111111
11111111110000000000000001100000000000110001111100001111111111111111111111110000000000000111111111111111
11111111100000000000000000000000000000100001111110011111111111111111111111111000000000000011111111111111
11111111000000000000000000000000000001100011111111111111110111111111111111111110000000000001111111111111
11111111000000000000000000000000000001000111111111111111100111111101111111111111100000000000111111111111
11111111100000000000000000000000000001000111111111111101000011111001111111111111000000000000011111111111
11111111110000000000000000000000000000001111111111110000000111111000111111101110000000000000000111111111
11111111111000000000000000000000000000001111111111100000000111111000001111000100000000000000001111111111
11111111111100000000000000000000000000011111111101100011100000000000000111000000000000000000011111111111
11111111111110000000000000000000000000111111111000000011110000000000000000000000001000000000111111111111
11111111111111000000000000000000000001111110110000000111110000000000000000000000011100000011111111111111
11111111111111100000000000000000000000011100000000011111110000000000000000000000011110000111111111111111
11111111111111110000000000000000000000000000000000111111100000000001000000000000001111001111111111111111
11111111111111111000000000000000001110000000000001111111000000000011100000000000000111111111111111111111
11111111111111111100000000000000011110000000000001101100001100001111110000000000000011111111111111111111
11111111111111111110000000000000111100000000000011100000011110001111111000000000000001111111111111111111
11111111111111111111000000000001111110000000000011000000111111000011111000000000000011111111111111111111
11111111111111111111100000000011111111000000000000000001111111000001111000000000000111111111111111111111
11111111111111111111110000000111111111000000000000000011111110000000000000000000001111111111111111111111
11111111111111111111111000001111111111100000000000000111111100000000000000000000011111111111111111111111
11111111111111111111111100011101111111100001000000001111111000000000000000000000111111111111111111111111
11111111111111111111111110111000111011100011100000011111110000000000000000000001111111111111111111111111
11111111111111111111111111110000000000000110000000111111100000000000000000000011111111111111111111111111
11111111111111111111111111100000000000001100000000111111000000000000000000000111111111111111111111111111
11111111111111111111111111110000000000011000000000011110000000000000000000001111111111111111111111111111
11111111111111111111111111111000000000110000010000001100000000000000000000011111111111111111111111111111
11111111111111111111111111111110000001100000111000000000000000000000000000111111111111111111111111111111
11111111111111111111111111111111000011000001100000000000000000000000000001111111111111111111111111111111
11111111111111111111111111111111101110000011000000000000000000000000000011111111111111111111111111111111
11111111111111111111111111111111111100000110000000000000000000000000000111111111111111111111111111111111
11111111111111111111111111111111111000001100000011000000000000000000001111111111111111111111111111111111
11111111111111111111111111111111111100011000001111110000000000000000011111111111111111111111111111111111
11111111111111111111111111111111111110110000011111111000000000000000111111111111111111111111111111111111
11111111111111111111111111111111111111100000001111111000000000000001111111111111111111111111111111111111
11111111111111111111111111111111111111100000001111110000000000000011111111111111111111111111111111111111
11111111111111111111111111111111111111110000000111100000000000000111111111111111111111111111111111111111
11111111111111111111111111111111111111111000000001000000000000001111111111111111111111111111111111111111
11111111111111111111111111111111111111111100000000000000000000011111111111111111111111111111111111111111
11111111111111111111111111111111111111111110000000000000000000111111111111111111111111111111111111111111
11111111111111111111111111111111111111111111000000000000000001111111111111111111111111111111111111111111
11111111111111111111111111111111111111111111100000000000000011111111111111111111111111111111111111111111
11111111111111111111111111111111111111111111110000000000001111111111111111111111111111111111111111111111
11111111111111111111111111111111111111111111111000000000011111111111111111111111111111111111111111111111
11111111111111111111111111111111111111111111111100000000111111111111111111111111111111111111111111111111
11111111111111111111111111111111111111111111111110000001111111111111111111111111111111111111111111111111
11111111111111111111111111111111111111111111111111111111111111111111111111111111111111111111111111111111
11111111111111111111111111111111111111111111111111111111111111111111111111111111111111111111111111111111
