11111111111111111111111111111111111111111111111111111111111111111111111111111111
11111111111111111111111111111111111111111111111111111111111111111111111111111111
11111111111111111111111111111111111111111111111111111111111111111111111111111111
11111111111111111111111111111111111111111111111111111111111111111111111111111111
11111111111111111111111111111111111111111111111111111111111111111111111111111111
11111111111111111111111111111111111111111111111111111111111111111111111111111111
11111111111111111111111111111111111111111111111111111111111111111111111111111111
11111111111111111111111111111111111111111111111111111111111111111111111111111111
11111111111111111111111111111111111111111111111111111111111111111111111111111111
11111111111111111111111111111111111111111111111111111111111111111111111111111111
11111111111111111111111111111111111111111111111111111111111111111111111111111111
11111111111111111111111111111111111111111111100111111111111111111111111111111111
11111111111111111111111111111111111111111111110001111111111111111111111111111111
11111111111111111111111111111111111111111111110000111111111111111111111111111111
11111111111111111111111111111111111111111111000000011111111111111111111111111111
11111111111111111111111111111111111111111110000000001111111111111111111111111111
11111111111111111111111111111111111111111100000000000111111111111111111111111111
11111111111111111111111111111111111111111000000000000111111111111111111111111111
11111111111111111111111111111111111111111000000000000111111111111111111111111111
11111111111111111111111111111111111111111000000000000110001111111111111111111111
11111111111111111111111111111111111111000000000000000000001111111111111111111111
11111111111111111111111111111111111110000000000000000000011111111111111111111111
11111111111111111111111111111110011100000000011100000000111111111111111111111111
11111111111111111111111111111100001000000000111110000001111111111111111111111111
11111111111111111111111111111000000000000000111111000011111111111111111111111111
11111111111111111111111111110000000000000000000110000111111111111111111111111111
11111111111111111111111111100000000000000000000000001111110011101111111111111111
11111111111111111111111111000000000000000000000000011111100011100111111111111111
11111111111111111111111110000001100000000000000000111111000011000011110111111111
11111111111111111111111100000011000000000000000001111111000000000001110011111111
11111111111111111111111000000110000000000000000011111111000011000000110001111111
11111111111111111111110000001100000000000000000111111111000111100000100000011111
11111111111111111111110000011000000000000000000111111110000011110000100000001111
11111111111111111111111000110000000000000000000111111110000001111100100000001111
11111111111111111111111101100000000000000000100000000000000000111101100000011111
11111111111111111111111111000000000000000001110000000010000000011001000000111111
11111111111111111111011111000000000000000011110000000111100000000011000001111111
11111111111111111111001111000000000000000111100000001111110000000010000011111111
11111111111111111100000001000000000000001111000000011111111000000110000111111111
11111111111111111100000000000110000000011110000000011111111100000100000111111111
11111111111111111100000000011111000000111100000000011111111100001100001111111111
11111111111101110000000000001111100001111100000000011111111000001000001111111111
11111111111100000000000000000111110011111100000001111111111000000000011111111111
11111111111100000000000000001111111111111000000001111111111000000000011111111111
11111111111100000000000000001101111111000000000000111111111000000000111111111111
11111111111100000000000000000000111110000000000000011111110000000000111111111111
11111111111100000000000000000000011111000000000000001001100000000001111111111111
11110111111000000000010000000000011111100000000000000000000000000011111111111111
11100111111000000000111000000000111111110000000000000000000000000111111111111111
11000010010000000001111100000001111111111000000000000000000000001111111111111111
11000000000000000001111110000011111001111000000000000000000000011111111111111111
10000000000000000001111111000111111000111000000000000000000000111111111111111111
11000000000000000001110111101111111100111100000000000000000001111111111111111111
11100000000000000000000011111111100000000000000000000000000011111111111111111111
11110000000000000000000001111111110000000000110000000000000111111111111111111111
11111000000000000000000000111100000000000001111000000000001111111111111111111111
11111100000000000000000000011110000000000001111100000000011111111111111111111111
11111110000000000000000000000100001100000011111110000011111111111111111111111111
11111111000000000000000000000000111110000011111111000111111111111111111111111111
11111111100000000000000000000001111111000011111111111111111111111111111111111111
11111111110000000000000000000011111111000000111111111111111111111111111111111111
11111111111000000000000000000111111111000000111111111111111111111111111111111111
11111111111100000000000000001111111110000000000011111111111111111111111111111111
11111111111110000000000000001111111000000000000011111111111111111111111111111111
11111111111110000000000000111111110000111000000111111111111111111111111111111111
11111111111110000000000000111111100001111100001111111111111111111111111111111111
11111111111111000000000000011111000011111110011111111111111111111111111111111111
11111111111111100000000000001100000111111111111111111111111111111111111111111111
11111111111111110010000000000000001111111111111111111111111111111111111111111111
11111111111111111011000000000000011111111111111111111111111111111111111111111111
11111111111111111111100000000000011111111111111111111111111111111111111111111111
11111111111111111111110000000000000111111111111111111111111111111111111111111111
11111111111111111111111000000000000011111111111111111111111111111111111111111111
11111111111111111111111100000000000001111111111111111111111111111111111111111111
11111111111111111111111110000000000001111111111111111111111111111111111111111111
11111111111111111111111111000000000011111111111111111111111111111111111111111111
11111111111111111111111111110000000111111111111111111111111111111111111111111111
11111111111111111111111111111000001111111111111111111111111111111111111111111111
11111111111111111111111111111100011111111111111111111111111111111111111111111111
11111111111111111111111111111111111111111111111111111111111111111111111111111111
11111111111111111111111111111111111111111111111111111111111111111111111111111111
11111111111111111111111111111111111111111111111111111111111111111111111111111111
11111111111111111111111111111111111111111111111111111111111111111111111111111111
11111111111111111111111111111111111111111111111111111111111111111111111111111111
11111111111111111111111111111111111111111111111111111111111111111111111111111111
11111111111111111111111111111111111111111111111111111111111111111111111111111111
