11111111111111111111111111111111111111111111111111111111111111111111111111111111
11111111111111111111111111111111111111111111111111111111111111111111111111111111
11111111111111111111111111111111111111111111111111111111111111111111111111111111
11111111111111111111111111111111111111111111111111111111111111111111111111111111
11111111111111111111111111111111111111111111111111111111111111111111111111111111
11111111111111111111111111111111111111111111111111111111111111111111111111111111
11111111111111111111111111111111111111111111111111111111111111111111111111111111
11111111111111111111111111111111111111111111111111111111111111111111111111111111
11111111111111111111111111111111111111111111111111111111111111111111111111111111
11111111111111111111111111111111111111111111111111111111111111111111111111111111
11111111111111111111111111111111111111111111100111111111111111111111111111111111
11111111111111111111111111111111111111111111001111111111111111111111111111111111
11111111111111111111111111111111111111111110011111111111111111111111111111111111
11111111111111111111111111111111111111111100011111111111111111111111111111111111
11111111111111111111111111111111111111111000001100011111111111111111111111111111
11111111111111111111111111111111111111110000000000001111111111111111111111111111
11111111111111111111111111111111111111100000000100000011111111111111111111111111
11111111111111111111111111111111111111100000001110000001111111111111111111111111
11111111111111111111111111111111111111110000001111011000110011111111111111111111
11111111111111111111111111111111111111111100111111111100000001111111111111111111
11111111111111111111111111111111111110111100111111111100000001111111111111111111
11111111111111111111111111111111111100011000011110000000000011111111111111111111
11111111111111111111111111111111111000000000001100000000000111111111111111111111
11111111111111111111111111111111111100000000000000000000001111111111111111111111
11111111111111111111111111111111011100000000000000000000011111100111111111111111
11111111111111111111111111111110011100000000000000000000111111000111111111111111
11111111111111111111111111111100000000000000000000000001111110000011111111111111
11111111111111111111111111111100000000000000000000000011111100000001111111111111
11111111111111111111111111111110000000000000000000000111111000000000011111111111
11111111111111111111111111111111000000000000000000001111110000000000001111111111
11111111111111111111111111111111100000000000000000011111000000000000000001111111
11111111111111111111111111111111100000000000000000011100000000000000000000111111
11111111111111111111111111111110000000000000000000001000000000000000000000001111
11111111111111111111111111111100000000000000000011000000000000000111011100000111
11111111111111111111111111111000000000000000001111000000111100001111111100000001
11111111111111111111111111100000000000000000011111000000111111111111110000000001
11111111111111111111111111000000000000000000111111000000011111111111111000000001
11111111111111111111111111100000000000000001111110000000111111110111111000000001
11111111111111111111111011110000000000000011111100000001111111100011111000000011
11111111111111011111110000011000000000000111111000000011111111100011111100000111
11111111111111001111100000000000000000001111110000000011111111100111111110001111
11111111111111000011100000000001000000011111100000000111111111000111111111011111
11111111111111000000000000000011100000111111000000000011111110000111111111111111
11111111111110000000000000000001111001111110000000000000001110001111111111111111
11111111111100000000000000000000011111111100000000000000001110001111111111111111
11111111100000000000000000000000001111111000000000000000001100011111111111111111
11111111100000000000000000000000001111110000000000000000001000011111111111111111
11111111000000000000000000000000011111100000000000000000000000111111111111111111
11111110000000000000000000000000111111000000000000000000000000111111111111111111
11111100000110000000000000000001111110000000000000000000000001111111111111111111
11111000001100000000000000000011111100000000000000000000000000111111111111111111
11110000011000000000000000000111111000000000000000000000000000011111111111111111
11110000111110000000000000111111110000000000000000000000000000001111111111111111
11110001111111110000000000111011100000000011100000000000000000011111111111111111
11110011111111111100000000010011000000000011100000000000000000111111111111111111
11111111111111111100000000000000000001100011100000000000000001111111111111111111
11111111111111111100000110000000000011111000000000000000000011111111111111111111
11111111111111111100001111000000000111111000000000000000000111111111111111111111
11111111111111111100011111000000001111111100000000000000001111111111111111111111
11111111111111111100111111000000111111111111000000000000011111111111111111111111
11111111111111111101111110000011111111111111000000000000111111111111111111111111
11111111111111111111111110000011111111111111000000000001111111111111111111111111
11111111111111111111111100000011111111111100000000000011111111111111111111111111
11111111111111111111110000000000000111111000000000000111111111111111111111111111
11111111111111111111100000000000001111110000000000001111111111111111111111111111
11111111111111111111100000000000000111100000000000011111111111111111111111111111
11111111111111111111000000000000000111000000000000111111111111111111111111111111
11111111111111111100000000000000000110000000000001111111111111111111111111111111
11111111111111111100000000000000000000000000000011111111111111111111111111111111
11111111111111111000000000000000000000000000000111111111111111111111111111111111
11111111111111110000000000000000000000010000001111111111111111111111111111111111
11111111111111110000000000000000000000011100011111111111111111111111111111111111
11111111111111111000000000000000000000001111111111111111111111111111111111111111
11111111111111111100000000000000000000000111111111111111111111111111111111111111
11111111111111111110000000000000000000000011111111111111111111111111111111111111
11111111111111111111000000000000000000000111111111111111111111111111111111111111
11111111111111111111100000000000000000001111111111111111111111111111111111111111
11111111111111111111110000000001100000001111111111111111111111111111111111111111
11111111111111111111111000000001110000011111111111111111111111111111111111111111
11111111111111111111111100000001111000011111111111111111111111111111111111111111
11111111111111111111111110000001111100111111111111111111111111111111111111111111
11111111111111111111111111100001111111111111111111111111111111111111111111111111
11111111111111111111111111111111111111111111111111111111111111111111111111111111
11111111111111111111111111111111111111111111111111111111111111111111111111111111
11111111111111111111111111111111111111111111111111111111111111111111111111111111
11111111111111111111111111111111111111111111111111111111111111111111111111111111
