11111111111111111111111111111111111111111111111111111111
11111111111111111111111111111111111111111111111111111111
11111111111111111111111111111111111111111111111111111111
11111111111111111111111111111111111111111111111111111111
11111111111111111111111111111111111111111111111111111111
11111111111111111111111111111111111111111111111111111111
11111111111111111111111111111111111111111111111111111111
11111111111111111111111111111111111111111111111111111111
11111111111111111111111111111111111111111111111111111111
11111111111111111111111111111111111111111111111111111111
11111111111111111111111111111001111111111111111111111111
11111111111111111111111111111100111111111111111111111111
11111111111111111111111111111110011111111111111111111111
11111111111111111111111111111111000011111111111111111111
11111111111111111111111111111111100001111111111111111111
11111111111111111111111111111111110000111110111111111111
11111111111111111111111001111111110000011100011111111111
11111111111111111111110001111111110000001000111111111111
11111111111111111111100000011111100000000001111111111111
11111111111111111111000000111111000000000001111111111111
11111111111111111111100000111110000000000000111111111111
11111111111111111111110000011100000000000000011111111111
11111111111111111111111000000000000000000000011111111111
11111111111111111111111100000000000000000111111111111111
11111111111111111111111110000000000000000111111111111111
11111111111111111111111110000000000000000100000111111111
11111111111111100111111000000000000000000100000000111111
11111111111100000111111000000000000000000000001110011111
11111111111000000111100000000000000000000000001111001111
11111111110000000111100000000000000000001100001111001111
11111111110000000000000000000000000000001100011111011111
11111111111000000000000000000000000000001100011111111111
11111111111110000000000000000000000000001100001111111111
11111111111111000000000000000000000000001100000011111111
11110111111111100000000000000000000000011000000011111111
11100011111111100000000000000000000000011100000111111111
11000001111110000000000000000000000000001100001111111111
11000001111100000000000000000000110000000100011111111111
11000000110000000000000000000000110000000000111111111111
11000000000000000000000000000001111000000001111111111111
11100000000000000000000000000111111110000011111111111111
11110000000000000000000000000111111110000111111111111111
11111000000000000000000000000111111100001111111111111111
11111100000000000000000000000001111000111111111111111111
11111110000000000000000000000000000001111111111111111111
11111111000000000000000110000000000011111111111111111111
11111111100000000000000111000000000111111111111111111111
11111111110000000000001111000000001111111111111111111111
11111111111000000000111111000000011111111111111111111111
11111111111100000000111111100000111111111111111111111111
11111111111110000000001111100001111111111111111111111111
11111111111111000000000111100011111111111111111111111111
11111111111111100000000000000111111111111111111111111111
11111111111111110000000000001111111111111111111111111111
11111111111111111000000000011111111111111111111111111111
11111111111111111100000000111111111111111111111111111111
11111111111111111110000001111111111111111111111111111111
11111111111111111111000011111111111111111111111111111111
11111111111111111111111111111111111111111111111111111111
