1111111111111111111111111111111111111111111111111111
1111111111111111111111111111111111111111111111111111
1111111111111111111111111111111111111111111111111111
1111111111111111111111111111111111111111111111111111
1111111111111111111111111111111111111111111111111111
1111111111111111111111111111111111111111111111111111
1111111111111111111111111111111111111111111111111111
1111111111111111111111111111111111111111111111111111
1111111111111111111111111111111111111111111111111111
1111111111111111111111111111111111111111111111111111
1111111111111111111111111111111111111111111111111111
1111111111111111111111111111111111111111111111111111
1111111111111111011111111111111111111111111111111111
1111111111111000001111111111111110111111111111111111
1111111111110000001111111111111110111111111111111111
1111111111100000001111111111111100111111111111111111
1111111111110000000111111111111000011111111111111111
1111111111111000000011011111111000001111111111111111
1111111111111100000000001011100000000111111111111111
1111111111111001000000000000000000000001111111111111
1111111111110011000000000000000000000000111111111111
1111111111111111000000000000000000000000011111111111
1111111111111110000000000000000000000000000111111111
1111111111110000000000000010000001111100000011111111
1111111111111000000000111111110001111110000001111111
1111111111111100000001111111110001111110000011111111
1111111111111100000001111111110001111110000111111111
1111111111111000000000111111110001111100001111111111
1111111111111100000000111111000000000000011111111111
1111111111111110000000000000000000000000111111111111
1111111111111111000000000000000000000001111111111111
1111111111111111100000000000000000000011111111111111
1111111111011111100000000000000000000011111111111111
1111111110001111000000000000000000000111111111111111
1111111111000110000000000000000000000111111111111111
1111111111100000000011000000000000001111111111111111
1111111111110000000111100000000000011111011111111111
1111111111100000000011000000000000001011000111111111
1111111111100000000011000000000110000000000011111111
1111111111000000000000000000001111000000000001111111
1111111110000000000000000000011111100000000000111111
1111111110000000000000000000011111100000000000011111
1111111111000000000000000000001111110000000000000111
1111111111100000000000000000000111111000000000000111
1111111111110000000000000001100011111000000000001111
1111111111111000000000000011110001110000000000011111
1111111111111100000000000111111000000000000000111111
1111111111111110000000001111111100000000000001111111
1111111111111111000000011111111110000000000011111111
1111111111111111100000111111111111000000000111111111
1111111111111111110001111111111111100000001111111111
1111111111111111111011111111111111110000011111111111
1111111111111111111111111111111111111000111111111111
1111111111111111111111111111111111111111111111111111
