11111111111111111111111111111111111111111111111111111111111111111111111111111111111111111111111111111111111111111111111111111111111111111111111111111111111111111111111111111111
11111111111111111111111111111111111111111111111111111111111111111111111111111111111111111111111111111111111111111111111111111111111111111111111111111111111111111111111111111111
11111111111111111111111111111111111111111111111111111111111111111111111111111111111111111111111111111111111111111111111111111111111111111111111111111111111111111111111111111111
11111111111111111111111111111111111111111111111111111111111111111111111111111111111111111111111111111111111111111111111111111111111111111111111111111111111111111111111111111111
11111111111111111111111111111111111111111111111111111111111111111111111111111111111111111111111111111111111111111111111111111111111111111111111111111111111111111111111111111111
11111111111111111111111111111111111111111111111111111111111111111111111111111111111111111111111111111111111111111111111111111111111111111111111111111111111111111111111111111111
11111111111111111111111111111111111111111111111111111111111111111111111111111111111111111111111111111111111111111111111111111111111111111111111111111111111111111111111111111111
11111111111111111111111111111111111111111111111111111111111111111111111111111111111111111111111111111111111111111111111111111111111111111111111111111111111111111111111111111111
11111111111111111111111111111111111111111111111111111111111111111111111111111111111111111111111111111111111111111111111111111111111111111111111111111111111111111111111111111111
11111111111111111111111111111111111111111111111111111111111111111111111111111111111111111111111111111111111111111111111111111111111111111111111111111111111111111111111111111111
11111111111111111111111111111111111111111111111111111111111111111111111111111111111111111111111111111111111111111111111111111111111111111111111111111111111111111111111111111111
11111111111111111111111111111111111111111111111111111111111111111111111111111111111111111111111111111111111111111111111111111111111111111111111111111111111111111111111111111111
11111111111111111111111111111111111111111111111111111111111111111111111111111111111111111111111111111111111111111111111111111111111111111111111111111111111111111111111111111111
11111111111111111111111111111111111111111111111111111111111111111111111111111111111111111111111111111111111111111111111111111111111111111111111111111111111111111111111111111111
11111111111111111111111111111111111111111111111111111111111111111111111111111111111111111111111111111111111111111111111111111111111111111111111111111111111111111111111111111111
11111111111111111111111111111111111111111111111111111111111111111111111111111111111111111111111111111111111111111111111111111111111111111111111111111111111111111111111111111111
11111111111111111111111111111111111111111111111111111111111111111111111111111111111111111111111111111111111111111111111111111111111111111111111111111111111111111111111111111111
11111111111111111111111111111111111111111111111111111111111111111111111111111111111111111111111111111111111111111111111111111111111111111111111111111111111111111111111111111111
11111111111111111111111111111111111111111111111111111111111111111111111111111111111111111111111111111111111111111111111111111111111111111111111111111111111111111111111111111111
11111111111111111111111111111111111111111111111111111111111111111111111111111111111111111111111111111111111111111111111111111111111111111111111111111111111111111111111111111111
11111111111111111111111111111111111111111111111111111111111111111111111111111111111111111111111111111111111111111111111111111111111111111111111111111111111111111111111111111111
11111111111111111111111111111111111111111111111111111111111111111111111111111111111111111111111111111001111111111111111111111111111111111111111111111111111111111111111111111111
11111111111111111111111111111111111111111111111111111111111111111111111111111111111111111111100011111001111111111111111111111111111111111111111111111111111111111111111111111111
11111111111111111111111111111111111111111111111111111111111111111111111111111111111111111111000011111100111111111111111111111111111111111111111111111111111111111111111111111111
11111111111111111111111111111111111111111111111111111111111111111111111111111111111111111111000000001100111111111111111111111111111111111111111111111111111111111111111111111111
11111111111111111111111111111111111111111111111111111111111111111111111111111111111111111111100000001100111111111111111111111111111111111111111111111111111111111111111111111111
11111111111111111111111111111111111111111111111111111111111111111111111111111111111111111111000000001100111111111111111111111111111111111111111111111111111111111111111111111111
11111111111111111111111111111111111111111111111111111111111111111111111111111111111111111111000000001100111111111111111111111111111111111111111111111111111111111111111111111111
11111111111111111111111111111111111111111111111111111111111111111111111111111111111111111111000000001100110111111111111111111111111111111111111111111111111111111111111111111111
11111111111111111111111111111111111111111111111111111111111111111111111111111111111111011000000000000000000111011111111111111111111111111111111111111111111111111111111111111111
11111111111111111111111111111111111111111111111111111111111111111111111111111111111110000000000000000000000000001111111111111111111111111111111111111111111111111111111111111111
11111111111111111111111111111111111111111111111111111111111111111111111111111111111100000000000000000000000000000011111111111111111111111111111111111111111111111111111111111111
11111111111111111111111111111111111111111111111111111111111111111111111111111111110000001100000000000000000000000111111111111111111111111111111111111111111111111111111111111111
11111111111111111111111111111111111111111111111111111111111111111111111111111111100000001100000000000000000000001111111111111111111111111111111111111111111111111111111111111111
11111111111111111111111111111111111111111111111111111111111111111111111111111111000000000000000000000000000000011111111111111111111111111111111111111111111111111111111111111111
11111111111111111111111111111111111111111111111111111111111111111111111111111111000000000000000000000000000000111111111111111111111111111111111111111111111111111111111111111111
11111111111111111111111111111111111111111111111111111111111111111111111111111111100000000000000000000000000001111111111111111111111111111111111111111111111111111111111111111111
11111111111111111111111111111111111111111111111111111111111111111111111111111111110000000000000000000000000011111111111111111111111111111111111111111111111111111111111111111111
11111111111111111111111111111111111111111111111111111111111111111111111111111111111000000000000000000000000111111111111111111111111111111111111111111111111111111111111111111111
11111111111111111111111111111111111111111111111111111111111111111111111111111111111000000000000000000000001111111111111111111111111111111111111111111111111111111111111111111111
11111111111111111111111111111111111111111111111111111111111111111111111111111111111000000000000000000000011111111110001111111111111111111111111111111111111111111111111111111111
11111111111111111111111111111111111111111111111111111111111111111111111111111111111100000000000000000000111111111100001111111111111111111111111111111111111111111111111111111111
11111111111111111111111111111111111111111111111111111111111111111111111111111111111110000000000000000001111111110000000111111111111111111111111111111111111111111111111111111111
11111111111111111111111111111111111111111111111111111111111111111111111111111111111110000000000000000011111111110000000011111111111111111111111111111111111111111111111111111111
11111111111111111111111111111111111111111111111111111111111111111111111111111111111100000100000000000111111111100000000000111111111111111111111111111111111111111111111111111111
11111111111111111111111111111111111111111111111111111111111111111111111111111100011000001110000000001111111111000000000000011111111111111111111111111111111111111111111111111111
11111111111111111111111111111111111111111111111111111111111111111111111111111000000000011111000000011111111110000000000000001111111111111111111111111111111111111111111111111111
11111111111111111111111111111111111111111111111111111111111111111111111111111000000000111111100000111111111100000000000000000111111111111111111111111111111111111111111111111111
11111111111111111111111111111111111111111111111111111111111111111111111011111000000001111111110001111111111000000000000000000011111111111111111111111111111111111111111111111111
11111111111111111111111111111111111111111111111111111111111111111111110000011000000001111111111011111111110000000000000000000001111111111111111111111111111111111111111111111111
11111111111111111111111111111111111111111111111111111111111111111111111000000000000001111111111111111111000000000000000000000000111111111111111111111111111111111111111111111111
11111111111111111111111111111111111111111111111111111111111111111111111000000000000000010111111111111110000000000000000000000000011111111111111111111111111111111111111111111111
11111111111111111111111111111111111111111111111111111111111111111111111000000000000000000011111111111100000000000000000000000000001111111111111111111111111111111111111111111111
11111111111111111111111111111111111111111111111111111111111111111100000000000000000000000001111111111000000000000000000000000000000111111111111111111111111111111111111111111111
11111111111111111111111111111111111111111111111111111111111111111100000000000000000000000001111111110000000000000000000000000000000011111111111111111111111111111111111111111111
11111111111111111111111111111111111111111111111111111111111111111000000000000000000000000011111111100000000000000000000000000000000001111111111111111111111111111111111111111111
11111111111111111111111111111111111111111111111111111111111111110000000000000000000000000111111111000000000000000000000000000000000000111111111111111111111111111111111111111111
11111111111111111111111111111111111111111111111111111111011111100000000000000000000000001111111110000000000000000000000000000000000000111111111111111111111111111111111111111111
11111111111111111111111111111111111111111111111111111110011111100000000000000000000000011111111100000000000000000000000000000000000001111111111111111111111111111111111111111111
11111111111111111111111111111111111111111111111111111111001111110000000000000000000000111111110000000000000000000000000000000000000011111111111111111111111111111111111111111111
11111111111111111111111111111111111111111111111111111111101111111000000000000000000001111111100000000000000000000000000000000000000111111111111111111111111111111111111111111111
11111111111111111111111111111111111111111111111111111111100111111100000000000000000011111111000000000000000000000000000000000000001111111111111111111111111111111111111111111111
11111111111111111111111111111111111111111111111111111111100000111000000000000000000111111111000000000000000000000000000000000000011111111111110110111111111111111111111111111111
11111111111111111111111111111111111111111111111111111100000000010000111000000000000111111111000000000000000000000000000000000000111111111111100000001111111111111111111111111111
11111111111111111111111111111111111111111111111110001100000000000001111100000011000111111111000000000000000000000000000000000001111111111111000000000111111111111111111111111111
11111111111111111111111111111111111111111111111100000000000000000011111110000111100011111111000000000000000000000000000000000011111111111110000000000011111111111111111111111111
11111111111111111111111111111111111111111111111000000000000000000011111111001111110001110111100000000000000000000000000000000111111111111100000000000001111111111111111111111111
11111111111111111111111111111111111111111111110000000000000000000001111111111111111000000111110000000000000000000000000000001111111111111000000000000000111111111111111111111111
11111111111111111111111111111111111111111111000000000000000000000001111111111111110000000000111000000000000000000000000000011111111111110000000000000000011111111111111111111111
11111111111111111111111111111111111111111110011000000000000000000001111111111111100000000000011100000000000000000000000000111111111111000000000000000000001111111111111111111111
11111111111111111111111111111111111111111100011111110000000000000000111111111111000000000000001110000000000000000000000001111111111111100000000000000000000111111111111111111111
11111111111111111111111111111111111111111001111111110000000000000000001111111110000000000000000111000000000000000000000011111111111111100000000000000000000011111111111111111111
11111111111111111111111111111111111111110001111111100000000000000000000111111110000000000000000011000000000000000000000111111111111111000000000000000000000111111111111111111111
11111111111111111111111111111111111111100011111111100000000000000000001111111110000000000000000001000000000000000000001111111111111111000000000000000000000111111111111111111111
11111111111111111111111111111111111111100011111111100000000000000000011111111111110000000000000000001100000000000000011111111111111111100000000000000000000111111111111111111111
11111111111111111111111111111111111111100011111100000000000000000000111111111000111000000000000000001110000000000000111111111111000011100000000000000000001111111111111111111111
11111111111111111111111111111111111111000011111000000000000000000001111111111000001100000000000000000111000000000001111111111110000000000000000000000000001110111111111111111111
11111111111111111111111111111111111111000011111000000000000000000011111111110000000110000000000000000011100000000011111111111100000000000000000000000000000000000001111111111111
11111111111111111111111111111111111110000000110000000000000000000111111111100000000011000000000000000001110000000111111111111000000000000000000000000000000000000000111111111111
11111111111111111111111111111111111100000000000000001100000000001111111110000000000001100000000000000000111000001111111111110000000000000000000000000000000000000000011111111111
11111111111111111111111111111111001000000000000000111100000000011111111100000000000000110000000000000000011100011111111111100000000000000000000000000000000000000000001111111111
11111111111111111111111111111111100000000000000000111110000000111111111000000000000000010000000000000000011110111111111111000000000000000000000000000000000000000000000111111111
11111111111111111111111111111111100000000000000001111111000001111111110000000000000000000000000000000000011111111111111110000000000000000000000000000000000000000000000011111111
11111111111111111111111111111111101000000000000001111111000011111111100000000000000000000001000000000000000111111111111100000000000000000000000000000000000000000000000001111111
11111111111111111111111111111111101111100000000001111111000111111111000000000000000000000011100000000000000111111111111000000000000000000000000000000000000000000000000000111111
11111111111111111111111111111111101111100000000000000000001111111110000000000000000000000001110000000000001111111111110000000000000000000000000000000000000000000000000000011111
11111111111111111111111111111111101111110000000000000000011111111100000000000000000000000000111000000000001111111111111000000000000000000000000000000000000000000000000000111111
11111111111111111111111111111111101111110000000000000000111111111000000000000000000000000000011100000010000111111111111100000000000000000000000000000000000000000000000001111111
11111111111111111111111111111111111111110000000000000001111111110000000000000000000000000000001110000111000011111111111110000000000000000000000000000000000000000000000011111111
11111111111111111111111111111111111110000000000000000011111111100000000000000000000000000000000111001111100001111111111111000000000000000000000000000000000000000000000111111111
11111111111111111111111111111111111000000000000000000111111110000000000000000000000000000000000011111111110000011111111111100000000000000000000000000000000000000000001111111111
11111111111111111111110011000011111100000000000000001111111100000000000000000000000000000000000001111111111000011111111111110000000000000000000000000000000000000000011111111111
11111111111111111111100001000001111111000000000000011111111000000000000000000000000000000000000001111111111000111111111111111000000000000000000000000000000000000000111111111111
11111111111111111111100000000001111111000001100000111111110000000000000000000000000000000000000011111111110001111111111111111100000000000000000000000000000000000001111111111111
11111111111111111111000000000000111110000011110001111111100000000000000000000000000000000000000111111111100011111111100111111110000000000000000000000000000000000011111111111111
11111111111111111111000000000000011100000111111011111111000000000000000000000000000000000000001111111111100111111100001111111111000000000000000000000000000000000111111111111111
11111111111111111110000000000000001100000111111111111110000000000000000000000000000000000000011111111111100111111110001111111011100000000000000000000000000000001111111111111111
11111111111111111110000000000000001000000111111111111100000000000000000000000000000000000000111111111111000111111110001100000001110000000000000000000000000000011111111111111111
11111111111111111110000000000000001000000111111111111000000000000000000000000000000000000001111111111111001111111110000000000011111000000000000000000000000000111111111111111111
11111111111111111100000000000000011000001111111111110000000000000000000000000000000000000011111111111110001111100110000000001111111100000000000000000000000001111111111111111111
11111111111111111100000000000000110000011111111111110000000000000000000000000000000000000111111111111100001111110000000000001111100110000000000000000000000011111111111111111111
11111111111111111000000000000001100000011111111111111000000000000000000000000000000000001111111111111000011111110000000000001111100000000000000000000000000111111111111111111111
11111111111111111000000000000011000000111111111111111100000000000000000000000000000000011111111111110000011111100000000000000000000000110000000000000000001111111111111111111111
11111111111111110000000000000000000001111111111111111110000000000000000000000000000000111111111111100000011110000000000000000000000000111000000000000000011111111111111111111111
11111111111111110000000000000000000001110011111111111111000000000000000000000000000001111111111111000000011110000000000000000000000000011100000000000000111111111111111111111111
11111111111111100000000000000000000011100011111111111111100000000000000000000000000111111111111110000000000000000000000000000000000000001110000000000001111111111111111111111111
11111111111111000000000000000000000010000111111111111111110000000000000000000000001111111111111100000000000000000000000000000000000000100111000000000011111111111111111111111111
11111111111111000000000000000000000010001111111111111111111000000000000000000000011111111111111100000000000000000000000000000000000000111111100000000111111111111111111111111111
11111111111111100000000000000000000000011111111111111111111100000000000000000000111111111111111100000000000000000000000000000000000000111111110000001111111111111111111111111111
11111111111111110000000000000000000000011111111111111111111110000000000000000001111111111111111100000000000000000000000000000000000000111000111000011111111111111111111111111111
11111111111111111000000000000000000000000011111111111111111111000000000000000011111111111111111000000000000000001000000000000000000000111000011100111111111111111111111111111111
11111111111111111000000000000000000000000011111111111111111111100000000000000111111111111111110000000000000000011110000000000000000000000000111111111111111111111111111111111111
11111111111111110000000000000000000000000000011111111111111111110000000000001111111111111111110000000000000000111111000000000000000000000001111111111111111111111111111111111111
11111111111111110000000000000000000000000000000011111111111111111000000000111111111111111111110000000000000001111111100000000000000000000011111111111111111111111111111111111111
11111111111111110000000000000000000000000000000011111111111111111100000001111111111111111111100000000000000011111111110000000000000000000111111111111111111111111111111111111111
11111111111111110000000000000000000000000000000011111111111111111110000011111111111111111111000000000000000111111111111000000000000000001111111111111111111111111111111111111111
11111111110000000000000000000000000000000000000011111111111111111111000111111111111111110000000000000000011111111111111000000000000000011111111111111111111111111111111111111111
11111111110000000000000000000000000000000000000001111111111111111111101111111111111111000000000000000000111111111111110000000000000000111111111111111111111111111111111111111111
11111111100000000000000000000000000000000000000000011111111111111111111111111111111110000000000000000001111111111111000000000000000001111111111111111111111111111111111111111111
11111111100000000000000000000000000000000000000000011111111111111111111111111111111110000000000000000000111111111111000000000000000011111111111111111111111111111111111111111111
11111111100000000000000000000000001000000000000000011111111111111111111111111111111110000000000000000000001111111111100000000000000111111111111111111111111111111111111111111111
11111111000000000000000000000000011100000000000000011111001111111111111111111111001111110000000000000000011111111111110000000000001111111111111111111111111111111111111111111111
11111111000000000000000000000000111110000000000000011111001111111111111111111110001111111000000000000000111111111111110000000000011111111111111111111111111111111111111111111111
11111110000000000000000000000001111111000000000000000000001111111111111111111100001111111000000000000001111111111111110000000000111111111111111111111111111111111111111111111111
11111110000000000000000000000011111111100000000000000000000000111111111111111000011111111000000000000001111111111111100000000001111111111111111111111111111111111111111111111111
11111100000000000000000000000111111111110000000000000000000000001111111111110000011111111000000000000001111111111111000000000011111111111111111111111111111111111111111111111111
11111100000000000000000000001111111111111000000000000000000000001111111111111000011111111000000000000011111111111110000000000111111111111111111111111111111111111111111111111111
11111100000000000000000000011111111111111100000000000000000000001111111111111100011111111000000000000111111111111000000000001111111111111111111111111111111111111111111111111111
11111110000000000000000000111111111111111110000000000000000000001111111111111110000011110000000000000111111111110000000000011111111111111111111111111111111111111111111111111111
11111111000000000000000001111111111011111110000000000000000000001111111111111111000000100000000000000111111011100000000000111111111111111111111111111111111111111111111111111111
11111111100000000000000011111111100001111110000000000000000000000000111111111111100000000000000000000000000000000000000001111111111111111111111111111111111111111111111111111111
11111111110000000000000111111111000000111111000000000000000000000000001111111111110000000000000000000000000000000000000011111111111111111111111111111111111111111111111111111111
11111111111000000000001111111110000000011111100000000000000000000000000011111111111000000000000000000000000000000000000111111111111111111111111111111111111111111111111111111111
11111111111100000000011111111100000000001111100000000000000000000000000011111111111100000000000000000000000000000000001111111111111111111111111111111111111111111111111111111111
11111111111110000000111111111110000000000111100001000000000000000000000111111111111110000000000000000000000000000000011111111111111111111111111111111111111111111111111111111111
11111111111111000001111111111111000000000011000111100000000000000000001111101111111111000000000000000000000000000000111111111111111111111111111111111111111111111111111111111111
11111111111111100011111111111111100000000000001111110000000000000010111111000111111111100000000000000000000000000001111111111111111111111111111111111111111111111111111111111111
11111111111111111111111111111111110000000000011111111000000000000011111110000011111111110000000000000000000000000011111111111111111111111111111111111111111111111111111111111111
11111111111111111111111110111111100000000000001111111000000000000011111100000001111111111000000000000000000110000111111111111111111111111111111111111111111111111111111111111111
11111111111111111111111100011111000000000000001111111100000000000011111000000001111111111100000000000000011111001111111111111111111111111111111111111111111111111111111111111111
11111111111111111111111000001110000000000000000111111110000000000001110000000111111111111110000000000000011111011111111111111111111111111111111111111111111111111111111111111111
11111111111111111111110000000100000000000000000011111110000000000000000000001111101111111111000000000000001111111111111111111111111111111111111111111111111111111111111111111111
11111111111111111111100000000000000000000000000001111111000000000000000000111111000111111111100000000000000111111111111111111111111111111111111111111111111111111111111111111111
11111111111111111110000000000011110000000000000000111111100000000000000011111100000011111111110000000000000011111111111111111111111111111111111111111111111111111111111111111111
11111111111111111100000000001111111100000000000001111111100000000000001111111100000001111111111000000000000111111111111111111111111111111111111111111111111111111111111111111111
11111111111111111000000000001111111100000110000011111111000000000000001111111100000001111111111100000000001111111111111111111111111111111111111111111111111111111111111111111111
11111111111111110000000000001111111100001111000111111110000000000000001111110000000011111111111110000000011111111111111111111111111111111111111111111111111111111111111111111111
11111111111111100000000000001111111100011111101111111110000000000000001111110000000111101111111111000000111111111111111111111111111111111111111111111111111111111111111111111111
11111111111111000000000000000111111100111111111111111110000000000000000110000000011111000111111111100001111111111111111111111111111111111111111111111111111111111111111111111111
11111111111110000000000000000011110000111111111111111110000000000000000110000001111110000011111111110011111111111111111111111111111111111111111111111111111111111111111111111111
11111111111100000000000000000000000000011111111111111110000000000000000000000111111100000001111111111111111111111111111111111111111111111111111111111111111111111111111111111111
11111111111100000000000000000000000000001111111111011100000000000000000000001111111000000001111111111111111111111111111111111111111111111111111111111111111111111111111111111111
11111111111110000000000000000000000000000111111110000000000000000000000000001111110000000011111111111111111111111111111111111111111111111111111111111111111111111111111111111111
11111111111111000000000000000000000000001111111100000000000000000000000000000111000000000111111111111111111111111111111111111111111111111111111111111111111111111111111111111111
11111111111111100000000000000000000000011111111000000000000000000000000000000110000000001111111111111111111111111111111111111111111111111111111111111111111111111111111111111111
11111111111111110000000000000000000000111111110000000000000000000000000000000000000000011111111111111111111111111111111111111111111111111111111111111111111111111111111111111111
11111111111111111000000000000000000001111111100000000000000000000000000000000000000011111111111111111111111111111111111111111111111111111111111111111111111111111111111111111111
11111111111111111100000000000000000011111111000000000000000000000000000000000000000111111111111111111111111111111111111111111111111111111111111111111111111111111111111111111111
11111111111111111110000000000000000111111110000000000000000000000000000000000000011111111111111111111111111111111111111111111111111111111111111111111111111111111111111111111111
11111111111111111111000000000000001111111100000000000000000000000000000000000001111111111111111111111111111111111111111111111111111111111111111111111111111111111111111111111111
11111111111111111111100000000000011111111000000000000000000000000000000000000011111111111111111111111111111111111111111111111111111111111111111111111111111111111111111111111111
11111111111111111111110000000000111111110000000000000000000000000000000000001111111111111111111111111111111111111111111111111111111111111111111111111111111111111111111111111111
11111111111111111111111000000001111111110000000000000000000000000000000000011111111111111111111111111111111111111111111111111111111111111111111111111111111111111111111111111111
11111111111111111111111100000011111111111000000000000000000000000000000001111111111111111111111111111111111111111111111111111111111111111111111111111111111111111111111111111111
11111111111111111111111110000111111111111100000000000000000000000000000111111111111111111111111111111111111111111111111111111111111111111111111111111111111111111111111111111111
11111111111111111111111111001111111111111110000000000000000000000000011111111111111111111111111111111111111111111111111111111111111111111111111111111111111111111111111111111111
11111111111111111111111111111111111111111111000000000000000000000001111111111111111111111111111111111111111111111111111111111111111111111111111111111111111111111111111111111111
11111111111111111111111111111111111111111111100000000000000000000011111111111111111111111111111111111111111111111111111111111111111111111111111111111111111111111111111111111111
11111111111111111111111111111111111111111111110000000000000000001111111111111111111111111111111111111111111111111111111111111111111111111111111111111111111111111111111111111111
11111111111111111111111111111111111111111111111000000000000000111111111111111111111111111111111111111111111111111111111111111111111111111111111111111111111111111111111111111111
11111111111111111111111111111111111111111111111111110000001111111111111111111111111111111111111111111111111111111111111111111111111111111111111111111111111111111111111111111111
11111111111111111111111111111111111111111111111111111111111111111111111111111111111111111111111111111111111111111111111111111111111111111111111111111111111111111111111111111111
11111111111111111111111111111111111111111111111111111111111111111111111111111111111111111111111111111111111111111111111111111111111111111111111111111111111111111111111111111111
11111111111111111111111111111111111111111111111111111111111111111111111111111111111111111111111111111111111111111111111111111111111111111111111111111111111111111111111111111111
11111111111111111111111111111111111111111111111111111111111111111111111111111111111111111111111111111111111111111111111111111111111111111111111111111111111111111111111111111111
11111111111111111111111111111111111111111111111111111111111111111111111111111111111111111111111111111111111111111111111111111111111111111111111111111111111111111111111111111111
