11111111111111111111111111111111111111111111111111
11111111111111111111111111111111111111111111111111
11111111111111111111111111111111111111111111111111
11111111111111111111111111111111111111111111111111
11111111111111111111111111111111111111111111111111
11111111111111111111111111111111111111111111111111
11111111111111111111111111111111111111111111111111
11111111111111111111111111111111111111111111111111
11111111111111111111111111111111111111111111111111
11111111111111111111111111111111111111111111111111
11111111111111111111111111111111111111111111111111
11111111111111111111111111111111111111111111111111
11111111111111111111111111111111111111111111111111
11111111111111111111111111111111111111111111111111
11111111111111111111111111111111111111111111111111
11111111111111111111111111111111111111111111111111
11111111111111111111111111111111111111111111111111
11111111111111111111111111111111111111111111111111
11111111111111111111111111111111111111111111111111
11111111111111111111111111111111111111111111111111
11111111111111111111111111111111111111111111111111
11111111111111111111111111111111111111111111111111
11111111111111111111111111101111111111111111111111
11111111111111111111111110000111111111111111111111
11111111111111111111111100000011111111111111111111
11111111111111111111111001000001111111111111111111
11111111111111111111110011100011111111111111111111
11111111111111111111100111111000001111111111111111
11111111111111111111001111111100000111111111111111
11111111111111111110000111111110000001111111111111
11111111111111111100010001111110000000111111111111
11111111111111111000111000111100000000011111111111
11111111111111111000111110011000000000111111111111
11111111111111110000011111000000000001111111111111
11111111111111100000001111000000000011111111111111
11111111111111000000000110000000000111111111111111
11111111111100000000000000000000001111111111111111
11111111111000000000000000000000011111111111111111
11111111110000000000000000000000111111111111111111
11111111110000000000000000000001111111111111111111
11111111100000000000000000000001111111111111111111
11111111110000000000000000000011111111111111111111
11111111111000000000000000000111111111111111111111
11111111111100000000000000001111111111111111111111
11111111111110000000000000011111111111111111111111
11111111111111000000000000111111111111111111111111
11111111111111100000000001111111111111111111111111
11111111111111110000000011111111111111111111111111
11111111111111111000000111111111111111111111111111
11111111111111111111111111111111111111111111111111
