1111111111111111111111111111111111111111111111111111111111111111111111111111111111111111111111111111111111111111111111111111111111111111111111111111111111111111
1111111111111111111111111111111111111111111111111111111111111111111111111111111111111111111111111111111111111111111111111111111111111111111111111111111111111111
1111111111111111111111111111111111111111111111111111111111111111111111111111111111111111111111111111111111111111111111111111111111111111111111111111111111111111
1111111111111111111111111111111111111111111111111111111111111111111111111111111111111111111111111111111111111111111111111111111111111111111111111111111111111111
1111111111111111111111111111111111111111111111111111111111111111111111111111111111111111111111111111111111111111111111111111111111111111111111111111111111111111
1111111111111111111111111111111111111111111111111111111111111111111111111111111111111111111111111111111111111111111111111111111111111111111111111111111111111111
1111111111111111111111111111111111111111111111111111111111111111111111111111111111111111111111111111111111111111111111111111111111111111111111111111111111111111
1111111111111111111111111111111111111111111111111111111111111111111111111111111111111111111111111111111111111111111111111111111111111111111111111111111111111111
1111111111111111111111111111111111111111111111111111111111111111111111111111111111111111111111111111111111111111111111111111111111111111111111111111111111111111
1111111111111111111111111111111111111111111111111111111111111111111111111111111111111111111111111111111111111111111111111111111111111111111111111111111111111111
1111111111111111111111111111111111111111111111111111111111111111111111111111111111111111111111111111111111111111111111111111111111111111111111111111111111111111
1111111111111111111111111111111111111111111111111111111111111111111111111111111111111111111111111111111111111111111111111111111111111111111111111111111111111111
1111111111111111111111111111111111111111111111111111111111111111111111111111111111111111111111111111111111111111111111111111111111111111111111111111111111111111
1111111111111111111111111111111111111111111111111111111111111111111111111111111111111111111111111111111111111111111111111111111111111111111111111111111111111111
1111111111111111111111111111111111111111111111111111111111111111111111111111111111111111111111111111111111111111111111111111111111111111111111111111111111111111
1111111111111111111111111111111111111111111111111111111111111111111111111111111111111111111111111111111111111111111111111111111111111111111111111111111111111111
1111111111111111111111111111111111111111111111111111111111111111111111111111111111111111111111111111111111111111111111111111111111111111111111111111111111111111
1111111111111111111111111111111111111111111111111111111111111111111111111111111111111111111111111011011111111111111111111111111111111111111111111111111111111111
1111111111111111111111111111111111111111111111111111111111111111111111111111111111111111111111111000011111111111111111111111111111111111111111111111111111111111
1111111111111111111111111111111111111111111111111111111111111111111111111111111111111111111111110000001111111111111111111111111111111111111111111111111111111111
1111111111111111111111111111111111111111111111111111111111111111111111111111111111111111111111100000000111111111111111111111111111111111111111111111111111111111
1111111111111111111111111111111111111111111111111111111111111111111111111111111111111111111111000000000011111111111111111111111111111111111111111111111111111111
1111111111111111111111111111111111111111111111111111111111111111111111111111111111111111111100000000000001111111111111111111111111111111111111111111111111111111
1111111111111111111111111111111111111111111111111111111111111111111111111111111111111111111000000000000000111111111111111111111111111111111111111111111111111111
1111111111111111111111111111111111111111111111111111111111111111111111111111111111111111110000001111100000011111111111111111111111111111111111111111111111111111
1111111111111111111111111111111111111111111111111111111111111111111111111111111111111111000000001111111100001111111111111111111111111111111111111111111111111111
1111111111111111111111111111111111111111111111111111111111111111111111111111111111111111000000001111111100000111111111111111111111111111111111111111111111111111
1111111111111111111111111111111111111111111111111111111111111110111111111111111111111110000000011111111100000011111111111111111111111111111111111111111111111111
1111111111111111111111111111111111111111111111111111111111111100011111111111111111111100000000011111111100000001111111111111111111111111111111111111111111111111
1111111111111111111111111111111111111111111111111111111111111100001111111111111111111000000000011111111100000000111111111111111111111111111111111111111111111111
1111111111111111111111111111111111111111111111111111111111111000001111111111111111100000000000000000000000000000011111111111111111111111111111111111111111111111
1111111111111111111111111111111111111111111111111111111111111000011111111111111111111000000000000000000000000000001111111111111111111111111111111111111111111111
1111111111111111111111111111111111111111111111111111111111110000011111111111111111111100000000000000000000000000000111111111111111111111111111111111111111111111
1111111111111111111111111111111111111111111111111111111111110000111111111111111111111100000000000000000000000000000111111111111111111111111111111111111111111111
1111111111111111111111111111111111111111111111111111111111110000111111111111111111111100000000010000000000000000001111111111111111111111111111111111111111111111
1111111111111111111111111111111111111111111111111111111111100000111111111111110111100000000000011110000000000000011111111111111111111111111111111111111111111111
1111111111111111111111111111111111111111111111111111111111100001111111111111100000000000000000111111100000000000111111110000111111111111111111111111111111111111
1111111111111111111111111111111111111111111111111111111111000011111111001111000000000000000000111111111000000001111111000000011111111111111111111111111111111111
1111111111111111111111111111111111111111111111111111111111000011111110000110000000000000000001111111111000000011111110000000111111111111111111111111111111111111
1111111111111111111111111111111111111111111111111111111111000111111111000000000000000000000001111111111000000111111100000001111111111111111111111111111111111111
1111111111111111111111111111111111111111111111111111111110000111111111100000000000000000000000001111110000001111111000000000111111111111111111111111111111111111
1111111111111111111111111111111111111111111111111111111100000011111111110000000000000000000000000000110000011111111100000000011111111111111111111111111111111111
1111111111111111111111111111111111111111111111111111111000000001111111111000000000000000001100000000000000111111111100000000001111111111111111111111111111111111
1111111111111111111111111111111111111111111111111111110000000000111011111100000000000000011110000000000001111111111000000000000111111111111111111111111111111111
1111111111111111111111111111111111111111111111111111100000000000010001111110000000000000111111000000000011111101110000000000000011100111111111111111111111111111
1111111111111111111111111111111111111111111111111111110000000000011000111111000000000001111111000000000111111000100000000000000000000011111111111111111111111111
1111111111111111111111111111111111111111111111111111111000000000001000011111000000000001111111100000001111111100000000000000000000000111111111111111111111111111
1111111111111111111111111111111111111111111111111111111100000000001100001111000000000001111111100000111111111110000000011100000000000000111111111111111111111111
1111111111111111111111111111111111111111111111111111111110000000000100001111000000000000111111100001111111111110000000111110000000000000111111111111111111111111
1111111111111111111111111111111111111111111111111111111111000000000110001110001100000000000111100011111110011100001101111100000000000001111111111111111111111111
1111111111111111111111111111111111111111111111111111111111100000000010000000001110000000000111100111111110000000001111111110000000000011111111111111111111111111
1111111111111111111111111111111111111111111110011111111111100000000011000000011111000000000000001111111111000000001111111000000000000111111111111111111111111111
1111111111111111111111111111111111111111111100001111111111110000000001000000111111110000000000011111111110000001101111110000000000001111111111111111111111111111
1111111111111111111111111111111111111111111000000111111111110000000001100000111111111000000000111111111100000001111111111000000000011111110111111111111111111111
1111111111111111111111111111111111111111110000000011111111110000000000100000000111111100000001111111001000000001111111111000000000111111110011111111111111111111
1111111111111111111111111111111111001111100000000001111111111000000000111100000111111110000011111110000000000001111110000000000001111111110001111111111111111111
1111111111111111111111111111111111100000000000000000111111111000000000001000000111111111000111111100000000000011111110000000000011111111110000111111111111111111
1111111111111111111111111111111111111000000000000000011111111100000000000000000001111111111111111000000000000011111110000000000111111111100000011111111111111111
1111111111111111111111111111111111111111000000000000011111111100000000000000000011111111111111111000000000000111110000000000001111111111100000000011111111111111
1111111111111111111111111111111111111111110000000000001111111110000000000000000001111111111111111000000000000111100000000000011111111110000000000011111111111111
1111111111111111111111111111111111111111111000000000001111111111000000000000000000111111111111110000000000000000000000000000111111111100000000000011111111111111
1111111111111111111111111111111111111111111100000000000111111111000000000000000000001111111110000000000000000000000000000001111111111000000000000001101111111111
1111111111111111111111111111111111111111111100000000000111111111000000000000000000000101111111000000000000000000000000000011111011110000000110000000001111111111
1111111111111111111111111111111111111111111110000000000111111100000000000000000000010001111111100000000000000000000000000111111000000000011111000000001111111111
1111111111111111111111111111111111111111111110000000000011111000000000000000000000011000111111110000000000000000000000001111111000000011001111100000011111111111
1111111111111111111111111111111111111111111111000000000011110000000000000000000000000000011111111000000000000000000000011111111000000111100011110000011111111111
1111111111111111111111111111111111111111111111000000000001100000000000000000000000000000001111111100000000000000000000111111111000000011111001110000001111111111
1111111111111111111111111111111111111111111111100000000001000000000000000000000000000000001111111100000000000000000001111111110000000001111100110000000111111111
1111111111111111111111111111111111111111001111100000000000000000000000000000000000000000000111111100000000000000000011111111100000001100111100000000000000111111
1111111111111111111111111111111111111110000111110000000000000000000000000000000000000000001100111000000000000000001111111111000000011110011001000000000000001111
1111111111111111111111111111111111111100000011110000000000000000000000000000000000000000001100000000010000000000011111110000000000011111000011100000000000000111
1111111111111111111111111111111111111100000001110000000000000000000000000000000000000000000000000000111000000000111111110000000000001111100111100000000000000111
1111111111111111111111111111111111111110000000111000000000000000000000000000000000000000000000000000111100000001111111000000000000000111110011000000000000001111
1111111111111111111111111111110011111111000000011000000000000000000000000000000000000000000000000001111110000011111111000000000000000011100000000000000000011111
1111111111111111111111111111110001111111100000001100000000000000000000001100000000000000000000000001111111000111111111100000000000000000000000000000000000111111
1111111111111111111111111111111000111111110000000110000000000000000000111110000000000000000000000000011111101111111000000000010000000000000000000000000001111111
1111111111111111111111111111111100001111111000000110000000000000000001111111000000000000000000000000011111111111110000000000111000000000000000000000000011111111
1111111111111111111111111111111111000011111000000000000000000000000001111111100000000000000000000000001011111111100000000000111000000000000000000000000111111111
1111111111111111111111111111111111000001111000000000000000000000000000111111000000000000000000000000000001111111000000000000011000000000000000000000001111111111
1111111111111111111111111111111111100001111000000000000000000000000000000000000000000000000000000001100000111110000000000110000000000000000000000000011111111111
1111111111111111111111101101111111000001000001110000000000000000000000000000000000000000000000000001100001111111000000001111000000000000000000000000111111111111
1111111111111111111111000000111110000000000011111000000000000000000000000000000000000000000000000000000000001111100000000111000000000000000000000001111111111111
1111111111111111111111000001111000000000000001111100000000000000000000000000000000110000000000000000000000001111111000000011000000000000000000000011111111111111
1111111111111111111110000001111000000000000001111110000000000000000000000000000001111000000000000000000000001111111100000000000000000000000000001111111111111111
1111111111111111111111000000110000000000000111111111000000000000000000000000000001111100000000000000000000001101111100000000000000000000000000011111111111111111
1111111111111111111111100000000000000000001111111111100000000000000000000000000001111100000000000000000000100000111000000000000000000000000000111111111111111111
1111111111111111111111110000000000000000001111111111110000000000000000000000000011111100000000000000000000110000110001100000000000000000000001111111111111111111
1111111111111111111111111000000000000000001110111111111000110000000000000000000011111111000000000000000000000000000001110000000000000000000011111111111111111111
1111111111111111111111111100000000000000001000111111111100110000000000000000000011111111100000000000000000000000000001111000000000000000000111111111111111111111
1111111111111011001111100000000000000000001001111111111110000000000000000000000111111111100000000000000000000000000011111110000000000000001111111111111111111111
1111111111110000001111100000000000000000000000001110111111000000000000000000000111111111100000000000000000000000000011111111000000000000011111111111111111111111
1111111111100000011110000000000000000000000000001110011111100000000000000000000000011000000000000000000000000000000000111111100000000000111111111111111111111111
1111111111000000001110000000000000000000111000011110001111110000000000000000000000000000000001000000000000000000000000011111110000000001111111111111111111111111
1111111111100000000000000000000000000000111000011100011111111000011000000000000000000000000011100000000000000000000000011111111000000011111111111111111111111111
1111111111110000000000000000000000000000011000111100111111111100011000000000000000000000000011110000000000000000000000011111111110001111111111111111111111111111
1111111111111000000000000000000000000000011000110001111111111110000000000000000000000000000011111000000000000000000000000011111111011111111111111111111111111111
1111011111111100000000000000000000000000110000000111111111111111000000000000000000000000000011111000000000000000000000000001111111111111111111111111111111111111
1110001111111111000000000011000000000001111000001111111111011111100000000000000000000000000011111000000000000000000000000000011111111111111111111111111111111111
1100000111111110000000000111000110000001111000011111111100001111110000000000000000000000000011111000000000000000000000000000001111111111111111111111111111111111
1000000011111000000000001111000110000001111000111111111001100111100000000000000000000000000011100000000000000000000000000000000111111111111111111111111111111111
1100000011100000000000011111000011000000000001111111111011110111100110000000000000000000000000000000000000000000000000000000000011111111111111111111111111111111
1110000001100000000000011110000011000000000011111111100011100000000111000000000000000000000000000000000000000000000000000000000111111111111111111111111111111111
1111000000000000000000111100111000000000001111111111001110000000000111100001100000000000000000000000000000000000000000000000001111111111111111111111111111111111
1111100000000000000001111001111000000000011111111111011110111000001111110001100000000000000000000000000000000000000000000000011111111111111111111111111111111111
1111110000000000000001110011110000000000111111111000011110111000011111111000000000000000000000000000000000000000000000000000111111111111111111111111111111111111
1111111000000000000000000011100000000001111111110000001110111000011111111100000000000000000000000000000000000000000000000001111111111111111111111111111111111111
1111111100000000000000000001000000000011111111100000000000000000001111111110000000000000000000000000000000000000000000000011111111111111111111111111111111111111
1111111110000000000000000000000000000111111111000000000000000000000111111111000000011000000000000000000000000000000000000111111111111111111111111111111111111111
1111111111000000000000000000000000001111111110000000000000000000000011111111100000011000000000000000000000000000000000001111111111111111111111111111111111111111
1111111111100000000000000000000000011111111100000000000000000000000001111111110000000000000000000000000000000000000000011111111111111111111111111111111111111111
1111111111110000000000000000000000111111111000000000000000000000000001111111111000000000000000000000000000000000000000111111111111111111111111111111111111111111
1111111111111000000000000000000001111111110000000000100000000000000011111111111100000000000000000000000000000000000001111111111111111111111111111111111111111111
1111111111111100000000000000000011111111100000000000110000000000000111111110111110000000000000000000000000000000000011111111111111111111111111111111111111111111
1111111111111110000000000000000111111111110000000001110000000000001111111000011111000000000000000000000000000000000111111111111111111111111111111111111111111111
1111111111111111000000000000001111111111110000000000111000000000011111111111001111100000000000000000000000000000001111111111111111111111111111111111111111111111
1111111111111111100000000000011111111111100000000011111000000000111111111111000111100000000000000000000000000000011111111111111111111111111111111111111111111111
1111111111111111110000000000111111111111000000001111111100000001111111000000000011000000000000000000000000000000111111111111111111111111111111111111111111111111
1111111111111111111000000001111111111110000000000111111110000011111110000000000000001110000000000000000000000011111111111111111111111111111111111111111111111111
1111111111111111111100000011111111111110000000000111111110000111111100000000000000011111000000000000000000000111111111111111111111111111111111111111111111111111
1111111111111111111110000111111111111111000000000011110110001111111000000000000000011111100000000000000000001111111111111111111111111111111111111111111111111111
1111111111111111111111001111110011111111100000000011110000011111110000000000000000001111110000000000000000011111111111111111111111111111111111111111111111111111
1111111111111111111111111111100001111111110000000001000000111111110000000000000000000111111000000000000000111111111111111111111111111111111111111111111111111111
1111111111111111111111111111000000111111111000000000000001111111100000000000000000000011111100000000000001111111111111111111111111111111111111111111111111111111
1111111111111111111111111110000000011111110000000000000011111111100000000000000000000001111110000000000011111111111111111111111111111111111111111111111111111111
1111111111111111111111111110000000001111100000000000000111111100000000000000000000000000111111000000000111111111111111111111111111111111111111111111111111111111
1111111111111111111111111111000000000111000000000000001111111110000000000000000000000000011111100000001111111111111111111111111111111111111111111111111111111111
1111111111111111111111111111100000000010000000000000011111111111000110000000000000000000001111110000111111111111111111111111111111111111111111111111111111111111
1111111111111111111111111111110000000000000000000000111111111111000110000000000000000000000111111001111111111111111111111111111111111111111111111111111111111111
1111111111111111111111111111111000000000000000000001111111111110000000000000000000000000000011111111111111111111111111111111111111111111111111111111111111111111
1111111111111111111111111111111100000000000000000011111111111100000000000000000000000000000001111111111111111111111111111111111111111111111111111111111111111111
1111111111111111111111111111111110000000000000000111111011111000000000000000000000000000000000111111111111111111111111111111111111111111111111111111111111111111
1111111111111111111111111111111111000000000000001111110001110000000000000000000000000000000000111111111111111111111111111111111111111111111111111111111111111111
1111111111111111111111111111111111100000000000011111111000100000000000000000000000000000000001111111111111111111111111111111111111111111111111111111111111111111
1111111111111111111111111111111111110000000001111111011000000000000000000000000000000000000011111111111111111111111111111111111111111111111111111111111111111111
1111111111111111111111111111111111111000000011111111000000000000000000000000000000000000000111111111111111111111111111111111111111111111111111111111111111111111
1111111111111111111111111111111111111100000111111110000000000000000000000000000000000000001111111111111111111111111111111111111111111111111111111111111111111111
1111111111111111111111111111111111111110001111111000000011000000000000000000000000000000011111111111111111111111111111111111111111111111111111111111111111111111
1111111111111111111111111111111111111111011111110000000011000000000000000000000000000000111111111111111111111111111111111111111111111111111111111111111111111111
1111111111111111111111111111111111111111111111100000000000000000000000000000000000000001111111111111111111111111111111111111111111111111111111111111111111111111
1111111111111111111111111111111111111111111111000000000000000000000000000000000000000011111111111111111111111111111111111111111111111111111111111111111111111111
1111111111111111111111111111111111111111111110000000000000000000000000000000000000000111111111111111111111111111111111111111111111111111111111111111111111111111
1111111111111111111111111111111111111111111110000000000000000000000000000000000000001111111111111111111111111111111111111111111111111111111111111111111111111111
1111111111111111111111111111111111111111111111000000000000000000000000000000000000011111111111111111111111111111111111111111111111111111111111111111111111111111
1111111111111111111111111111111111111111111111100000000000000000000000000000000000111111111111111111111111111111111111111111111111111111111111111111111111111111
1111111111111111111111111111111111111111111111110000000000000000000000000000000011111111111111111111111111111111111111111111111111111111111111111111111111111111
1111111111111111111111111111111111111111111111111000000000000000000000000000000111111111111111111111111111111111111111111111111111111111111111111111111111111111
1111111111111111111111111111111111111111111111111100000000000000000000000000001111111111111111111111111111111111111111111111111111111111111111111111111111111111
1111111111111111111111111111111111111111111111111110000000000000000000000000011111111111111111111111111111111111111111111111111111111111111111111111111111111111
1111111111111111111111111111111111111111111111111111000000000000000000000000111111111111111111111111111111111111111111111111111111111111111111111111111111111111
1111111111111111111111111111111111111111111111111111100000000000000000000011111111111111111111111111111111111111111111111111111111111111111111111111111111111111
1111111111111111111111111111111111111111111111111111110000000000000000000111111111111111111111111111111111111111111111111111111111111111111111111111111111111111
1111111111111111111111111111111111111111111111111111111000000000000000001111111111111111111111111111111111111111111111111111111111111111111111111111111111111111
1111111111111111111111111111111111111111111111111111111100000000000000011111111111111111111111111111111111111111111111111111111111111111111111111111111111111111
1111111111111111111111111111111111111111111111111111111110000000000000111111111111111111111111111111111111111111111111111111111111111111111111111111111111111111
1111111111111111111111111111111111111111111111111111111111000000000011111111111111111111111111111111111111111111111111111111111111111111111111111111111111111111
1111111111111111111111111111111111111111111111111111111111100000000111111111111111111111111111111111111111111111111111111111111111111111111111111111111111111111
1111111111111111111111111111111111111111111111111111111111110000011111111111111111111111111111111111111111111111111111111111111111111111111111111111111111111111
1111111111111111111111111111111111111111111111111111111111111100111111111111111111111111111111111111111111111111111111111111111111111111111111111111111111111111
1111111111111111111111111111111111111111111111111111111111111111111111111111111111111111111111111111111111111111111111111111111111111111111111111111111111111111
1111111111111111111111111111111111111111111111111111111111111111111111111111111111111111111111111111111111111111111111111111111111111111111111111111111111111111
