11111111111111111111111111111111111111111111111111111111111111111111
11111111111111111111111111111111111111111111111111111111111111111111
11111111111111111111111111111111111111111111111111111111111111111111
11111111111111111111111111111111111111111111111111111111111111111111
11111111111111111111111111111111111111111111111111111111111111111111
11111111111111111111111111111111111111111111111111111111111111111111
11111111111111111111111111111111111111111111111111111111111111111111
11111111111111111111111111111111111111111111111111111111111111111111
11111111111111111111111111111111111111111111111111111111111111111111
11111111111111111111111111111111111111111111111111111111111111111111
11111111111111111111111111111111111111111111111111111111111111111111
11111111111111111111111111111111111111111111111111111111111111111111
11111111111111111111111111111111111111111111111111111111111111111111
11111111111111111111111111111111111111111111111111111111111111111111
11111111111111111111111111111111111111111111111111111111111111111111
11111111111111111111111111111111111111111111111111111111111111111111
11111111111111111111111111111111111111111111111111111111111111111111
11111111111111111111111111111111111001111111111111111111111111111111
11111111111111111111011111111111110000111111111111111111111111111111
11111111111111111111001111111111100000111111111111111111111111111111
11111111111111111111000111111111100000111111111111111111111111111111
11111111111111111110000111111111100000001111111111111111111111111111
11111111111111111110001111100001100000000111111111111111111111111111
11111111111111111100001111100000000000000111111111111111111111111111
11111111111111111100011111110000000000000111111111111111111111111111
11111111111111111000011111110000000000000000000111111111111111111111
11111111111111111000111111100000000000000000000111111111111111111111
11111111111111110000111111000000000000000000000111111111111111111111
11111111111111100000111100000000000000000000000011111111111111111111
11111111111111000000111000000000000000000001100001111111111111111111
11111111111110000000000000000001000000000011110000111111111111111111
11111111111110000000000000000011110000000111111000111111111110011111
11111111111000000000000000001111111000001111111000011111111100001111
11111111110000000000000000011111111001111111111100001111111000000111
11111111100000000000000000000111110001111111111110000111000000000011
11111111001111111111111100000011100111111111111111000010000000000111
11111110001111111111111100000001001111111111111111100000000000101111
11111110001111111111111100000000000111111111111111100000000001111111
11111111001111111111111000000000000011111111111111110000000011111111
11111111100111111111111000000000000000111111111111110000000111111111
11111111110011111111111000000000000000001111111111111000001111111111
11111111111001111111111000000110000000000111111111111100011111111111
11111111111100000000000000000110000000000111111111111111111111111111
11111111111110001110000000000010000000000111111111111111111111111111
11111111111111000100000000000110000000000000111111111111111111111111
11111111111111100000000000001110000000000001111111111111111111111111
11111111111111110000011000011110000000000011111111111111111111111111
11111111111111111100011000111100001000000111111111111111111111111111
11111111111111111110000001111100011101101111111111111111111111111111
11111111111111111110000011111100011111111111111111111111111111111111
11111111111111111110110111111000111111111111111111111111111111111111
11111111111111111111111111110000111111111111111111111111111111111111
11111111111111111111111111100000111111111111111111111111111111111111
11111111111111111111111111000000011111111111111111111111111111111111
11111111111111111111111111100000001111111111111111111111111111111111
11111111111111111111111111100000000111111111111111111111111111111111
11111111111111111111111111110000001111111111111111111111111111111111
11111111111111111111111111100000011111111111111111111111111111111111
11111111111111111111111111110000111111111111111111111111111111111111
11111111111111111111111111111001111111111111111111111111111111111111
11111111111111111111111111111111111111111111111111111111111111111111
11111111111111111111111111111111111111111111111111111111111111111111
11111111111111111111111111111111111111111111111111111111111111111111
11111111111111111111111111111111111111111111111111111111111111111111
11111111111111111111111111111111111111111111111111111111111111111111
11111111111111111111111111111111111111111111111111111111111111111111
11111111111111111111111111111111111111111111111111111111111111111111
11111111111111111111111111111111111111111111111111111111111111111111
11111111111111111111111111111111111111111111111111111111111111111111
11111111111111111111111111111111111111111111111111111111111111111111
11111111111111111111111111111111111111111111111111111111111111111111
11111111111111111111111111111111111111111111111111111111111111111111
11111111111111111111111111111111111111111111111111111111111111111111
11111111111111111111111111111111111111111111111111111111111111111111
11111111111111111111111111111111111111111111111111111111111111111111
