1111111111111111111111111111111111111111111111111111111111111111
1111111111111111111111111111111111111111111111111111111111111111
1111111111111111111111111111111111111111111111111111111111111111
1111111111111111111111111111111111111111111111111111111111111111
1111111111111111111111111111111111111111111111111111111111111111
1111111111111111111111111111111111111111111111111111111111111111
1111111111111111111111111111111111111111111111111111111111111111
1111111111111111111111111111111111111111111111111111111111111111
1111111111111111111111111111111111111111111111111111111111111111
1111111111111111111111111111111111110111111111111111111111111111
1111111111111111111111111111111111100011111111111111111111111111
1111111111111111111111111111111111000001111111111111111111111111
1111111111111111111111111111111110000000111111111111111111111111
1111111111111111111111111111111000000000011111111111111111111111
1111111111111111111111111111110000110000001111111111111111111111
1111111111111111111111111111100000111011000111111111111111111111
1111111111111111111111111111000111111111000011111111111111111111
1111111111111111111111111110000111111110000001111111111111111111
1111111111111111111111111100000011111110000000111111111111111111
1111111111111111111111111000001111111100000000011111111111111111
1111111111111111111111110000001111110000000000001111111111111111
1111111111111111111111111000001111110000000000000111111111111111
1111111111111111111111111100000100110000000000000011111111111111
1111111111111111111110111110000000000000000000000000111111111111
1111111111111111111100011111000000000000000000000000111111111111
1111111111111111111000000111100000000000000000000001111111111111
1111111111111111110000000011110000000000000000000011111111111111
1111111111111111100011000001111000000000000000000111111111111111
1111111111111111000111100000111100000000000000001111111111111111
1111111111111110001111110000011110000000000000011111111110011111
1111111111111100001111111000001111000000000000111111100000000111
1111111111110000011111111000000110000000000000011111000000000111
1111111111100001001111111110000000000000000000001110000000000111
1111111111000011000111111110000000001000000000000100000000001111
1111111110000111100011111110000000011100000000000000000000011111
1111111100001111110001111110000000011110000000000000000000111111
1111111000011111111000011100000000001111000000000000000001111111
1111110000011111111100000000000000000111100000000000000011111111
1111100000001111111110000000000000000011110000000000000111111111
1111000000000111111110000000001111000001111000000000001111111111
1110000000000011111110000000011111100000011100000000011111111111
1110000000000001111110000000011111110000001111000000111111111111
1111000000000000000000000000011111111100000111100001111111111111
1111100000000000000000000000011111111110000011110011111111111111
1111110000000000000000001110000111111100000001111111111111111111
1111111000000000000000011111000011111000000000111111111111111111
1111111100000000000000011111110001110000000000011111111111111111
1111111110000000000000011111111000100000000000111111111111111111
1111111111000000000000011111111100000000000001111111111111111111
1111111111100000000000001111111100000000000011111111111111111111
1111111111110000000000000111111100000000000111111111111111111111
1111111111111000000000000011111000000000001111111111111111111111
1111111111111100000000000001100000000000011111111111111111111111
1111111111111110000000000000000000000000111111111111111111111111
1111111111111111000000000000000000000001111111111111111111111111
1111111111111111100000000000000000000011111111111111111111111111
1111111111111111110000000000000000000111111111111111111111111111
1111111111111111111000000000000000001111111111111111111111111111
1111111111111111111100000000000000011111111111111111111111111111
1111111111111111111110000000000000111111111111111111111111111111
1111111111111111111111000000000001111111111111111111111111111111
1111111111111111111111100000000011111111111111111111111111111111
1111111111111111111111110000000111111111111111111111111111111111
1111111111111111111111111111111111111111111111111111111111111111
