111111111111111111111111111111111111111111111111111111111111111111111111111111111111111111111111111111111111
111111111111111111111111111111111111111111111111111111111111111111111111111111111111111111111111111111111111
111111111111111111111111111111111111111111111111111111111111111111111111111111111111111111111111111111111111
111111111111111111111111111111111111111111111111111111111111111111111111111111111111111111111111111111111111
111111111111111111111111111111111111111111111111111111111111111111111111111111111111111111111111111111111111
111111111111111111111111111111111111111111111111111111111111111111111111111111111111111111111111111111111111
111111111111111111111111111111111111111111111111111111111111111111111111111111111111111111111111111111111111
111111111111111111111111111111111111111111111111111111111111111111111111111111111111111111111111111111111111
111111111111111111111111111111111111111111111111111111111111111110011111111111111111111111111111111111111111
111111111111111111111111111111111111111111111111111111111111111110001111111111111111111111111111111111111111
111111111111111111111111111111111111111111111111111111111111111110000111111111111111111111111111111111111111
111111111111111111111111111111111111111111111111111111111111111110000011111111111111111111111111111111111111
111111111111111111111111111111111111111111111111111111111111111110000001111111111111111111111111111111111111
111111111111111111111111111111111111111111111111111111111111111100000000111111111111111111111111111111111111
111111111111111111111111111111111111111111111111111111111111110000001100011111111111111111111111111111111111
111111111111111111111111111111111111111111111111101111111111100000001100011111111111111111111111111111111111
111111111111111111111111111111111111111111111111000111111011000111001100001111111111111111111111111111111111
111111111111111111111111111111111111111111111110000111110000001111011100001111111111111111111111111111111111
111111111111111111111111111111111111111111111110000011000000001100011100000011111111111111111111111111111111
111111111111111111111111111111111111111111111111100000000001000001111110000011111111111111111111111111111111
111111111111111111111111111111111111111111111111110000000001110011111110000011001111111111111111111111111111
111111111111111111111111111111111111111111111111111000000001110111100000000000000111111111111111111111111111
111111111111111111111111111111111111111111111111111100000001110111100000000000000011111111111111111111111111
111111111111111111111111111111111111111111111111111110000000000000000000000000000001111111111111111111111111
111111111111111111111111111111111111111111111111111111000000000000000000000000000000111111111111111111111111
111111111111111111111111111111111111111111111111111111110000000000000000000000000001111111111111111111111111
111111111111111111111111111111111111111111111111111111110000000000000000000000000011111111111111111111111111
111111111111111111111111111111111111111111111111111111111000000000000000000000000111111111111111111111111111
111111111111111111111111111111111111111111111111111111111100000000000000000000001111111111111111111111111111
111111111111111111111111111111111111111111111111011111111110000000000000000000011111110111111111111111111111
111111111111111111111111111111111111111111111111011111111111100000000000000000011111100000111111111111111111
111111111111111111111111111111111111111111111111001011111110110000000000000000001111000000011111111111111111
111111111111111111111111111111111111111111111000000011001100011000000000000000000100000000011111111111111111
111111111111111111111111111111111111111111111000000000011000001100000000000000000000000000011111111111111111
111111111111111111111111111111111111111111110000000000110000001110000000000000000000000000011111111111111111
111111111111111111111111111111111111111111000000000001100000011110000000000000000000000000000111111111111111
111111111111111111111111111111111111111110000000000011000000111110000000000000000000000000001111011111111111
111111111111111111111111111111111111111100000000000110000001111110000000000000000000000000000011001111111111
111111111111111111111111111111111111111000000000000100000011111110000000000000000000001110000000000111111111
111111111111111111111111111111111111110000000000000100000111111110000000000000000000001110000000000011111111
111111111111111111111111111111111111111000000000000100001111111110000000000000000000001110100000001001111111
111111111111111111111111111111111111111100000000000000011111111100000001100000000000001100110000111100111111
111111111111111111111111111111111111111100000000000000111111100000000011110000000000011101100011111111111111
111111111111111111111111111111111111111100000000000000111111000000000110111000000000011101100011111111111111
111111111111111111111111111111111111111100000000110000111110000000001100011100000000011101100011111111111111
111111111111111111111111111111111111110000000001111000111110000000011000001100000000001100000000110000100011
111111111111111111111111111111111111000000000001111100111100000000110000011110000000001110000000000000000011
111111111111111111111111111111111110000000000000111100110000000001100000111111000000001110000000000000000111
111111111111111111111111111111111110000000000000011100010000000011000001111111100000000000000000000000001111
111111111111111111111111110011111111000000000000001110000000000110000011111111110000000000000000000000011111
111111111111111111110000000001111111100000000000000110000000000100000111111111110000000000000000000000111111
111111111111111111100000000000111111110000000000000000000000000100001111111111110000000000000000000001111111
111111111111111111000001110000011111111000000000000000000000000000011111111111110000000000000000000011111111
111111111111111110000011111000001111111100000000000000000000000000111111111111110000000000000000000111111111
111111111111111110000111111100000111111110000000000000000000000000111111001111000000000000000000001111111111
111111111111111111000111111110000011111111000000000000000000110000111111000110000000000000000000011111111111
111111111111111111100011111111000001111111100000000000000000111000111110000000011100000000000000111111111111
111111111111111111000011111111100000111111100000000000000000111100111110000000111110000000000001111111111111
111111111111111111000001111111100000011111100000000000000000011100111100000000111111000000000011111111111111
111111111111111111100000111111100000001111110000000000000000001110010000000000111111000000000111111111111111
111111111111111111110000011111100000000111110000000000000000000110010000000000111111000000001111111111111111
111111111111111111111000011100000000000011100000000000000000000110000000000000111110000000011111111111111111
111111111111111111111100000000000000000011000000000000000000000010000000000000000000000000111111111111111111
111111111011110111111110000000000000000010000000000000000000000000000000000000000000000001111111111111111111
111111110001100011111111000000001111000000000000000000000000000000000000000000000000000011111111111111111111
111111100001100011111111100000011111100000000000001100000000000000000000000000000000000111111111111111111111
111111000000000001111111110000111111100000000000001111000000000000000000000110000000001111111111111111111111
111111110000000000111111111001111111000000000000001111100000000000000000001111000000011111111111111111111111
111111111000000000000111111111111110000000000000011111110000000000000000011111100000111111111111111111111111
110111111000000000000011111111111100000000000000011111111000000000000000111111000001111111111111111111111111
110011110000000000000001111111111000000000000000011111111100000000000001111110000011111111111111111111111111
110000000000000000000000111111110000000000000000011111111110000000000011111100000111111111111111111111111111
110000000000000000000000011111110000000000000000000011111111000000000111111000001111111111111111111111111111
110000000000000000000000011111010000000011111000000001111111100000001111110000011111111111111111111111111111
110000000000000000000000011110000000000111111100000000111111110000001111100001111111111111111111111111111111
111000000000000000000000011100000000001111111100000001111111111000001111000011111111111111111111111111111111
111100000000000000000000011000000000011111111000000000011111111100000110000111111111111111111111111111111111
111110000000000000111000010000000000111111110000000000001111111110000000001111111111111111111111111111111111
111111000000000001111100000000000001111111100000000000000111111111000000011111111111111111111111111111111111
111111100000000011111100000000000011111111000000001000000111111111100000111111111111111111111111111111111111
111111110000000111111100000000000011111110000000011111000000111111110001111111111111111111111111111111111111
111111111000001111111100000000000011111111000000011111110000011111111011111111111111111111111111111111111111
111111111100011111111000000000000011111111100000001111110000001111111111111111111111111111111111111111111111
111111111110111111110000000000000011111111110000011111110000000111111111111111111111111111111111111111111111
111111111111111111100000000000000011111111111000011110000000000011111111111111111111111111111111111111111111
111111111111111111000000000000000011111111111100001000000000000001111111111111111111111111111111111111111111
111111111111111110000000000000000000000111111110000000000000000011111111111111111111111111111111111111111111
111111111111111100000000001110000000001111111111000000000000000111111111111111111111111111111111111111111111
111111111111111100000000011111000000001111111111100000000000001111111111111111111111111111111111111111111111
111111111111111110000000111111100000000000011111110000000000011111111111111111111111111111111111111111111111
111111111111111111000001111111000000000000111111111000000000111111111111111111111111111111111111111111111111
111111111111111111100011111110000000000001111111111100000001111111111111111111111111111111111111111111111111
111111111111111111110111111100000000000111111111111110000011111111111111111111111111111111111111111111111111
111111111111111111111111111000000000000011111111111111000111111111111111111111111111111111111111111111111111
111111111111111111111111110000000000000001110011111111101111111111111111111111111111111111111111111111111111
111111111111111111111111100000000000000000100000111111111111111111111111111111111111111111111111111111111111
111111111111111111111111000000000000000000000000011111111111111111111111111111111111111111111111111111111111
111111111111111111111111100000000000000000000000001111111111111111111111111111111111111111111111111111111111
111111111111111111111111110000000000000000000000000111111111111111111111111111111111111111111111111111111111
111111111111111111111111111000000000000000000000000111111111111111111111111111111111111111111111111111111111
111111111111111111111111111100000000000000000000001111111111111111111111111111111111111111111111111111111111
111111111111111111111111111110000000000000000000011111111111111111111111111111111111111111111111111111111111
111111111111111111111111111111000000000000000000111111111111111111111111111111111111111111111111111111111111
111111111111111111111111111111100000000000000001111111111111111111111111111111111111111111111111111111111111
111111111111111111111111111111110000000000000011111111111111111111111111111111111111111111111111111111111111
111111111111111111111111111111111000000000000111111111111111111111111111111111111111111111111111111111111111
111111111111111111111111111111111100000000001111111111111111111111111111111111111111111111111111111111111111
111111111111111111111111111111111110000000011111111111111111111111111111111111111111111111111111111111111111
111111111111111111111111111111111111000000111111111111111111111111111111111111111111111111111111111111111111
111111111111111111111111111111111111100001111111111111111111111111111111111111111111111111111111111111111111
111111111111111111111111111111111111110011111111111111111111111111111111111111111111111111111111111111111111
111111111111111111111111111111111111111111111111111111111111111111111111111111111111111111111111111111111111
