111111111111111111111111111111111111111111111111111111111111
111111111111111111111111111111111111111111111111111111111111
111111111111111111111111111111111111111111111111111111111111
111111111111111111111111111111111111111111111111111111111111
111111111111111111111111111111111111111111111111111111111111
111111111111111111111111111111111111111111111111111111111111
111111111111111111111111111111111111111111111111111111111111
111111111111111111111111111111111111111111111111111111111111
111111111111111111111111111111111111111111111111111111111111
111111111111111111111111111111111111111111111111111111111111
111111111111111111111111111111111111111111111111111111111111
111111111111111111111111111111111111111111111111111111111111
111111111111111111111111111111111111111111111111111111111111
111111111111111111111111111000011111111111111111111111111111
111111111111111111111111110000000011111111111111111111111111
111111111111111111111111110000000001111111111111111111111111
111111111111111111111111110000000000011111111111111111111111
111111111111111111111111110000000000000111111111111111111111
111111111111111111111111110000000000000011111111111111111111
111111111111111111111111110000000000000001111111111111111111
111111111111111111111111110000000000000001110111111111111111
111111111111111111111111100000000000000000000011111111111111
111111111111111111111111100000000000000000000011111111111111
111111111111111000001111100000000000000000100001111111111111
111111111111110000000111000000000000111000110001111111111111
111111111111111000000000000111100001111000110001111111111111
111111111111111000000000000111100111111001110001111111111111
111111111111111000000000000111111111110001110001111111111111
111111111111111000000011111111111111111111100001111111111111
111111111111111000000011111111111111111111000001111111111111
111111111111100000000011111111111111111111000111100001111111
111111111111100000000111111111111111111111000111000000111111
111111111111100000000011111111111111111111100011000000111111
111111111111100000000001111111111111111000110011000000111111
111111111111100000000011111111111111111000110000000000111111
111111111111110000000111111101111111111000111000000000111111
111111111111111000001111111000111111111000000000000000111111
111111111111111100001111111000011111111000000000000000111111
111111111111111110011111110000001111110000000000000000111111
111111111111111111111111110011100110000000000000000000111111
111111111111111111111111100111110110000000000000000000111111
111111111111111111111111100111110000000000000000000000111111
111111111111111111111111000111100000000000000000000001111111
111111111111111111111111000111100000000000000000000011111111
111111110000100011111111000000000000000000000000000011111111
111111110000000001111111100000000000000000000000000111111111
111111110000000000001111000000000000000000000000001111111111
111111110000000000001100000000000000000000000000001111111111
111111111000000000000000000000000000000000000000011111111111
111111111100000000000000000000000000000000000000011111111111
111111111110000000000000000000000000000000000000111111111111
111111111111000000000000000000000000000000000001111111111111
111111111111100000000000000000000000000000000001111111111111
111111111111110000000000000000000000000000000011111111111111
111111111111111000000000000000000000000000000111111111111111
111111111111111110000000000000000000000000000111111111111111
111111111111111111100000000000000000000000001111111111111111
111111111111111111111000000000000000000000001111111111111111
111111111111111111111111000000000000000000011111111111111111
111111111111111111111111110000000000000000111111111111111111
111111111111111111111111111111000000000001111111111111111111
111111111111111111111111111111111000000001111111111111111111
111111111111111111111111111111111111111111111111111111111111
111111111111111111111111111111111111111111111111111111111111
