1111111111111111111111111111111111111111111111111111
1111111111111111111111111111111111111111111111111111
1111111111111111111111111111111111111111111111111111
1111111111111111111111111111111111111111111111111111
1111111111111111111111111111111111111111111111111111
1111111111111111111111111111111111111111111111111111
1111111111111111111111111111111111111111111111111111
1111111111111111111111111111111111111111111111111111
1111111111111111111111111111111111111111111111111111
1111111111111111111111111111111111111111111111111111
1111111111111111111111111111111111111111111111111111
1111111111111111111111111111111011111111111111111111
1111111111111111111111111111111001111111111111111111
1111111111111111111111111111111000111111111111111111
1111111111111111111111111111111100011111111111111111
1111111111111111111111111110111000011111111111111111
1111111111111111111111111100000000111111111111111111
1111111111111111111111111000000001111111111111111111
1111111111111111111111110000000011111111111111111111
1111111111111111111111100000000111111111111111111111
1111111111111111111111000000001111111101011111111111
1111111111111111111111000000001111111000001111111111
1111111111111111111111000000000111110000000111111111
1111111111111111111100000000000011100000000011111111
1111111111111111111000000000000000000000000001111111
1111111111111111110000000000000000000000000001111111
1111111111111111000000001110000000000000000011111111
1111111111111110000000001111100000000000000111111111
1111111111111100000000000111110000000000001111111111
1111111111111000000100000001110000000000011111111111
1111111111100000011110111101100000000000111111111111
1111111111000000001111111100000000000001111111111111
1111111111110000001111111100000000000011111111111111
1111111111111000000111111000000000000111111111111111
1111111111111100000011111100000000001111111111111111
1111111111111100000001111100000000011111111111111111
1111111111111000000000111000000000111111111111111111
1111111000000000000000000000000001111111111111111111
1111111100000000000000000000000011111111111111111111
1111111110000000000000000000000111111111111111111111
1111111111000000000000000000001111111111111111111111
1111111111100000000000000000011111111111111111111111
1111111111110000000000000000111111111111111111111111
1111111111111000000000000001111111111111111111111111
1111111111111100000000000011111111111111111111111111
1111111111111110000000000111111111111111111111111111
1111111111111111000000001111111111111111111111111111
1111111111111111100000011111111111111111111111111111
1111111111111111110000111111111111111111111111111111
1111111111111111111001111111111111111111111111111111
1111111111111111111111111111111111111111111111111111
1111111111111111111111111111111111111111111111111111
1111111111111111111111111111111111111111111111111111
1111111111111111111111111111111111111111111111111111
