111111111111111111111111111111111111111111111111111111111111111111111111111111111111111111111111111111111111111111111111111111111111111111111111111111111111111111111111111111111111111111111111111111111111
111111111111111111111111111111111111111111111111111111111111111111111111111111111111111111111111111111111111111111111111111111111111111111111111111111111111111111111111111111111111111111111111111111111111
111111111111111111111111111111111111111111111111111111111111111111111111111111111111111111111111111111111111111111111111111111111111111111111111111111111111111111111111111111111111111111111111111111111111
111111111111111111111111111111111111111111111111111111111111111111111111111111111111111111111111111111111111111111111111111111111111111111111111111111111111111111111111111111111111111111111111111111111111
111111111111111111111111111111111111111111111111111111111111111111111111111111111111111111111111111111111111111111111111111111111111111111111111111111111111111111111111111111111111111111111111111111111111
111111111111111111111111111111111111111111111111111111111111111111111111111111101111111111111111111111111111111111111111111111111111111111111111111111111111111111111111111111111111111111111111111111111111
111111111111111111111111111111111111111111111111111111111111111111111111111111000111111111111111111111111111111111111111111111111111111111111111111111111111111111111111111111111111111111111111111111111111
111111111111111111111111111111111111111111111111111111111111111111111111111110000111111111111111111111111111111111111111111111111111111111111111111111111111111111111111111111111111111111111111111111111111
111111111111111111111111111111111111111111111111111111111111111111111111111100000011111111111111111111111111111111111111111111111111111111111111111111111111111111111111111111111111111111111111111111111111
111111111111111111111111111111111111111111111111111111111111111111111111111100000011111111111111111111111111111111111111111111111111111111111111111111111111111111111111111111111111111111111111111111111111
111111111111111111111111111111111111111111111111111111111111111111111111111000000001111111111111111111111111111111111111111111111111111111111111111111111111111111111111111111111111111111111111111111111111
111111111111111111111111111111111111111111111111111111111111111111111111111000000001111111111111111111111111111111111111111111111111111111111111111111111111111111111111111111111111111111111111111111111111
111111111111111111111111111111111111111111111111111111111111100111111111110000000001111111111111111111111111111111111111111111111111111111111111111111111111111111111111111111111111111111111111111111111111
111111111111111111111111111111111111111111111111111111111110000011111111100000000011111111111111111111111111111111111111111111111111111111111111111111111111111100111111111111111111111111111111111111111111
111111111111111111111111111111111111111111111111111111111100000011111110000000000111111111111111111111111111111111111111111111111111111111111111111111111111111000001111111111111111111111111111111111111111
111111111111111111111111111111111111111111111111111111110000000001111100000000001111111111111111111111111111111111111111111111111111111111111111111111111111111000000011111111111111111111111111111111111111
111111111111111111111111111111111111111111111111111111000000000000111000000000011111111111111111111111111111111111111111111111111111111111111111111111111111111000000000111111111111111111111111111111111111
111111111111111111111111111111111111111111111111111100000000000000110000000000111111111111111111111111111111111111111111111111111111111111111111111111111111110000000000111111111111111111111111111111111111
111111111111111111111111111111111111111111111111110000000000000000000000000011111111111111111111111111111111111111111111111000111111111111111111111111111111110000000000111111111111111111111111111111111111
111111111111111111111111111111111111111111111111100000000000000000000000011111111111111111111111111111111111111111111111111000001111111111111111111111111111110000000000111111111111111111111111111111111111
111111111111111111111111111111111111111111111110000000000000000000000111111111111111111111111111111111111111111111111111110000000011111111111111111111111111100000000000111111111111111111111111111111111111
111111111111111111111111111111111111111111111000000000000000000000000111111111111111111111111111111111111111111111111111110000000000111111111111111111111111100000000000111111111111111111111111111111111111
111111111111111111111111111111111111111111100000000000000000000000000011111111111111111111111111111111111111111111111111100000000000011111111111111111111111100000000000111111111111111111111111111111111111
111111111111111111111111111111111111111110000000000000000000000000000011111111111111111111111111111111111111111111111111000000000000000111111111111111111111000000000001111111111111111111111111111111111111
111111111111111111111111111111111111111000000000000000000000000000000001111111111111111111111111111111111111111111111110000000000000000000111111111111111111000000000001111111111111111111111111111111111111
111111111111111111111111111111111111100000000000000000000000000000000000111111111111111111111111111111111111111111111110000000000000000000001111111111111110000000000011111111111111111111111111111111111111
111111111111111111111111111111111111000000000000000000000000000000000000111111111111111111111111111111111111111111111100000000000000000000000111111111111110000000000011111111111111111111111111111111111111
111111111111111111111111111111111110000000000000000000000000000000000000011111111111111111111111111111111111111111111100000000000000000000000001111111111100000000000011111111111111111111111111111111111111
111111111111111111111111111111111111000000000000000000000000000000000000001111111111111111111111111111111111111111111000000000000000000000000000011111111100000000000111111111111111111111111111111111111111
111111111111111111111111111111111111100000000000000000000000000000000000000111111111111111111111111111111111111111111000000000001000000000000000001111111000000000001111111111111111111111111111111111111111
111111111111111111111111111111111111110000000000000000000000000000000000011111111111111111111111111111111111111111110000000000011110000000000000000011110000000000001111111111111111111111111111111111111111
111111111111111111111111111111111111110000000000000000000000000000000011111111111111111111111111111110111111111111110000000000011111000000000000000000110000000000011111111111111111111111111111111111111111
111111111111111111111111111111111111111000000000000000000000000000000111111111111111111111111111110000011111111111100000000000111111100000000000000000000000000000011111111111111111111111111111100111111111
111111111111111111111111111111111111111000000000000000000000000001111111111111111111111111111111100000000111111111100000000001111111110000000000000000000000000000111111111111111111111111111111000011111111
111111111101111111111111111111111111111100000000000000000000000001111111111111111111111111111110000000000011111111100000000011111111111100000000000000000000000000111111111111111111111111111110000001111111
111111111000111111111111111111111111111100000000000000000000000001111111111111111111111111111000000000000000111111100000000111111111111111100000000000000000000001111111111111111111111111111100000001111111
111001100000011111111111111111111111111110000000000000000000000001111111111111111111111111100000000000000000000111000011111111111111111111110000000000000000000011111111111111111111111111111000000000011111
110000000000001111111111111111111111111110000000000000000000000000111111111111111111111111000000000011000000000000000011111111111111111111111110000000000000000011111111111111111111111111110000000000011111
111000000000000111111111111111111111111111000000000000000000000000011111111111111111111100000000000111100000000000000011111111111111111111111111110000000000000111111111111111111111111111100000000000001111
111000000000000011111111111111111111111111000000000000001000000000011111111111111111110000000000000011000011000000000011111111111111111111111111111100000000001111111111111111111111111111000000000000000111
110000000000000001111111111111111111111111100000000000011100000000001111111111111111000000000000000000000110010000000001111111111111111111111111111111000000001111111111111111111111111110000000000000000011
110000000000000000111111111111111111111111100000000011111110000000001111111111111100000000000000000000000100010000000000011111111111111111111111111111100000011111111111111111111111111100000000000000000011
110000000000000000011111111111111111111111110000000111111111000000000111111111110000000000000000000000000100110000000000000111111111111111111111111111111000011111111111111111111111111000000000000000000011
110000000000000000001111111111111111111111111000011111111111000000000111111111000000000011000000000000000000100000000000000001111111111111111111111111111111111111111111111111111111110000000000000000000011
110000000000000000000111111111111111111111111100111111111111100000000111111110000000000001100000000000000000100000000000000000111111111111111111111111111111111111111111111111111111000000000000000000000011
110000000000000000000011111111111111111111111111111111111111100000000011111100000000000000100000001111100000000000000000000000001111111111111111111111111111111111111111111111111110000000000000000000000111
110000000000000000000001111111111111111111111111111111111111110000000011111000000000000000000000000000000000000000000000000000000011111111111111111111111111111111111111111111111100000000000000000000001111
111000000000000000000000111111111111111111111111111111111111111110000000000000000000000000000000000000000000000000000000000000000011111111111111111111111111111111111111111111111000000000000000000000011111
111100000000000000000000011111111111111111111111111111111111111111000000000000000000000000000000001111100000000000000000000000000001111111111111111111111111111111111111111111110000000000000000000000111111
111110000000000000000000001111111111111111111111111111111111111111000000000000000000000000000110000000000011100000000000000000000000000111111111111111111111111111111111111111100000000000000000000001111111
111111000000000000000000000011111111111111111111111111111111111111000000000000000000000000001110000000000001111000000000000000000000000001111111111111111111111111111111111111000000000000000000000011111111
111111100000000000000000000001111111111111111111111111111111111110000000000000000000000001111110000000000001111110000000000000000000000000011111111111111111111111111111111110000000000000000000000111111111
111111110000000000000000000001111111111111111111111111111111111000000000000000000000000011111110000000000001111111100000000000000000000000000111111111111111111111111111111100000000000000000000001111111111
111111111000000000000000000000111111111111111111111111111111100000000000000000000000001111111110000000000001111111111000000000000000000000000001111111111111111111111111111000000000000000000000011111111111
111111111100000000000000000000011111111111111111111111111110000000000000000000000000111111111110000000000001111111111100000000000000000000000000011111111111111111111111110000000000000000000000111111111111
111111111110000000000000000000001111111111111111111111111000000000000000000000000001111111111110000000000001111111111111000000000000000000000000001111111111111111111111100000000000000000000001111111111111
111111111111000000000000000000000111111111111111111111100000000000000000000000000111111111111110000000000001111111111111100000000000000000000000000011111111111111111110000000000000000000000011111111111111
111111111111100000000000000000000011111111111111111110000000000000000000000000001111111111111110000000000001111111111111111100000000000000000000000000111111111111111100000000000000000000000111111111111111
111111111111110000000000000000000000111111111111111000000000000000000000000000111111111111111110000000000001111111111111111110000000000000000000000000001111111111111000000000000000000000001111111111111111
111111111111111000000000000000000000011111111111100000000000000000000000000011111111111111111110000000000001111111111111111111100000000000000000000000000011111111110000000000000000000000011111111111111111
111111111111111100000000000000000000011111111111000000000000000000000000011111111111111111111110000000000001111111111111111111110000000000000000000000000011111111100000000000000000000000111111111111111111
111111111111111110000000000000000000001111111100000000000000000000000001111111111111111111111110000000000001111111111111111111111100000000000000000000000000011110000000000000000000000001111111111111111111
111111111111111110000000000000000000000111110000000000000000000000000111111111111111111111111111000000000001111111111111111111111111000000000000000000000000000000000000000000000000000011111111111111111111
111111111111111111000000000000000000000011000000000000000000000000111111111111111111111111111111000000000001111111111111111111111111111000000000000000000000000000000000000000000000001111111111111111111111
111111111111111111110000000000000000000000000000000000000000000011111111111111111111111111111111000000000001111111111111111111111111111110000000000000000000000000000011100000000000111111111111111111111111
111111111111111111111000000000000000100000000110000000000000001111111111111111111111111111111111000000000001111111111111111111111111111111100000000000000011000000001000110000000001111111111111111111111111
111111111111111111111100000000000001100000000010000000000000111111111111111111111111111111111110000000000011111111111111111111111111111111111000000000000110000000001100010000000011111111111111111111111111
111111111111111111111110000000000011001000010011000000000011111111111111111111111111111111111000000000000011111111111111111111111111111111111110000000001100010000000110000000001111111111111111111111111111
111111111111111111111111000000000010011000010001000000001111111111111111111111111111111111110000000000000000111111111111111111111111111111111111100000000000110000000011000000011111111111111111111111111111
111111111111111111111111100000000000010000011001000000111111111111111111111111111111111111100000000000000000001111111111111111111111111111111111110000000001100000000000000000111111111111111111111111111111
111111111111111111111111110000000000110000001100001111111111111111111111111111111111111111000000000000000000000011111111111111111111111111111111111111100000000000000000000001111111111111111111111111111111
111111111111111111111111111000000000000000000000001111111111111111111111111111111111111110000000000000000000000001111111111111111111111111111111111111110000000000000000000011111111111111111111111111111111
111111111111111111111111111100000000000000000000000111111111111111111111111111111111111110000000000000000000000000111111111111111111111111111111111111110000000000000000000111111111111111111111111111111111
111111111111111111111111111111000000000000000000000011111111111111111111111111111111111100000000011111111000000000011111111111111111111111111111111111100000000000000000001111111111111111111111111111111111
111111111111111111111111111111100000000000000000000001111111111111111111111111111111111100000000111111111110000000011111111111111111111111111111111111000000110000000000011111111111111111111111111111111111
111111111111111111111111111111110000000000000000000000111111111111111111111111111111111000000001111111111111100000011111111111111111111111111111111110000000010000000000111111111111111111111111111111111111
111111111111111111111111111111111000000000000010000000011111111111111111111111111111111000000011111111111111100000011111111111111111111111111111111100000110011000000000111111111111111111111111111111111111
111111111111111111111111111111111100011111100110010000001111111111111111111111111111111000000000111111111111100000011111111111111111111111111111111000000011001000000000111111111111111111111111111111111111
111111111111111111111111111111111110000000000100110000001111111111111111111111111111111000000000000000111111100000011111111111111111111111111111110000000001000000000011111111111111111111111111111111111111
111111111111111111111111111111111111000000000001100000001111111111111111111111111111111000000110000000000011100000011111111111111111111111111111100000000000000111100011111111111111111111111111111111111111
111111111111111111111111111111111111011111100001000000000111111111111111111111111111111000000111111100000011100000011111111111111111111111111111000000000000000000000011111111111111111111111111111111111111
111111111111111111111111111111111111000000000000000000000001111111111111111111111111111000000111111111111111100000011111111111111111111111111110000000000000000111100011111111111111111111111111111111111111
111111111111111111111111111111111110000000000000000000000000111111111111111111111111111000000111111111111111000000011111111111111111111111111100000000000000000000000001111111111111111111111111111111111111
111111111111111111111111111111111110000000000000000000000000011111111111111111111111111000000011111111111111000000011111111111111111111111111000000000000000000000000001111111111111111111111111111111111111
111111111111111111111111111111111110000000000000000000000000001111111111111111111111111000000001111111111111000000011111111111111111111111100000000000000000000000000001111111111111111111111111111111111111
111111111111111111111111111111111110000000000000000000000000000111111111111111111111111000000000111111111110000000011111111111111111111111000000000000000000000000000001111111111111111111111111111111111111
111111111111111111111111111111111110000000000000000000000000000011111111111111111111111100000000011111111000000000111111111111111111111110000000000000000000000000000001111111111111111111111111111111111111
111111111111111111111111111111111110000000000000000000000000000001111111111111111111111110000000001111000000000001111111111111111111111100000000000000000000000000000001111111111111111111111111111111111111
111111111111111111111111111111111110000000000000000000000000000000111111111111111111111111000000000000000000000011111111111111111111111000000000000000000000000000000001111111111111111111111111111111111111
111111111111111111111111111111111110000000000011100000000000000000011111111111111111111111111111000000000011101111111111111111111111110000000000000000001111000000000001111111111111111111111111111111111111
111111111111111111111111111111111110000000000011110000000000000000001111111111111111111111111111000000000011111111111111111111111111100000000000000000011111000000000001111111111111111111111111111111111111
111111111111111111111111111111111110000000000011111000000000000000000111111111111111111111111111000000000011111111111111111111111111000000000000000000111111000000000001111111111111111111111111111111111111
111111111111111111111111111111111110000000000011111100000000000000000011111111111111111111111110000000000011111111111111111111111110000000000000000001111111000000000001111111111111111111111111111111111111
111111111111111111111111111111111110000000000011111110000000000000000000111111111111111111111110000000000011111111111111111111111100000000000000000011111111000000000001111111111111111111111111111111111111
111111111111111111111111111111111110000000000011111111000000000000000000011111111111111111111110000000000011111111111111111111111000000000000000000111111111000000000001111111111111111111111111111111111111
111111111111111111111111111111111110000000000011111111100000000000000000001111111111111111111110000000000011111111111111111111110000000000000000001111111111000000000001111111111111111111111111111111111111
111111111111111111111111111111111110000000000011111111110000000000000000000111111111111111111110000000000011111111111111111111110000000000000000011111111111000000000001111111111111111111111111111111111111
111111111111111111111111111111111110000000000011111111111000000000000000000011111111111111111110000000000011111111111111111111100000000000000000111111111111000000000001111111111111111111111111111111111111
111111111111111111111111111111111110000000000011111111111100000000000000000001111111111111111110000000000011111111111111111110000000000000000001111111111111000000000001111111111111111111111111111111111111
111111111111111111111111111111111110001110000011111111111110000000000000000000111111111111111110000000000011111111111111111100000000000000000011111111111111000000000011111111111111111111111111111111111111
111111111111111111111111111111111111000011100011111111111111000000000000000000011111111111111110000000000011111111111111111000000000000000000111111111111111000000000011111111111111111111111111111111111111
111111111111111111111111111111111111000000000011111111111111100000000000000000001111111111111110000000000011111111111111110000000000000000001111111111111111000000000011111111111111111111111111111111111111
111111111111111111111111111111111111001110000011111111111111110000000000000000000111111111111110000000000011111111111111100000000000000000011111111111111111000000000011111111111111111111111111111111111111
111111111111111111111111111111111110000011100011111111111111111000000000000000000011111111111110000000000011111111111111000000000000000000111111111111111111000000000001111111111111111111111111111111111111
111111111111111111111111111111111110000000000011111111111111111100000000000000000001111111111110000000000011111111111110000000000000000001111111111111111111100000000001111111111111111111111111111111111111
111111111111111111111111111111111110000000000111111111111111111110000000000000000000111111111110000000000011111111111100000000000000000011111111111111111111100000000001111111111111111111111111111111111111
111111111111111111111111111111111110000000000111111111111111111111000000000000000000011111111110000000000011111111111000000000000000000111111111111111111111100000000001111111111111111111111111111111111111
111111111111111111111111111111111110000000000111111111111111111111100000000000000000001111111110000000000011111111110000000000000000001111111111111111111111100000000001111111111111111111111111111111111111
111111111111111111111111111111111110000000000011111111111111111111110000000000000000000111111110001111100011111111000000000000000000011111111111111111111111100000000001111111111111111111111111111111111111
111111111111111111111111111111111110000000000011111111111111111111111000000000000000000011111110000000000001111110000000000000000000111111111111111111111111000000000001111111111111111111111111111111111111
111111111111111111111111111111111110000000000011111111111111111111111100000000000000000000111100001111100001111100000000000000000001111111111111111111111111000000000001111111111111111111111111111111111111
111111111111111111111111111111111110000000000011111111111111111111111110000000000000000000000000000000000000000000000000000000000011111111111111111111111111000000000001111111111111111111111111111111111111
111111111111111111111111111111111110000000000011111111111111111111111111000000000000000000000000000010011000000000011000000000000111111111111111111111111111000000000001111111111111111111111111111111111111
111111111111111111111111111111111110000000000011111111111111111111111111100000000000011000000000111111111110000000001100000000001111111111111111111111111111000000000001111111111111111111111111111111111111
111111111111111111111111111111111110000000000011111111111111111111111111110000000000110010000000111111111111100001000100000000011111111111111111111111111111100000000001111111111111111111111111111111111111
111111111111111111111111111111111110000000000111111111111111111111111111111000000000100110010000111111111111110001100100000000111111111111111111111111111111100000000001111111111111111111111111111111111111
111111111111111111111111111111110000000000000111111111111111111111111111111110000000001100111000111111111111111100110000000001111111111111111111111111111111100000000001111111111111111111111111111111111111
111111111111111111111111111111100000000000000111111111111111111111111111111111111000001001111000111111111111111110010000000011111111111111111111111111111111100000000000000111111111111111111111111111111111
111111111111111111111111111110000000000000000011111111111111111111111111111111111100000011111000011111111111111111000000000111111111111111111111111111111100000000000000000011111111111111111111111111111111
111111111111111111111111111100000000000000000001111111111111111111111111111111111100000111111000010000000001111111100000111111111111111111111111111111111000000000000000000001111111111111111111111111111111
111111111111111111111111111000000000000000000000111111111111111111111111111111111100001111111000010000000000011111100001111111111111111111111111111111110000000000000000000000011111111111111111111111111111
111111111111111111111111111000000000000000000000011111111111111111111111111111111100011111111100010000000000001111110001111111111111111111111111111111110000000000000000000000011111111111111111111111111111
111111111111111111111111110000000000000000000000001111111111111111111111111111111000111111100100011000000000000111100000011111111111111111111111111111110000000001111110000000001111111111111111111111111111
111111111111111111111111110000000001111111000000000000000000000000000000000000000000111111000100001000000000000011100000000000000000000000000000000000000000000111111111100000001111111111111111111111111111
111111111111111111111111100000000011111111100000000000000000000000000000000000000000111100000110000000000000000011000000000000000000000000000000000000000000011111111111110000001111111111111111111111111111
111111111111111111111111100000000111111111110000000000000000000000000000000000000000111000000010000000000000000110000100000000000000000000000000000000000000011111111111110000000111111111111111111111111111
111111111111111111111111100000001111111111111000000000000000000000000000000000000000111000000000000000000000000100001100000000000000000000000000000000000000111111111111111000000111111111111111111111111111
111111111111111111111111100000011111101111111100000000000000000000000000000000010100110000000000000000000000001100011101001000000000000000000000000000000000111111110011111000000111111111111111111111111111
111111111111111111111111000000011111100111111100000000000000000000000000000000010100110000000000000000000000001000111101001000000000000000000000000000000000111111000001111000000111111111111111111111111111
111111111111111111111111000000011111100111111100000000000000000000000000000000010100100000000000000000000000000000100101001000000000000000000000000000000001111100000111111000000111111111111111111111111111
111111111111111111111111000000011111110011111100000000000000000000000000000000010100100000000000000000000000000001100101001000000000000000000000000000000001110000001111111000000111111111111111111111111111
111111111111111111111111000000011111110000111100000000000000000000000000000000000000100000000000000000000000000011000100000000000000000000000000000000000001100001111111111000000111111111111111111111111111
111111111111111111111111000000011111100110001100000000000000000000000000000000000000110000000000000000000000000000000100000000000000000000000000000000000000000111111111111000000111111111111111111111111111
111111111111111111111111000000001111100111000000000000000000000000000000000011111100011000000000000000000000000000000100000000000000000000000000000000000000001111111111110000000111111111111111111111111111
111111111111111111111111000000000111001111111000000000000000000000001111111111111110001110000000000000000000000000000100001111111111111111111111111111000000011111111111100000000111111111111111111111111111
111111111111111111111111000000000011001111110000000001111111111111111111111111111110000011000000000000000000000000001100011111111111111111111111111111100000001111111111000000000111111111111111111111111111
111111111111111111111111000000000000011111000000000011111111111111111111111111111110000000000000000000000000000000011001111111111111111111111111111111110000000011111100000000000111111111111111111111111111
111111111111111111111111100000000000000000000000001111111111111111111111111111111100001000000000000000000000000000110001111111111111111111111111111111111000000000000000000000001111111111111111111111111111
111111111111111111111111110000000000000000000111011111111111111111111111111111111000001110000000000000000000000001100001111111111111111111111111111111111100000000000000000000011111111111111111111111111111
111111111111111111111111111000000000000000000111111111111111111111111111111111110000000111100000000000000000000001100000111111111111111111111111111111111111100000000000000000111111111111111111111111111111
111111111111111111111111111100000000000000000011111111111111111111111111111111110000100011110000000000000000000111100000011111111111111111111111111111111111100000000000110011111111111111111111111111111111
111111111111111111111111111111000000000000000011111111111111111111111111111111100000110011111000000000000000000111001000001111111111111111111111111111111111100000000001111111111111111111111111111111111111
111111111111111111111111111111111100000000000011111111111111111111111111111111000000010001001110000000000000000000011000000111111111111111111111111111111111000000000001111111111111111111111111111111111111
111111111111111111111111111111111110000000000011111111111111111111111111111110000000011000000011110000000000000000110000000011111111111111111111111111111111000000000001111111111111111111111111111111111111
111111111111111111111111111111111110000000000011111111111111111111111111111100000000001000000000011111111100010000100000000001111111111111111111111111111111000000000000111111111111111111111111111111111111
111111111111111111111111111111111110000000000011111111111111111111111111111000000000000000000000011111100000110000000000000000111111111111111111111111111111000000000000111111111111111111111111111111111111
111111111111111111111111111111111110000000000011111111111111111111111111110000000000000000000000000000000000111000000000000000001111111111111111111111111111000000000000111111111111111111111111111111111111
111111111111111111111111111111111110000000000011111111111111111111111111100000000000000000011100001111100000111100000000000000000111111111111111111111111111000000000000111111111111111111111111111111111111
111111111111111111111111111111111110000000000011111111111111111111111111000000000000000000111110000000000001111100000000000000000011111111111111111111111111000000000000111111111111111111111111111111111111
111111111111111111111111111111111110000000000011111111111111111111111110000000000000000001111110000000000001111110000000000000000001111111111111111111111111000000000000111111111111111111111111111111111111
111111111111111111111111111111111110000000000011111111111111111111111110000000000000000011111110000000000001111111000000000000000000111111111111111111111111000000000000111111111111111111111111111111111111
111111111111111111111111111111111110000000000011111111111111111111110000000000000000000111111110000000000001111111100000000000000000011111111111111111111111000000000000111111111111111111111111111111111111
111111111111111111111111111111111110000000000011111111111111111111100000000000000000001111111110000000000001111111110000000000000000001111111111111111111111000000000000111111111111111111111111111111111111
111111111111111111111111111111111111000000000011111111111111111111000000000000000000011111111110000000000001111111111000000000000000000111111111111111111111000000000011111111111111111111111111111111111111
111111111111111111111111111111111111000000000011111111111111111110000000000000000000111111111110000000000001111111111100000000000000000011111111111111111111000000000011111111111111111111111111111111111111
111111111111111111111111111111111111000000000011111111111111111100000000000000000001111111111110000000000001111111111110000000000000000001111111111111111111000000000011111111111111111111111111111111111111
111111111111111111111111111111111110000000000011111111111111111000000000000000000011111111111110000000000001111111111111000000000000000000111111111111111111000000000001111111111111111111111111111111111111
111111111111111111111111111111111110000000000011111111111111110000000000000000001111111111111110000000000001111111111111100000000000000000011111111111111111000000000001111111111111111111111111111111111111
111111111111111111111111111111111110000000000011111111111111100000000000000000011111111111111110000000000001111111111111110000000000000000001111111111111111000000000001111111111111111111111111111111111111
111111111111111111111111111111111110000000000011111111111111000000000000000000111111111111111110000000000001111111111111111000000000000000000111111111111111100000000001111111111111111111111111111111111111
111111111111111111111111111111111110000000000011111111111110000000000000000001111111111111111110000000000001111111111111111100000000000000000011111111111111100000000001111111111111111111111111111111111111
111111111111111111111111111111111110000000000011111111111000000000000000000011111111111111111110000000000001111111111111111110000000000000000000111111111111100000000001111111111111111111111111111111111111
111111111111111111111111111111111110000000000011111111110000000000000000000111111111111111111110000000000001111111111111111111000000000000000000011111111111100000000001111111111111111111111111111111111111
111111111111111111111111111111111110000000000011111111100000000000000000001111111111111111111110000000000011111111111111111111100000000000000000001111111111000000000001111111111111111111111111111111111111
111111111111111111111111111111111110000000000011111111000000000000000000011111111111111111111111000000000011111111111111111111110000000000000000000111111111000000000001111111111111111111111111111111111111
111111111111111111111111111111111110000000000111111110000000000000000000111111111111111111111111000000000011111111111111111111111000000000000000000011111111000000000001111111111111111111111111111111111111
111111111111111111111111111111111110000000000111111100000000000000000001111111111111111111111111000000000011111111111111111111111100000000000000000001111111000000000001111111111111111111111111111111111111
111111111111111111111111111111111110000000000111111000000000000000000011111111111111111111111011000000000000011111111111111111111110000000000000000000111111000000000001111111111111111111111111111111111111
111111111111111111111111111111111110000000000011110000000000000000000111111111111111111111110000000000000000001111111111111111111111100000000000000000011111000000000001111111111111111111111111111111111111
111111111111111111111111111111111110000000000011100000000000000000001111111111111111111111100000000000000000000011111111111111111111110000000000000000001111000000000001111111111111111111111111111111111111
111111111111111111111111111111111110000000000000000000000000000000011111111111111111111111000000000000000000000001111111111111111111111000000000000000000111000000000001111111111111111111111111111111111111
111111111111111111111111111111111110000000000000000000000000000000111111111111111111111110000000000000000000000000111111111111111111111100000000000111000010000000000001111111111111111111111111111111111111
111111111111111111111111111111111110000000000000000000000000000001111111111111111111111100000000001111111000000000001111111111111111111110000000001110000000000000000001111111111111111111111111111111111111
111111111111111111111111111111111110000000000000000000000000000011111111111111111111111100000000111111111110000000000111111111111111111111000000001000100000000000000001111111111111111111111111111111111111
111111111111111111111111111111111111000000000000000000000000000111111111111111111111111000000001111111111100000000000111111111111111111111110000000001100000000001100011111111111111111111111111111111111111
111111111111111111111111111111111111000000000000000000000000001111111111111111111111111000000011111111111000000000000111111111111111111111111000000011000000000111000011111111111111111111111111111111111111
111111111111111111111111111111111111000000000000000000000000011111111111111111111111111000000011111111110000100000000111111111111111111111111100000000000000000000000011111111111111111111111111111111111111
111111111111111111111111111111111110000000000011000000000000111111111111111111111111111000000111111111100011100000000111111111111111111111111110000000000000000000110001111111111111111111111111111111111111
111111111111111111111111111111111110000000000001100000000001111111111111111111111111111000000111111111110111100000000111111111111111111111111111000000000000000111100001111111111111111111111111111111111111
111111111111111111111111111111111110000000001100110000000011111111111111111111111111111000000111111111111111110000000111111111111111111111111111100000000000000000000001111111111111111111111111111111111111
111111111111111111111111111111111110000000000110000000000111111111111111111111111111111000000111111111111111100000000111111111111111111111111111110000000000000000000000111111111111111111111111111111111111
111111111111111111111111111111111100000000000011000000001111111111111111111111111111111000000111001111111111100000000111111111111111111111111111111000000000000000000000111111111111111111111111111111111111
111111111111111111111111111111111100000000000000000011111111111111111111111111111111111000000110001111111111100000000111111111111111111111111111111111000000000000000000111111111111111111111111111111111111
111111111111111111111111111111111100000000000000000111111111111111111111111111111111111000000000011111111111000000000111111111111111111111111111111111100000000000000000111111111111111111111111111111111111
111111111111111111111111111111111000000000000000001111111111111111111111111111111111111000000000111111111111000000001111111111111111111111111111111111100000000000000000011111111111111111111111111111111111
111111111111111111111111111111100000000000000000000111111111111111111111111111111111111000000000111111111100000000011111111111111111111111111111111111100000000000000000001111111111111111111111111111111111
111111111111111111111111111111000000011000000000000001111111111111111111111111111111111000000000001111110000000000111111111111111111111111111111111100000000000000000000000111111111111111111111111111111111
111111111111111111111111111110000000001100000000000000011111111111111111111111111111111100000000000000000000000001111111111111111111111111111111110000000000100000000100000011111111111111111111111111111111
111111111111111111111111111100000001000100000001100000000111111111111111111111111111111110000000000000000000000011111111111111111111111111111111100000000100100000001100000001111111111111111111111111111111
111111111111111111111111111000000001100100000011000000000001111111111111111111111111111111100011000000000011001111111111111111111111111111111110000000000100110000011001100000111111111111111111111111111111
111111111111111111111111110000000000110000000110001000000000011111111111111111111111111111111111000000000011111111111111111111111111111111111000000000000110010000010001000000011111111111111111111111111111
111111111111111111111111100000000000010000000100011000000000001111111111111111111111111111111111000000000011111111111111111111111111111111100000000000000010010000000011000000000111111111111111111111111111
111111111111111111111111000000000000000000000000110000000000000111111111111111111111111111111110000000000001111111111111111111111111111111000000000000000010000000000110000000000011111111111111111111111111
111111111111111111111110000000000000000000000001100000000000000000111111111111111111111111111110000000000001111111111111111111111111111100000000000000000000000000000000000000000001111111111111111111111111
111111111111111111111100000000000000000000000000000000000000000000001111111111111111111111111110000000000001111111111111111111111111110000000000000000000000000000000000000000000000111111111111111111111111
111111111111111111111000000000000000000001100000000000000000000000000111111111111111111111111110000000000001111111111111111111111111000000000000000000000000000000000000000000000000011111111111111111111111
111111111111111111110000000000000000000011110000000000000000000000000001111111111111111111111110000000000001111111111111111111111110000000000000000000000000000011000000000000000000001111111111111111111111
111111111111111111100000000000000000000111111100000000000000000000000000011111111111111111111110000000000001111111111111111111111110000000000000000000000000001111100000000000000000000111111111111111111111
111111111111111111000000000000000000001111111111000000000000000000000000000111111111111111111110000000000001111111111111111111001100000000000000000000000000011111110000000000000000000011111111111111111111
111111111111111110000000000000000000011111111111110000000000000000000000000001111111111111111110000000000001111111111111111100000000000000000000000000000001111111111000000000000000000001111111111111111111
111111111111111100000000000000000001111111111111111000000000000000000000000000011111111111111110000000000001111111111111110000000000000000000000000000000111111111111100000000000000000000111111111111111111
111111111111111000000000000000000011111111111111111110000000000000000000000000001111111111111110000000000001111111111111100000000000000000000000000000001111111111111110000000000000000000011111111111111111
111111111111110000000000000000000111111111111111111111000000000000000000000000000001111111111110000000000001111111111111100000000000000000000000000000111111111111111111000000000000000000001111111111111111
111111111111100000000000000000001111111111111111111111110000000000000000000000000000011111111110000000000001111111111000000000000000000000000000000011111111111111111111100000000000000000000111111111111111
111111111111000000000000000000011111111111111111111111111100000000000000000000000000001111111110000000000001111111100000000000000000000000000000001111111111111111111111110000000000000000000011111111111111
111111111110000000000000000000111111111111111111111111111111000000000000000000000000000011111110000000000001111111000000000000000000000000000000111111111111111111111111111000000000000000000000111111111111
111111111100000000000000000001111111111111111111111111111111110000000000000000000000000001111110000000000001111100000000000000000000000000000011111111111111111111111111111100000000000000000000011111111111
111111111100000000000000000011111111111111111111111111111111111100000000000000000000000001111100000011100000111100000000000000000000000000001111111111111111111111111111111110000000000000000000001111111111
111111100000000000000000000111111111111111111111111111111111111110000000000000000000000000111000001110000000011100000000000000000000000000111111111111111111111111111111111111000000000000000000000111111111
111111000000000000000000001111111111111111111111111111111111111111100000000000000000000000000000000000000000000000000000000000000000000001111111111111111111111111111111111111100000000000000000000011111111
111111000011000000000000011111111111111111111111111111111111111111111000000000000000000000000000000011100000000000000000000000000000001111111111111111111111111111111111111111110000000000000000000001111111
111111100011100000000000111111111111111111111111111111111111111111111110000000000000000000000000001110000000000000000000000000000000011111111111111111111111111111111111111111111000000000000000000000111111
111111110001110000000001111111111111111111111111111111111111111111111111000000000000000000000000000000000000100000000000000000000011111111111111111111111111111111111111111111111100000000000000000000001111
111111111000111000000011111111111111111111111111111111111111111111111111110000000000000000000000000000001100110000000000000000001111111111111111111111111111111111111111111111111110000000000000000000000111
111111111100000000000111111111111111111111111111111111111111111111111111111100000000000000000000000000000100010000000000000000111111111111111111111111111111111111111111111111111111000000000000000000000111
111111111110000000001111111111111111111111111111111111111111111111111111111110000000000000000000000000000110011000000000000011111111111111111111111111111111111111111111111111111111100000000000000000001111
111111111110000111111111111111111111111111111111111111111111111111111111111111100000000000000000000000000010001000000000001111111111111111111111111111111111111111111111111111111111110000000000000000011111
111111111111101111111111111111111111111111111111111111111111111111111111111111111000000000000000000000000011000000000000011111111111111111111111111111111111111111111111111111111111111000000000000000111111
111111111111111111111111111111111111111111111111111111111111111111111111111111111111000000000000000000000000000000000001111111111111111111111111111111111111111111111111111111111111111100000000000001111111
111111111111111111111111111111111111111111111111111111111111111111111111111111111111100000000000000000000000000000000111111111111111111111111111111111111111111111111111111111111111111110000000000011111111
111111111111111111111111111111111111111111111111111111111111111111111111111111111111110000000000000000000000000000011111111111111111111111111111111111111111111111111111111111111111111111000000000111111111
111111111111111111111111111111111111111111111111111111111111111111111111111111111111111100000000000000000000000001111111111111111111111111111111111111111111111111111111111111111111111111100000001111111111
111111111111111111111111111111111111111111111111111111111111111111111111111111111111111111100000000000000000000111111111111111111111111111111111111111111111111111111111111111111111111111111000011111111111
111111111111111111111111111111111111111111111111111111111111111111111111111111111111111111111111111111111111111111111111111111111111111111111111111111111111111111111111111111111111111111111111111111111111
111111111111111111111111111111111111111111111111111111111111111111111111111111111111111111111111111111111111111111111111111111111111111111111111111111111111111111111111111111111111111111111111111111111111
111111111111111111111111111111111111111111111111111111111111111111111111111111111111111111111111111111111111111111111111111111111111111111111111111111111111111111111111111111111111111111111111111111111111
111111111111111111111111111111111111111111111111111111111111111111111111111111111111111111111111111111111111111111111111111111111111111111111111111111111111111111111111111111111111111111111111111111111111
111111111111111111111111111111111111111111111111111111111111111111111111111111111111111111111111111111111111111111111111111111111111111111111111111111111111111111111111111111111111111111111111111111111111
111111111111111111111111111111111111111111111111111111111111111111111111111111111111111111111111111111111111111111111111111111111111111111111111111111111111111111111111111111111111111111111111111111111111
111111111111111111111111111111111111111111111111111111111111111111111111111111111111111111111111111111111111111111111111111111111111111111111111111111111111111111111111111111111111111111111111111111111111
111111111111111111111111111111111111111111111111111111111111111111111111111111111111111111111111111111111111111111111111111111111111111111111111111111111111111111111111111111111111111111111111111111111111
111111111111111111111111111111111111111111111111111111111111111111111111111111111111111111111111111111111111111111111111111111111111111111111111111111111111111111111111111111111111111111111111111111111111
111111111111111111111111111111111111111111111111111111111111111111111111111111111111111111111111111111111111111111111111111111111111111111111111111111111111111111111111111111111111111111111111111111111111
111111111111111111111111111111111111111111111111111111111111111111111111111111111111111111111111111111111111111111111111111111111111111111111111111111111111111111111111111111111111111111111111111111111111
111111111111111111111111111111111111111111111111111111111111111111111111111111111111111111111111111111111111111111111111111111111111111111111111111111111111111111111111111111111111111111111111111111111111
