111111111111111111111111111111111111111111111111111111111111
111111111111111111111111111111111111111111111111111111111111
111111111111111111111111111111111111111111111111111111111111
111111111111111111111111111111111111111111111111111111111111
111111111111111111111111111111111111111111111111111111111111
111111111111111111111111111111111111111111111111111111111111
111111111111111111111111111111111111111111111111111111111111
111111111111111111111111111111111111111111111111111111111111
111111111111111111111111111111111111111111111111111111111111
111111111111111111111111111111111111111111111111111111111111
111111111111111111111111111111111111111111111111111111111111
111111111111111111111111111111111111111111111111111111111111
111111111111111111111111111111111111111111111111111111111111
111111111111111111111111111111111111111111111111111111111111
111111111111111111111111111111111111111111111111111111111111
111111111111111111111111111111111111111111111111111111111111
111111111111111111111111111111111111001111111111111111111111
111111111111111111111111111111111111000000111111111111111111
111111111111111111111111111111111110000000111111111111111111
111111111111111111111111111111111100000000011111111111111111
111111111111111111111111111111111000000000000111111111111111
111111111111111111111111111111110000000000000011111111111111
111111111111111111111111111111111011000000000001111111111111
111111111111111111111111111111111011000000000000111111111111
111111111111111111111111111111110000000001100000111111111111
111111111111111111111111111011000000000001100000011100111111
111111111111111111111111110000000000000001000000001100011111
111111111111111111111111110000000000000000000000000000011111
111111111111111111111111100000000000000000000000000000001111
111111111111111111111111000000000000000000000000000000001111
111111111111111111111000000001000000000000000000000000011111
111111111111111111111110000011100000000000000000000000111111
111111111111111111111111000111110000000000000000000001111111
111111111111111111111111001111111000000000000000000011111111
111111111111111111111110001111111100000000000000000111111111
111111111111111111111000000111111110000000000000001111111111
111111111111111111110000000011111110000000000000011111111111
111111111111111111100000000001111100000000000000111111111111
111111111111111111000000000000111000000000000001111111111111
111111111111111110000000000000000000000000000011111111111111
111111111111111100000000000000000000000000000111111111111111
111111111111111001110000000000000000000000001111111111111111
111111011111111011111000000000000000000000011111111111111111
111110001111110011111100000000000000000000111111111111111111
111100000011100001111110000000000000000001111111111111111111
111000000001000000111110000000000000000011111111111111111111
110000000000000000011100000000000000000111111111111111111111
110000000000000000000000000000000000001111111111111111111111
111000000000000000000000000000000000011111111111111111111111
111100000000000000000000000000000000111111111111111111111111
111110000000000000000000000000000001111111111111111111111111
111111000000000000000000000000000011111111111111111111111111
111111100000000000000000000000000111111111111111111111111111
111111110000000000000000000000001111111111111111111111111111
111111111000000000000000000000011111111111111111111111111111
111111111100000000000000000000111111111111111111111111111111
111111111110000000000000000011111111111111111111111111111111
111111111111000000000000000111111111111111111111111111111111
111111111111100000000000001111111111111111111111111111111111
111111111111110000000000011111111111111111111111111111111111
111111111111111000000000111111111111111111111111111111111111
111111111111111100000001111111111111111111111111111111111111
111111111111111111111111111111111111111111111111111111111111
111111111111111111111111111111111111111111111111111111111111
