1111111111111111111111111111111111111111111111111111111111111111111111111111111111111111111111111111111111111111111111111111111111111111111111111111111111111111111
1111111111111111111111111111111111111111111111111111111111111111111111111111111111111111111111111111111111111111111111111111111111111111111111111111111111111111111
1111111111111111111111111111111111111111111111111111111111111111111111111111111111111111111111111111111111111111111111111111111111111111111111111111111111111111111
1111111111111111111111111111111111111111111111111111111111111111111111111111111111111111111111111111111111111111111111111111111111111111111111111111111111111111111
1111111111111111111111111111111111111111111111111111111111111111111111111111111111111111111111111111111111111111111111111111111111111111111111111111111111111111111
1111111111111111111111111111111111111111111111111111111111111111111111111111111111111111111111111111111111111111111111111111111111111111111111111111111111111111111
1111111111111111111111111111111111111111111111111111111111111111111111111111111111111111111111111111111111111111111111111111111111111111111111111111111111111111111
1111111111111111111111111111111111111111111111111111111111111111111111111111111111111111111111111111111111111111111111111111111111111111111111111111111111111111111
1111111111111111111111111111111111111111111111111111111111111111111111111111111111111111111111111111111111111111111111111111111111111111111111111111111111111111111
1111111111111111111111111111111111111111111111111111111111111111111111111111111111111111111111111111111111111111111111111111111111111111111111111111111111111111111
1111111111111111111111111111111111111111111111111111111111111111111111111111111111111111111111111111111111111111111111111111111111111111111111111111111111111111111
1111111111111111111111111111111111111111111111111111111111111111111111111111111111111111111111111111111111111111111111111111111111111111111111111111111111111111111
1111111111111111111111111111111111111111111111111111111111111111111111111111111111111111111111111111111111111111111111111111111111111111111111111111111111111111111
1111111111111111111111111111111111111111111111111111111111111111111111111111111111111111111111111111111111111111111111111111111111111111111111111111111111111111111
1111111111111111111111111111111111111111111111111111111111111111111111111111111111111111111111111111111111111111111111111111111111111111111111111111111111111111111
1111111111111111111111111111111111111111111111111111111111111111111111111111111111111111111111111111111111111111111111111111111111111111111111111111111111111111111
1111111111111111111111111111111111111111111111111111111111111111111111111111111111111111111111111111111111111111111111111111111111111111111111111111111111111111111
1111111111111111111111111111111111111111111111111111111111111111111111111111111111111111111111111111111111111111111111111111111111111111111111111111111111111111111
1111111111111111101000000001110000011000110011111111000001111111111111000001000000100011111000110000011000000111111111111010000000000000000000000111111111111111111
1111111111111111100001111000000001011001011001111110000011111111101111100000010000111001100010001000000000000111111111110011111000110000110110000111111111111111111
1111111111111111100011000000001100000000111101111100000001111111111011000001100011111100011111000000000000101111111111110111111001011000000100000111111111111111111
1111111111111111100100000000000011001011111011111100001111111111111111111000000100111110011111110001000000101111111111110111111100000000000011111111111111111111111
1111111111111111100000000000000000111011101111111110111111111111111111111000001100011100111111111111100111001111111111101111001100000010000000000111111111111111111
1111111111111111100000000000011000111101011111111001111011111111110011111110001000001100000111111111111111011111001111100111011101111000000011000111111111111111111
1111111111111111100001100000001000011101011111110011110110111111000000111111111000000000000000011111111110111010000000001111010110100001000011110111111111111111111
1111111111111111100001000000000000011110111111101111011111111100000000011111111100000000000000111111110000011111100000000111011011111000010000010111111111111111111
1111111111111111110000000000000000001110111111001111110110110000000000011111111110000000000000001011010000011001100011000111011111110001010000010111111111111111111
1111111111111111111000000000000000011110011110111111101011100000000000001111111100000000000000000000100000000001100111000011111111110001100000000111111111111111111
1111111111111111111000000000000000001111011110111110111101100000000000001111110000000000000000000000000000011111100110000011111001110010010100000111111111111111111
1111111111111111111110000100000000000011011101111111101111100000000000001111110000000000000000000000000000111111110000000000010000011000000000111111111111111111111
1111111111111111111110000000000000000010111101111101111111100000000000001111110000000000000000000000000000111111111100000000000000111100000001111111111111111111111
1111111111111111111111110000011000000000111111011111111110000000000000000011100000000000000000000000000001111111111000000000000000111111100011110111111111111111111
1111111111111111110011111001111110000000011001111111111100000000000000000000000000000000000000000000000000111111111000000000000000110111011101011111111111111111111
1111111111111111111111101111111011000000001110111100000000000000000000000000000000000110001111100000000000111111110000000000000011111011111111011111111111111111111
1111111111111111111111101111000000000000000011110100000000000000000000000000000000001111101111110000000000001111000000000000000011110111111111111111111111111111111
1111111111111111111111111001111111110000000011101100000000000000000000000000000000011111111101100000000000000000000000000000000111111111000011111111111111111111111
1111111111111111111110111111111111111000000001111100000000000000000000000000000011110111111111111000000000000000000000000000000011111111000001111111111111111111111
1111111111111111111000001110011111111000000000111000000000000000000000000000000111111111111111111110000000000000000000000000000011111100000001101111111111111111111
1111111111111111100011100000000111100000000000000000000000000000000000000000000110111100111111111111000000000000000000000000000011111110000001111111111111111111111
1111111111111111101111110011110011101000000000000000000000000000000000000000001111111100001111101111100000000000000000000000000111111110000011111111111111111111111
1111111111111111101111111111111001101110000000000000000000000000000000000000001111111100000101110101100000000000000000000000000111111110000001111111111111111111111
1111111111111111111100011111111101111111000000000000000000000000000000000000001011111000000000111111100000000000000000000000000111111000000000111111111111111111111
1111111111111111110001000111111100101110000000000000000000000000000000000000001101110000000000111111000000000000000000000000000111110000000001111111111111111111111
1111111111111111100001001111111000011100000000000000110011111000000000000000001111110000000001111011000000000000000000000000000001110000000000111111111111111111111
1111111111111111100111001110001110001000000000000000111011111110000000000000001111100000000001111111000000000000000000000000000000000000000001110111111111111111111
1111111111111111100110011100000110000000000000000001111111011010000000000000000110100000000001101110000000000000000000000000000000000000000001110111111111111111111
1111111111111111111110011000000000000000000000000001101111011111100110000000000111110000000000111100000000000000000000000000000000000000000011110111111111111111111
1111111111111111111100100000000000000000000000000001111111111111011111000000000111100000000001111100000000000000000000000000000000000000000001111111111111111111111
1111111111111111111101000000000000000000000000000000111101110101111111100000000110100000000011111100000001110000000000000000000000000000000000111111111111111111111
1111111111111111111001000000000000000000000000000000111111111111111111000000001101110000000111111000000011111000000000000000000000000001000000000111111111111111111
1111111111111111111010000000000000000000000000000000011100011110111111100000001111010000001101110000000001111000000001100000000000011111100000000111111111111111111
1111111111111111111000000000000000000000000000000000000000010101101101100000001101110000000111110000000011011100000111100000000000001000011000000111111111111111111
1111111111111111111100000000000000000000000000000000000000001111111101110000001111100000000111100000000111111111111111110000000000001000010000011111111111111111111
1111111111111111111110011011000000000000000000000000000000001101111101110000000111000000000001100000001011111111101111110000000000000000011000001111111111111111111
1111111111111111111110011110000000000000000000000000000000001111111011110000000000000000000000000000001101101111111111111100000000000000100000011111111111111111111
1111111111111111111011000000000001110000000000000000000000010111111110111000000000000000000000000000011111111111111110111000000000000000000000011111111111111111111
1111111111111111111011001101100011111000000000000000000001111111000011110100000000000000000000000000011011111001111011111100000000000000000000010111111111111111111
1111111111111111100110111111111001111000000000000000000011110010000001101100000000000000000000000000011111100000011011111000000000000000000000000111111111111111111
1111111111111111100000111100110011110000000000000000000011011110000001111100000000000000000000000000001110000000011111111000000000000000000000000111111111111111111
1111111111111111111110000000000011110000000001110000000101111100000001111100000000000000000000000000000000000000011111110000000111111000000000000111111111111111111
1111111111111111111111100000111110000000000011111000000011111110000001011000000000000000000000000000000000000000001111100000001111111110000000000111111111111111111
1111111111111111111111110000001111000000000111111000000011101100000001111100000000000000000000000000000000000000011011000000001111111111100000000111111111111111111
1111111111111111110110100000001110000000001111111000000001110110000001110000000000000000000000000000000000000000011111000000001111111111100000110111111111111111111
1111111111111111111111010000000000000000011111100000000000111000000000000000000000000000000000000000000000000000111110000000000001101111110000011111111111111111111
1111111111111111111111110000000000000000000111110000000000000000000000000000000000000000000000000000000000000011110101000000000000000111110000011111111111111111111
1111111111111111100111111000000000000000000111100000000000000000000000000000000000000000000000000000000000000111001111000000000000000001110000000111111111111111111
1111111111111111111100111000000000000000001111100000000000000000000000000000000000000000000000000000000000000011111011000000000000000011110000000111111111111111111
1111111111111111111111101110000000000000001111111110000000000000000000000000000000000000000000000000000000000011111110000000000000000001110000000111111111111111111
1111111111111111110101011111100000000000101111010111000000000000000000000011100000000011111000000000000000000000111100000000000000000011110000010111111111111111111
1111111111111111111111111111111000000000011111110110000000000000000000000111110000000011101100000000000000000000000000000000000000000001110000011111111111111111111
1111111111111111110111101101110000000000111111111111000000000000000000001111110000000111111100000000000000000000000000000000001100010111100000011111111111111111111
1111111111111111110001111111110000000000010111111111000000000001100000001111111000000011111110000000000000000000000000000000001111111111110000011111111111111111111
1111111111111111100000011111100000000000000111111110000000000001110000001111110000000111110110000000000000000000000000000000000111111111100000111111111111111111111
1111111111111111100000000011000000000000000011001000000000000000110000001111111000000011111110000000000000000000000000000000000011111110000000011111111111111111111
1111111111111111100000000000000000000000000000000000000000001000111000001111111000000101111000000000000000000000000000111000000000011000000000111111111111111111111
1111111111111111110000000000000000000000000000000000000000011000110000000011111100000111110000000000000000000011100001111000000000000000000000011111111111111111111
1111111111111111110100000000000000000000000000000000000000001011000000000001111111011111100000000000000000000111100001111100000000000000000000011111111111111111111
1111111111111111111110000000000000000000000000000000000000000110000000000001111111111110100000000000000000000111100000110001000000000000000000111111111111111111111
1111111111111111111111000000000000000000000000000000000000000000000000100001000111101111100000011110000000001111100001100111110000000000000001111111111111111111111
1111111111111111111110000000000000000000000000000000000000000000000001100000111100001101110000011111000000001111101111111111110000000000000000011111111111111111111
1111111111111111111000000000000000000000001111000000000000000000000000001011111111110011111000111011000000001100111111111111111100000000000000011111111111111111111
1111111111111111111000000000000000000000011111110000000000000000000000111111111111111001111111111111100000000011111111111111111111100000000000111111111111111111111
1111111111111111111100000000000000000001111100110000000000000000011111111111110111111100100111111101000000000111111111111000011111100000010011111111111111111111111
1111111111111111111100000000000000000001110111011000000000000000011111111111100000111111110000001011000000010111111111000011000011110000001000111111111111111111111
1111111111111111111110000000000000000001110111110000000000000000001110000000000000001111111101111110000000011111111110000011111000110000001100011111111111111111111
1111111111111111101110000000000000000011111111110000000000000000000110000101100001100111111111111100000001011111110000000011111110000000001111000111111111111111111
1111111111111111111110000000000000000111111110000000000000000000000001011111100000110011111111111110000001011111000000000001111111100000000111111111111111111111111
1111111111111111111110000000000000001111111100000000000000000000000001111110000000011001000111111100000010011000110000000011011111100000000001111111111111111111111
1111111111111111101110000000000000111111101000000000011110000000000001100110000000001100010001111100000000111011111100000011111111110000001101111111111111111111111
1111111111111111111110000000000001111111110000000000011111001000000001111110000000011111111100111000000000110111111100000011111101100000000100111111111111111111111
1111111111111111110111000000000001111111100000000000011110111110000000111110000000011111111110000000000001100011111110000000011111110000000000111111111111111111111
1111111111111111100111110000000011111110100000000001111101111110000000011100000000111111011110000000000000101111001100000000001111100000000000001111111111111111111
1111111111111111101111111100011111101011000000000111111100111101000000000000000000111100001110000000000000001110000000000000000111110000000001101111111111111111111
1111111111111111100011111111111111111110000000000111011110111100000000000000000000111000000000000000000001111100000000000000000101110000000011000111111111111111111
1111111111111111100001111111110111101111000000011111100101111100000000000000000000000000000000000000000001111110000000000000000111110000001111111111111111111111111
1111111111111111100000101111110101111111000000011111111111011001000000000000000000000000000000000000000011101110000000000000000011110000000111111111111111111111111
1111111111111111100000111110111011111111000000011111111111110011110000000000000000000000000000000000000001111101000000000000000001100000000111111111111111111111111
1111111111111111100000011011110111111111000000001111110111110011111000000000000000000000000000000000000001110111000000000000000000000000000011111111111111111111111
1111111111111111100000111111110111111100000000000110000011000000111000000000000000000000000000000000000000111111100000000000000000000000000011111111111111111111111
1111111111111111111111110101011111100000000000000000000000010100001110000000000000000001000000000000000000111101000000000000000000000000000001110111111111111111111
1111111111111111111111111101111100000000000000000000000000001100001100000000000000010111100000010000000000001111000000000000000000000000000011110111111111111111111
1111111111111111111111111111111000000000000000000000000000000100001110000000000000101111110000011100000000000000000000000000000000000000000111100111111111111111111
1111111111111111111111111111111000000000000000000000000000000000011100000000000011111111111000011111000000000000000000000000000000000000000111110111111111111111111
1111111111111111100000011111110000000000000000000000000000000000001100000000000011111111111100111111111000000000000000000000000000111000000011101111111111111111111
1111111111111111111110000111000000000000000000000000000000000000000000000000000111110111111101111111111100000000000000000000000001111000000010111111111111111111111
1111111111111111111110000000000000000000000000011011000000000000000000000000000011111000011111111111111110000000000000000000000001111100000001111111111111111111111
1111111111111111111110000000000000000000000000111111110000000000000000000000001111010000011111111101111110000000011100000000000111111100000000011111111111111111111
1111111111111111111100000000000000000111000000111111111111000000000000000000000111100000011111110000011110000000011111100000000111111100000000001111111111111111111
1111111111111111111000000000000000000111100000111111111111100000000000000000000111000000011111100000011110000000011111100000011111111100000000001111111111111111111
1111111111111111111000000000000000001111100000111111111111100000000000000000000111100000001111100000001111000000011111111111111111111100000000000111111111111111111
1111111111111111111000000000000000001111100000011111011111110000000000000000000111000000001111110000001110000000011111111111111111110000000000000111111111111111111
1111111111111111111000000000000000011111000000011100000111111100000000000000000011000000001111110000001111000000000111111111111111110000000100001111111111111111111
1111111111111111110000000011000000011111100000011100000001111100000000000000000000000000011111110000001110000000000001111111111111100000000111111111111111111111111
1111111111111111100000000111000000111111000000111100000000011110000000000000000000000000011111111000000000000000000000111111111111100000000111111111111111111111111
1111111111111111110000000111100000011000100000111100000000011100000000000000000000000000111111111000000000000000000000011011111110000000000111111111111111111111111
1111111111111111101000001111000000010000111111111100000000000000000000000001100000000000011111111000000000000000000000000000000000000000011111111111111111111111111
1111111111111111110000000111000000010000011111111110000000000000000000000001111000000000001100110000000000000000000000000000000000000000011110111111111111111111111
1111111111111111111100011110000000010000011111111111100000000000000000000111111000000000000000000000000000000000000000000000000000000000111101000111111111111111111
1111111111111111100111111111000000011000001111111111110000000000000000000011111110000000000000000000000000000011110000000000000000000000111111101111111111111111111
1111111111111111100111111111000000011100111111111111110000000000000000000111111110000000000000000000000000000011111110000000000000000000011010011111111111111111111
1111111111111111100011111111000000000111111101111111111100000000000000000001111111100000000000000000000000000011111111000000000001111100010111111111111111111111111
1111111111111111101111111111000000000111111000011110011000000000000000000001111111111100000000000000000000000000111111100000000111111100001111111111111111111111111
1111111111111111101111111111000000000001110000000000000000000000000000000000011111111111100000000000000000000000001111010000000111111001111111111111111111111111111
1111111111111111111111111110000000000000000000000000000000000000001100000000000111111111100000000000000000000000000111111000000001101111111111111111111111111111111
1111111111111111110000111110000000000000000000000000000000000000001110000000000011111111110011100000000000000000000011110000000011111111111111111111111111111111111
1111111111111111100001111110000000000000000000000000000000000000011111000000000000001111111111110000000000000000000011111000000011111111001100111111111111111111111
1111111111111111110000111110000000000000000000000000000000000000011111000000000000000111111111110000000001100000000011110000000111111110000010011111111111111111111
1111111111111111100000011000000000000000000000000000001000000000111111000000000000000111111111000000000000111100000011010000010111100000111111011111111111111111111
1111111111111111110000000000000000000000000000000000010110000000111111100000000000000001111001000000000000111110000111010001111110010011111111011111111111111111111
1111111111111111100000000000000000000000000000000001110111000000111111000000000000000000110000000000000000111111111100111111111000111111111111001111111111111111111
1111111111111111111100000000000000000000000000000001111111100000101111110000000000000000000000000000000000011111110111111111110111111111111111100111111111111111111
1111111111111111111100000000000000000000000000000011111111000000111011100000000000000000000000000001110000001111101111111001000011000111111111100111111111111111111
1111111111111111111111000000000000000000000000000001111110000000011111110000000000000000000000000001111000000000001111110100110000001100111111111111111111111111111
1111111111111111111111000000000000000000000000000001001100000000011111000000000000000000000000000000110000000000000110000111100000000000011111111111111111111111111
1111111111111111111111110000000000000000000000000000111111000000111011100000000000000000000000000000000000000000000000111111000000000000000111111111111111111111111
1111111111111111111111100000000000000000000000000000111110000000011111010000000000000000000000000000000000000000000000011110000000000011000111000111111111111111111
1111111111111111100111110000000000000000001110000000111110000000011111111100000000000000000000000000000000000000000000011000000000000000100110000111111111111111111
1111111111111111100111100000000000000000111111000000111110100010110111111100000000001100000000000000000000000000000000000000000000000000001100010111111111111111111
1111111111111111100011110000000000001100111111110000001011100000111111111100000000011110100000000000000000000000000000000000000000000000001101100111111111111111111
1111111111111111100111110000000000010111111111110000001111111111100111111000000000111111100000110000000000000010000000000000000000000010001100000111111111111111111
1111111111111111100001111000000000111011111111110000001111111111101111111000000000111111110000111000000000000011100000000000000000000000001100000111111111111111111
1111111111111111100011110000000001111111111111110000001111111110011111111100000001111111100001111100000001100011100011000001100000000000001100000111111111111111111
1111111111111111100001111000000001111111111111111000001111111100000111111111000111111000110000111111000000100011111111000111100000000000001110000111111111111111111
1111111111111111100011111110000011111111111001111000111010110001100011111111111111110000110000111110000000100011110111111111111110000001111111000111111111111111111
1111111111111111100000111111111111111100010000001111111101100000010000111111111111100010001100111111100000110011110111111111111110000001111110001111111111111111111
1111111111111111100001111111111111100000000110001111110010000110000001111111111111101111001111000011100111101100110010111111111111000000001100000111111111111111111
1111111111111111111111111111111111111111111111111111111111111111111111111111111111111111111111111111111111111111111111111111111111111111111111111111111111111111111
1111111111111111111111111111111111111111111111111111111111111111111111111111111111111111111111111111111111111111111111111111111111111111111111111111111111111111111
1111111111111111111111111111111111111111111111111111111111111111111111111111111111111111111111111111111111111111111111111111111111111111111111111111111111111111111
1111111111111111111111111111111111111111111111111111111111111111111111111111111111111111111111111111111111111111111111111111111111111111111111111111111111111111111
1111111111111111111111111111111111111111111111111111111111111111111111111111111111111111111111111111111111111111111111111111111111111111111111111111111111111111111
1111111111111111111111111111111111111111111111111111111111111111111111111111111111111111111111111111111111111111111111111111111111111111111111111111111111111111111
1111111111111111111111111111111111111111111111111111111111111111111111111111111111111111111111111111111111111111111111111111111111111111111111111111111111111111111
1111111111111111111111111111111111111111111111111111111111111111111111111111111111111111111111111111111111111111111111111111111111111111111111111111111111111111111
1111111111111111111111111111111111111111111111111111111111111111111111111111111111111111111111111111111111111111111111111111111111111111111111111111111111111111111
1111111111111111111111111111111111111111111111111111111111111111111111111111111111111111111111111111111111111111111111111111111111111111111111111111111111111111111
1111111111111111111111111111111111111111111111111111111111111111111111111111111111111111111111111111111111111111111111111111111111111111111111111111111111111111111
1111111111111111111111111111111111111111111111111111111111111111111111111111111111111111111111111111111111111111111111111111111111111111111111111111111111111111111
1111111111111111111111111111111111111111111111111111111111111111111111111111111111111111111111111111111111111111111111111111111111111111111111111111111111111111111
1111111111111111111111111111111111111111111111111111111111111111111111111111111111111111111111111111111111111111111111111111111111111111111111111111111111111111111
1111111111111111111111111111111111111111111111111111111111111111111111111111111111111111111111111111111111111111111111111111111111111111111111111111111111111111111
1111111111111111111111111111111111111111111111111111111111111111111111111111111111111111111111111111111111111111111111111111111111111111111111111111111111111111111
1111111111111111111111111111111111111111111111111111111111111111111111111111111111111111111111111111111111111111111111111111111111111111111111111111111111111111111
