11111111111111111111111111111111111111111111111111111111111111111111111111111111
11111111111111111111111111111111111111111111111111111111111111111111111111111111
11111111111111111111111111111111111111111111111111111111111111111111111111111111
11111111111111111111111111111111111111111111111111111111111111111111111111111111
11111111111111111111111111111111111111111111111111111111111111111111111111111111
11111111111111111111111111111111111111111111111111111111111111111111111111111111
11111111111111111111111111111111111111111111111111111111111111111111111111111111
11111111111111111111111111111111111111111111111111111111111111111111111111111111
11111111111111111111111111111111111111111111111111111111111111111111111111111111
11111111111111111111111111111111111111111111111111111111111111111111111111111111
11111111111111111111111111111111111111111111111111111111111111111111111111111111
11111111111111111111111111111111111111111111111111111111111111111111111111111111
11111111111111111111111111111111111111111111111111111111111111111111111111111111
11111111111111111111111110011111001111111111111111111111111111111111111111111111
11111111111111111111111100011000001111111111111111111111111111111111111111111111
11111111111111111111111000011000000011111111111111111111111111111111111111111111
11111111111111111111110000011100000011111111111111111111111111111111111111111111
11111111111111111111111111000000000000001111111111111111111111111111111111111111
11111111111111111111111001000000000000001111111111111111111111111111111111111111
11111111111111111111111000010000000100000111111111111111111111111111111111111111
11111111111111111111110000111000000111100011111111111111111111111111111111111111
11111111111111111111100000000000000011110001111111111111111111111111111111111111
11111111111111111111000001110000000011111000111111111111111111111111111111111111
11111111111111111110000000100000000001111100001111111111111111111111111111111111
11111111111111111100000001110000000000111110000011111111111111111111111111111111
11111111111110111000011000100000000000001111000001111111111111111111111111111111
11111111111100000000000000000000110000001111100001111111111111111111111111111111
11111111111000000000000000000001111000000111100000111111111111111111111111111111
11111111110000000000000000000011111100000010000011111111111111111111111111111111
11111111111100001101000000000111111100000000000011111111111111111111111111111111
11111111111110001111000000001111111000000000000001111111111111111111111111111111
11111111111100000000000000011111110000000000000000111111111111111111111111111111
11111111111100000000000000111111111000000000000001111111111111111111111111111111
11111111111000000000000001111111111000000000000011111111111111111111111111111111
11111111110000000000000011111111110000000000000001111111111111111111111111111111
11111111110000000100000111111111100000010000000001111111111111111111111111111111
11111111100000001100000111111110000000111000110001111111111111111111111111111111
11111111100000011000000011111110000001111111111000111111111111111111111111111111
11111111000000111000000000111100000001111111111000111111111111111111111111111111
11111111000001110000000000000000000001111111111100111110111111111111111111111111
11111111000011100000001000000000000001111111111100010010011111111111111111111111
11111111000111100000011000000000000001111111111110011010001111111111111111111111
11111111101110000000011000000000011111111111111110001000000011111111111111111111
11111111111100000000111100000000011111111111111110001100000001111111111111111111
11111111111000000001111100000000011111111111111011000100000000111111111111111111
11111111111100000011100000000000011111111111110001000100110000111111111111111111
11111111111110000111000000000000011111111111000001100000110000111111111111111111
11111111111111001111000000000000111111111110001101100000000001111011111111111111
11111111111111111110000000000000111111111100011100110000000111000001111111111111
11111111111111111100000000010000011111111000011110110000001100000000111111111111
11111111111111111000000000111110011111110000001110100000000000000000111111111111
11111111111111111100000000111110001111100000000110000000000000000001111111111111
11111111111111111110000000111111001111000000001111100000000000010011111111111111
11111111111111111111000001111111000100000000011111100000000000010111111111111111
11111111111111111111100011111111100110001100111111100000000000011111111111111111
11111111111111111111110111111111100010011111111110000000000000011011111111111111
11111111111111111111111111111111110011011111111110000000000000000001111101111111
11111111111111111111111111111111110001001111110000000000000000000000111000111111
11111111111111111111111111111111111001100001000000000011000000000000000000011111
11111111111111111111111111111110011000100000000000000111100000000000000000001111
11111111111111111111111111111100001100000000000000001111111000000000000000001111
11111111111111111111111111110000011100000000000000001111111000000000000000011111
11111111111111111111111111100000011110000001100000000111111000000000000000111111
11111111111111111111111111000000001000000111110000000011101000000000000001111111
11111111111111111111111111100000000000000111111000000011101000000000000011111111
11111111111111111111111111110000000000000011111100000000000000000000000111111111
11111111111111111111111111111000000000000001111110000000000000000000001111111111
11111111111111111111111111111100000000000000111111000000000000000000011111111111
11111111111111111111111111111110000000000000001111101100000000000000111111111111
11111111111111111111111111111111000000000000001111111100000000000001111111111111
11111111111111111111111111111111100000000000000011111100000000000011111111111111
11111111111111111111111111111111110000100000000000111000000000000111111111111111
11111111111111111111111111111111111001100000000000010000000000001111111111111111
11111111111111111111111111111111111101111000000000000000000000011111111111111111
11111111111111111111111111111111111111111000000000000000000000111111111111111111
11111111111111111111111111111111111111111100000000000000000001111111111111111111
11111111111111111111111111111111111111111110000000000000000011111111111111111111
11111111111111111111111111111111111111111111000010000000000111111111111111111111
11111111111111111111111111111111111111111110000110000000001111111111111111111111
11111111111111111111111111111111111111111110000110000000011111111111111111111111
11111111111111111111111111111111111111111110000100000000111111111111111111111111
11111111111111111111111111111111111111111111000000000001111111111111111111111111
11111111111111111111111111111111111111111111100000000011111111111111111111111111
11111111111111111111111111111111111111111111110000000111111111111111111111111111
11111111111111111111111111111111111111111111111000001111111111111111111111111111
11111111111111111111111111111111111111111111111111111111111111111111111111111111
