11111111111111111111111111111111111111111111111111111111111111111111111111111111111111111111111111111111111111111111111111111111111111111111111111111111111111111111111111111111111111111111111111111111111111111111111111111111111
11111111111111111111111111111111111111111111111111111111111111111111111111111111111111111111111111111111111111111111111111111111111000000000000000000000000001111111111110000000000000000000000000000000000000011111111111111111111
11111111111111111111111111111111111111111111111111111111111111111111111111111111111111111111111111111111111111111111111111111111111000000000000000000000000001111111111110000000000000000000000000000000000000011111111111111111111
11111111111111111111111111111111111111111111111111111111111111111111111111111111111111111111111111111111111111100000000000000000000000000000000000000000000001111111111110000000000000000000000000000000000000011111111111111111111
11111111111111111111111111111111111111111111111111111111111111111111111111111111111111111111111111111111111111100000000000000000000000000000000000000000000001111111111110000000000000000000000000000000000000011111111111111111111
11111111111111111111111111111111111111111111111111111111111111111111111111111111111111111111111111111111111111100000000000000000000000000000000000000000000001111111111110000000000000000000000000000000000000011111111111111111111
11111111111111111111111111111111111111111111111111111111111111111111111111111111111111111111111111111111111111100000000000000000000000000000000000000000000001111111111110000000000000000000000000000000000000011111111111111111111
11111111111111111111111111111111111111111111111111111111111111111111111111111111111111111111111111111111111111100000000000000000000000000000000000000000000001111111111110000000000000000000000000000000000000011111111111111111111
11111111111111111111111111111111111111111111111111111111111111111111111111111111111111111111111111111111111111100000000000000000000000000000000000000000000001111111111110000000000000000000000000000000000000011111111111111111111
11111111111111111111111111111111111111111111111111111111111111111111111111111111111111111111111111111111111111100000000000000000000000000000000000000000000001111111111110000000000000000000000000000000000000011111111111111111111
11111111111111111111111111111111111111111111111111111111111111111111111111111111111111111111111111111111111111111111111111111101111000000000000000000000000001111000000000000000000000000000000000000000000000011111111111111111111
11111111111111111111111111111111111111111111111111111111111111111111111111111111111111111111111111111111111111111111111111111100000000000000000000000000000000000000000000000000000000000000000000000000000000011111111111111111111
11111111111111111111111111111111111111111111111111111111111111111111111111111111111111111111111111111111111111111111111111111100000000000000000000000000000000000000000000000000000000000000000000000000000000011111111111111111111
11111111111111111111111111111111111111111111111111111111111111111111111111111111111111111111111111111111111111111111111111110000000000000000000000000000000000001000000000000000000000000000000000000000000000011111111111111111111
11111111111111111111111111111111111111111111111111111111111111111111111111111111111111111111111111111111111111111111111111110000000000000000000000000000000000001000000000000000000000000000000000000000000000011111111111111111111
11111111111111111111111111111111111111111111111111111111111111111111111111111000000000000000000000000000011111111111111111110000000000000000000000000000000000001000000000000000000000000000000000000001111111111111111111111111111
11111111111111111111111111111111111111111111111111111111111111111111111111111000000000000000000000000000011111111111111111110000000000000000000000000000000000001000000000000000000000000000000000000011111111111111111111111111111
11111111111111111111111111111111111111111111111111111111111111111111111111111000000000000000000000000000011111111111111111110000000000000000000000000000000000001000000000000000000000000000000000000111111111111111111111111111111
11111111111111111111111111111111111111111111111111111111111111111111111111111000000000000000000000000000011111111111111111110000000000000000000000000000000000001000000000000000000000000000000000000111111111111111111111111111111
11111111111111111111111111111111111111111111111111111111111111111111111111111000000000000000000000000000011111111111111111110000000000000000000000000000000000001000000000000000000000000000000000000111111111111111111111111111111
11111111111111111111111111111111111111111111111111111111111111111111111111111000000000000000000000000000011111111111111111110000000000000000000000000000000000001000000000000000000000000000000000000111111111111111111111111111111
11111111111111111111111111111111111111111111111111111111111111111111111111111000000000000000000000000000011111111111111111110000000000000000000000000000000000001000000000000000000000000000000000001111111111111111111111111111111
11111111111111111111111111111111111111111111111111111111111111111111111111111000000000000000000000000000011111111111111111110000000000000000000000000000000000001000000000000000000000000000000000001111111111111111111111111111111
11111111111111111111111111111111111111111111111111111111111111111111111111111000000000000000000000000000011111111111111111110000000000000000000000000000000000001000000000000000000000000000000000101111111111111111111111111111111
11111111111111111111111111111111111111111111111111111111111111111111111111111000000000000000000000000000011111111111111111111111100000000000001111111110011111111000000000000000000000000000000000001111111111111111111111111111111
11111111111111111111111111111111111111111111111111111111111111111111111111111000000000000000000000000000011111111111111111111111100000000000001111111110011111111000000000000000000000000000000000001111111111111111111111111111111
11111111111111111111111111111111111111111111111111111111111111111111111111111000000000000000000000000000011111111111111111111111100000000000001111111110011111111000000000000000000000000000111111111111111111111111111111111111111
11111111111111111111111111111111111111111111111111111111111111111111111111111000000000000000000000000000011111111111111111111111100000000000001111111110011111111000000000000000000000000001111111111111111111111111111111111111111
11111111111111111111111111111111111111111111111111111111111111111111111111111000000000000000000000000000011111111111111111111111100000000000001111111110011111111000000000000000000000000011111111111111111111111111111111111111111
11111111111111111111111111111111111111111111111111111111111111111111111111111000000000000000000000000000011111111111111111111111100000000000001111111110011111111000000000000000000000000111111111111111111111111111111111111111111
11111111111111111111111111111111111111111111111111111111111111111111111111111000000000000000000000000000011111111111111111111111100000000000001111111110011111111000000000000000000000001111111111111111111111111111111111111111111
11111111111111111111111111111111111111111111111111111111111111111111111111111000000000000000000000000000011111111111111111111111100000000000001111111110011111110000000000000000000000011111111111111111111111111111111111111111111
11111111111111111111111111111111111111111111111111111111111111111111111111111000000000000000000000000000011111111111111111111111100000000000001111111110011111100000000000000000000000111111111111111111111111111111111111111111111
11111111111111111111111111111111111111111111111111111111111111111111111111111000000000000000000000000000011111111111111111111111100000000000001111111110011111000000000000000000000001111111111111111111111111111111111111111111111
11111111111111111111111111111111111111111111111111111111111111111111111111111000000000000000000000000000011111111111111111111111100000000000001111111110011111111000000000000000000001111111111111111111111111111111111111111111111
11111111111111111111111111111111111111111111111111111111111111111111111111111000000000000000000000000000011111111111111111111111100000000000001111111110011111111000000000000000000001111111111111111111111111111111111111111111111
11111111111111111111111111111111111111111111111111111111111111111111111111111000000000000000000000000000011100000000000000000000000000000000001111111110011111111000000000000000000001111111111111111111111111111111111111111111111
11111111111111111111111111111111111111111111111111111111111111111111111111111000000000000000000000000000011100000000000000000000000000000000001111111110011111111000000000000000000001111111111111111111111111111111111111111111111
11111111111111111111111111111111111111111111111111111111111111111111111111111000000000000000000000000000011100000000000000000000000000000000001111111110011111111111111111111111111111111111111111111111111111111111111111111111111
11111111111111111111111111111111111111111111111111111111111111111111111111111000000000000000000000000000011100000000000000000000000000000000001111111110011100000000000000000000000000000000000000001111111111111111111111111111111
11111111111111111111111111111111111111111111111111111111111111111111111111111000000000000000000000000000000000000000000000000000000000000001111111111110011000000000000000000000000000000000000000011111111111111111111111111111111
11111111111111111111111111111111111111111111111111111111111111111111111111111000000000000000000000000000000000000000000000000000000000000000000000000000000000000000000000000000000000000000000000111111111111111111111111111111111
11111111111111111111111111111111111111111111111111111111111111111111111111111000000000000000000000000000011100000000000000000000000000000000000000000000000000000000000000000000000000000000000001111111111111111111111111111111111
11111111111111111111111111111111111111111111111111111111111111111111111111111000000000000000000000000000011100000000000000000000000000000000000000000000000000000000000000000000000000000000000011111111111111111111111111111111111
11111111111111111111111111111111111111111111111111111111111111111111111111111000000000000000000000000000011111111111111111100111111111111000000000000000000000000000000000000000000000000000000111111111111111111111111111111111111
11111111111111111111111111111111111111111111111111111111111111111111111111111000000000000000000000000000011111111111111111100111111111111000000000000000000000000000000000000000000000000000001111111111111111111111111111111111111
11111111111111111111111111111111111111111111111111111111111111111111111111111000000000000000000000000000011111111111111111100111111111111000000000000000000000000000000000000000000000000000011111111111111111111111111111111111111
11111111111111111111111111111111111111111111111111111111111111111111111111111000000000000000000000000000011111111111111111100111111111111000000000000000000000000000000000000000000000000000000000000000000000000000000111111111111
11111111111111111111111111111111111111111111111111111111111111111111111111111111111111111111111111111111111111111111111111100111111111111000000000000000000000000000000000000000000000000000000000000000000000000000000011111111111
11111111111111111111111111111111111111111111111111111111111111111111111111111111111111111111111111111111111111111111111111100111111111111000000000000000000000000000000000000000000000000000000000000000000000000000000001111111111
11111111111111111111111111111111111111111111111111111111111111111111111111111111111111111111111111111111111111111111111111100111111111111000000000000000000000000000000000000000000000000000000000000000000000000000000000111111111
11111111111111111111111111111111111111111111111111111111111111111111111111111111111111111111111111111111111111111111111111100111111111111000000000000000000000000000000000000000000000000000000000000000000000000000000000011111111
11111111111111111111111111111111111111111111111111111111111111111111111111111111111111111111111111111110000000000000000000000111111111111000000000000000000000000000000000000000000000000000000000000000000000000000000000001111111
11111111000000000011111111111111111111111111111111111111111111111111111111111111111111111111111111111111000000000000000000000011111111111000000000000000000000000000000000000000000000000000000000000000000000000000000000000111111
11111110000000000111111111111111111111111111111111111111111111111111111111111111111111111111111111111111100000000000000000000001111111111000000000000000000000000000000000000000000000000000000000000000000000000000000000000011111
11111100000000001111111111111111111111111111111111111111111111111111111111111111111111111111111111111111110000000000000000000000111111111000000000000000000000000000000000000000000000000000000000000000000000000000000000000001111
11111000000000011111111111111111111111111111111111111111111111111111111111111111111111111111111111111111111000000000000000000000011111111000000000000000000000000000000000000000000000000000000000000000000000000000000000000000111
11110000000000111111111111111111111111111111111111111111111111111111111111111111111111111111111111111111111100000000000000000000001111111000000000000000000000000000000000000000000000000000000000000000000000000000000000000000011
11100000000001111111111111111111111111111111111111111111111111111111111111111111111111111111111111111111111110000000000000000000000000011000000000000000000000000000000000000000000000000000000000000000000000000000000000000000001
11000000000011111111111111111111111111111111111111111111111111111111111111111111111111111111111111111111111111000000000000000000000000011000000000000000000000000000000000000000000000000000000000000000000000000000000000000000000
10000000000111111111111111111111111111111111111111111111111111111111111111111111111111111111111111111111110000000000000000000000000000011000000000000000000000000000000000000000000000000000000000000000000000000000000000000000000
00000000001111111111111111111111111111111111111111111111111111111111111111111111111111111111111111111111100000000000000000000000000000011111000000000000000001111111111100111100000000000000000000000000000000000000000000000000000
00000000011111111111111111111111111111111111111111111111111111111111111111111111111111111111111111111111000000001000000000000000000000011110000000000000000011111111111101111110000000000000000000000000000000000000000000000000000
00000000111110111111111111111111111111111111111111111111111111111111111111111111111111111111111111111110000000011100000000000000000000001100000000000000000111111111111101111111000000000000000000000000000000000000000000000000000
00000001111110111111111111111111111111111111111111111111111111111111111111111111111111111111111111111100000000111110000000000000000000000000000000000000001111111111111101111111100000000000000000000000000000000000000000000000000
00000011111110111111111111111111111111111111111111111111111111111111111111111111111111111111111111111000000001111111000000000000000000000000000000000000011111111111111101111111110000000000000000000000000000000000000000000000000
00000111111110111111111111111111111111111111111111111111111111111111111111111111111111111111111111110000000000000000000000000000000000000000000000000000011111111111111101111111111000000000000000000000000000000000000000000000000
00001111111110111111111111111111111111111111111111111111111111111111111111111111111111111111111111100000000000000000000000000000000000000000000000000000011111111110000000000000000000000000000000000000000011111111111111111111111
00011111111110111111111111111111111111111111111111111111111111111111111111111111111111111111111111000000001111011111111000000000000000000000000000000010011111111100000000000000000000000000000000000000000001111111111111111111111
00111111111110111111111111111111111111111111111111111111111111111111111111111111111111111111111110000000011111011111111100000000000000000000000000000110011111111000000000000000000000000000000000000000000000111111111111111111111
01111111111110111111111111111111111111111111111111111111111111111111111111111111111111111111111100000000011111011111111110000000000000000000000000001110011111110000000000000000000000000000000000000000000000011111111111111111111
01111111111110111111111111111111111111111111111111111111111111111111111111111111111111111111111000000001011111011111111111000000000000000000000000011110011111100000000000000000000000000000000000000000000000001111111111111111111
01111111111110111111111111111111111111111111111111111111111111111111111111111111111111111111110000000011011111011111111111000000000000000000000000111110011111000000000000000000000000000000000000000000000000000111111111111111111
01111111111110111111111111111111111111111111111111111111111111111111111111111111111111111111100000000111011111011111111111000000000000000000000000111110011110000000000000000000000000000000000000000000000000000011111111111111111
11111111111110111111111111111111111111111111111111111111111111111111111111111111111111111111000000001111011111011111111111000000000000000000000000011110011100000000000000000000000000000000000000000000000000000001111111111111111
11111111111110111111111111111111111111111111111111111111111111111111111111111111111111111110000000011111011111011111111111000000000000000000000000001110011000000000000000000000000000000001000000000000000000000000111111111111111
11111111111110111111111111111111111111111111111111111111111111111111111111111111111111111100000000111111011111011111111111111000000000000000000000000110010000000000000000000000000000000011100000000000000000000000011111111111111
11111111111110111111111111111111111111111111111111111111111111111111111111111111111111111000000001111111011111011111111111110000000000000000000000000000000000000000000000000000000000000111110000000000000000000000001111111111111
11111111111110111111111111111111111111111111111111111111111111111111111111111111111111110000000011111111011111011111111111100000000000000000000000000000000000000000000000000000000000001111111000000000000000000000000111111111111
11111111111110111111111111111111111111111111111111111111111111111111111111111111111111100000000111111111011111011111111111000000000000000000000000000000000000000000000000000000000000011111111100000000000000000000000011111111111
11111111111110111111111111111111111111111111111111111111111111111111111111111111111111000000001111111111011111011111111110000000000000000000000000000000000000000000000000000000000000111111111111111111111111111111111111111111111
11111111111110111111111111111111111111111111111111111111111111111111111111111111111110000000011111111111011111111111111100000000000000000111111111111000000000000000000000000000000001111111111111111111111111111111111111111111111
11111111111110111111111111111111111111111111111111111111111111111111111111111111111100000000111111111111011111111111111000000000000000001111111111110000000000000000000000000000000011111111111111111111111111111111111111111111111
11111111111110111111111111111111111111111111111111111111111111111111111111111111111000000001111111111111011111111111110000000000000000011111111111100000000000000000000000000000000111111111111111111111111111111111111111111111111
11111111111110111111111111111111111111111111111111111111111111111111111111111111110000000011000000000000011111111111100000000000000000111111111111000000000000000000000000000000001001111111111111111111111111111111111111111111111
11111111111110111111111111111111111111111111111000000011111111111111111111111111100000000111000000000000011111111111000000000000000001111111111110000000000000000000000000000000011001111111111111111111111111111111111111111111111
11111111111110111111111111111111111111111111110000000111111111111111111111111111000000001111000000000000011111111110000000000000000011111111111100000000000000000000000000000000111001111111111111111111111111111111111111111111111
11111111111110111111111111111111111111111111100000001111111111111111111111111110000000011111000000000000011111111100000000000000000111111111111000000000000000000000000000000001111001111111111111111111111111111111111111111111111
11111111111110111111111111111111111111111111000000011111111111111111111111111100000000111111000000000000011111111000000000000000001111111111110000000000000000000000000000000000001001111111111111111111111111111111111111111111111
11111111111110111111111111111111111111111110000000111111111111111111111111111000000001111111000000000000011111110000000000000000011111111111100000000000000000000000000000000000001001111111111111111111111111111111111111111111111
11111111111110111111111111111111111111111100000001111111111111111111111111110000000011111111000000000000000000000000000000000000111111111111000000000000000000000000000000000000001001111111111111111111111111111111111111111111111
11111111111110111111111111111111111111111000000011111111111111111111111111100000000111111111000000000000000000000000000000000001111111111110000000000000000000000000000000000000001001111111111111111111111111111111111111111111111
11111111111110000000000000000000000000000000000000000000000000000000000000000000000000000000000000000000000000000000000000000011111111111100000000000000000000000000000000000000000001111111111111111111111111111111111111111111111
11111111111110000000000000000000000000000000000000001111111111111111111110000000011111111100000000000000000000000000000000000111111111111000000000000000000000000000000000000000001111111111111111111111111111111111111111111111111
11111111111111111111111111111111111111000000011111001111111111111111111100000000111111111000000000000000000000011111111111111111111111110000000000000000000000000000000000000000001111111111111111111111111111111111111111111111111
11111111111111111111111111111111111110000000111111001111111111111111111000000001111111110000000000000000000000111111111111111111111111100000000000000000000000000000000000000000001111111111111111111111111111111111111111111111111
11111111111111111111111111111111111100000001111111001111111111111111110000000011111111100000000000000000000001111111111111111111111111000000000000000000000000000000001111111111111111111111111111111111111111111111111111111111111
11111111111111111111111111111111111000000011111111001111111111111111100000000111111111000000000000000000000011111111111111111111111110000000000000000000000000000000011111111111111111111111111111111111111111111111111111111111111
11111111111111111111111111111111110000000111111111001111111111111111000000001111111110000000000000000000000111111111111111111111111100000000000000000000000000000000111111111111111111111111111111111111111111111111111111111111111
11111111111111111111111111111111100000001111111111001111111111111110000000011111111100000000000000000000001111111111111111111111111000000000000000000000000000000001111111111111111111111111111111111111111111111111111111111111111
11111111111111111111111111111111111111111111111111001111111111111111111111111111111000000000000000000000001111111111111111111111110000000000000000000000000000000011111111111111111111111111111111111111111111111111111111111111111
11111111111111111111111111111111111111111111111111001111111111111111111111111111110000000000000000000000001111111111111111111111100000000000000000000000000000000111111111111111111111111111111111111111111111111111111111111111111
11111111111111111111111111111111111111111111111111001111111111111111111111111111100000000000000000000000001111111111111111111111111111111111111111111110111111111111111111111111111111111111111111111111111111111111111111111111111
11111111111111111111111111111111111111111111111111001111111111111111111111111111000000000000000000000000001111110000000111111111111111111111111111111110110000000000000000000111111111111111111111111111111111111111111111111111111
11111111111111111111111111111111111111111111111111001111111111111111111111111110000000000000000000000000001111100000001111111111111111111111111111111110110000000000000000000111111111111111111111111111111111111111111111111111111
11111111111111111111111111111111111111111111111111001111111111111111111111111100000000000000000000000000000000000000011111111111111111111111111111111110110000000000000000000111111111111111111111111111111111111111111111111111111
11111111111111111111111111111111111111111111111111001111111111111111111111111000000000000000000000000000001110000000111111111111111111111111111111111110110000000000000000000111111111111111111111111111111111111111111111111111111
11111111111111111111111111111111111111111111111111001111111111111111111111110000000000000000000000000000001100000000111111111111111111111111111111111110110000000000000000000111111111111111111111111111111111111111111111111111111
11111111111111111111111111111111111111110000000000000000000011111111111111100000000000000000000000000000001000000010111111111111111111111111111111111110110000000000000000000111111111111111111111111111111111111111111111111111111
11111111111111111111111111111111111111110000000000000000000011111111111111000000000000000000000000000000000000000110111111111111111111111111111111111110110000000000000000000111111111111111111111111111111111111111111111111111111
11111111111111111111111111111111111111110000000000000000000011111111111110000000000000000000000000000000000000001110111111111111111111111111111111111110110000000000000000000111111111111111111111111111111111111111111111111111111
11111111111111111111111111111111111111110000000000000000000011111111111100000000000000000000000000000000000000011110111111111111111111111111111111111110110000000000000000000111111111110000000000000000000000000111111111111111111
11111111111111111111111111111111111111110000000000000000000011111111111000000000000000000000000000000000000000111110111111111111111111111111111111111110000000000000000000000111111111110000000000000000000000000111111111111111111
11111111111111111111111111111111111111110000000000000000000000000000000000000000000000000000000000000000000001111110111111111111111111111111111111111111110000000000000000000111111111110000000000000000000000000111111111111111111
11111111111111111111111111111111111111110000000000000000000000000000000000000000000000000001000000000000000011111110000011111111111111111111111111111111110000000000000000000111111111110000000000000000000000000111111111111111111
11111111111111111111111111111111111111110000000000000000000000000000000000000000000000000011000000000000000111111111110011111111111111111111111111111111110000000000000000000111111111110000000000000000000000000111111111111111111
11111111111111111111111111111111111111110000000000000000000000000000000000000000000000000111000000000000001111111111110011111111111111111111111111111111110000000000000000000111111111110000000000000000000000000111111111111111111
11111111111111111111111111111111111111110000000000000000000000000000000000000000000000001111000000000000001111111111110011111111111111111111111111111111110000000000000000000111111111110000000000000000000000000111111111111111111
11111111111111111111111111111111111111110000000000000000000000000000000000000000000000000111000000000000001111111100000000111111111111111111111100000000000000000000000000000111111111110000000000000000000000000111111111111111111
11111111111111111111111111111111111111110000000000000000000000000000000000000000000000000011000000000000001111111000000001111111111111111111111100000000000000000000000000000111111111110000000000000000000000000111111111111111111
11111111111111111111111111111111111111110000000000000000000000000000000000000000000000000001111000000011001111110000000011111111111111111111111100000000000000000000000000000111111111111111100000000000000001111111111111111111111
11111111111111111111111111111111111111110000000000000000000010000000000000000000000000000000110000000111001111100000000111111111111111111111111100000000000000000000000000011111111111111111110000000000000000111111111111111111111
11111111111111111111111111111111111111110000000000000000000011000000000000000000000000000000000000001111001111111111111111111111111111111111111100000000000000000000000000011111111111111111111000000000000000011111111111111111111
11111111111111111111111111111111111111110000000000000000000011100000000000000000000000000000000000011111001111111111111111111111111111111111111100000000000000000000000000011111111111111111111100000000000000001111111111111111111
11111111111111111111111111111111111111110000000000000000000011110000000000000000000000000000000000111111001111111111111111111111111111111111111100000000000000000000000000000000011111111111111110000000000000000111111111111111111
11111111111111111111111111111111111111110000000000000000000011111000000000000000000000000000000001111111001111111111111111111111111111111111111100000000000000000000000000000000001111111111111110000000000000000011111111111111111
11111111111111111111111111111111111111110000000000000000000011111100000000000000000000000000000001111111001111111111111111111111111111111111111100000000000000000000000000000000000111111111111110000000000000000001111111111111111
11111111111111111111111111111111111111110000000000000000000011111110000000000000000000000000000000111111001111111111111111111111111111111111111100000000000000000000000000000000000011111111111110010000000000000000111111111111111
11111111111111111111111111111111111111111111111111111111111111111111111111111111111111111111111111111111001111111111111111111111111111111111111100000000000000000000000000000000000001111111111110011000000000000000011111111111111
11111111111111111111111111111111111111111111111111111111111111111111111111111111111111111111111111111111001111111111111111111111111111111111111100000000000000000000000000000000000000111111111110011100000000000000001111111111111
11111111111111111111111111111111111111111111111111111111111111111111111111111111111111111111111111111111001111111111111111111111111111111111111100000000000000000000000000000000000000000000000000011110000000000000000111111111111
11111111111111111111111111111111111111111111111111111111111111111111111111111111111111111111111111111111001111111111111111111111111111111111111100000000000000000000000000000000000000001111111111111111000000000000000011111111111
11111111111111111111111111111111111111111111111111111111111111111111111111111111111111111111111111111111001111111111111111111111111111111111111100000000000000000000000000000000000000000111111111111111100000000000000001111111111
11111111111111111111111111111111111111111111111111111111111111111111111111111111111111111111111111111111001111111111111111111111111111111111111100000000000000000000000000000000000000000011111111111111110000000000000000111111111
11111111111111111111111111111111111111111111111111111111111111111111111111111111111111111111111111111111001111111111111111111111111111111111111100000000000000000000000000000000000000000001111111111111111000000000000000011111111
11111111111111111111111111111111111111111111111111111111111111111111111111111111111111111111111111111111001111111111111111111111111111111111111111111111111111111000000000000000000000000000111111111111111100000000000000001111111
11111111111111111111111111111111111111111111111111111111111111111111111111111111111111111111111111111111001111111111111111111111111111111111111111111111111111111110111111111111111111111111111111111111111110000000000000000111111
11111111111111111111111111111111111111111111111111111111111111111111111111111111111111111111111111111111001111111111111111111111111111111111111111111111111111111110111111111111111111111111111111111111111111111111111111111111111
11111111111111111111111111111111111111111111111111111111111111111111111111111111111111111111111111111111001111111111111111111111111111111111111111111111111111111110111111111111111111111111111111111111111111111111111111111111111
11111111111111111111111111111111111111111111111111111111111111111111111111111111111111111111111111111111001111111111111111111111111111111111111111111111111111111110111111111111111111111111111111111111111111111111111111111111111
11111111111111111111111111111111111111111111111111111111111111111111111111111111111111111111111111111111001111111111111111111111111111111111111111111111111111111110111111111111111111111111111111111111111111111111111111111111111
11111111111111111111111111111111000000000001111111111111111111111111111111111111111111111111111111111111001111111111111111111111111111111111111111111111111111111110111111111111111111111111111111111111111111111111111111111111111
11111111111111111111111111111111000000000001111111111111111111111111111111111111111111111111111111111111001111111111111111111111111111111111111111111111111111111110111111111111111111111111111111111111111111111111111111111111111
11111111111111111111111111111111000000000001111111111111111111111111111111111111111111111111111111111111001111111111111111111111111111111111111111111111111111111110111111111111111111111111111111111111111111111111111111111111111
11111111111111111111111111111111000000000001111111111111111111111111111111111111111111111111111111111111001111111111111111111111111111111111111111111111111111111110111111111111111111111111111111111111111111111111111111111111111
11111111111111111111111111111111000000000001111111111111111111111111111111111111111111111111111111111111001111111111111111111111111111111111111111111111111111111110111111111111111111111111111111111111111111111111111111111111111
11111111111111111111111111111111000000000001111111111111111111111111111111111111111111111111111111111111001111111111111111111111111111111111111111111111111111111110111111111111111111111111111111111111111111111111111111111111111
11111111111111111111111111111111000000000001111111111111111111111111111111111111111111111111111111111111001111111111111111111111111111111111111111111111111111111110111111111111111111111111111111111111111111111111111111111111111
11111111111111111111111111111111000000000001111111111111111111111111111111111111111111111111111111111111001111111111111111111111111111111111111111111111111111111110111111111111111111111111111111111111111111111111111111111111111
11111111111111111111111111111111000000000001111111111111111111111111111111111111111111111111111111111111001111111111111111111111111111111111111111111111111111111110111111111111111111111111111111111111111111111111111111111111111
11111111111111111111111111111111000000000001111111111111111111111111111111111111111111111111111111111111001111111111111111111111111111111111111111111111111111111110111111111111111111111111111111111111111111111111111111111111111
11111111111111111111111111111111000000000001111111111111111111111111111111111111111111111111111111111111001111111111111111111111111111111111111111111111111111111110111111111111111111111111111111111111111111111111111111111111111
11111111111111111111111111111111000000000001111111111111111111111110000000111111111111111111111111111111001111111111111111111111111111111111111111111111111111111110111111111111111111111111111111111111111111111111111111111111111
11111111111111111111111111111111000000000001111111111111111111111110000000111111111111111111111111111111001111111111111111111111111111111111111111111111111111111110111111111111111111111111111111111111111111111111111111111111111
11111111111111111111111111111111000000000001111111111111111111111110000000111111111111111111111111111111001111111111111111111111111111111111111111111111111111111110111111111111111111111111111111111111111111111111111111111111111
11100000001111111111111111111111000000000001111111111111111111111110000000111111111111111111111111111111001111111111111111111111111111111111111111111111111111111110111111111111111111111111111100000011111111111111111111111111111
11110000000111111111111111111111000000000001111111111111111111111110000000111111111111111111111111111111001111111111111111111111111111111111111111111111111111111110111111111111111111111111111100000011111111111111111111111111111
11111000000011111111111111111111000000000001111111111111111100000000000000000000000111111111111111111111001111111111111111111111111111111110000000000000000000000000000000111111111111111111111100000011111111111111111111111111111
11111100000001111111111111111111000000000001111111111111111110000000000000000000000011111111111111111111001111111111111111111111111111111110000000000000000000000000000000111111111111111111111100000011111111111111111111111111111
11111110000000111111111111111111000000000001111111111111111111000000000000000000000001111111111111111111001111111111111111111111111111111110000000000000000000000000000000111111111111111111111100000011111111111111111111111111111
11111111000000011111111111111111000000000000000000000000000000000000000000000000000000000000000000000000001111111111111111111111111111111110000000000000000000000000000000111111111111111111111100000011111111111111111111111111111
11111111100000001111111111111111000000000001111111111111111111110000000000000000000000011111111111111111111111111111111111111111111111111110000000000000000000000000000000111111111111111111111100000011111111111111111111111111111
11111111110000000111111111111111000000000001111111111111111111111000000000000000000000001111111111111111111111111111111111111111111111111110000000000000000000000000000000000000000000000000000000000000000000000000000000000001111
11111111111000000011111111111111000000000001111111111111111111111100000000000000000000000111111111111111111111111111111111111111111111111110000000000000000000000000000000000000000000000000000000000011111111111111111111111101111
11111111111100000001111111111111000000000001111111111111111111111110000000000000000000000011111111111111111111111111111111111111111111111110000000000000000000000000000000111111111111111111111100000011111111111111111111111101111
11111111111110000000111111111111000000000001111111111111111111111110000000000000000000000001111111111111111111111111111111111111111111111110000000000000000000000000000000111111111111111111111100000011111111111111111111111101111
11111111111111000000011111111111000000000001111111111111111111111110000000000000000000000000111111111111111111111111111111111111111111111110000000000000000000000000000000111111111111111111111100000011111111111111111111111101111
11111111111111100000001111111111000000000001111111111111111111111110000000000000000000000000011111111111111111111111111111111111111111111110000000000000000000000000000000111111111111111111111100000011111111111111111111111101111
11111111111111110000000000000000000000000000000000000000011111111110000000000000000000000000001111111111111111111111111111111111111111111110000000000000000000000000000000111111111111111111111100000011111111111111111111100000001
11111111111111111000000000000000000000000000000000000000001111111110000000000000000000000000000111111111111111111111111111111111111111111110000000000000000000000000000000111111111111111111111100000011111111111111111111000000011
11111111111111111100000000000000000000000000000000000000000111111110000000000000000000000000000011111111111111111111111111111111111111111110000000000000000000000000000000111111111111111111111111111111111111111111111110000000111
11111111111111111110000000000000000000000000000000000000000011111110000000000000000000000000000001111111111111111111111111111111111111111110000000000000000000000000000000111111111111111111111111111111111111111111111100000001111
11111111111111111111000000000000000000000000000000000000000001111110000000100000000000000000000000111111111111111111111111111111111111111110000000000000000000000000000000111111111111111111111111111111111111111111111000000011111
11111111111111111111100000000000000000000000000000000000000000111111111111110000000000000000000000011111111111111111111111111111111111111110000000000000000000000000000000111111111111111111111111111111111111111111110000000111111
11111100000000000000000000000000000000000000000000000000000000011111111111111000000000000000000000001111111111111111111111111111111111111110000000000000000000000000000000111111111111111111111111111111111111111111100000001111111
11111100000000000000000000000000000000000000000000000000000000001111111111111100000000000000000000000000000000000000000000000000111111111110000000000000000000000000000000111111111111111111111111111111111111111111111111111111111
11111111111111111111111100000000000000000000000000000000000000000111111111111110000000000000000000000000000000000000000000000000011111111110000000000000000000000000000000111111111111111111111111111111111111111111111111111111111
11111111111111111111111110000000000000000000000000000000000000000011111111111111000000000000000000000000000000000000000000000000001111111110000000000000000000000000000000111111111111111111111111111111111111111111111111111111111
11111111111111111111111111000000000000000000000000000000000000000001111111111111100000000000000000000000000000000000000000000000000111111110000000000000000000000000000000111111111111111111111111111111111111111111111111111111111
11111111111111111111111111100000000000000000000000000000000000000000111111111111110000000000000000000000000000000000000000000000000011111110000000000000000000000000000000000000111111111111111111111111111111111111111111111111111
11111111111111111111111111110000000111111111111111111111111111111111111111111111111000000000000000000000000000000000000000000000000001111110000000000000000000000000000000111110111111111111111111111111111111111111111111111111111
11111111111111111111111111111000000011111111111111111111111111111111111111111111111100000000000000000000000000000000000000000000000000111100000000000000000000000000000000111110111111111111111111111111111111111111111111111111111
11111111111111111111111111111100000001111111111111111111111111111111111111111111111110000000000000000000000000000000000000000000000000011000000000000000000000000000000000111110111111111111111111111111111111111111111111111111111
11111111111111111111111111111110000000111111111111111111111111111111111111111111111111000000000000000000000000000000000000000000000000000000000000000000000000000000000000111110111111111111111111111111111111111111111111111111111
11111111111111111111111111111111000000011111111111111111111111111111111111111111111111100000000000000000000000000000000000000000000000000000000000000000000000000000000000111110111111111111111111111111111111111111111111111111111
11111111111111111111111111111111100000001111111111111111111111111111111111111111111111111111111111111111110000000000000000000000000000000000000000000000000000000000000000111110111111111111111111111111111111111111111111111111111
11111111111111111111111111111111110000000111111111111111111111111111111111111111111111111111111111111111111000000000000000000000000000000000000000000000000000000000000000111110111111111111111111111111111111111111111111111111111
11111111111111111111111111111111111000000011111111111111111111111111111111111111111111111111111111111111111100000000000000000000000000000000000000000000000000000000000000111110111111111111111111111111111111111111111111111111111
11111111111111111111111111111111111100000001111111111111111111111111111111111111111111111111111111111111111110000000000000000000000000000000000000000000000000000000000000111110111111111111111111111111111111111111111111111111111
11111111111111111111111111111111111110000000111111111111111111111111111111111111111111111111111111111111111111000000000000000000000000000000000000000000000000000000000000111110111111111111111111111111111111111111111111111111111
11111111111111111111111111111111111111000000011111111111111111111111111111111111111111111111111111111111111111100000000000000000000000000000000000000000000000000000000000111110111111111111111111111111111111111111111111111111111
11111111111111111111111111111111111111100000001111111111111111111111111111111111111111111111111111111111111111110000000000000000000000000000000000000000000000000000000000111110111111111111111111111111111111111111111111111111111
11111111111111111111111111111111111111110000000111111111111111111111111111111111111111111111111111111111111111110000000000000000000000000000000000000000000000000000000000111110111111111111111111111111111111111111111111111111111
11111111111111111111111111111111111111111000000011111111111111111111111111111111111111111111111111111111111111110000000000000000000000000000000000000000000000000000000000111110111111111111111111111111111111111111111111111111111
11111111111111111111111111111111111111111111111111111111111111111111111111111111111111111111111111111111111111110010000000000000000000000000000000000000000000000000000000111110111111111111111111111111111111111111111111111111111
11111111111111111111111111111111111111111111111111111111111111111111111111111111111111111111111111111111111111110011000000000000000000000000000000000000000000000000000000111110111111111111111111111111111111111111111111111111111
11111111111111111111111111111111111111111111111111111111111111111111111111111111111111111111111111111111111111110011100000000000000000000000000000000111111111111110111111111110111111111111111111111111111111111111111111111111111
11111111111111111111111111111111111111111111111111111111111111111111111111111111111111111111111111111111111111110011111111000000000001111111111111111111111111111110111111111110111111111111111111111111111111111111111111111111111
11111111111111111111111111111111111111111111111111111111111111111111111111111111111111111111111111111111111111110011111110000000000011111111111111111111111111111110111111111110111111111111111111100000000000000000000000011111111
11111111111111111111111111111111111111111111111111111111111111111111111111111111111111111111111111111111111111110011111111111111111111111111111111111111111111111110111111111110111111111111111111100000000000000000000000011111111
11111111111111111111111111111111111111111111111111111111111111111111111111111111111111111111111111111111111111110011111111111111111111111111111111111111111111111110111111111110111111111111111111100000000000000000000000011111111
11111111111111111111111111111111111111111111111111111111111111111111111111111111111111111111111111111111111111110011111111111111111111111111111111111111111111111110111111111110000000000000000000000000000000000000000000011111111
11111111111111111111111111111111111111111111111111111111111111111111111111111111111111111111111111111111111111110011111111111111111111111111111111111111111111111110111111111110000000000000000000000000000000000000000000011111111
11111111111111111111111111111111111111111111111111111111111111111111111111111111111111111111111111111111111111110011111111111111111111111111111111111111111111111110111111111110111111111111111111100000000000000000000000011111111
11111111111111111111111111111111111111111111111111111111111111111111111111111111111111111111111111111111111111110011111111111111111111111111111111111111111111111110111111111110111111111111111111100000000000000000000000011111111
11111111111111111111111111111111111111111111111111111111111111111111111111111111111111111111111111111111111111110011111111111111111111111111111111111111111111111110111100000000000000111111111111111111111111111101111111111111111
11111111111111111111111111111111111111111111111111111111111111111111111111111111111111111111111111111111111111110011111111111111111111111111111111111111111111111110111110000000000000011111111111111111111111111101111111111111111
11111111111111111111111111111111111111111111111111111111111111111111111111111111111111111111111111111111111111110011111111111111111111111111111111111111111111111110111111000000000000001111111111111111111111111101111111111111111
11111111111111111111111111111111111111111111111111111111111111111111111111111111111111111111111111111111111000000000000000000001111111111111111111111111111111111110111111100000000000000111111111111111111111111101111111111111111
11111111111111111111111111111111111111111111111111111111111111111111111111111111111111111111111111111111111100000000000000000000111111111111111111111111111111111110111111110000000000000011111111111111111111111101111111111111111
11111111111111111111111111111111111111111111111111111111111111111111111111111111111111111111111111111111111110000000000000000000011111111111111111111111111111111110111111111000000000000001111111111111111111111101111111111111111
11111111111111111111111111111111111111111111111111111111111111111111111111111111111111111111111111111111111111000000000000000000001111111111111111111111111111111110111111111100000000000000111111110000000000000000000000000000111
11111111111111111111111111111111111111111111111111111111111111111111111111111111111111111111111111111111111111100000000000000000000111111111111111111111111111111110111111111110000000000000011111111000000000000000000000000000011
11111111111111111111111111111111111111111111111111111111111111111111111111111111111111111111111111111111111111110000000000000000000011111111111111111111111111111110111111111110000000000000001111111100000000000000000000000000001
11111111111111111111111111111111111111111111111111111111111111111111111111111111111111111111111111111111111111110000000000000000000000000000000000000000000000000000000000000000100000000000000111111110000000000000000000000000000
11111111111111111111111111111111111111111111111111111111111111111111111111111111111111111111111111111111111111111100000000000000000000000000000000000000000000000000000000000000110000000000000011111111000000000000000000000000000
11111111111111111111111111111111111111111111111111111111111111111111111111111111111111111111111111111111111111111110000000000000000000011111111111111111111111111111111111111111111000000000000001111111100000000000000000000000000
11111111111111111111111111111111111111111111111111111111111111111111111111111111111111111111111111111111111111111111000000000000000000001111111111111111111111111111111111111111111100000000000000111111110000000000000000000000000
11111111111111111111111111111111111111111111111111111111111111111111111111111111111111111111111111111111111111111111100000000000000000000111111111111111111111111111111111111111111110000000000000011111111000000000000000000000000
11111111111111111111111111111111111111111111111111111111111111111111111111111111111111111111111111111111111111111111110000000000000000000011111111111111111111111111111111111111111111111111111111111111111100000000000000000000000
11111111111111111111111111111111111111111111111111111111111111111111111111111111111111111111111111111111111111111111111000000000000000000001111111111111111111111111111111111111111111111111111111111111111110000000000000000000000
11111111111111111111111111111111111111111111111111111111111111111111111111111111111111111111111111111111111111111111111111111111111111111111111111111111111111111111111111111111111111111111111111111111111111000000000000000000000
11111111111111111111111111111111111111111111111111111111111111111111111111111111111111111111111111111111111111111111111111111111111111111111111111111111111111111111111111111111111111111111111111111111111111100000000000000000000
11111111111111111111111111111111111111111111111111111111111111111111111111111111111111111111111111111111111111111111111111111111111111111111111111111111111111111111111111111111111111111111111111111111111111110000000000000000000
11111111111111111111111111111111111111111111111111111111111111111111111111111111111111111111111111111111111111111111111111111111111111111111111111111111111111111111111111111111111111111111111111111111111111111000000000000000000
11111111111111111111111111111111111111111111111111111111111111111111111111111111111111111111111111111111111111111111111111111111111111111111111111111111111111111111111111111111111111111111111111111111111111111111111111111111111
11111111111111111111111111111111111111111111111111111111111111111111111111111111111111111111111111111111111111111111111111111111111111111111111111111111111111111111111111111111111111111111111111111111111111111111111111111111111
