11111111111111111111111111111111111111111111111111111111111111111111111111111111111111111111111111111111111111111111111111111111111111111111111111111111111111111111111111111111111111111111111111111111111111111111111111111111111
11111111111111111111111111111111111111111111111111111111111111111111111111111111111111111111111111111111111111111111111111111111111111111111111111111111111111111111111111111111111111111111111111111111111111111111111111111111111
11111111111111111111111111111111111111111111111111111111111111111111111111111111111111111111111111111111111111111111111111111111111111111111111111111111111111111111111111111111111111111111111111111111111111111111111111111111111
11111111111111111111111111111111111111111111111111111111111111111111111111111111111111111111111111111111111111111111111111111111111111111111111111111111111111111111111111111111111111111111111111111111111111111111111111111111111
11111111111111111111111111111111111111111111111111111111111111111111111111111111111111111111111111111111111111111111111111111111111111111111111111111111111111111111111111111111111111111111111111111111111111111111111111111111111
11111111111111111111111111111111111111111111111111111111111111111111111111111111111111111111111111111111111111111111111111111111111111111111111111111111111111111111111111111111111111111111111111111111111111111111111111111111111
11111111111111111111111111111111111111111111111111111111111111111111111111111111111111111111111111111111111111111111111111111111111111111111111111111111111111111111111111111111111111111111111111111111111111111111111111111111111
11111111111111111111111111111111111111111111111111111111111111111111111111111111111111111111111111111111111111111111111111111111111111111111111111111111111111111111111111111111111111111111111111111111111111111111111111111111111
11111111111111111111111111111111111111111111111111111111111111111111111111111111111111111111111111111111111111111111111111111111111111111111111111111111111111111111111111111111111111111111111111111111111111111111111111111111111
11111111111111111111111111111111111111111111111111111111111111111111111111111111111111111111111111111111111111111111111111111111111111111111111111111111111111111111111111111111111111111111111111111111111111111111111111111111111
11111111111111111111111111111111111111111111111111111111111111111111111111111111111111111111111111111111111110000000000000000000000000000000000000111111111111111111111111111111111111111111111111111111111111111111111111111111111
11111111111111111111111111111111111111111111111111111111111111111111111111111111111111111111111111111111111110000000000000000000000000000000000000111111111111111111111111111111111111111111111111111111111111111111111111111111111
11111111111111111111111111111111111111111111111111111111111111111111111111111111111111111111111111111111111110000000000000000000000000000000000000011111111111111111111111111111111111111111111111111111111111111111111111111111111
11111111111111111111111111111111111111111111111111111111111111111111111111111111111111111111111111111111111110000000000000000000000000000000000000011111111111111111111111111111111111111111111111111111111111111111111111111111111
11111111111111111111111111111111111111111111111111111111111111111111111111111111111111111111111111111111111110000000000000000000000000000000000000011111111111111111111111111111111111111111111111111111111111111111111111111111111
11111111111111111111111111111111111111111111111111111111111111111111111111111111111111111111111111111111111110000000000000000000000000000000000000011111111111111111111111111111111111111111111111111111111111111111111111111111111
11111111111111111111111111111111111111111111111111111111111111111111111111111111111111111111111111111111111110000000000000000000000000000000000000111111111111111111111111111111111111111111111111111111111111111111111111111111111
11111111111111111111111111111111111111111111111111111111111111111111111111111111111111111111111111111111111110000000000000000000000000000000000000111111111111111111111111111111111111111111111111111111111111111111111111111111111
11111111111111111111111111111111111111111111111111111111111111111111111111111111111111111111111111111111111110000000000000000000000000000000000000111111111111111111111111111111111111111111111111111111111111111111111111111111111
11111111111111111111111111111111111111111111111111111111111111111111111111111111111111111111111111111111111110000000000000000000000000000000000000111111111111111111111111111111111111111111111111111111111111111111111111111111111
11111111111111111111111111111111111111111111111111111111111111111111111111111111111111111111111111111111111110000000000000000000000000000000000000111111111111111111111111111111111111111111111111111111111111111111111111111111111
11111111111111111111111111111111111111111111111111111111111111111111111111111111111111111111111111111111111110000000000000000000000000000000000000111111111111111111111111111111111111111111111111111111111111111111111111111111111
11111111111111111111111111111111111111111111111111111111111111111111111111111111111111111111111111111111100000000000000000000000000000000000000000111111111111111111111111111111111111111111111111111111111111111111111111111111111
11111111111111111111111111111111111111111111111111111111111111111111111111111111111111111111111111111111100000000000000000000000000000000000000000111111111111111111111111111111111111111111111111111111111111111111111111111111111
11111111111111111111111111111111111111111111111111111111111111111111111111111111111111111111111111111111100110000000000000000000000000000000000000111111111111111111111111111111111111111111111111111111111111111111111111111111111
11111111111111111111111111111111111111111111111111111111111111111110000000000001111111111111111111111111100110000000000000000000000000000000000000111111111111111111111111111111111111111111111111111111111111111111111111111111111
11111111111111111111111111111111111111111111111111111111111111111100000000000011111111111111111111111111100110000000000000000000000000000000000000111111111111111111111111111111111111111111111111111111111111111111111111111111111
11111111111111111111111111111111111111111111111111111111111111111000000000000111111111111111111111111111100110000000000000000000000000000000000000111111111111111111111111111111111111111111111111111111111111111111111111111111111
11111111111111111111111111111111111111111111111111111111111111110000000000001111111111111111111111111111100110000000000000000000000000000000000000111111111111111111111111111111111111111111111111111111111111111111111111111111111
11111111111111111111111111111111111111111111111111111111111111100000000000011111111111111111111111111111100110000000000000000000000000000000000000111111111111111111111111111111111111111111111111111111111111111111111111111111111
11111111111111111111111111111111111111111111111111111111111111000000000000111111111111111111111111111111100110000000000000000000000000000000000000111111111111111111111111111111111111111111111111111111111111111111111111111111111
11111111111111111111111111111111111111111111111111111111111110000000000001111111111111111111111111111111100110000000000000000000000000000000000000111111111111111111111111111111111111111111100000000001111111111111111111111111111
11111111111111111111111111111111111111111111111111111111111100000000000011111111111111111111111111111111100110000000000000000000000000000000000000111111111111111111111111111111111111111111110000000000111111111111111111111111111
11111111111111111111111111111111111111111111111111111111111000000000000111111111111111111111111111111111100110000000000000000000000000000000000000111111111111111111111111111111111110000000000000000000011111111111111111111111111
11111111111111111111111111111111111111111111111111111111110000000000001111111111111111111111111111111111100111111111111111111111111111111111111111111111111111111111111111111111111110000000000000000000001111111111111111111111111
11111111111111111111111111111111111111111111111111111111100000000000011111111111111111111111111111111111100111111111111111111111111111111111111111111111111111111111111111111111111110111111111111111111111111111111111111111111111
11111111111111111111111111111111111111111111111111111111000000000000111111111111111111111111111111111111100111111111111111111111111111111111111111111111111111111111111111111111111110111111111111111111111111111111111111111111111
11111111111111111111111111111111111111111111111111111110000000000001111111111111111111111111111111111111100111111111111111111111111111111111111111111111111111111111111111111111111110111111111111111111111111111111111111111111111
11111111111111111111111111111111111111111111111111111100000000000011111111111111111111111111111111111111100111111111111111111111111111111111111111111111111111111111111111111111111110111111111111111111111111111111111111111111111
11111111111111111111111111111111111111111111111111111000000000000111111111111111111111111111111111111111100111111111111111111111111111111111111111111111111111111111111111111111111110111111111111111111111111111111111111111111111
11111111111111111111111111111111111111111111111111110000000000001111111111111111111111111111111111111111100111111111111111111111111111111111111111111111111111111111111111111111111110111111111111111111111111111111111111111111111
11111111111111111111111111111111111111111111111111100000000000011111111111111111111111111111111111111111100111111111111111111111111111111111111111111111111111111111111111111111111110111111111111111111111111111111111111111111111
11111111111111111111111111111111111111111111111111000000000000111111111111111111111111111111111111111111100111111111111111111111111111111111111111111111111111111111111111111111111110111111111111111111111111111111111111111111111
11111111111111111111111111111111111111111111111110000000000001111111111111111111111111111111111111111111100111111111111111111111111111111111111111111111111111111111111111111111111110111111111111111111111111111111111111111111111
11111111111111111111111111111111111111111111111100000000000011111111111110000000000000000000000000000000000111111111111111111111111111111111111111111111111111111111111111111111111110111111111111111111111111111111111111111111111
11111111111111111111111111111111111111111111111000000000000111111111111110000000000000000000000000000000000111111111111111111111111111111111111111111111111111111111111111111111111110111111111111111111111111111111111111111111111
11111111111111111111111111111111111111111111110000000000001111111111111111111111111111111111111111111111100111111111111111111111111111111111111111111111111111111111111111111111111110111111111111111111111111111111111111111111111
11111111111111111111111111111111111111111111100000000000011111111111111111111111111111111000000000000000000000000000000000111111111111111111111111111111111111111100000000000000000000000000000000000000011111111111111111111111111
11111111111111111111111111111111111111111111000000000000111111111111111111111111111111110000000000000000000000000000000001111111111111111111111111111111111111111100000000000000000000000000000000000000011111111111111111111111111
11111111111111111111111111111111111111111110000000000001111111111111111111111111111110000000000000000000000000000000000011111111111111111111111111111111111111111100000000000000000000000000000000000000011111111111111111111111111
11111111111111111111111111111111111111111100000000000011111111111111111111111111111111000000000000000000000000000000000001111111111111111111111111111111111111111100000000000000000000000000000000000000011111111111111111111111111
11111111111111111111111111111111111111111000000000000111111111111111111111111111111110000000000000000000000000000000000000111111111111111111111111111111111111111100000000000000000000000000000000000000011111111111111111111111111
11111111111111111111111111111111111111110000000000001111111111111111111111111111111100000000000000000000000000000000000000011111111111111111111111111111111111111100000000000000000000000000000000000000011111111111111111111111111
11111111111111111111111111111111111111100000000000011111111111111111111111111111111000000000000000000000000000000000000000001111111111111111111111111111111111111100000000000000000000000000000000000000000011111111111111111111111
11111111111111111111111111111111111111000000000000111111111111111111111111111111110000000000000000000000000000000000000000000111111111111111111111111111111111111100000000000000000000000000000000000000000111111111111111111111111
11111111111111111111111111111111111110000000000001111111111111111111111111111111100000000000000000000000000000000000000000000011111111111111111111111111111111111100000000000000000000000000000000000000001111111111111111111111111
11111111111111111111111111111111111100000000000011111111111111111111111111111111000000000000000000000000000000000000000000000001111111111111111111111111111111111100000000000000000000000000000000000000011111111111111111111111111
11111111111111111111111111111111111000000000000111111111111111111111111111111110000000000000000000000000000000000000000000000000111111111111111111111111111111111100000000000000000000000000000000000000011111111111111111111111111
11111111111111111111111111111111000000000000000000001111111111111111111111111100000000000000000000000000000000000000000000000000011111111111111111111111111111111100000000000000000000000000000000000000011111111111111111111111111
11111111111111111111111111111111000000000000000000001111111111111111111111111000000000000000000000000000000000000000000000000000001111111111111111111111111111111100000000000000000000000000000000000000011111111111111111111111111
11111111111111111111111111111111000000000000000000001111111111111111111111110000000000000000000000000000000000000000000000000000000111111111111111111111111111111100000000000000000000000000000000000000011111111111111111111111111
11111111111111111111111111111110000000000000000000001111111111111111111111100000000000000000000000000000000000000000000000000000000011111111111111111111111111111100000000000000000000000000000000000000011111111111111111111111111
11111111111111111111111111111100000000000000000000001111111111111111111111000000000000000000000000000000000000000000000000000000000001111111111111111111111111111100000000000000000000000000000000000000011111111111111111111111111
11111111111111111111111111111000000000000000000000001111111111111111111111111111111110010111111111100000000000000000000000000000000000111111111111111111111111111100000000000000000000000000000000000000011111111111111111111111111
11111111111111111111111111111111000000000000000000001111111111111111111111111111111110010111111111110000000000000000000000000000000000011111111111111111111111111111111111111111111111111100000001111111111111111111111111111111111
11111111111111111111111111111111000000000000000000001111111111111111111111111111111110010111111111111000000000000000000000000000000000001111111111111111111111111111111111111111111111111000000011111111111111111111111111111111111
11111111111111111111111111111111000000000000000000001111111111111111111111111111111110010111111111111100000000000000000000000000000000000111111111111111111111111111111111111111111111110000000111111111111111111111111111111111111
11111111111111111111111111111111000000000000000000001111111111111111111111111111111110010111111111111101111111111111111111111111111111111111111111111111111111111111111111111111111111111111111111111111111111111111111111111111111
11111111111111111111111111111111000000000000000000001111111111111111111111111100000000000000111111111100000000000000000000000000111111111111111111111111111111111111111111111111111111111111111111111111111111111111111111111111111
11111111111111111111111111111111000000000000000000001111111111111111111111111000000000000001111111111100000000000000000000000000111111111111111111111111111111111111111111111111111111111111111111111111111111111111111111111111111
11111111111111111111111111111111000000000000000000001111111111111111111111110000000000000011111111111100000000000000000000000000111111111111111111111111111111111111111111111111111111111111111111111111111111111111111111111111111
11111111111111111111111111111111000000000000000000001111111111111111111111100000000000000111111111111100000000000000000000000000111111111111111111111111111111111111111111111111111111111111111111111111111111111111111111111111111
11111111111111111111111111111111000000000000000000001111111111111111111111000000000000000111111111111100000000000000000000000000111111111111111111111111111111111111111111111111111111111111111111111111111111111111111111111111111
11111111111111111111111111111111000000000000000000001111111111111111111110000000000000010111111000000000000000000000000000000000011111111111111111111111111111111111111111111111111111111111111111111111111111111111111111111111111
11111111111111111111111111111111000000000000000000001111000000111111111100000000000000010111111000000000000000000000000000000000011111111111111111111111111111111111111111111111111111111111111111111111111111111111111111111111111
11111111111111111111111111111111000000000000000000001110000001111111111000000000000000010111111000000000000000000000000000000000011111111111111111111111111111111111111111111111111111111111111111111111111111111111111111111111111
11111111111111111111111111111111000000000000000000001100000011111111110000000000000010010111111000000000000000000000000000000000011111111111111111111111111111111111111111111111111111111111111111111111111111111111111111111111111
11111111111111111111111111111111000000000000000000001000000111111111100000000000000110010111111000000000000000000000000000000000011111111111111111111111111111111111111111111111111111111111111111111111111111111111111111111111111
11111111111111111111111111111111000000000000000000000000001111111111000000000000001110010111111000000000000000000000000000000000011111111111111111111111111111111111111111111111111111111111111111111111111111111111111111111111111
11111111111111111111111111111111000000000000000000000000011111111110000000000000011110010111111000000000000000000000000000000000011111111111111111111111111111111111111111111111111111111111111111111111111111111111111111111111111
11111111111111111111111111111111000000000000000000000000111111110000000000000000000010010111111000000000000000000000000000000000011111111111111111111111111111111111111111111111111111111111111111111111111111111111111111111111111
11111111111111111111111111111111000000000000000000000001111111110000000000000000000010010111111000000000000000000000000000000000011111111111111111111111111111111111111111111111111111111111111111111111111111111111111111111111111
11111111111111111111111111111111000000000000000000000011111111110000000000000000000010010111111000000000000000000000000000000000011111111111111111111111111111111111111111111111111111111111111111111111100000000000011111111111111
11111111111111111111111111111111000000000000000000000111111111110000000000000000000010010111111000000000000000000000000000000000011111111111111111111111111111111111111111111111111111111111111111111111000000000000111111111111111
11111111111111111111111111111111000000000000000000001111111111110000000000000000000010010111111000000000000000000000000000000000011111111111111111111111111111111111111111111111111100000000001111111110000000000001111111111111111
11111111111111111111111111111111000000000000000000001111111000000000000000000000000000010111111000000000000000000000000000000000011111111111111111111110000000000000000000000000000000000000000111110000000000000000000001111111111
11111111111111111111111111111111000000000000000000001111111000000000000000000000000000110111111000000000000000000000000000000000011111111111111111111100000000000000000000000000000000000000001111100000000000000000000011111111111
11111111111111111111111111111111000000000000000000001111111111110000000000000000000011110111111000000000000000000000000000000000011111111111111111111000000000000000000000000000000000000000001111000000000000000000000111111111111
11111111111111111111111111111111111111111100000011111111111111110000000000000000000011110111111000000000000000000000000000000000011111111111111111110000000000000000000000000000000000000000001110000000000000000000001111111111111
11111111111111111111111111111111111111111000000111111111111111110000000000000000000011110111111000000000000000000000000000000000011111111111111111100000000000000000000000000000000000000000001100000000000000000000011111111111111
11111111111111111111111111111111111111110000001111111111111111110000000000000000000011110111111000000000000000000000000000000000011111111111111111000000000000000000000000000000000000000000001000000000000000000000111111111111111
11111111111111111111111111111111111111100000011111111111111111110000000000000000000011110111111000000000000000000000000000000000011111111111111110000000000000000000000000000000000000000000001100000000000011001111111111111111111
11111111111111111111111111111111111111000000111111111111111111110000000000000000000011110111111000000000000000000000000000000000011111111111111100000000000000000000000000000000000000000000001000000000000111001111111111111111111
11111111111111111111111111111111111110000000111111111111111111110000000000000000000011110111111000000000000000000000000000000000011111111111111000000000000000000000000000000000000000000000000000000000001111001111111111111111111
11111111111111111111111111111111111100000000111111111111111111110000000000000000000011110111111000000000000000000000000000000000011111111111110000000000000000000000000000000000000000000000000000000000011111001111111111111111111
11111111111111111111111111111111111000000100111111111111111111110000000000000000000011110111111000000000000000000000000000000000011110000000000000000000000000000000000000000000000000000000000000000000000000001111111111111111111
11111111000000000000111111111111110000001100111111111111111111110000000000000000000011110111111111111111111111111111111111111111111110000000000000000000000000000000000000000000000000000000000000000000000000011111111111111111111
11111111100000000000011111111111111111111100111111111111111111110000000000000000000011110111111111111111111111111111111111111111111110000000000000000000000000000000000000000000000100000000000000000011111111011111111111111111111
11111111110000000000001111111111111111111100111111111111111111110000000000000000000011110111111111111111111111111111111111111111111110000000000000000000000000000000000000000000001100000000000000000111111111011111111111111111111
11111111111000000000000111111111111111111100111111111111111111110000000000000000000011110111111111111111111111111111111111111111111110000000000000000000000000000000000000000000011100000000000000001111111111011111111111111111111
11111111111100000000000011111111111111111100111111111111111111110000000000000000000011110111111111111111111111111111111111111111111110000000000000000000000000000000000000000000111100000000000000011111111111000000000000111111111
11111111111110000000000001111111111111111100111111111111111111110000000000000000000011110111111111111111111111111111111111111111111110000000000000000000000000000000000000000001111100000000000000111111111111100000000000111111111
11111111111111000000000000111111111111111100111111111111111111110000000000000000000011110111111111111111111111111111111111111111111111000000000000000000000000000000000000000011111100000000000001111111111111111111111100111111111
11111111111111100000000000011111111111111100111111111111111111110000000000000000000011110111111111111111111111111111111111111111111111111111111111111100111111111111111111111111111100000000000011111111111111111111111100111111111
11111111111111110000000000001111111111111100111111111111111111110000000000000000000011110111111111111111111111111111111111111111111111111111111111111100111111111111111111111111111000000000000111111111111111111111111100111111111
11111111111111111000000000000111111111111100111111111111111111110000000000000000000011110111111111111111111111111111111111111111111111111111111111111100111111111111111111111111110000000000001111111111111111111111111100111111111
11111111111111111100000000000011111111111100111111111111111111110000000000000000000011110111111111111111111111111111111111111111111111111111111111111100111111111111111111111111100000000000011111111111111111111111111100111111111
11111111111111111110000000000001111111111100111111111111111111110000000000000000000011110111111111111111111111111111111111111111111111111111111111111100111111111111111111111111000000000000111111111111111111111111111100111111111
11111111111111111111000000000000111111111100111111111111111111110000000000000000000011110111111111111111111111111111111111111111111111111111111111111100111111111111111111111110000000000001111111111111111111111111111100111111111
11111111111111000000000000000000000000000000111111111111111111110000000000000000000011110111111111111111111111111111111111111111111111111111111111111100111111111111111111111100000000000001111111111111111111111111111100111111111
11111111111111000000000000000000000000000001111111111111111111110000000000000000000011110111111111111111111111111111111111111111111111111111111111111100111111111111111111111000000000000001111111111111111111111111111100111111111
11111111111111111111111000000000000111111111111111111111111111110000000000000000000011110111111111111111111111111111111111111111111111111111111111111100111111111111111111110000000000001001111111111111111111111111111100111111111
11111111111111111111111100000000000011111111111111111111111111110000000000000000000011110111111111111111111111111111111111111111111111111111111111111100111111111111111111100000000000011001111111111111111111111111111100111111111
11111111111111111111111110000000000001111111111111111111111111111111111111111111111111110111111111111111111111111111111111111111111111111111111111111100111111111111111111000000000000111001111111111111111111111111111100111111111
11111111111111111111111111000000000000111111111111111111111111111111111111111111111111110111111111111111111111111111111111111111111111111111111111111100111111111111111110000000000001111001111111111111111111111111111100111111111
11111111111111111111111111100000000000011111111111111111111111111111111111111111111111110111111111111111111111111111111111111111111111111111111111111100111111111111111100000000000011110000000000111111111111111111111100111111111
11111111111111111111111111110000000000001111111111111111111111111111111111111111111111110111111111111111111111111111111111111111111111111111111111111100111111111111111000000000000111110000000000111111111111111111111100111111111
11111111111111111111111111111000000000000111111111111111111111111111111111111111111111110111111111111111111111111111111111111111111111111111111111111100111111111111110000000000001111110000000000111111111111111111111100111111111
11111111111111111111111111111100000000000011111111111111111111111111111111111111111111110111111111111111111111111111111111111111111111111111111111000000001111111111111111111111111111110000000000111111111111111111111100111111111
11111111111111111111111111111110000000000001111111111111111111111111111111111111111111110111111111111111111111111111111111111111111111111111111111100000000111111111111111111111111111110000000000111111111111111111111100111111111
11111111111111111111111111111111000000000000111111111111111111111111111111111111111111110111111111111111111111111111111111111111111111111111111111110000000011111111111111111111111111110000000000111111111111111111111100111111111
11111111111111111111111111111111100000000000011111111111111111111111111111111111111111110111111111111111111111111111111111111111111111111111111111111000000001111111111111111111111111110000000000111111111111111111111100111111111
11111111111111111111111111111111111111111111111111111111111111111111111111111111111111110111111111111111111111111111111111111111111111111111111111111100000000111111111111111111111111110000000000111111111111111100000000000001111
11111111111111111111111111111111111111111111111111111111111111111111111111111111111111110111111111111111111111111111111111111111111111111111111111111100000000011111111111111111111111110000000000111111111111111110000000000000111
11111111111111111111111111111111111111111111111111111111111111111111111111111111111111110111111111111111111111111111111111111111111111111111111111111100000000001111111111111111111111110000000000111111111111111111000000000000011
11111111111111111111111111111111111111111111111111111111111111111111111111111111111111110111111111111111111111111111111111111110000000000000000000000000100000000111111111111111111111110000000000111111111111111111100000000000001
11111111111111111111111111111111111111111111111111111111111111111111111111111111111111110111111111111111111111111111111111111110000000000000000000000001110000000011111111111111111111110000000000111111111111111111110000000000000
11111111111111111111111111111111111111111111111111111111111111111111111111111111111111110111111111111111111111111111111111111110011111111111111111111111111000000001111111111111111111110000000000000001111111111111111111111111111
11111111111111111111111111111111111111111111111111111111111111111111111111111111111111110111111111111111111111111111111111111110011111111111111111111111111100000000111111111111111111110000000000000001111111111111111111111111111
11111111111111111111111111111111111111111111111111111111111111111111111111111111111111110111111111111111111111111111111111111110011111111111111111111111111110000000011111111111111111110000000000111001111111111111111111111111111
11111111111111111111111111111111111111111111111111111111111111111111111111111111111111110111111111111111111111111111111111111110011111111111111111111111111111000000001111111111111111110000000000111001111111111111111111111111111
11111111111111111111111111111111111111111111111111111111111111111111111111111111111111110111111111111111111000000000000000000000000000000000000000011111111111100000000111111111111111110000000000111001111111111111111111111111111
11111111111111111111111111111111111111111111111111111111111111111111111111111111111111110111111111111111111000000000000000000000000000000000000000011111111111110000000011111111111000000000000000000000000000000000000011111111111
11111111111111111111111111111111111111111111111111111111111111111111111111111111111111110111111111111111111000000000000000000000000000000000000000011111111111111111111111111111110000000000000000000000000000000000000111111111111
11111111111111111111111111111111111111111111111111111111111111111111111111111111111111110111111111111111111000000000000000000000000000000000000000011111111111111111111111111111100000000000000000000000000000000000001111111111111
11111111111111111111111111111111111111111111111111111111111111111111111111111111111111110111111111111111111000000000000000000000000000000000000000011111111111111111111111111111000000000000000000000000000000000000011111111111111
11111111111111111111111111111111111111111111111111111111111111111111111100000000000000000000000000000000111000000000000000000000000000000000000000011111111111111111111111111110000000000000000000000000000000000000111111111111111
11111111111111111111111111111111111111111111111111111111111111111111111000000000000000000000000000000001111000000000000000000000000000000000000000011111111111111111111111111100000000000000000000000000000000000001111111111111111
11111111111111111111111111111111111111111111111111111111111111111111110000000000000000000000000000000011111000000000000000000000000000000000000000011111111111111111111111111000000000000000000000000000000000000011111111111111111
11111111111111111111111111111111111111111111111111111111111111111111100000000000000000000000000000000111111000000000000000000000000000000000000000011111111111111111111111110000000000000000000000000000000000000111111111111111111
11111111111111111111111111111111111111111111111111111111111111111111000000000000000000000000000000001111111000000000000000000000000000000000000000011111111111111111111111100000000000000000000000000000000000001111111111111111111
11111111111111111111111111111111111111111111111111111111111111111110000000000000000000000000000000011111111000000000000000000000000000000000000000000011111111111111111111000000000000000000000000000000000000011111111111111111111
11111111111111111111111111111111111111111111111111111111111111111100000000000000000000000000000000000000000000000000000000000000000000000000000000000000000000000000000000000000000000000000000000000000000000111111111111111111111
11111111111111111111111111111111111111111111111111111111111111111000000000000000000000000000000000000000000000000000000000000000000000000000000000000000000000000000000000000000000000000000000000000000000001111111111111111111111
11111111111111111111111111111111111111111111111111111111111111110000000000000000000000000000000011111111111000000000000000000000000000000000000000000011111111111111111000000000000000000000000000000000000011111111111111111111111
11111111111111111111111111111111111111111111111111111111111111100000000000000000000000000000000111111111111000000000000000000000000000000000000000000011111111111111110000000000000000000000000000000000000111111111111111111111111
11111111111111111111111111111111111111111111111111111111111111000000000000000000000000000000001111111111111000000000000000000000000000000000000000000011111111111111100000000000000000000000000000000000001111111111111111111111111
11111111111111111111111111111111111111111111111111111111111110000000000000000000000000000000011111111111111000000000000000000000000000000000000000000011111111111111000000000000000000000000000000000000011111111111111111111111111
11111111111111111111111111111111111111111111111111111111111111111111111111111111111111110011111111111111111000000000000000000000000000000000000000000011111111111110000000000000000000000000000000000000111111111111111111111111111
11111111111111111111111111111111111111111111111111111111111111111111111111111111111111110011111111111111111000000000000000000000000000000000000000000011111111111100000000000000000000000000000000000001111111111111111111111111111
11111111111111111111111111111111111111111111111111111111111111111111111111111111111111110011111111111111111000000000000000000000000000000000000000000011111111111000000000000000000000000000000000000011111111111111111111111111111
11111111111111111111111111111111111111111111111111111111111111111111111111111111111111110011111111111111111000000000000000000000000000000000000000000011111111110000000000000000000000000000000000000011111111111111111111111111111
11111111111111111111111111111111111111111111111111111111111111111111111111111111111111110011111111111111111111111111111111111111111110000000000000000011111111100000000000000000000000000000000000001011111111111111111111111111111
11111111111111111111111111111111111111111111111111111111111111100000000000000000000000000000000011111111111111111111111111111111111110000000000000000011111111000000000000000000000000000000000000011011111111111111111111111111111
11111111111111111111111111111111111111111111111111111111110000000000000000000000000000000000000011111111111111111111111111111111111110000000000000000011111110000000000000000000000000000000000000111011111111111111111111111111111
11111111111111111111111111111111111111111111111111111111111000000000000000000000000000000000000011111111111111111111111111111111111110000000000000000011111100000000000000000000000000000000000001111011111111111111111111111111111
11111111111111111111111111111111111111111111111111111111111100000000000000000000000000000000000011111111111111111111111111111111111110000000000000000011111000000000000000000000000000000000000011111011111111111111111111111111111
11111111111111111111111111111111111111111111000000000000000000000000000000000000000000000000000011111111111111111111111111111111111110000000000000000011110000000000000000000000000000000000000111111011111111111111111111111111111
11111111111111111111111111100000000000000000000000000000000001000000000000000000000000000000000011111111111111111111111111111111111110000000000000000011100000000000000000000000000000000000001111111011111111111111111111111111111
11111111111111111111111111100000000000000000000000000000000001100000000000000000000000000000000011111111111111111111111111111111111110000000000000000011000000000000000000000000000000000000011111111011111111111111111111111111111
11111111111111111111111111100000000000000000000000000000000001100000000000000000000000000000000011111111111111111111111111111111111110000000000000000010000000000000000000000000000000000000111111111011111111111111111111111111111
11111111111111111111111111100000000000000000000000000000000001100000000000000000000000000000000011111111111111111111111111111111111110000000000000000000000000000000000000000000000000000001111111111011111111111111111111111111111
11111111111111111111111111100000000000000000000000000000000001100000000000000000000000000000000011111111111111111111111111111111111110000000000000000011111111111111111111111111111111111111111111111011111111111111111111111111111
11111111111111111111111111100000000000000000000000000000000000000000000000000000000000000000000000000000000001111111111111111111111110000000000000000011111111111111111111111111111111111111111111111011111111111111111111111111111
11111111111111111111111111100000000000000000000000000000000000000000000000000000000000000000000000000000000001111111111111111111111110000000000000000011111111111111111111111111111111111111111111111011111111111111111111111111111
11111111111111111111111111100000000000000000000000000000000000000000000000000000000000000000000011111111111101111111111111111111111110000000000000000011111111111111111111111111111111111111111111111011111111111111111111111111111
11111111111111111111111111100000000000000000000000000000000001100000000000000000000000000000000000000000000000000000000011111111111110000000000000000011111111111111111111111111111111111111111111111011111111111111111111111111111
11111111111111111111111111100000000000000000000000000000000001100000000000000000000000000000000000000000000000000000000011111111111110000000000000000011111111111111111111111111111111111111111111111011111111111111111111111111111
11111111111111111111111111100000000000000000000000000000000001100000000000000000000000000000000000000000000000000000000011111111111110000000000000000011111111111111111111111111111111111111111111111011111111111111111111111111111
11111111111111111111111111100000000000000000000000000000000001100000000000000000000000000000000000000000000000000000000011111111111110000000000000000011111111111111111111111111111111111111111111111011111111111111111111111111111
11111111111111111111111111100000000000000000000000000000000001100000000000000000000000000000000000000000000000000000000011111111111110000000000000000011111111111111111111111111111111111111111111111011111111111111111111111111111
11111111111111111111111111100000000000000000000000000111111111100000000000000000000000000000000000000000000000000000000011111111111110000000000000000011111111111111111111111111111111111111111111111011111111111111111111111111111
11111111111111111111111111100000000000000000000000000111111111100000000000000000000000000000000000000000000000000000000011111111111110000000000000000000000000000000000000011111111111111111111111111011111111111111111111111111111
11111111111111111111111111100000000000000000000000000111111111111011111111111000000000000001110000000000000000000000000011111111111110000000000000000000000000000000000000011111111111111111111111111011111111111111111111111111111
11111111111111111111111111100000000000000000000000000111111111111111111111111100000000000000110000000000000000000000000011111111111110000000000000000000000000000000000000011111111111111111111111111011111111111111111111111111111
11111111111111111111111111100000000000000000000000000111111111111111111111111110000000000000010000000000000000000000000011111111111110000000000000000000000000000000000000011111111111111111111111111011111111111111111111111111111
11111111111111111111111111100000000000000000000000000111111111111111111111111111000000000000000000000000000000000000000011111111111110000000000000000000000000000000000000011111111111111111111111111011111111111111111111111111111
11111111111111111111111111100000000000000000000000000111111111111111111111111111100000000000000000000000000000000000000011111111111110000000000000000000000000000000000000011111111111111111111111111011111111111111111111111111111
11111111111111111111111111100000000000000000000000000111111111111111111111111111110000000000000000000000000000000000000011111111111110000000000000000000000000000000000000011111111111111111111111111011111111111111111111111111111
11111111111111111111111111111111111111111111111111100111111111111111111111111111111000000000000000000000000000000000000011111111111110000000000000000000000000000000000000011111111111111111111111111011111111111111111111111111111
11111111111111100000000000000000000000000000000000100111111111111111111111111111111100000000000000000000000000000000000011111111111111000000000000000000000000000000000000011111111111111111111111111011111111111111111111111111111
11111111111111100000000000000000000000000000000000100111111111111111111111111111111110000000000000000000000000000000000011111111111111000000000000000000000000000000000000011111111111111111111111111011111111111111111111111111111
11111111111111100000000000000000000000000000000000100111111111111111111111111111111111000000000000000000000000000000000011111111111111000000000000000000000000000000000000011111111111111111111111100001111111111111111111111111111
11111111111111100000000000000000000000000000000000100111111111111111111111111111111111100000000000000000000000000000000010000000000000000000000000000000000000000000000000011111111111111111111111000011111111111111111111111111111
11111111111111100000000000000000000000000000000000100111111111111111111111111111111111110000000000000000000000000000000000000000000000000000000000000000000000000000000000011111111111111111111110000011111111111111111111111111111
11111111111111100000000000000000000000000000000000100111111111111111111111111111111111111000000000000000000000000000000000000000000000000000000000000000000000000000000000011111111111111111111100001011111111111111111111111111111
11111111111111100000000000000000000000000000000000100111111111111111111111111111111111111100000000000000000000000000000000000000000000000000000000000000000000000000000000011111111111111111111000011011111111111111111111111111111
11111111111111100000000000000000000000000000000000100111111111111111111111111111111111111110000000000000000000000000000000000000000000000000000000000000000000000000000000011111111111111111110000111011111111111111111111111111111
11111111111111100000000000000000000000000000000000100111111111111111111111111111111111111111000000000000000000000000000000000000000000000000000000000000000000000000000000011111111111111111100001111011111111111111111111111111111
11111111111111100000000000000000000000000000000000100111111111111111111111111111111111111111100000000000000000000000000000000000000000000000000000000000000000000000000000011111111111111111000011111011111111111111111111111111111
11111111111111100000000000000000000000000000000000100111111111111111111111111111111111111111110000000000000000000000000000000000000000000000000000000000000000000000000000011111111111111110000111111011111111111111111111111111111
11111111111111100000000000000000000000000000000000100111111111111111111111111111111111111111110000000000000000000000000000000000000000000000000000000000000000000000000000011111111111111100001111111011111111111111111111111111111
11111111111111100000000000000000000000000000000000100111111111111111111111111111111111111111110000000000000000000000000000000000000000000000000000000000000000000000000000011111111111111000011111111011111111111111111111111111111
11111111111111100000000000000000000000000000000000000111111111111111111111111111111111111111110000000000000000000000000000000000000000000000000000000000000000000000000000011111111111110000111111111011111111111111111111111111111
11111111111111100000000000000000000000000000000000100111111111111111111111111111111111111111110000000000000000000000000000000000000000000000000000000000000000000000000000011111111111100001111111111011111111111111111111111111111
11111111111111100000000000000000000000000000000000000000000000011111111111111111111111111111111111111111111100000000000000000000000000000000000000000000000000000000000000011111111111000011111111111011111111111111111111111111111
11111111111111100000000000000000000000000000000000000000000000011111111111111111111111111111111111111111111100000000000000000000000000000000000000000000000000000000000000011111111110000111111111111011111111111111111111111111111
11111111111111100000000000000000000000000000000000000000000000011111111111111111111111111111100000000000000000000000000000000000000000000000000000000000000000000000000000011111111100001111111111111011111111111111111111111111111
11111111111111100000000000000000000000000000000000000000000000011111111111111111111111111111000000000000000000000000000000000000000000000000000000000000000000000000000000011111111000011111111111111111111111111111111111111111111
11111111111111100000000000000000000000000000000000000000000000011111111111111111111111111110000000000000000000000000000000000000000000000000000000000000000000000000000000011111110000111111111111111111111111111111111111111111111
11111111111111100000000000000000000000000000000000000000000000011111111111111111111111111100000000000000000000000000000000000000000000000000000000000000000000000000000000011111100001111111111111111111111111111111111111111111111
11111111111111100000000000000000000000000000000000000000000000011111111111111111111111111000000000000000000000000000000000000000000000000000000000000000000000000000000000011111000011111111111111111111111111111111111111111111111
11111111111111100000000000000000000000000000000000000000000000011111111111111111111111110000000000000000000000000000000000000000000000000000000000000000000000000000000000011110000111111111111111111111111111111111111111111111111
11111111111111100000000000000000000000000000000000000000000000011111111111111111111111100000000000000000000000000000000000000000000000000000000000000000000000000000000000011100001111111111111111111111111111111111111111111111111
11111111111111100000000000000000000000000000000000000000000000011111111111111111111111000000000000000000000000000000000000000000000000000000000000000000000000000000000000011000011111111111111111111111111111111111111111111111111
11111111111111100000000000000000000000000000000000000000000000011111111111111111111110000000000000000000000000000000000000000000000000000000000000000000000000000000000000010000111111111111111111111111111111111111111111111111111
11111111111111111111111111111111001111100000000000000000000000011111111111111111111100000000000000000000000000000000000000000000000001000000000000000000000000000000000000000001111111111111111111111111111111111111111111111111111
11111111111111111111111111111111001111100000000000000000000000011111111111111111111000000000000000000000000000000000000000000000000011000000000000000000000000000000000000000011111111111111111111111111111111111111111111111111111
11111111111111111111111111111111001111100000000000000000000000011111111111111111110000000000000000000000000000000000000000000000000111000000000000000000000000000000000000000111111111111111111111111111111111111111111111111111111
11111111111111111111111111111111001111100000000000000000000000011111111111111111100000000000000000000000000000011111111111111111111111000000000000000000000000000000000000001111111111111111111111111111111111111111111111111111111
11111111111111111111111111111111001111100000000000000000000000011111111111111111111111111111111111111111111111111111111111111111111111000000000000000000000000000000000000011111111111111111111111111111111111111111111111111111111
11111111111111111111111111111111001111100000000000000000000000011111111111111111111111111111111111111111111111111111111111111111111111111111111111111111111111111111110000111111111111111111111111111111111111111111111111111111111
11111111111111111111111111111111001111100000000000000000000000011111111111111111111111111111111111111111111111111111111111111111111111111111111111111111111111111111100001111111111111111111111111111111111111111111111111111111111
11111111111111111111111111111111001111100000000000000000000000011111111111111111111111111111111111111111111111111111111111111111111111111111111111111111111111111111111111111111111111111111111111111111111111111111111111111111111
11111111111111111111111111111111001111100000000000000000000000011111111111111111111111111111111111111111111111111111111111111111111111111111111111111111111111111111111111111111111111111111111111111111111111111111111111111111111
11000001111111111111111111111111001111100000000000000000000000011111111111111111111111111111111111111111111111111111111111111111111111111111111111111111111111111111111111111111111111111111111111111111111111111111111111111111111
11000001111111111111111111111111001111100000000000000000000000011111111111111111111111111111111111111111111111111111111111111111111111111111111111111111111111111111111111111111111111111111111111111111111111111111111111111111111
11000000000000000000000000000000001111100000000000000000000000011111111111111111111111111111111111111111111111111111111111111111111111111111111111111111111111111111111111111111111111111111111111111111111111111111111111111111111
11000001111111111111111111111111111111100000000000000000000000011111111111111111111111111111111111111111111111111111111111111111111111111111111111111111111111111111111111111111111111111111111111111111111111111111111111111111111
11111111111111111111111111111111111111100000000000000000000000011111111111111111111111111111111111111111111111111111111111111111111111111111111111111111111111111111111111111111111111111111111111111111111111111111111111111111111
11111111111111111111111111111111111111100000000000000000000000011111111111111111111111111111111111111111111111111111111111111111111111111111111111111111111111111111111111111111111111111111111111111111111111111111111111111111111
11111111111111111111111111111111111111100000000000000000000000011111111111111111111111111111111111111111111111111111111111111111111111111111111111111111111111111111111111111111111111111111111111111111111111111111111111111111111
11111111111111111111111111111111111111100000000000000000000000011111111111111111111111111111111111111111111111111111111111111111111111111111111111111111111111111111111111111111111111111111111111111111111111111111111111111111111
11111111111111111111111111111111111111100000000000000000000000011111111111111111111111111111111111111111111111111111111111111111111111111111111111111111111111111111111111111111111111111111111111111111111111111111111111111111111
11111111111111111111111111111111111111111111111111111111111111111111111111111111111111111111111111111111111111111111111111111111111111111111111111111111111111111111111111111111111111111111111111111111111111111111111111111111111
11111111111111111111111111111111111111111111111111111111111111111111111111111111111111111111111111111111111111111111111111111111111111111111111111111111111111111111111111111111111111111111111111111111111111111111111111111111111
11111111111111111111111111111111111111111111111111111111111111111111111111111111111111111111111111111111111111111111111111111111111111111111111111111111111111111111111111111111111111111111111111111111111111111111111111111111111
