11111111111111111111111111111111111111111111111111111111111111111111111111111111111111111111111111111111111111111111111111111111111111111111111111111111111111111111111111111111111111111111111111111111111111111111111111111111111
11111111111111111111111111111111111111111111111111111111111111111111111111111111111111111111111111111111111111111111111111111111111111111111111111111111111111111111111111111111111111111111111111111111111111111111111111111111111
11111111111111111111111111111111111111111111111111111111111111111111111111111111111111111111111111111111111111111111111111111111111111111111111111111111111111111111111111111111111111111111111111111111111111111111111111111111111
11111111111111111111111111111111111111111111111111111111111111111111111111111111111111111111111111111111111111111111111111111111111111111111111111111111111111111111111111111111111111111111111111111111111111111111111111111111111
11111111111111111111111111111111111111111111111111111111111111111111111111111111111111111111111111111111111111111111111111111111111111111111111111111111111111111111111111111111111111111111111111111111111111111111111111111111111
11111111111111111111111111111111111111111111111111111111111111111111111111111111111111111111111111111111111111111111111111111111111111111111111111111111111111111111111111111111111111111111111111111111111111111111111111111111111
11111111111111111111111111111111111111111111111111111111111111111111111111111111111111111111111111111111111111111111111111111111111111111111111111111111111111111111111111111111111111111111111111111111111111111111111111111111111
11111111111111111111111111111111111111111111111111111111111111111111111111111111111111111111111111111111111111111111111111111111111111111111111111111111111111111111111111111111111111111111111111111111111111111111111111111111111
11111111111111111111111111111111111111111111111111111111111111111111111111111111111111111111111111111111111111111111111111111111111111111111111111111111111111111111111111111111111111111111111111111111111111111111111111111111111
11111111111111111111111111111111111111111111111111111111111111111111111111111111111111111111111111111111111111111111111111111111111111111111111111111111111111111111111111111111111111111111111111111111111111111111111111111111111
11111111111111111111111111111111111111111111111111111111111111111111111111111111111111111111111111111111111111111111111111111111111111111111111111111111111111111111111111111111111111111111111111111111111111111111111111111111111
11111111111111111111111111111111111111111111111111111111111111111111111111111111111111111111111111111111111111111111111111111111111111111111111111111111111111111111111111111111111111111111111111111111111111111111111111111111111
11111111111111111111111111111111111111111111111111111111111111111111111111111111111111111111111111111111111111111111111111111111111111111111111111111111111111111111111111111111111111111100000000000000000000000000001111111111111
11111111111111111111111111111111111111111111111111111111111111111111111111111111111111111111111111111111111111111111111111111111111111111111111111111111111111111111111111111111111111111110000000000000000000000000000111111111111
11111111111111111111111111111111111111111111111111111111111111111111111111111111111111111111111111111111111111111111111111111111111111111111111111111111111111111111111111111111111111111111000000000000000000000000000011111111111
11111111111111111111111111111111111111111111111111111111111000000111111111111111111111111111111111111111111111111111111111111111111111111111111111111111111111111111111111111111111111111111100000000000000000000000000001111111111
11111111111111111111111111111111111111111111111111111111111000000111111111111111111111111111111111111111111111111111111111111111111111111111111111111111111111111111111111111111111111111111110000000000000000000000000000111111111
11111111111111111111111111111111111111111111111111111111111000000111111111111111111111111111111111111111111111111111111111111111111111111111111111111111111111111111111111111111111111111111111000000000000000000000000000011111111
11111111111111111111111111111111111111111111111111111111111000000111111111111111111111111111111111111111111111111111111111111111111111111111111111111111111111111111111111111111111111111111111100000000000000000000000000001111111
11111111111111111111111111111111111111111111111111111111111000000111111111111111111111111111111111111111111111111111111111111111111111111100000000000000000000000000000000000000000000000000000000000000000000000000000000000111111
11111111111111111111111111111111111111111111111111111111111000000111111111111111111111111111111111111111111111111111111111111111111111111100000000000000000000000000000000000000000000000000000000000000000000000000000000000011111
11111111111111111111111111111111111111111111111111111111111000000111111111111111111111111111111111111111111111111111111111111111111111111100111111111111111111111111111111111111001111111111111111100000000000000000000000000001111
11111111111111111111111111111111111111111111111111111111111000000111111111111111111111111111111111111111111111111111111111111111111111111100111111111111000000000000000001111111001111111111111111110000000000000000000000000000111
11111111111111111111111111111111111111111111111111111111111000000111111111111111111111111111111111111111111111111111111111111111111111111100111111111111000000000000000001111111001111111111111111111000000000000000000000000000011
11111111111111111111111111111111111111111111111111111111111000000111111111111111111111111111111111111111111111111111111111111111111111111100111111111111000000000000000000000000000000000000000111111100000000000000000000000000001
11111111111111111111111111111111111111111111111111111111111000000111111111111100000000000000000000000000000000000000001111111111111111111100111111111111000000000000000000000000000000000000000011111110000000000000000000000000000
11111111111111111111111111111111111111111111111111111111111000000111111111111110000000000000000000000000000000000000000111111111111111111100111111111111000000000000000000000000000000000000000001111111001111111111111111111111111
11111111111111111111111111111111111111111111111111111111111000000111111111111111000000000000000000000000000000000000000011111111111111111100111111111111000000000000000000000000000000000000000000111111001111111111111111111111111
11111111111111111111111111111111111111111111111111111111111000000111111111111111100000000000000000000000000000000000000001111111111111111100111111111111000000000000000000000000000000000000000000011111001111111111111111111111111
11111111111111111111111100000000000000000000000000000000000000000000000000000000000000000000000000000000000000000000000000000000000000000000111111111111000000000000000000000000000000000000000000001111001111111111111111111111111
11111111111111111111111100000000000000000000000000000000000000000000000000000000000000000000000000000000000000000000000000000000000000000000111111111111000000000000000000000000000000000000000000000111001111111111111111111111111
11111111111111111111111100111111111111111111111111111111111000000111111111111111111100000000000000000000000000000000000000001111111111111100111111111111000000000000000000000000000000000000000000000011001111111111111111111111111
11111111111111111111111100111111111111111111111111111111111000000111000000000000000000000000000000000000000000000000000000000111111111111100111111111111000000000000000000000000000000000000000000000001001111111111111111111111111
11111111111111111111111100111111111111111111111111111111111000000111000000000000000000000000000000000000000000000000000000000011111111111100111111111111000000000000000001000000000000000000000000000000001111111111111111111111111
11111111111111111111111100111111111111111111111111111111111000000111000000000000000000000000000000000000000000000000000000000001111111111100111111111111000000000000000001100000000000000000000000000000001111111111111111111111111
11111111111111111111111100111111111111111111111111111111111000000111000000000000000000000000000000000000000000000000000000000000111111111100111111111111000000000000000001111111111111111111111111111111001111111111111111111111111
11111111111111111111111100111111111111111111111111111111111000000111000000000000000000000000000000000000000000000000000000000000011111111100111111111111000000000000000001111111111111111111111111111111001111111111111111111111111
11111100000000000000000000000000000000000001111111111111111000000111000000000000000000000000000000000000000000000000000000000000001111111100111111111111000000000000000001111111111111111111111111111111001111111111111111111111111
11111100000000000000000000000000000000000001111111111111111000000111000000000000000000000000000000000000000000000000000000000000000111111100111111111111000000000000000001111111111111111111111111111111001111111111111111111111111
11111100000000000000000000000000000000000001111111111111111000000111000000000000000000000000000000000000000000000000000000000000000011111100111111111111000000000000000001111111111111111111111111111111001111111111111111111111111
11111100000000000000000000000000000000000001111111111111111000000111000000000000000000000000000000000000000000000000000000000000000001111100111111111111000000000000000001111111111111111111111111111111001111111111111111111111111
11111100000000000000000000000000000000000001111111111111111000000111000000000000000000000000000000000000000000000000000000000000000000111100111111111111000000000000000000000000000000000111111111111111001111111111111111111111111
11111100000000000000000000000000000000000001111111111111111000000111000000000000000000000000000000000000000000000000000000000000000000011100111111111111000000000000000000000000000000000011111111111111001111111111111111111111111
11111100000000000000000000000000000000000001111111111111111000000111000000000000000000000000000000000000000000000000000000000000000000001100111111111111000000000000000000000000000000000000000000000000000000000111111111111111111
11111100000000000000000000000000000000000001111111111111111111111111000000000000000000000000000000000000000000000000000000000000000000000100111111111111000000000000000000000000000000000000000000000000000000001111111111111111111
11111100000000000000000000000000000000000001111111111111111111111111000000000000000000000000000000000000000000000000000000000000000000000000111111111111000000000000000001000000000000000000000000000000000000011111111111111111111
11111100000000000000000000000000000000000001111111111111111111111111000000000000000000000000000000000000000000000000000000000000000000000000111111111111000000000000000001100000000000000000000000000000000000111111111111111111111
11111111111111111111111111111111111111111111111111111111111111111111000000000000000000000000000000000000000000000000000000000000000000000000111111111111000000000000000001110000000000000000000000000000000001111111111111111111111
11111111111111111111111111111111111111111111111111111111111111111111000000000000000000000000000000001000000000000000000000000000000000000000011111111111000000000000000001110000000000000000000000000000000011111111111111111111111
11111111111111111111111111111111111111111111111111111111111111111111000000000000000000000000000000001100000000000000000000000000000000000000001111111111000000000000000001100000000000000000000000000000000111111111111111111111111
11111111111111111111111111111111111111111111111111111111111111111111000000000000000000000000000000001110000000000000000000000000000000000000000111111111000000000000000001000000000000000000000000000000001111111111111111111111111
11111111111111111111111111111111111111111111111111111111111111111111000000000000000000000000000000001111000000000000000000000000000000000000000011111111111111111111111110000000000000000000000000000000001111111111111111111111111
11111111111111111111111111111111111111111111111111111111111111111111000000000000000000000000000000001111100000000000000000000000000000000000000001111111111111111111111100000000000000000000000000000000001111111111111111111111111
11111111111111111111111111111111111111111111111111111111111111111111000000000000000000000000000000001111111111111000000000000000000000000000000000000011111111111111111000000000000000000000000000000001001111111111111111111111111
11111111111111111111111111111111111111111111111111111111111111111111000000000000000000000000000000001111111111111100000000000000000000000000000000000001111111111111111111111111000000000000000000000011001111111111111111111111111
11111111111111111111111111111111111111111111111111111111111111111111000000000000000000000000000000001111111111111110000000000000000000000000000000000000111111111111111111111110000000000000000000000001001111111111111111111111111
11111111111111111111111111111111111111111111111111111111111111111111000000000000000000000000000000001111111111111111000000000000000000000000000000000000011111111111111111111100000000000000000000000000001111111111111111111111111
11111111111111111111111111111111111111111111111111111111111111111111000000000000000000000000000000001111111111111111100000000000000000000000000000000000001111111111111111111000000000000000000000000000000000000000000111111111111
11111111111111111111111111111111111111111111111111111111111111111111000000000000000000000000000000001111111111111111110000000000000000000000000000000000000111111111111111110000000000000000000000000000000000000000000111111111111
11111111111111111111111111111111111111111111111111111111111111111111000000000000000000000000000000001111111111111111111000000000000000000000000000000000000011111111111111100000000000000000000000000000000000000000000111111111111
11111111111111111111111111111111111111111111111111111111111111111111000000000000000000000000000000001111111111111111111100000000000000000000000000000000000001111111110000000000000000000000000000000000000000000000000111111111111
11111111111111111111111111111111111111111111111111111111111111111111000000000000000000000000000000001111111111111111111110000000000000000000000000000000000000111111110010000000000000000000000000000000000000000000000111111111111
11111111111111111111111111111111111111111111111111111111111111111111111111111111111111111111111111111111111111111111111111000000000000000000000000000000000000011111110000000000000000000000000000000000000000000000000111111111111
11111111111111111111111111111111111111111111111111111111111111111111111111111111111111111111111111111111111111111111111111100000000000000000000000000000000000001111110000000000000000000000000000000000000000000000000111111111111
11111111111111111111111111111111111111111111111111111111111111111111111111111111111111111111111111111111111111111111111110000000000000000000000000000000000000000111110000000000000000000000000000000000000000000000000111111111111
11111111111111111111111111111111111111111111111111111111111111111111111111111111111111111111111111111111111111111111111100000000000000000000000000000000001111111111100000000000000000000000000000000000000000000000000111111111111
11111111111111111111111111111111111111111111111111111111111111111111111111111111111111111111111111111111111111111111111000000000000000000000000000000000011111111111000000000000000000000000000000000000000000000000000111111111111
11111111111111111111111111111111111111111111111111111111111111111111111111111111111111111111111111111111111111111111110000000000000000000000000000000000111111111110000000000000000000000000000000000000000000000000000111111111111
11111111111111111111111111111111111111111111111111111111111111111111111111111111111111111111111111111111111111111111100000000000000000000000000000000001111111111100000000000000000000000000000000000000000000000000000111111111111
11111111111111111111111111111111111111111111111111111111111111111111111111111111111111111111111111111111111111111111000000000000000000000000000000000011111111111000000000000000000000000000000000000000000000000000000111111111111
11111111111111111111111111111111111111111111111111111111111111111111111111111111111111111111111111111111111111111110000000000000000000000000000000000111111111110000000000000000000000000000000000000000000000000000000111111111111
11111111111111111111111111111111111111111111111111111111111111111111111111111111111111111111111111110000000000111100000000000000000000000000000000001111111111100000000000000000000000000000000000000000000000000000000111111111111
11111111111111111111111111111111111111111111111111111111111111111111111111111111111111111111111111110000000000111000000000000000000000000000000000011111111111000000000000000000010000000000000000000000000000000000000011111111111
11111111111111111111111111111111111111111111111111111111111111111111111111111111111111111111111111110000000000110000000000000000000000000000000000111111111110000000000000000000111111111111111111111100000000000000000001111111111
11111111111111111111111111111111111111111111111111111111111111111111111111111111111111111111111111110000000000100000000000000000000000000000000001111111111100000000000000000001111111111111111111111110000000000000000000111111111
11111111111111111111111111111111111111111111111111111111111111111111111111111111111111111111111111110000000000000000000000000000000000000000000011111111111000000000000000000011111111111111111111111111000000000000000000011111111
11111111111111111111111111111111111111111111111111111111111111111111111111111111111111111111111111110000000000000000000000000000000000000000000111111111110000000000000000000111111111111111111111111111100000000000000000001111111
11111111111111111111111111111111111111111111111111111111111111111111111111111111111111111111111111110000000000000000000000000000000000000000001111111111100000000000000000001111111111111111111111111111110000000000000000000111111
11111111111111111111111111111111111111111111111111111111111111111111111111111111111111111111111111110000000000000000000000000000000000000000011111111111000000000000000000011111111111111111111111111111111000000000000000000011111
11111111111111111111111111111111111111111111111111111111111111111111111111111111111111111111111111110000000000000000000000000000000000000000111111111110000000000000000000111111111111111111111111111111111111111111111111111111111
11111111111111111111111111111111111111111111111111111111111111111111111111111111111111111111111111110000000000000000000000000000000000000001111111111100000000000000000001111111111111111111111111111111111111111111111111111111111
11111111111111111111111111111111111111111111111111111111111111111111111111111111111111111111111111110000000000000000000000000000000000000001111111111000000000000000000011111111111111111111111111111111111111111111111111111111111
11111111111111111111111111111111111111111111111111111111111111111111111111111111111111111111111111110000000000000000000000000000000000000101111111110000000000000000000011111111111111111111111111111111111111111111111111111111111
11111111111111111111111111111111111111111111111111111111111111111111111111111111111111111111111111110000000000000000000000000000000000001101111111100000000000000000000000000000000001111111111111111111111111111111111111111111111
11111111111111111111111111111111111111111111111111111111111111111111111111111111111111111111111111110000000000000000000000000000000000011101111111000000000000000000000000000000000001111111111111111111111111111111111111111111111
11111111111111111111111111111111111111111111111111111111100000000000000000000000000000001111111111110000000000000000000000000000000000000001111110000000000000000000000000000000000001111111111111111111111111111111111111111111111
11111111111111111111111111111111111111111111111111111111100000000000000000000000000000001111111111110000000000111111100000000000000000000000000000000000000000000000000000000000000001111111111111111111111111111111111111111111111
11111111111111111111111111111111111111111111111111111111100000000000000000000000000000001111111111110000000000000000000000000000000000000000000000000000000000000000000000000000000001111111111111111111111111111111111111111111111
11111111111111111111111111111111111111111111111111111111100000000000000000000000000000001111111111110000000000111111111000000000000000000000000000000000000000000000000000000000000001111111111111111111111111111111111111111111111
11111111111111111111111111111111111111111111111111111111100000000000000000000000000000001111111111110000000000111111111100000000000000000000000000000000000000000000000000000000000001111111111111111111111111111111111111111111111
11111111111111111111111111111111111111111111111111111111100000000000000000000000000000001111111111110000000000111111111100000000000000000000000000000000000000000000000000000000000001111111111111111111111111111111111111111111111
11111111111111111111111111111111111111111111111111111111100000000000000000000000000000001111111111110000000000111111111100000000000000000000000000000000000000001111111111111111011111111111111111111111111111111111111111111111111
11111111111111111111111111111111111111111111111111111111100000000000000000000000000000001111111111110000000000111111111100000000000000000000000000000000000000000111111111111111011111111111111111111111111111111111111111111111111
11111111111111111111111111111111111111111111111111111111100000000000000000000000000000001111111111110000000000111111111100000000000000000000000000000000000000000011111111111111011111111111111111111111111111111111111111111111111
11111111111111111111111111111111111111111111111111111111100000000000000000000000000000001111111111110000000000111111111100000000000000000000000000000000000000000001111111111111011111111111111111111111111111111111111111111111111
11111111111111111111111111111111111111111111111111111111100000000000000000000000000000001111111111110000000000111111111100000100000000000000000000000000000000000000111111111111011111111111111111111111111111111111111111111111111
11111111111111111111111111111111111111111111111111111111100000000000000000000000000000001111111111110000000000111111111100000110000000000000000000000000000000000000011111111111011111111111111111111111111111111111111111111111111
11111111111111111111111111111111111111111111111111111111100000000000000000000000000000001111111111110000000000111111111100000111000000000000000000000000000000000000001111111111011111111111111111111111111111111111111111111111111
11111111111111111111111111111111111111111111111111111111100000000000000000000000000000001111111111110000000000111111111111111111100000000000000000000000000000000000000111111111011111111111111111111111111111111111111111111111111
11111111111111111111111111111111111111111111111111111111100000000000000000000000000000000000000000000000000000000000011111111111110000000000000000000000000000000000000011111111011111111111111111111111111111111111111111111111111
11111111111111111111111111111111111111111111111111111111100000000000000000000000000000000000000000000000000000000000011111111111111000000000000000000000000000000000000000000000000000000011111111111111111111111111111111111111111
11111111111111111111111111111111111111111111111111111111100000000000000000000000000000000000000000000000000000000000011111111111111100000000000000000000000000000000000000000000000000000011111111111111111111111111111111111111111
11111111111111111111111111111111111111111111111111111111100000000000000000000000000000000000000000000000000000000000011111111110000000000000000000000000000000000000000000000000000000000011111111111111111111111111111111111111111
11111111111111111111111111111111111111111111110000000000000000000000000000000000000000000000000000000000000000000000011111111110000000000000000000000000000000000000000000000000000000000011111111111111111111111111111111111111111
11111111111111111111111111111111111111111111111000000000000000000000000000000000000000000000000000000000000000000000000000000000000000000000000000000000000000000000000000000000000000000011111111111111111111111111111111111111111
11111111111111111111111111111111111111111111111100000000000000000000000000000000000000000000000000000000000000000000000000000000000000000000000000000000000000000000000000000000000000000011111111111111111111111111111111111111111
11111111111111111111111111111111111111111111111110000000000000000000000000000000000000000000000000000000000000000000000000000000000000000000000000000000000000000000000000000001111111111111111111111111111111111111111111111111111
11111111111111111111111111111111111111111111111111000000000000000000000000000000000000000000000000000000000000000000000000000000000000000000000000000000000000000000000000000000111111111111111111111111111111111111111111111111111
11111111111111111111111111111111111111111111111111100000000000000000000000000000000000000000000000000000000000000000000000000000000000000000000000000000000000000000000000000000011111111111111111111111111111111111111111111111111
11111111111111111111111111111111111111111111111111110000000000000000000000000000000000000000000000000000000000000000000000000000000000000000000000000000000000000000000000000000001111111111111111111111111111111111111111111111111
11111111111111111111111111111111111111111111111111111000000000000000000000000000000000000000000000000000000000000000000000000000000000000000000000000000000000000000000000000000000111111111111111111111111111111111111111111111111
11111111111111111111111111111111111111111111111111111100000000000000000000000000000000000000000000001111111111000000000000000000000000000000000000000000000000000000000000000000000011111111111111111111111111111111111111111111111
11111111111111111111111111111111111111111111111111111110000000000000000000000000000000000000000000001111111111000000000000000000000000000000000000000000000000000000000000000000000001111111111111111111111111111111111111111111111
11111111111111111111111111111111111111111111111111111111000000000000000000000000000000000000000000001111111111000000000000000000000000000000000000000000000000000000000000000000000000111111111111111111111111111111111111111111111
11111111111111111111111111111111111111111111111111111111100000000000000000000000000000000000000000001111111111000000000000000000000000000000000000000000000000000000000000000000000000011111111111111111111111111111111111111111111
11111111111111111111111111111111111111111111111111111111100000000000000000000000000000000000000000001111111111000000000000000000000000000000000001000000000000000000000000000000000000001111111111111111111111111111111111111111111
11111111111111111111111111111111111111111111111111111111100000000000000000000000000000000000000000001111111111000000000000000000000000000000000001100000000000000000000000000000000000000111111111111111111111111111111111111111111
11111111111111111111111111111111111111111111111111111111100000000000000000000000000000000000000000000000000000000000000000000000000000000000000001110000000000000000000000000000000000000011111111111111111111111111111111111111111
11111111111111111111111111111111111111111111111111111111100000000000000000000000000000000000000000001111111111000000000000000000000000000000000001111000000000000000000000000000000000000001111111111111111111111111111111111111111
11111111111111111111111111111111111111111111111111111111100000000000000000000000000000000000000000001111111111000000000000000000000000000000000001111111111111111111111111111111111111111111111111111111111111111111111111111111111
11111111111111111111111111111111111111111111111111111111100000000000000000000000000000000000000000001111111111000000000000000000000000000000000001111111111111111111111111111111111111111111111111111111111111111111111111111111111
11111111111111111111111111111111111111111111111111111111111111111111111111111111100000000000000000001111111111000000000000000000000000000000000001111111111111111111111111111111111111111111111111111111111111111111111111111111111
11111111111111111111111111111111111111111111111111111111111111111111111111111111100000000000000000001111111111000000000000000000000000000000000001111111111111111111111111111111111111111111111111111111111111111111111111111111111
11111111111111111111111111111111111111111111111111111111111111111111111111111111100000000000000000001111111111000000000000000000000000000000000001111111111111100000000000000000001111111111111111111111111111111111111111111111111
11111111111111111111111111111111111111111111111111111111111111111111111111111111100000000000000000001111111111000000000000000000000000000000000001111111111111110000000000000000000111111111111111111111111111111111111111111111111
11111111111111111111111111111111111111111111111111111111111111111111111111111111100000000000000000001111111111000000000000000000000000000000000001111111111111111000000000000000000011111111111111111111111111111111111111111111111
11111111111111111111111111111111111111111111111111111111111111111111111111111111100000000000000000001111111111000000000000000000000000000000000001111111111111111100000000000000000001111111111111111111111111111111111111111111111
11111111111111111111111111111111111111111111111111111111111111111111111111111111100000000000000000001111111111000000000000000000000000000000000001111111111111111110000000000000000000111111111111111111111111111111111111111111111
11111111111111111111111111111111111111111111111111111111111111111111111111111111111111111100111111111111111111000000000000000000000000000000000001111111111111111111000000000000000000011111111111111111111111111111111111111111111
11111111111111111111111111111111111111111111111111111111111111111111111111110000000000001100111111111111111111000000000000000000000000000000000001111111111111000011100000000000000000001111111111111111111111111111111111111111111
11111111111111111111111111111111111111111111111111111111111111111111111111100000000000011100111111111111111111000000000000000000000000000000000001111111111111000011110000000000000000000111111111111111111111111111111111111111111
11111111111111111111111111111111111111111111111111111111111111111111111111000000000000111100111111111111111111000000000000000000000000000000000001111111111111000011111000000000000000000011111111111111111111111111111111111111111
11111111111111111111111111111111111111111111111111111111111111111111111110000000000001111100111111111111111111000000000000000000000000000000000001111111111111000011111100000000000000000001111111111111111111111111111111111111111
11111111111111111111111111111111111111111111111111111111111111111111111100000000000011111100111111111111111111000000000000000000000000000000000001111111111111000011111100000000000000000000111111111111111111111111111111111111111
11111111111111111111111111111111111111111111111111111111111111111111111000000000000111111100111111111111111111000000000000000000000000000000000001111111111111000011111101000000000000000000011111111111111111111111111111111111111
11111111111111111111111111111111111111111111111111111111111111111111110000000000001111111100111111111111111111000000000000000000000000000000000001111111111111000011111101100000000000000000001111111111111111111111111111111111111
11111111111111111111111111111111111111111111111111111111111111111111100000000000011111111100111111111111111111000000000000000000000000000000000001111111111111000011111101110000000000000000000111111111111111111111111111111111111
11111111111111111111111111111111111111111111111111111111111111111111000000000000110000000000111111111111111111000000000000000000000000000000000001111111111111000000000000000000000000000000000000000111111111111111111111111111111
11111111111111111111111111111111110000000000000000000000000001111110000000000001110000000000111111111111111111000000000000000000000000000000000001111111111111000000000000000000000000000000000000000111111111111111111111111111111
11111111111111111111111111111111110000000000000000000000000001111100000000000011111111111100111111111111111111000000000000000000000000000000000001111111111111000000000000000000000000000000000000000111111111111111111111111111111
11111111111111111111111111111111110000000000000000000000000001111000000000000111111111111100111111111111111111000000000000000000000000000000000001111111111111000000000000000000000000000000000000000111111111111111111111111111111
11111111111111111111111111111111110000000000000000000000000001110000000000001111111111111100111111111111111111000000000000000000000000000000000001111111111111000000000000000000000000000000000000000111111111111111111111111111111
11111111111111111111111111111111110000000000000000000000000001100000000000011111111111111100111111111111111111000000000000000000000000000000000001111111111111000000000000000000000000000000000000000111111111111111111111111111111
11111111111111111111111111111111110000000000000000000000000001000000000000111111111111111100111111111111111111000000000000000000000000000000000001111111111111000011111111111111111001111111111111111111111111111111111111111111111
11111111111111111111111111111111110000000000000000000000000000000000000001111111111111111100111111111111111111111111111111111111111111111111111111111111111111000011111111111111111001111111111111111111111111111111111111111111111
11111111111111111111111111111111110000000000000000000000000000000000000011111111111111111100111111111111111111111111111111111111111111111111111111111111111111000011111111111111111001111111111111111111111111111111111111111111111
11111111111111111111111111111111110000000000000000000000000001111111111111111111111111111100111111111111111111111111111111111111111111111111111111111111111111000011111111111111111001111111111111111111111111111111111111111111111
11111111111111111111111111111111110000000000000000000000000001111111111111111111111111111100111111111111111111111111111111111111111111111111111111111111111111000011111111111111111001111111111111111111111111111111111111111111111
11111111111111111111111111111111110000000000000000000000000001111111111111111111111111111100111111111111111111111111111111111111111111111111111111111111111111000011111111111111111001111111111111111111111111111111111111111111111
11111111111111111111111111111111110000000000000000000000000001111111111111111111111111111100111111111111111111111111111111111111111111111111111111111111111111000011111111111111111001111111111111111111111111111111111111111111111
11111111111111111111111111111111110000000000000000000000000001111111111111111111111111111100111111111111111111111111111111111111111111111111111111111111111111000011111111111111111001111111111111111111111111111111111111111111111
11111111111111111111111111111111110000000000000000000000000001111111111111111111111111111100111111111111111111111111111111111111111111111111111111111111111111000011111111111111111001111111111111111111111111111111111111111111111
11111111111111111111111111111111110000000000000000000000000001111111111111111111111111111100111111111111111111111111111111111111111111111111111111111111111111000011111111111111111001111111111111111111110000000000000000000000111
11111111111111111111111111111111110000000000000000000000000001111111111111111111111111111100111111111111111111111111111111111111111111111111111111111111111111000011111111111111111001111111111111111111100000000000000000000001111
11111111111111111111111111111111110000000000000000000000000001111111111111111111111111111100111111111111111111111111111111111111111111111111111111111111111111000011111111111111111001111111111111111111000000000000000000000011111
11111111111111111111111111111111110000000000000000000000000001111111111111111111111111111100111111111111111111111111111111111111111111111111111111111111111111000011111111111111111001111111111111111110000000000000000000000111111
11111111111111111111111111111110000000000000000000000000000000000000000000000000000000000000111111111111111111111111111111111111111111111111000000000000000000000000000000011111111001111111111111111100000000000000000000001111111
11111111111111111111111111111110010000000000000000000000000000000000000000000000000000000000111111111111111111111111111111111111111111111111000000000000000000000000000000011111111001111111111111111000000000000000000000011111111
11111111111111111111111111111110010000000000000000000000000001111111111111111111111111111100111111111111111111111111111111111111111111111111000000000000000000000000000000011111111001111111111111110000000000000000000000111111111
11111111111111111111111111111110010000000000000000000000000001111111111111111111111111111100111111111111111111111111111111111111111111111111000000000000000000000000000000011111111001111111111111100000000000000000000001111111111
11111111111111111111111111111110010000000000000000000000000001111111111111111111111111111100111111111111111111111111111111111111111111111111000000000000000000000000000000011111111001111111111111000000000000000000000011111111111
11111111111111111111111111111110010000000000000000000000000001111111111111111111111111111100111111111111111111111111111111111111111111111111000000000000000000000000000000011111111001111111111110000000000000000000000111111111111
11111111111111111111111111111110010000000000000000000000000001111111111111111111111111111100111111111111111111111111111111111111111111111111000000000000000000000000000000011111111001111111111100000000000000000000001111111111111
11111111111111111111111111111110010000000000000000000000000001111111111111111111111111111100111111111111111111111111111111111111111111111111000000000000000000000000000000011111111001111111111000000000000000000000011111111111111
11111111111111111111111111111110010000000000000000000000000001111111111111111111111111111100111111111111111111111111111111111111111111111111000000000000000000000000000000011111111001111111110000000000000000000000111111111111111
11111111111111111111111111111110010000000000000000000000000001111111111111111111111111111100111111111111111111111111111111111111111111111111000000000000000000000000000000011111111001111111100000000000000000000001111111111111111
11111111111111111111111111111110010000000000000000000000000001111111111111111111111111111100111111111111111111111111111111111111111111111111000000000000000000000000000000011111111001111111000000000000000000000011111111111111111
11111111111111111111111111111110010000000000000000000000000001111111111111111111111111111100111111111111111111111111111111111111111111111111000000000000000000000000000000011111111001111110000000000000000000000111111111111111111
11111111111111111111111111111110010000000000000000000000000001111111111111111111111111111100000000000000000000000000000000000000000000000000000000000000000000000000000000000000000000000000000000000000000000000000001111111111111
11111111111111111111111111111110010000000000000000000000000001111111111111111111111111111100000000000000000000000000000000000000000000000000000000000000000000000000000000000000000000000000000000000000000000000000001111111111111
11111111111111111111111111111110010000000000000000000000000001111111111111111111111111111111111111111111111111111111100000000000000000000000000000000000000000000000000000011111111111110000000000000000000000111111101111111111111
11111111111111111111111111111110010000000000000000000000000001111111111111111111111111111111111111111111111111111111100000000000000000000000000000000000000000000000000000011111111111100000000000000000000001111111101111111111111
11111111111111111111111111111110010000000000000000000000000001111111111111111111111111111111111111111111111111111111100000000000000000000000000000000000000000000000000000011111111111000000000000000000000011111111101111111111111
11111111111111111111111111111110010000000000000000000000000001111111111111111111111111111111111111111111111111111111100000000000000000000000000000000000000000000000000000011111111110000000000000000000000111111111101111111111111
11111111111111111111111111111110010000000000000000000000000001111111111111111111111111111111111111111111111111111111100000000000000000000000000000000000000000000000000000011111111100000000000000000000001111111111101111111111111
11111111111111111111111111111110011111111111111011111111111111111111111111111111111111111111111111111111111111111111100000000000000000000000000000000000000000000000000000011111111000000000000000000000011111111111101111111111111
11111111111111111111111111111110011111111111111011111111111111111111111111111000000000000000000111111111111111111111100000000000000000000000000000000000000000000000000000011111110000000000000000000000111111111111101111111111111
11111111111111111111111111111110011111111111111011111111111111111111111111111000000000000000000111111111111111111111100000000000000000000000000000000000000000000000000000011111100000000000000000000001111111111111101111111111111
11111111111111111111111111111110011111111111111011111111111111111111111111111000000000000000000111111111111111111111100000000000000000000000000000000000000000000000000000011111000000000000000000000011111111111111101111111111111
11111111111111111111111111111110011111111111111011111111111111111111111111111000000000000000000111111111111111111111100000000000000000000000000000000000000000000000000000011110000000000000000000000111111111111111101111111111111
11111111111111111111111111111110011111111111111011111111111111111111111111111000000000000000000111111111111111111111100000000000000000000000000000000000000000000000000000011100000000000000000000001111111111111111101111111111111
11111111111111111111111111111110011111111111111011111111111111111111111111111000000000000000000111111111111111111111100000000000000000000000000000000000000000000000000000011000000000000000000000011111111111111111101111111111111
11111111111111111111111111111110011111111111111011111111111111111111111111111000000000000000000111111111111111111111100000000000000000000000000000000000000000000000000000010000000000000000000000111111111111111111101111111111111
11111111111111111111111111111110011111111111111011111111111111111111111111111000000000000000000111111111111111111111100000000000000000000000000000000000000000000000000001100000000000000000000001111111111111111111101111111111111
11111111111111111111111111111110011111111111111011111111111111111111111111111000000000000000000111111111111111111111100000000000000000000000000000000000000000000000000001111111111111111111111111111111111111111111101111111111111
11111111111111111111111111111110011111111111111011111111111111111111111111111000000000000000000111111111111111111111100000000000000000000000000000000000000000000000000001111111111100000000000000000011111111111111101111111111111
11111111111111111111111111111110011111111111111011111111111111111111111111111000000000000000000111111111111111111111100000000000000000000000000000000000000000000000000001111111111000000000000000000111111111111111101111111111111
11111111111111111111111111111110011111111111111011111111111111111111111111111000000000000000000111111111111111111111100000000000000000000000000000000000000000000000000001111111110000000000000000001111111111111111101111111111111
11111111111111111111111111111110011111111111111011111111111111111111111111111000000000000000000111111111111111111111100000000000000000000000000000000000000000000000000001111111100000000000000000011111111111111111101111111111111
11111111111111111111111111111110011111111111111011111111111111111111111111111000000000000000000111111111111111111111100000000000000000000000000000000000000000000000000000000000000000000000000000111111111111111111101111111111111
11111111111111111111111111111110011111111111111000000000000000000000000000000000000000000000000111111111111111111111100000000000000000000000000000000000000000000000000000000000000000000000000001111111111111111111101111111111111
11111111111111111111111111111110011111111111111000000000000000000000000000000000000000000000000111111111111111111111100000000000000000000000000000000000000000000000000000000000000000000000000011111111111111111111101111111111111
11111111111111111111111111111110011111111111111111111111111111111111111111111000000000000000000111111111111111111111100000000000000000000000000000000000000000000000000000000000000000000000000111111111111111111111101111111111111
11111111111111111111111111111110011111111111111111111111111111111111111111111000000000000000000111111111111111111111100000000000000000000000000000000000000001111100000000000000000000000000001111111111111111111111101111111111111
11111111111111111111111111111110011111111111111111111111111111111111111111111000000000000000000111111111111111111111100000000000000000000000000000000000000001111110000000000000000000000000011111111111111111111111101111111111111
11111111111111111111111111111110011111111111111111111111111111111111111111111000000000000000000111111111111111111111100000000000000000000000000000000000000001111111000000000000000000000000111111111111111111111111101111111111111
11111111111111111111111111111110011111111111111111111111111111111111111111111000000000000000000111111111111111111111100000000000000000000000000000000000000001111111100000000000000000000001111111111111111111111111101111111111111
11111111111111111111111111111110011111111111111111111111111111111111111111111000000000000000000111111111111111111111100000000000000000000000000000000000000001111111110000000000000000000011111111111111111111111111101111111111111
11111111111111111111111111111110011111111111111111111111111111111111111111111000000000000000000111111111111111111111100000000000000000000000000000000000000001111111111000000000000000000011111111111111111111111111101111111111111
11111111111111111111111111111110011111111111111111111111111111111111111111111000000000000000000111111111111111111111100000000000000000000000000000000000000000000000000000000000000000000000000000000000000000000000001111111111111
11111111111111111111111111111110011111111111111111111111111111111111111111111000000000000000000111111111111111111111100000000000000000000000000000000000000000000000000000000000000000000000001111111111111111111111111111111111111
11111111111111111111111111111110011111111111111111111111111111111111111111111000000000000000000111111111111111111111100000000000000000000000000000000000000001111111000000000000000000000000011111111111111111111111111111111111111
11111111111111111111111111111110011111111111111111111111111111111111111111111000000000000000000111111111111111111111100000000000000000000000000000000000000001111110000000000000000000000000001111111111111111111111111111111111111
11111111111111111111111111111110011111111111111111111111111111111111111111111000000000000000000111111111111111111111100000000000000000000000000000000000000001111100000000000000000000000000000111111111111111111111111111111111111
11111111111111111111111111111110011111111111111111111111111111111111111111111000000000000000000111111111111111111111100000000000000000000000000000000000000001111000000000000000000000000000000011111111111111111111111111111111111
11111111111111111111111111111110011111111111111111111111111111111111111111111111111111111111111111111111111111111111100000000000000000000000000000000000000001110000000000000000000000000000000001111111111111111111111111111111111
11111111111111111111111111111110011111111111111111111111111111111111111111111111111111111111111111111111111111111111100000000000000000000000000000000000000001100000000000000000000000000000000000111111111111111111111111111111111
11111111111111111111111111111110011111111111111111111111111111111111111111111111111111111111111111111111111111111111100000000000000000000000000000000000000001000000000000000000000000000000000000011111111111111111111111111111111
11111111111100000000000000000000000000000000000000111111111111111111111111111111111111111111111111111111111111111111111111111111111111111111111111111111111110000000000000000001100000000000000000001111111111111111111111111111111
11111111111100000000000000000000000000000000000000111111111111111111111111111111111111111111111111111111111111111111111111111111111111111111111111111111111100000000000000000011111111111111111111111111111111111111111111111111111
11111111111100000000000000000000000000000000000000111111111111111111111111111111111111111111111111111111111111111111111111111111111111111111111111111111111000000000000000000111111111111111111111111111111111111111111111111111111
11111111111100000000000000000000000000000000000000111111111111111111111111111111111111111111111111111111111111111111111111111111111111111111111111111111110000000000000000001111111111111111111111111111111111111111111111111111111
11111111111100000000000000000000000000000000000000111111111111111111111111111111111111111111111111111111111111111111111111111111111111111111111111111111100000000000000000011111111111111111111111111111111111111111111111111111111
11111111111100000000000000000000000000000000000000111111111111111111111111111111111111111111111111111111111111111111111111111111111111111111111111111111000000000000000000111111111111111111111111111111111111111111111111111111111
11111111111100000000000000000000000000000000000000111111111111111111111111111111111111111111111111111111111111111111111111111111111111111111111111111110000000000000000001111111111111111111111111111111111111111111111111111111111
11111111111100000000000000000000000000000000000000111111111111111111111111111111111111111111111111111111111111111111111111111111111111111111111111111111111111111111111111111111111111111111111111111111111111111111111111111111111
11111111111111111111111111111111111111111111111111111111111111111111111111111111111111111111111111111111111111111111111111111111111111111111111111111111111111111111111111111111111111111111111111111111111111111111111111111111111
11111111111111111111111111111111111111111111111111111111111111111111111111111111111111111111111111111111111111111111111111111111111111111111111111111111111111111111111111111111111111111111111111111111111111111111111111111111111
11111111111111111111111111111111111111111111111111111111111111111111111111111111111111111111111111111111111111111111111111111111111111111111111111111111111111111111111111111111111111111111111111111111111111111111111111111111111
11111111111111111111111111111111111111111111111111111111111111111111111111111111111111111111111111111111111111111111111111111111111111111111111111111111111111111111111111111111111111111111111111111111111111111111111111111111111
11111111111111111111111111111111111111111111111111111111111111111111111111111111111111111111111111111111111111111111111111111111111111111111111111111111111111111111111111111111111111111111111111111111111111111111111111111111111
11111111111111111111111111111111111111111111111111111111111111111111111111111111111111111111111111111111111111111111111111111111111111111111111111111111111111111111111111111111111111111111111111111111111111111111111111111111111
11111111111111111111111111111111111111111111111111111111111111111111111111111111111111111111111111111111111111111111111111111111111111111111111111111111111111111111111111111111111111111111111111111111111111111111111111111111111
11111111111111111111111111111111111111111111111111111111111111111111111111111111111111111111111111111111111111111111111111111111111111111111111111111111111111111111111111111111111111111111111111111111111111111111111111111111111
11111111111111111111111111111111111111111111111111111111111111111111111111111111111111111111111111111111111111111111111111111111111111111111111111111111111111111111111111111111111111111111111111111111111111111111111111111111111
11111111111111111111111111111111111111111111111111111111111111111111111111111111111111111111111111111111111111111111111111111111111111111111111111111111111111111111111111111111111111111111111111111111111111111111111111111111111
11111111111111111111111111111111111111111111111111111111111111111111111111111111111111111111111111111111111111111111111111111111111111111111111111111111111111111111111111111111111111111111111111111111111111111111111111111111111
