11111111111111111111111111111111111111111111111111111111111111111111111111111111111111111111111111111111111111111111111111111111111111111111111111111111111111111111111111111111111111111111111111111111111111111111111111111111111
11111111111111111111111111111111111111111111111111111111111111111111111111111111111110000111111111111111111111111111111111111111111111111111111111111111111111111111111111111111111111111111111111111111111111111111111111111111111
11111111111111111111111111111111111111111111111111111111111111111111111111111111111110000111111111111111111111111111111111111111111111111111111111111111111111111111111111111111111111111111111111111111111111111111111111111111111
11111111111111111111111111111111111111111111111111111111111111111111111111111111111110000111111111111111111111111111111111111111111111111111111111111111111111111111111111111111111111111111111111111111111111111111111111111111111
11111111111111111111111111111111111111111111111111111111111111111111111111111111111110000111111111111111111111111111111111111111111111111111111111111111111111111111111111111111111111111111111111111111111111111111111111111111111
11111111111111111111111111111111111111111111111111111111111111111111111111111111111110000111111111111111111111111111111111111111111111111111111111111111111111111111111111111111111111111111111111111111111111111111111111111111111
11111111111111111111111111111111111111111111111111111111111111111111111111111111111110000111111111111111111111111111111111111111111111111111111111111111111111111111111111111111111111111111111111111111111100000000001111111111111
11111111111111111111111111111111111111111111111111111111111111111111111111111111111110000111111111111111111111111111111111111111111111111111111111111111111111111111111111111111111111111111111111111111111100000000001111111111111
11111111111111111111111111111111111111111111111111111111111111111111111111111111111110000111111111111111111111111111111111111111111111111111111111111111111111111111111111111111111111111111111111111111111100000000001111111111111
11111111111111111111111111111111111111111111111111111111111111111111111111111111111110000111111111111111111111111111111111111111111111111111110000000000000000001111111111111111111111111111111111111111111100000000001111111111111
11111111111111111111111111111111111111111111111111111111111111111111111111111111111110000111111111111111111111111111111111111111111111111111110000000000000000001111111111111111111111111111111111111111111100000000001111111111111
11111111111111111111111111111111111111111111111111111111111111111111111111111111111110000111111111111111111111111111111111111111111111111111110000000000000000001111111111111111111111111111111111111111111100000000001111111111111
11111111111111111111111111111111111111111111111111111111110000000000000000000000000000000000000000000000000000000000000000000000000000000000000000000000000000001111111111111111111111111111111111111111111100000000001111111111111
11111111111111111111111111111111111111111111111111111111110000000000000000000000000000000000000011111111111111111111111111111111111111111111110000000000000000001111111111111111111111111111111111111111111100000000001111111111111
11111111111111111111111111111111111111111111111111111111110011111111111111111111111110000111111011111111111111111111111111111111111111111111110000000000000000001111111111111111111111111111111111111111111100000000001111111111111
11111111111111111111111111111111111111111111111111111000000000000000000000000000001110000111111011111111111111111111111111111111111111111111110000000000000000001111111111111111111111111111111111111111111100000000001111111111111
11111111111111111111111111111111111111111111111111111100000000000000000000000000000110000111111011111111111111111111111111111111111111111111110000000000000000001111111111111111111111111111111111111111111100000000001111111111111
11111111111111111111111111111111111111111111111111111110000000000000000000000000000010000111111011111111111111111111111111111111111111111111110000000000000000001111111111111111111111111111111111111111111100000000001111111111111
11111111111111111111111111111111111111111111111111111111000000000000000000000000000000000111111011111111111111111111111111111111111111111111110000000000000000001111111111111111111111111111111111111111111100000000001111111111111
11111111111111111111111111111111111111111111111111111111100000000000000000000000000000000111111011111111111111111111111111111111111111111111110000000000000000001111111111111111111111111111111111111111111100000000001111111111111
11111111111111111111111111111111111111111111111111111111110000000000000000000000000000000111111011111111111111111111111111111111111111111111110000000000000000001111111111111111111111111111111111111111111100000000001111111111111
11111111111111111111111111111111111111111111111111111111110000000000000000000000000000000111111011111111111111111111111111111111111111111111110000000000000000001111111111111111111111111111111111111111111111111001111111111111111
11111111111111111111111111111111111111111111111111111111110000000000000000000000000000000111111011111111111111111111111111111111111111111111110000000000000000001111111111111111111111111111111111111111111111111001111111111111111
11111111111111111111111111111111111111111111111111111111110010000000000000000000000000000000000000000001111111111111111111111111111111111111110000000000000000001111111111111111111111111111111111111111111111111001111111111111111
11111111111111111111111111111111111111111111111111111111110011000000000000000000000000000000000000000000111111111111111111111111111111111111110000000000000000001111111111111111111111111111111111111111111111111001111111111111111
11111111111111111111111111111111111111111111111111111111110011100000000000000000000000000000000000000000011111111111111111111111111111111111110000000000000000001111111111111111111111111111111111111111111111111001111111111111111
11111111111111111111111111111111111111111111111111111111110011110000000000000000000000000000000000000000001111111111111111111111111111111111110000000000000000000000000000000000000001111111111111111111111111111001111111111111111
11111111111111111111111111111111111111111111111111111111110011111000000000000000000000000000000000000000000111111111111111111111111111111111110000000000000000000000000000000000000001111111111111111111111111111001111111111111111
11111111111111111111111111111111111111111111111111111111110011111100000000000000000000000000000000000000000011111111111111111111111111111111110000000000000000000000000000000000000001111111111111111111111111111001111111111111111
11111111111111111111111111111111111111111111111111111111110011111110000000000000000000000000000000000000000001111111111111111111111111111111110000000000000000000000000000000000000001111111111111111111111111111001111111111111111
11111111111111111111111111111111111111111111111111111111110011111111000000000000000000000000000000000000000000111111111111111111111111111111110000000000000000000000000000000000000001111111111100000000000000000000011111111111111
11111111111111111111111111111111111111111111111111111111110011111111100000000000000000000000000000000000000000011111111111111111111111111111111111111100000000000000000000000000000001111111111100000000000000000000011111111111111
11111111111111111111111111111111111111111111111111111111110011111111110000000000000000000000000000000000000000001111111111111111111111111111111111111100000000000000000000000000000001111111111100000000000000000000011111111111111
11111111111111111111111111111111111111111111111111111111110011111111111000000000000000000000000000000000000000000000000000000000000000000000000111111100000000000000000000000000000001111111111100000000000000000000011111111111111
11111111111111111111111111111111111111111111111111111111110011111111111100000000000000000000000000000000000000000000000000000000000000000000000011111100000000000000000000000000000001111111110000000000000000000000011111111111111
11111111111111111111111111111111111111111111111111111111110011111111111110000000000000000000000000000000000000000000000000000000000000000000000001111100000000000000000000000000000001111111110000000000000000000000011111111111111
11111111111111111111111111111111111111111111111111111111110011111111111111000000000000000000000000000000000000000000000000000000000000000000000000111100000000000000000000000000000001111111110000000000000000000000011111111111111
11111111111111111111111111111111111111111110000000000000000000000000000000100000000000000000000000000000000000000000000000000000000000000000000000011100000000000000000000000000000001111111110000000000000000000000011111111111111
11111110000000000000000000000000000000001100000000000000000000000000000001110000000000000000000000000000000000000000000000000000000000000000000000001100000000000000000000000000000001111111110011111111110111111111111111111111111
11111110000000000000000000000000000000001000000000000000000000000000000011111111111111111111111011111110000000000000000000000000000000000000000000000100000000000000000000000000000001111111110011111111110111111111111111111111111
11111110000000000000000000000000000000000000000000000000000000000000000111111111111111111111111011111111000000000000000000000000000000000000000000000000011111111111111111111111111111111111110011111111110111111111111111111111111
11111110000000000000000000000000000000000000000000000000000000000000001111111111111111111111111111111111100000000000000000000000000000000000000000000000111111111111111111111111111111111111110011111111110111111111111111111111111
11111110000000000000000000000000000000000000000000000000000000000000011111111111111111111111111111111111110000000000000000000000000000000000000000000000111111111111111111111111111111111111110011111111110111111111111111111111111
11111110000000000000000000000000000000000000000000000000000000000000111111111111111111111111111111111111111000000000000000000000000000000000000000000000011111111111111111111111111111111111110011111111110111111111111111111111111
11111110000000000000000000000000000000000000000000000000000000000000000000000000000000000011111111111111111100000000000000000000000000000000000000000000001111111111111111111111111111111111110011111111110111111111111111111111111
11111110000000000000000000000000000000000000000000000000000000000000000000000000000000000011111111111111111110000000000000000000000000000000000000000000000111111111111111111111111111111111110011111111110111111111111111111111111
11111110000000000000000000000000000000000000000000000000000000000000000000000000000000000011111111111111111111000000000000000000000000000000000000000000000011111111111111111111111111111111110011111111110111111111111111111111111
11111110000000000000000000000000000000000000000000000000000000000000000000000000000000000011111111111111111111100000000000000000000000000000000000000000000001111111111111111111111111111111110000000000000000000000001111111111111
11111110000000000000000000000000000000000000000000000000000000000000000000000000000000000011111111111111111111110000000000000000111111111111111111111111111111111111111111111111111111111111100000000000000000000000011111111111111
11111110000000000000000000000000000000000000000000000000000000000000000000000000000000000011111111111111111111111000000000000000011111111111111111111111111111111111111111111111111111111111000000000000000000000000111111111111111
11111110000000000000000000000000000000000000000000000000000000000000000000000000000000000011111111111111111111111100000000000000001111111111111111111111111111111111111111111111111111111110000000000000000000000001111111111111111
11111110000000000000000000000000000000000000000000000000000000000000000000000000000000000011111111111111111111111110000000000000000111111111111111111111111111111111111111111111111111111100000000000000000000000011111111111111111
11111110000000000000000000000000000000000000000000000000000000000000000000000000000000000011111111111111111111111111000000000000000011111111111111111111111111111111111111111111111111111000000000000000000000000111111111111111111
11111110000000000000000000000000000000000000000000000000000000000000000000000000000000000011111111111111111111111111100000000000000001111111111111111111111111111111111111111111111111110000000000000000000000001111111111111111111
11111110000000000000000000000000000000000000000000000000000000000000000000000000000000000011111111111111111111111111110000000000000000111111111111111111111111111111111111111111111111111111110011111111111111111111111111111111111
11111110000000000000000000000000000000000000000000000000000000000000000000000000000000000011111111111111111111111111111000000000000000011111111111111111111111111111111111111111111111111111110011111111111111111111111111111111111
11111110000000000000000000000000000000000000000000000000000000000000000000000000000000000000000000000011111111111111111100000000000000001111111111111111111111111111111111111111111111111111110011111111111111111111111111111111111
11111110000000000000000000000000000000000000000000000000000000000000000000000000000000000000000000000001111111111111111110000000000000000111111111111111111111111111111111111111111111111111110011111111111111111111111111111111111
11111110000000000000000000000000000000000000000000000000000000000000000000000000000000000000000000000000111111111111111111111111111111111111111111111111111111111111111111111111111111111111110011111111111111111111111111111111111
11111110000000000000000000000000000000000000000000000000000000000000000000000000000000000000000000000000011111111111111111111111111111111111111111111111111111111111111111111111111111111111110011111111111111111111111111111111111
11111110000000000000000000000000000000000000000000000000000000000000000000000000000000000000000000000000001111111111111111111111111111111111111111111111111111111111111111111111111111111111110011111111111111111111111111111111111
11111110000000000000000000000000000000000000000000000000000000000000000000000000000000000000000000000000000111111111111111111111111111111111111111111111111111111111111111111111111111111111110011111111111111111111111111111111111
11111110000000000000000000000000000000000000000000000000000000000000000000000000000000000000000000000000000011111111111111111111111111111111111111111111111111111111111111111111111111111111000001111111111111111111111111111111111
11111110000000000000000000000000000000000000000000000000000000000000000000000000000000000000000000000000000001111111111111111111111111111111111111111111111111111111111111111111111111111110000011111111111111111111111111111111111
11111110000000000000000000000000000000000000000000000000000000000000000000000000000000000000000000000000000000111111111111111111111111111111111111111111111111111111111111111111111111111100000011111111111111111111111111111111111
11111110000000000000000000000000000000000000001000000000000000000000000000000000000000000000000000000000000000011111111111111111111111111111111111111111111111111111111111111111111111111000000011111111111111111111111111111111111
11111110000000000000000000000000000000000000011000000000000000000000000000000000000000000000000000000000000000001111111111111111111111111111111111111111111111111111111111111111111111110000010011111111111111111111111111111111111
11111110000000000000000000000000000000000000111000000000000000000000000000000000000000000000000000000000000000000111111111111111111111111111111111111111111111111111111111111111111111100000110011111111111111111111111111111111111
11111110000000000000000000000000000000000001111000000000000000000000000000000000000000000000000000000000000000000011111111111111111111111111111111111111111111111111111111111111111111000001110011111111111111111111111111111111111
11111111111000000000000000000000000000000011111000000000000000000000000000000000000000000000000000000000000000000001111111111111111111111111111111111111111111111111111111111111111110000011110011111111111111111111111111111111111
11111111110000000000000000000000000000000111111000000000000000000000000000000000000000000000000000000000000000000000111111111111111111111111111111111111111111111111111111111111111100000111110011111111111111111111111111111111111
11111111111110011111111111111111111111111111111000000000000000000000000000000000000000000000000000000000000000000000011111111111111111111111111111111111111111111111111111111111111000001111110011111111111111111111111111111111111
11111111111110011111111111111111111111111111111000000000000000000000000000000000000000000000000000000000000000000000001111111111111111111111111111111111111111111111111111111111110000011111110011111111111111111111111111111111111
11111111111110011111111111111111111111111111111000000000000000000000000000000000000000000000000000000000000000000000000111111111111111111111111111111111111111111111111111111111100000111111110011111111111111111111111111111111111
11111111111110011111111111111111111111111111111111000000000000000000000000000000000000000000000000000000000000000000000011111111111111111111111111111111111111111111111111111111000001111111110011111111111111111111111111111111111
11111111111110011111111111111111111111111111111111000000000000000000000000000000000000000000000000000000000000000000000001111111111111111111111111111111111111111111111111111110000011111111110011111111111111111111111111111111111
11111111111110011111111111111111111111111111111111000000000000000000000000000000000000000011111111111111111111111111111111111111111111111111111111111111111111111111111111111100000111111111110011111111111111111111111111111111111
11111111111110011111111111111111111111111111111111000000000000000000000000000000000000000011111111111111111111111111111111111111111111111111111111111111111111111111111111111000001111111111110011111111111111111111111111111111111
11111111111110011111111111111111111111111111111111000000000000000000000000000000000000000011111111111111111111111111111111111111111111111111111111111111111111111111111111110000011111111111110011111111111111111111111111111111111
11111111111110011111111111111111111111111111111111000000000000000000000000000000000000000011111111111111111111111111111111111111111111111111111111111111111111111111111111100000111111111111110011111111111111111111111111111111111
11111111111110011111111111111111111111111111111111000000000000000000000000000000000000000011111111111111111111111111111111111111111111111111111111111111111111111111111111000001111111111111110011111111111111111111111111111111111
11111111111110011111111111111111111111111111111111000000000000000000000000000000000000000011111111111111111111111111111111111111111111111111111111111111111111111111111110000011111111111000000011111111111111111111111111111111111
11111111111110011111111111111111111111111111111111000000000000000000000000000000000000000011111111111111111111111111111111111111111111111111111111111111111111111111111100000111111111111000000011111111111111111111111111111111111
11111111111110011111111111111111111111111111111111000000000000000000000000000000000000000011111111111111111111111111111111111111111111111111111111111111111111111111111000001111111111111011110011111111111111111111111111111111111
11111111111110011111111111111111111111111111111111111111111111111111111111111111111111011111111111111111111111111111111111111111111111111111111111111111111111111111110000011111111111111011110011111111111111111111111111111111111
11111111111110011111111111111111111111111111111111111111111111111111111111111111111111011111111111111111111111111111111111111111111111111111111111111111111111111111100000111111111111111011110011111111111111111111111111111111111
11111111111110011111111111111111111111111111111111111111111111111111111111111111111111011111111111111111111111111111111111111111111111111111111111111111111111111111000001111111111111111011110011111111111111111111111111111111111
11111111111110011111111111111111111111111111111111111111111111111111111111111111111111011111111111111111111111111111111111111111111111111111111111111111111111111110000011111111111111111011110011111111111111111111111111111111111
11111111111110011111111111111111111111111111111111111111111100000000000000000000000000000000000000111111111111111111111111111111111111111111111111111111111111111100000111000000000000000011110011111111111111111111111111111111111
11111111111110011111111111111111111111111111111111111111111100000000000000000000000000000000000000111111111111111111111111111111111111111111111111111111111111111000001111000000000000000011110011111111111111111111111111111111111
11111111111110011111111111111111111111111111111111111111111100000000000000000000000000000000000000111111111111111111111111111111111111111111111111111111111111110000011111000000000000000011110011111111111111111111111111111111111
11111111111110011111111111111111111111111111111111111111111100000000000000000000000000000000000000111111111111111111111111111111111111111111111111111111111111100000111111000000000000000011110011111111111111111111111111111111111
11111111111110011111111111111111111111111111111111111111111100000000000000000000000000000000000000111111111111111111111111111111111111111111111111111111111111000001111111000000000000000000000000000001111111111111111111111111111
11111111111110011111111111111111111111111111111111111111111100000000000000000000000000000000000000111111111111111111111111111111111111111111111111111111111110000011111111000000000000000000000000000000111111111111111111111111111
11111111111110011111111111111111111111111111111111111111111100000000000000000000000000000000000000111111111111111111111111111111111111111111111111111111111100000111111111000000000000000010000000000000011111111111111111111111111
11111111111110011111111111111111111111111111111111111111111100000000000000000000000000000000000000111111111111111111111111111111111111111111111111111111111000001111111111000000000000000011000000000000001111111111111111111111111
11111111111110011111111111111111111111111111111111111111111100000000000000000000000000000000000000111111111111111111111111111111111111111111111111111111110000011111111111000000000000000011100000000000000111111111111111111111111
11111111111110011111111111111111111111111111111111111111111100000000000000000000000000000000000000111111111111111111111111111111111111111111111111111111100000111111111111000000000000000011110000000000000011111111111111111111111
11111111111110011111111111111111111111111111111111111111111100000000000000000000000000000000000000111111111111111111111111111111111111111111111111111111000001111111111111000000000000000011110000000000000001111111111111111111111
11111111111110011111111111111111111111111111111111111111111100000000000000000000000000000000000000111111111111111111111111111111111111111111111111111110000011111111111111000000000000000011110000000000000000111111111111111111111
11111111111110011111111111111111111111111111111111111111111100000000000000000000000000000000000000111111111111111111111111111111111111111111111111111111111111111111111111000000000000000011110010000000000000011111111111111111111
11111111111110011111111111111111111111111111111111111111111100000000000000000000000000000000000000111111111111111111111111111111111111111111111111111111111111111111111111000000000000000011110011000000000000001111111111111111111
11111111111110011111111111111111111111111111111111111111111100000000000000000000000000000000000000111111111111111111111111111111111111111111111111111111111111111111111111000000000000000011110011100000000000000111111111111111111
11111111111110011111111111111111111111111111111111111111111100000000000000000000000000000000000000111111111111111111111111111111111111111111111111111111111111111111111111000000000000000011110011110000000000000011111111111111111
11111111111110011111111111111111111111111111111111111111111100000000000000000000000000000000000000111111111111111111111111111111111111111111111111111111111111111111111111000000000000000011110011111000000000000001111111111111111
11111111111110011111111111111111111111111111111111111111111100000000000000000000000000000000000000111111111111111111111111100000000000000000111111111111111111111111111111000000000000000011110000111100000000000000111111111111111
11111111111110011111111111111111111111111111111111111111111111111111111111111111111111111111111111111111111111111111111111100000000000000000111111111111111111111111111111000000000000000000000000111110000000000000011111111111111
11111111111110011111111111111111111111111111111111111111111111111111111111111111111111111111111111111111111111111111111111100000000000000000111111111111111111111111111111000000000000000000000001111111000000000000001111111111111
11111111111110011111111111111111111111111111111111111111111111111111111111111111111111111111000000000000000000000011111111100000000000000000111111111111111111111111111111000000000000000011110011111111100000000000000111111111111
11111111111110011111111111111111111111111111111111111111111111111111111111111111111111111111000000000000000000000011111111100000000000000000111111111111111111111111111111000000000000000011110011111111110000000000000011111111111
11111111111110011111111111111111111111111111111111111111111111111111111111111111111111111111000000000000000000000011111111111111111001111111111111111111111111111111111111000000000000000011110011111111111000000000000001111111111
11111111111110011111111111111111111111111111111111111111111111111111111111111111111111111111000000000000000000000011111111111111111001111111111111111111111111111111111111000000000000000011110011111111111100000000000000111111111
11111111111110011111111111111111111111111111111111111111111111111111111111111111111111111111000000000000000000000011111111111111111001111111111111111111111111111111111111000000000000000011110011111111111110000000000000011111111
11111111111110011111111111111111111111111111111111111111111111111111111111111111111111111111000000000000000000000011111111111111111001111111111111111111111111111111111111000000000000000011110011111111111111000000000000001111111
11111111111110011111111111111111111111111111111111111111111111111111111111111111111111111111000000000000000000000011111111111111111001111111111111111111111111111111111111000000000000000011110011111111111111100000000000000111111
11111111111110011111111111111111111111111111111111111111111111111111111111111111111111111111000000000000000000000011111111111111111001111111111111111111111111111111111111000000000000000011110011111111111111110000000000000011111
11111111111110011111111111111111111111111111111111111111111111111111111111111111111111111111000000000000000000000011111111111111111001111111111111111111111111111111111111000000000000000011110011111111111111111000000000000001111
11111111111110011111111111111111111111111111111111111111111111111111111111111111111111111111000000000000000000000011111111111111111001111111111111111111111111111111111111000000000000000011110011111111111111111100000000000000111
11111111111110011111111111111111111111111111111111111111111111111111111111111111111111111111000000000000000000000011111111111111111001111111111111111111111111111111111111000000000000000011110011111111111111111110000000000000011
11111111111110011111111111111111111111111111111111111111111111111111111111111111111111111111000000000000000000000011111111111111111001111111111111111111111111111111111111000000000000000011110011111111111111111111111111111111111
11111111111110011111111111111111111111111111111111111111111111111111111111111111111111111111000000000000000000000011111111111111111001111111111111111111111111111111111111000000000000000011110011111111111111111111111111111111111
11111111111110011111111111111111111111111111111111111111111111111111111111111111111111111111000000000000000000000011111111111111111001111111111111111111111111111111111111000000000000000011110011111111111111111111111111111111111
11111111111110011111111111111111111111111111111111100000000000000000000000000000000000000011000000000000000000000011111111111111111001111111111111111111111111111111111111000000000000000011110011111111111111111111111111111111111
11111111111110011111111111111111111111111111111111000000000000000000000000000000000000000001000000000000000000000011111111111111111001111111111111111111111111111111111111000000000000000011110011111111111111111111111111111111111
11111111111110011111111111111111111111111111111110000000000000000000000000000000000000000000000000000000000000000011111111111111111001111111111110000000000000000000000011111111111111111011110011111111111111111111111111111111111
11111111111110011111111111111111111111111111111100000000000000000000000000000000000000000000000000000000000000000000000000000000000001111111111110000000000000000000000011111000000000000000000000000000000011111111111111111111111
11111111111110011111111111111111111111111111111000000000000000000000000000000000000000000000000000000000000000000000000000000000000011111111111110000000000000000000000000000000000000000000000000000000000001111111111111111111111
11111111111110011111111111111111111111111111110000000000000000000000000000000000000000000000000000000000000000000011111111111111111111111111111110000000000000000000000000000000000000000000000000000000000000111111111111111111111
11111111111110011111111111111111111111111111100000000000000000000000000000000000000000000000000000000000000000000011111111111111111111111111111110000000000000000000000000000000000000000000000000000000000000011111111111111111111
11111111111110000000000000000000000000000000000000000000000000000000000000000000000000000000000000000000000000000011111111111111111111111111111110000000000000000000000000000000000000000000000000000000000000001111111111111111111
11111111111110011111111111111111111111111110000000000000000000000000000000000000000000000000000000000000000000000011111111111111111111111111111110000000000000000000000000000000000000000000000000000000000000000111111111111111111
11111111111110011111111111111111111111111100000000000000000000000000000000000000000000000000000000000000000000000011111111111111111111111111111110000000000000000000000000000000000000000000000000000000000000000011111111111111111
11111111111110011111111111111111111111111000000000000000000000000000000000000000000000000000000000000000000000000011111111111111111111111111111110000000000000000000000000000000000000000000000000000000000000000001111111111111111
11111111111110011111111111111111111111110000000000000000000000000000000000000000000000000000000000000000000000000011111111111111111111111111111110000000000000000000000000000000000000000000000000000000000000000000111111111111111
11111111111110011111111111111111111111100000000000000000000000000000000000000000000000000000000000000000000000000011111111111111111111111111111110000000000000000000000000000000000000000000000000000000000000000000011111111111111
11111111111110011111111111111111111111000000000000000000000000000000000000000000000000000000000000000000000000000011111111111111111111111111111110000000000000000000000000000000000000000000000000000000000000000000001111111111111
11111111111110011111111111111111111110000000000000000000000000000000000010000000000000000000000000000000000000000011111111111111111111111111111110000000000000000000000000000000000000000000000000000000000000000000000000001111111
11111111111110011111111111111111111111111111111111111111111111111111111111000000000000000000000000000000000000000011111111111111111111111111111110000000000000000000000000000000000000000000000000000000000000000000000000000111111
11111111111110011111111111111111111111111111111111111111111111111111111111111111111111111001000000000000000000000011111111111111111111111111111110000000000000000000000000000000000000000000000000000000000000000000000000000011111
11111111111110011111111111111111111111111111111111111111111111111111111111111111111111111001000000000000000000000011111111111111111111111111111110000000000000000000000000000000000000000000000000000000000000000000000000000001111
11111111111110011111111111111111111111111111111111111111111111111111111111111111111111111001000000000000000000000011111111111111111111111111111110000000000000000000000000000000000000000000000000000000000000000000000000000000111
11111111111110011111111111111111111111111111111111111111111111111111111111111111111111111001000000000000000000000011111111111111111111111111111110000000000000000000000000000000000000000000000000000000000000000000000000000000011
11111111111110011111111111111111111111111111111111111111111111111111111111111111111111111001000000000000000000000011111111111111111111111111111110000000000000000000000000000000000000000000000000000000000000000000000000000000001
11111111111110011111111111111111111111111111111111111111111111111111111111111111111111111001111111111111111111111111111111111111111111111111111110000000000000000000000000000000000000000000000000000000000000000000000000000000000
11111111111110011111111111111111111111111111111111111111111111111111111111111111111111111001111111111111111111111111111111111111111111111111111110000000000000000000000000000000000000000000000000000000000000000000000000000000000
11111111111110011111111111111111111111111111111111111111111111111111111111111111111111111001111111111111111111111111111111111111111111111111111110000000000000000000000000000000000000000000000000000000000000000000000000000000000
11111111111110011111111111111111111111111111111111111111111111111111111111111111111111111001111111111111111111111111111111111111111111111111111110000000000000000000000000000000000000000000000000000000000000000000000000000000000
11111111111110011111111111111111111111111111111111111111111111111111111111111111111111111001111111111111111111111111111111111111111111111111111110000000000000000000000000000000000000000000000000000000000000000000000000000000000
11111111111110011111111111111111111111111111111111111111111111111111111111110000000000000000000000000001111111111111111111111111111111111111111110000000000000000000000000000000000000000000000000000000000000000011111111111111110
11111111111110011111111111111111111111111111111111111111111111111111111111110000000000000000000000000001111111111111111111111111111111111111111110000000000000000000000000000000000000000000000000000000000000000011111111111111110
11111111111110011111111111111111111111111111111111111111111111111111111111110000000000000000000000000001111111111111111111111111111111111111111110000000000000000000000000000000000000000000000000000000000000000011111111111111110
11111111111110011111111111111111111111111111111111111111111111111111111111110000000000000000000000000001111111111111111111111111111111111111111110000000000000000000000000000000000000000000000000000000000000000011111110011111110
11111111111110011111111111111111111111111111111111111111111111111111111111110000000000000000000000000001111111111111111111111111111111111111111110000000000000000000000000000000000000000000000000000000000000000011111110011111110
11111111111110011111111111111111111111111111111111111111111111111111111111110000000000000000000000000001111111111111111111111111111111111111111110000000000000000000000000000000000000000000000000000000000000000011111110011111110
11111111111110011111111111111111111111111111111111111111111111111111111111110000000000000000000000000001111111111111111111111111111111111111111110000000000000000000000000000000000000000000000000000000000000000011111110011111110
11111111111110011111111111111111111111111111111111111111111111111111111111110000000000000000000000000001111111111111111111111111111111111111111110000000000000000000000000000000000000000000000000000000000000000011111110011111110
11111111111110011111111111111111111111111111111111111111111111111111111111111111111111111111111111111111111111111111111111111111111111111111111111111111110000000000000000000000000000000000000000000000000000000011111110011111110
11111111111110011111111111111111111111111111111111111111111111111111111111111111111111111111111111111111111111111111111111111111111111111111111111111111110000000000000000000000000000000000000000000000000000000011111110011111110
11111111111110011111111111111111111111111111111111111111111111111111111111111111111111111111111111111111111111111111111111111111111111111111111111111111110000000000000000000000000000000000000000000000000000000011111110011111110
11111111111110011111111111111111111111111111111111111111111111111111111111111111111111111111111111111111111111111111111111111111111111111111111111111111110000000000000000000000000000000000000000000000000000000011111110011111110
11111111111110011111111111111111111111111111111111111111111111111111111111111111111111111111111111111111111111111111111111111111111111111111111111111111110000000000000000000000000000000000000000000000000000000011111110011111110
11111111111110011111111111111111111111111111111111111111111111111111111111111111111111111111111111111111111111111111111111111111111111111111111111111111110000000000000000000000000000000000000000000000000000000011111110011111110
11111111111110011111111111111111111111111111111111111111111111111111111111111111111111111111111111111111111111111111111111111111111111111111111111111111110000000000000000000000000000000000000000000000000000000011111110011111110
11111111111110011111111111111111111111111111111111111111111111111111111111111111111111111111111111111111111111111111111111111111111111111111111111111111110000000000000000000000000000000000000000000000000000000011111110011111110
11111111111110011111111111111111111111111111111111111111111111111111111111111111111111111111111111111111111111111111111111111111111111111111111111111111111111111111111111000000000000000000000000000000111111111111111110011111110
11111111111110011111111111111111111111111111111111111111111111111111111111111111111111111111111111111111111111111111111111111111111111111111111111111111111111111111111111000000000000000000000000000000000000000000000000011111110
11111000000000000000011111111111111111111111111111111111111111111111111111111111111111111111111111111111111111111111111111111111111111111111111111111111111111111111111111000000000000000000000000000000000000000000000000111111110
11111000000000000000011111111111111111111111111111111111111111111111111111111111111111111111111111111111111111111110000000000000000000000000000000000111111111111111111111000000000000000000000000000000111111111111111111111111111
11111000000000000000011111111111111111111111111111111111111111111111111111111111111111111111111111111111111111111111000000000000000000000000000000000011111111111111111111000000000000000000000000000000111111111111111111111111111
11111000000000000000011111111111111111111111111111111111111111111111111111111111111111111111111111111111111111111111100000000000000000000000000000000001111111111111111111000000000000000000000000000000111111111111111111111111111
11111000000000000000011111111111111111111111111111111111111111111111111111111111111111111111111111111111111111111111110000000000000000000000000000000000111111111111111111000000000000000000000000000000111111111111111111111111111
11111000000000000000000000000000000000000000000000000000000000000000000000000000000000000000000000000000000000000000000000000000000000000000000000000000000000000000000000000000000000000000000000000000111111111111111111111111111
11111000000000000000011110011111111111111111111111111111111111111111110011111111111111111111111111111111111111111111111100000000000000000000000000000000001111111111111111000000000000000000000000000000111111111111111111111111111
11111000000000000000011110011111111111111111111111111111111111111111110011111111111111111111111111111111111111111111111110000000000000000000000000000000000111111111111111000000000000000000000000000000111111111111111111111111111
11111000000000000000011110011111111111111111111111111111111111111111110011111111111111111111111111111111111111111111111111000000000000000000000000000000000011111111111111000000000000000000000000000000111111111111111111111111111
11111000000000000000011110011111111111111111111111111111111111111111110011111111111111111111111111111111111111111111111111100000000000000000000000000000000001111111111111000000000000000000000000000000111111111111111111111111111
11111111111111111111111110011111111111111111111111111111111111111111110011111111111111111111111111111111111111111111111111110000000000000000000000000000000000111111111111000000000000000000000000000000111111111111111111111111111
11111111111111111111111110011111111111111111111111111111111111111111110011111111111111111111111111111111111111111111111111111000000000000000000000000000000000011111111111000000000000000000000000000000111111111111111111111111111
11111111111111111111111110011111111111111111111111111111111111111111110011111111111111100000000000000001111111111111111111111100000000000000000000000000000000001111111111000000000000000000000000000000111111111111111111111111111
11111111111111111111111110011111111111111111111111111111111111111111110011111111111111100000000000000001111111111111111111111110000000000000000000000000000000000111111111111111111111111011111111111111111111111111111111111111111
11111111111111111111111110011111111111111111111111111111111111111111110011111111111111100000000000000001111111111111111111111111000000000000000000000000000000000011111111111111111111111011111111111111111111111111111111111111111
11111111111111111111111110011111111111111111111111111111111111111111110011111111111111100000000000000001111111111111111111111111100000000000000000000000000000000001111111111111111111111011111111111111111111111111111111111111111
11111111111111111111111110011111111111111111111111111111111111111111110011111111111111100000000000000001111111111111111111111111110000000000000000000000000000000000111111111111111111111011111111111111111111111111111111111111111
11111111111111111111111000011111111111111111111111111111111111111111110011111111111111100000000000000001111111111111111111111111111000000000000000000000000000000000011111111111111111111011111111111111111111111111111111111111111
11111111111111111111111000011111111111111111111111111111111111111111110011111111111111100000000000000001111110000000000000000000000000000000000000000000000000000000001111111111111111111011111111111111111111111111111111111111111
11111111111111111111111000011111111111111111111111111111111111111111110011111111111111100000000000000001111110000000000000000000000000000000000000000000000000000000000111111111111111111011111111111111111111111111111111111111111
11111111111111111111111000011111111111111111111111111111111111111111110011111111111111100000000000000001111110000000000000000000000000000000000000000000000000000000000011111111111111111011111111111111111111111111111111111111111
11111111111111111111111000011111111111111111111111111111111111111100000000011111111111100000000000000001111110000000000000000000000000100000000000000000000000000000000001111111111111111011111111111111111111111111111111111111111
11111111111111111111111000011111111111111111111111111111111111111000000000111111111111100000000000000001111110000000000000000000000000110000000000000000000000000000000000111111111111111011111111111111111111111111111111111111111
11111111111111111111111000011111111111111111111111111111111111110000000001111111111111100000000000000000000000000000000000000000000000111000000000000000000000000000000000011111111111111011111111111111111111111111111111111111111
11111111111111111111111000011111111111111111111111111111111111100000000011111111111111100000000000000000000000000000000000000000000000111100000000000000000000000000000000001111111111111011111111111111111111111111111111111111111
11111111111111111111111000011111111111111111111111111111111111000000000011111111111111111110000000000000000000000000000000000000000000111110000000000000000000000000000000000111111111111011111111111111111111111111111111111111111
11111111111111111111111000011111111111111111111111111111111110000000000011111111111111111110000000000000000000000000000000000000000000111111000000000000000000000000000000000011111111111011111111111111111111111111111111111111111
11111111111111111111111000011111111111111111111111111111111100000000010011111111111111111111111111111001111110000000000000000000000000111111100000000000000000000000000000000001111111111011111111111111111111111111111111111111111
11111111111111111111111000011111111111111111111111110000000000000000000000001111111111111111100000000000000000000000000000000000000000111111110000000000000000000000000000000000111111111011111111111111111111111111111111111111111
11111111111111111111111000011111111111111111111111111000000000000000000000000111111111111111110000000000000000000000000000000000000000111111111111111111111111111111111111111111111111111011111111111111111111111111111111111111111
11111111111111111111111000011111111111111111111111111100000000000000000000000011111111111111111000000000000000000000000000000000000000111111111111111111111111111111111111111111111111111011111111111111111111111111111111111111111
11111111111111111111111000011111111111111111111111111110000000000000000000000001111111111111111100000000000000000000000000000000000000111111111111111111111111111111111111111111111100000000000000000000000000000000001111111111111
11111111111111111111111000011111111111111111111111111110000000000000000000000000111111111111111110000000000000000000000000000000000000111111111111111111111111111111111111111111111100000000000000000000000000000000001111111111111
11111111111111111111111000011111111111111111111111111100000000000000000000000000011111111111111111000000000000000000000000000000000000111111111111111111111111111111111111111111111100000000000000000000000000000000001111111111111
11111111111111111111111000011111111111111111111111111000000000000000000000000000001111111111111111100000000000000000000000000000000000111111111111111111111111111111111111111111111100000000000000000000000000000000001111111111111
11111111111111111111111000011111111111111111111111110000000000000000000000000000000111111111111111110000000000000000000000000000000000111000000000000001111111111111111111111111111100000000000000000000000000000000001111111111111
11111111111111111111111000011111111111111111111111100000000000000000000000000000000011111111111111111000000000000000000000000000000000111000000000000001111111111111111111111111111100000000000000000000000000000000001111111111111
11111111111111111111111000011111111111111111111111000000000110000000000000000000000000000000000000000000000000000000000000000000000000111000000000000001111111111111111111111111111100000000000000000000000000000000001111111111111
11111111111111111111111000011111111111111111111110000000001111000000000000000000000000111111111111111110000000000000000000000000000000111000000000000001111111111111111111111111111100000000000000000000000000000000001111111111111
11111111111111111111111000011111111111111111111100000000011111100000000000000000000000011111111111111111000000000000000000000000000000111000000000000000000000000000000000000000000000000000000000000000000000000000001111111111111
11111111111111111111111000011111111111111111111000000000111111110000000000000000000000001111111111111111100000000000000000000000000000111000000000000001111111111111111111111111111100000000000000000000000000000000001111111111111
11111111111111111111111000011111111111111111110000000001111111110000000000000000000000000111111111111111110000000000000000000000000000111000000000000001111111111111111111111111111100000000000000000000000000000000001111111111111
11111111111111111111111000011111111111111111100000000011111111111100000000000000000000000011111111111111111000000000000000000000000000111000000000000001111111111111111111111111111100000000000000000000000000000000001111111111111
11111111111111111111111000011111111111111111000000000111111111110000000000000000000000000000000111111111111100000000000000000000000000111111111111111111111111111111111111111111111100000000000000000000000000000000001111111111111
11111111111111111111111000011111111111111110000000001111111111110000000000000000000000000000000111111111111110000000000000000000000000111111111111111111111111111111111111111111111100000000000000000000000000000000001111111111111
11111111111111111111111000011111111111111100000000011111111111110000000000000000000000000000000111111111111110000000000000000000000000111111111111111111111111111111111111111111111100000000000000000000000000000000001111111111111
11111111111111111111111000011111111111111000000000111111111111110000000000000000000000000000000111111111111111100000000000000000111111111111111111111111111111111111111111111111111100000000000000000000000000000000001111111111111
11111111111111111111111000011111111111110000000001111111111111110000000000000000000000000000000111111111111111111111111111111111111111111111111111111111111111111111111111111111111100000000000000000000000000000000001111111111111
11111111111111111111111000011111111111100000000011111111111111110000000000000000000000000000000011111111111111111111111111111111111111111111111111111111111111111111111111111111111100000000000000000000000000000000001111111111111
11111111111111111111111000011111111111000000000111111111111111110000000000000000000000000000000001111111111111111111111111111111111111111111111111111111111111111111111111111111111100000000000000000000000000000000001111111111111
11111111111111111111111000011111111110000000001111111111111111110000000000000000000000000000000000111111111111111111111111111111111111111111111111111111111111111111111111111111111100000000000000000000000000000000001111111111111
11111111111111111111111000011111111100000000011111111111111111110000000000000000000000000000000000011111111111111111111111111111111111111111111111111111111111111111111111111111111100000000000000000000000000000000001111111111111
11111111111111111111111000011111111000000000111111111111111111111111111111110000000000000000000000001111111111111111111111111111111111111111111111111111111111111111111111111111111100000000000000000000000000000000001111111111111
11111111111111111111111000011111110000000001111111111111111111111111111111111000000000000000000000000111111111111111111111111111111111111111111111111111111111111111111111111111111100000000000000000000000000000000001111111111111
11111111111111111111111111111111100000000011111111111111111111111111111111111100000000000000000000000011111111111111111111111111111111111111111111111111111111111111111111111111111100000000000000000000000000000000001111111111111
11111111111111111111111111111111000000000111111111111111111111111111111111111111111111111111111111111111111111111111111111111111111111111111111111111111111111111111111111111111111111111111111111111111111111111111111111111111111
11111111111111111111111111111110000000001111111111111111111111111111111111111111111111111111111111111111111111111111111111111111111111111111111111111111111111111111111111111111111111111111111111111111111111111111111111111111111
11111111111111111111111111111100000000011111111111111111111111111111111111111111111111111111111111111111111111111111111111111111111111111111111111111111111111111111111111111111111111111111111111111111111111111111111111111111111
11111111111111111111111111111000000000111111111111111111111111111111111111111111111111111111111111111111111111111111111111111111111111111111111111111111111111111111111111111111111111111111111111111111111111111111111111111111111
11111111111111111111111111110000000001111111111111111111111111111111111111111111111111111111111111111111111111111111111111111111111111111111111111111111111111111111111111111111111111111111111111111111111111111111111111111111111
11111111111111111111111111111111111111111111111111111111111111111111111111111111111111111111111111111111111111111111111111111111111111111111111111111111111111111111111111111111111111111111111111111111111111111111111111111111111
