﻿{
  "algorithms": [
    {
      "name": "uLRTA",
      "heuristic": "perfect",
      "filterAgent": false,
      "parameters": {
        "weight": "1",
        "wc": "1",
        "mark expendable": "false",
        "depression avoidance": "false",
        "mark and avoid": "false",
        "steps before replanning": "1",
        "learning operator": "0",
        "beam width": "0",
        "lookahead": "1",
        "lookahead type": "RTAA*",
        "ignore Agents From Planning": "false"
      }
    }
  ]
}