﻿{
  "algorithms": [
    {
      "name": "uLRTA",
      "heuristic": "octile",
      "parameters": {
        "weight": "1",
        "wc": "1",
        "mark expendable": "false",
        "depression avoidance": "false",
        "mark and avoid": "false",
        "steps before replanning": "8",
        "learning operator": "0",
        "beam width": "0",
        "lookahead": "8",
        "lookahead type": "RTAA*",
        "visible agent distance": "1.4" // -1 view all agents at wall, 0 view no agents, n (distance limit, ie 1.4 means agents in 1.4 distance are seen)
      }
    }
  ]
}