﻿{
  "algorithms": [
    {
      "name": "uLRTAStar", // name of algorithms
      "heuristic": "octile", // type of heuristic
      "controller": "far", // controller type
      "parameters": {

        "numberOfReservations": "0", // reservations of agent (always 0)
        "forceOffGoal": "false", // able to force off goal
        "useDeadlockBreakingProcedure": "false", // use FAR grid lock breaking procedures
        "useFlowRestricted": "false", // use FAR annotations

        "weight": "1", // heuristic update weight
        "wc": "1", // lateral learning weight
        "mark expendable": "false", // mark states that are expendable
        "depression avoidance": "false", // depression avoidance techniques
        "mark and avoid": "false", // mark and avoid expendable states
        "steps before replanning": "10", // how long along the path the agent moves before replanning
        "learning operator": "0", // lateral learning operator
        "beam width": "0", // lateral learning width (percent of neighbours)
        "lookahead": "100", // lookahead value
        "lookahead type": "RTAA*", // type of lookhead
        "visible agent distance": "1.4" // -1 view all agents at wall, 0 view no agents, n (distance limit, ie 1.4 means agents in 1.4 distance are seen)
      }
    }
  ]
}