11111111111111111111111111111111111111111111111111111111111111111111111111111111
11111111111111111111111111111111111111111111111111111111111111111111111111111111
11111111111111111111111111111111111111111111111111111100000000000000000000000011
11111111111111111111111111111111111111111111111111111100000000000000000000000011
11111111111111111111111111111111111111111111111111111110000000000000000000000011
11111111111111111111111111111111111111111111111111111110000000000000000000000011
11111111111111111111111111111111111111111111111111111100000000000000000000000011
11111111111111111111111111111111111111111111111111111000000000000000000000000011
11111111111111111111111111111111111111111111111111110000000000000000000000000011
11111111111111111111111111111111111111111111111111100000000000000000000000000011
11111111111111111111111111111111111111111111111111000000000000000000000000000011
11111111111111111111111111111111111111111111111110000000000000000000000000000011
11111111111111111111111111111111111111111111111111000000000000000000000000000011
11111111111111111111111111111111111111111111111110000000000000000000000000000011
11111111111111111111111111111111111111111111111110000000000000000000000000000011
11111111111111111111111111111111111111111111111100000000000000000000000000000011
11111111111111111111111111111111111111111111111000000000000000000000000000000111
11111111111111111111111111111111111111111111100000000000000000000000000000001111
11111111111111111111111111111111111111111000000000000000000000000000000000011111
11111111111111111111111111111111111111110000000000000000000000000000000000111111
11111111111111111111111111111111111111110000000000000000000000000000000001111111
11111111111111111111111111111111111111111000000000000000000000000000000011111111
11111111111111111111111111111111111111110000000000000000000000000000000111111111
11111111111111111111111111111111111111000000000000000000000000000000001111111111
11111111111111111111111111111111111100000000000000000000000000000000011111111111
11111111111111111111111111111111111000000000000000000000000000000000111111111111
11111111111111111111111111111111111000000000000000000000000000000000111111111111
11111111111111111111111111111111111000000000000000000000000000000001111111111111
11111111111111111111111111111111111000000000000000000000000000000011111111111111
11111111111111111111111111111111111000000000000000000000000000000111111111111111
11111111111111111111111111111111110000000000000000000000000000000111111111111111
11111111111111111111111111011111100000000000000000000000000000001111111111111111
11111111111111111111111110011000000000000000000000000000000000011111111111111111
11111111111111111111111100000000000000000000000000000000000000111111111111111111
11111111111111111111111100000000000000000000000000000000000001111111111111111111
11111111111111111111111100000000000000000000000000000000000011111111111111111111
11111111111111111111111000000000000000000000000000000000000111111111111111111111
11111111111111111111110000000000000000000000000000000000001111111111111111111111
11111111111111111111111100000000000000000000000000000000011111111111111111111111
11111111111111111111111110000000000000000000000000000000111111111111111111111111
11111111111110111111111100000000000000000000000000000001111111111111111111111111
11111111111100111111111110000000000000000000000000000011111111111111111111111111
11111111111000111111111110000000000000000000000000000111111111111111111111111111
11111111111100111111000000000000000000000000000000000111111111111111111111111111
11111111111100111110000000000000000000000000000000001111111111111111111111111111
11111111111000001110000000000000000000000000000000011111111111111111111111111111
11111111110000000000000000000000000000000000000000111111111111111111111111111111
11111111100000000000000000000000000000000000000001111111111111111111111111111111
11111111110000000000000000000000000000000000000011111111111111111111111111111111
11111111111100000000000000000000000000000000000111111111111111111111111111111111
11111111111100000000000000000000000000000000001111111111111111111111111111111111
11111111111100000000000000000000000000000000011111111111111111111111111111111111
11111111111100000000000000000000000000000000111111111111111111111111111111111111
11111111111100000000000000000000000000000000111111111111111111111111111111111111
11111111111100000000000000000000000000000001111111111111111111111111111111111111
11111111111100000000000000000000000000000011111111111111111111111111111111111111
11111111011000000000000000000000000000000111111111111111111111111111111111111111
11111111011000000000000000000000000000001111111111111111111111111111111111111111
11111011011000000000000000000000000000011111111111111111111111111111111111111111
11110011011000000000000000000000000000111111111111111111111111111111111111111111
11110000000000000000000000000000000000111111111111111111111111111111111111111111
11110000000000000000000000000000000001111111111111111111111111111111111111111111
11110000000000000000000000000000000011111111111111111111111111111111111111111111
11111000000000000000000000000000000011111111111111111111111111111111111111111111
11111100000000000000000000000000000111111111111111111111111111111111111111111111
11111110000000000000000000000000001111111111111111111111111111111111111111111111
11111110000000000000000000000000001111111111111111111111111111111111111111111111
11111110000000000000000000000000011111111111111111111111111111111111111111111111
11111110000000000000000000000000111111111111111111111111111111111111111111111111
11111110000000000000000000000001111111111111111111111111111111111111111111111111
11111111000000000000000000000001111111111111111111111111111111111111111111111111
11111111100000000000000000000000111111111111111111111111111111111111111111111111
11111111110000000000000000000000011111111111111111111111111111111111111111111111
11111111111000000000000000000000001111111111111111111111111111111111111111111111
11111111111100000000000000000000011111111111111111111111111111111111111111111111
11111111111110000100000000000000011111111111111111111111111111111111111111111111
11111111111111001110000000000000111111111111111111111111111111111111111111111111
11111111111111100100000000000000011111111111111111111111111111111111111111111111
11111111111111111111111111111111111111111111111111111111111111111111111111111111
11111111111111111111111111111111111111111111111111111111111111111111111111111111
