1111111111111111111111111111111111111111111111111111
1111111111111111111111111111111111111111111111111111
1111111111111111111111111111111111111111111111111111
1111111111111111111111111111111111111111111111111111
1111111111111111111111111111111111111111111111111111
1111111111111111111111111111111111111111111111111111
1111111111111111111111111111111111111111111111111111
1111111111111111111111111111111111111111111111111111
1111111111111111111111111111111111111111111111111111
1111111111111111111111111111111111111111111111111111
1111111111111111111111111111111111111111111111111111
1111111111111111111111111111111111111111111111111111
1111111111111111111111111111111111111111111111111111
1111111111111111111111111111111111111111111111111111
1111111111111111111111111111111111111111111111111111
1111111111111111111111111111111111111111111111111111
1111111111111111111111111111111111111111111111111111
1111111111111111111111111111111111111111111111111111
1111111111111111111111111111111111111111111111111111
1111111111111111111111111111111111111111111111111111
1111111111111111111111111111111111111111111111111111
1111111111111111111111111111111111111111111111111111
1111111111111111111111111111111111111111111111111111
1111111111111111111111111101111111111111111111111111
1111111111111111111111110001111111111111111111111111
1111111111111111111111100000111111111111111111111111
1111111111111111111011000000111111111111111111111111
1111111111111111110000000000011111111111111111111111
1111111111111111110000000000001111111111111111111111
1111111111111111100000001100001111111111111111111111
1111111111111111110000011110000111111111111111111111
1111111111111111111000011111000011111111111111111111
1111111111111111111000011111100001111111111111111111
1111111111111111111100001111100000111111111111111111
1111111111111111111110000111100000111111111111111111
1111111111111111111111001110000000011111111111111111
1111111111111111111111000110000001111111111111111111
1111111111111111111111100000000000111111111111111111
1111111111111111111111110000000000111111111111111111
1111111111111111111111111000000000111111111111111111
1111111111111111111111111000000000011111111111111111
1111111111111111111111111100000000001111111111111111
1111111111111111111111111110010000001111111111111111
1111111111111111111111111111111000011111111111111111
1111111111111111111111111111111101111111111111111111
1111111111111111111111111111111111111111111111111111
1111111111111111111111111111111111111111111111111111
1111111111111111111111111111111111111111111111111111
1111111111111111111111111111111111111111111111111111
1111111111111111111111111111111111111111111111111111
1111111111111111111111111111111111111111111111111111
1111111111111111111111111111111111111111111111111111
1111111111111111111111111111111111111111111111111111
1111111111111111111111111111111111111111111111111111
