11111111111111111111111111111111111111111111111111111111111111111111111111111111
11111111111111111111111111111111111111111111111111111111111111111111111111111111
11111111111111111111111111111111111111111111111111111111111111111111111111111111
11111111111111111111111111111111111111111111111111111111111111111111111111111111
11111111111111111111111111111111111111111111111111111111111111111111111111111111
11111111111111111111111111111111111111111111111111111111111111111111111111111111
11111111111111111111111111111111111111111111111111111111111111111111111111111111
11111111111111111111111111111111111111111111111111111111111111111111111111111111
11111111111111111111111111111111111111111111111111111111111111111111111111111111
11111111111111111111111111111111111111111111111111111111111111111111111111111111
11111111111111111111111111111111111111111111111111111111111111111111111111111111
11111111111111111111111111111111111111111111111111111111111111111111111111111111
11111111111111111111111111111111111111111111111111111111111111111111111111111111
11111111111111111111111111111111111111111111111111111111111111111111111111111111
11111111111111111111111111111111111111111111111111111111111111111111111111111111
11111111111111111111111111111111111111111111111111111111111111111111111111111111
11111111111111111111111111111111111111111111111111111111111111111111111111111111
11111111111111111111111111111111111111111111111111111111111111111111111111111111
11111111111111111111111111111111111111111111111111111111111111111111111111111111
11111111111111111111111111111111111111111111111111111111111110011111111111111111
11111111111111111111111111111111111111111111111111111111111100001111111111111111
11111111111111111111111111111111111111111111111111111111111100000111111111111111
11111111111111111111111111111111111111111111111111111111111000000011111111111111
11111111111111111111111111111111101111111111111111111111110000000001111111111111
11111111111111111111111111111111000111111111111111111111100000000000111111111111
11111111111111111111111111111100000011111111111111111111000000000000011111111111
11111111111111111111111111110000000011111111111111111110000000000000011111111111
11111111111111111111111111000000000011111111111111111100000000000000111111111111
11111111111111111111111111100000000001111100111111111000000000000001111111111111
11111111111111111111111111100000000000111000011111110000000000000011111111111111
11111111111111111111111111000000000000000000001111100000000000000111111111111111
11111111111111111111111110000000000000000011111111000000000000001111111111111111
11111111111111111111111100000000000000000111111100000000000000001111111111111111
11111111111111111111111000000000000110000000000000000000000000011111111111111111
11111111111111111111110000001000110110000000000000000000000000011111111111111111
11111111111111111111100000011001111100000000000000000000000000111111111111111111
11111111111111111111000000000011111100000000000000000000000000111111111111111111
11111111111111011110000000000111111100000000000000000000000001111111111111111111
11111111111110011100000000001111111000000000000000000000000011111111111111111111
11111111111110011000000000011111110000000000000000000000000111111111111111111111
11111111111110010000000000111111100000000000000000000000000111111111111111111111
11111111111110000000100001101111000000000000000000000000001111111111111111111111
11111111111110000001110000000111000000000000000000000000001001111111111111111111
11111111111100000001100000001100000000000000000000000000011000111111111111111111
11111111111100000001100000000000000000000000000000000000010000011111111111111111
11111111111100000000000000000000000000000000000000000000000000011111111111111111
11111111111000000000000000000000000000000000000000000000000000011111111111111111
11111111110000000000000000000000000000000000000000000000000000111111111111111111
11111111110000000000000000000000000000000000000000000000000001111111111111111111
11111111100000000000000000000000000000000000000000000000000011111111111111111111
11111111100000000000000000000000000000000000000000000000000111111111111111111111
11111111100000000000000000000000000000000000000000000000001111111111111111111111
11111111110000000111111111000000000000000000000000000000011111111111111111111111
11111111111000001111111111110000000000000000000000000000111111111111111111111111
11111111111100001111111111111000000000000000000000000001111111111111111111111111
11111111111100001111111111110000000000000000000000000011111111111111111111111111
11111111110000001111111111110000000000000000000000011111111111111111111111111111
11111111111000000001111111100000000000000000000001111111111111111111111111111111
11111111111000000000111111100000000000000000000001111111111111111111111111111111
11111111111000000000000011100000000000000000000011111111111111111111111111111111
11111111110000000000000000000000000000000000000111111111111111111111111111111111
11111111000000000000000000000000000000000000001111111111111111111111111111111111
11111111000000000000000000000000000000000000111111111111111111111111111111111111
11110000000000000000000000000000000000000001111111111111111111111111111111111111
11110000000000000000000000000000000000000011111111111111111111111111111111111111
11111000110000000000000000000000000000000111111111111111111111111111111111111111
11111000110000000000000000000000000000001111111111111111111111111111111111111111
11110000000000000000000000000000000000111111111111111111111111111111111111111111
11100000000000000000000000000000000001111111111111111111111111111111111111111111
11110000000000000000000000000000000011111111111111111111111111111111111111111111
11111000000000000000000000000000000111111111111111111111111111111111111111111111
11111100000000000000000000000000001111111111111111111111111111111111111111111111
11111000000000000000000000000000011111111111111111111111111111111111111111111111
11110000000000000000000000000000111111111111111111111111111111111111111111111111
11111000000000000000000000000001111111111111111111111111111111111111111111111111
11111100000000000000000000100001111111111111111111111111111111111111111111111111
11111000000000000000000000110111111111111111111111111111111111111111111111111111
11110000000000000000000000000111111111111111111111111111111111111111111111111111
11111111111111111111111111111111111111111111111111111111111111111111111111111111
11111111111111111111111111111111111111111111111111111111111111111111111111111111
