1111111111111111111111111111111111111111111111111111111111111111111111111111111111111111111111111111111111111111111111111111111111111111111111111111111111111111
1000000011111111111111111111111111111111111111111111111111111111111111111111111111111111111111111111111111111111111111111111111111111111111111111111111111111111
1000000011111111111111111111111111111111111111111111111111111111111111111111111111111111111111111111111111111111111111111111111111111111111111111111111111111111
1000000011111111111111111111111111111111111111111111111111111111111111111111111111111111111111111111111111111111111111111111111111111111111111111111111111111111
1000000011111111111111111111111111111111111111111111111111111111111111111111111111111111111111111111111111111111111111111111111111111111111111111111111111111111
1000000011111111111111111111111111111111111111111111111111111111111111111111111111111111111111111111111111111111111111111111111111111111111111111111111111111111
1000000011111111111111111111111111111111111111111111111111111111111111111111111111111111111111111111111111111111111111111111111111111111111111111111111111111111
1000000011111111111111111111111111111111111111111111111111111111111111111111111111111111111111111111111111111111111111111111111111111111111111111111111111111111
1111111111111111111111111111111111111111111111111111111111111111111111111111111111111111111111111111111111111111111111111111111111111111111111111111111111111111
1111111111111111111111111111111111111111111111111111111111111111111111111111111111111111111111111111111111111111111111111111111111111111111111111111111111111111
1111111111111111111111111111111111111111111111111111111111111111111111111111111111111111111111111111111111111111111111111111111111111111111111111111111111111111
1111111111111111111111111111111111111111111111111111111111111111111111111111111111111111111111111111111111111111111111111111111111111111111111111111111111111111
1111111111111111111111111111111111111111111111111111111111111111111111111111111111111111111111111111111111111111111111111111111111111111111111111111111111111111
1111111111111111111111111111111111111111111111111111111111111111111111111111111111111111111111111111111111111111111111111111111111111111111111111111111111111111
1111111111111111111111111111111111111111111111111111111111111111111111111111111111111111111111111111111111111111111111111111111111111111111111111111111111111111
1111111111111111111111111111111111111111111111111111111111111111111111111111111111111111111111111111111111111111111111111111111111111111111111111111111111111111
1111111111111111111111111111111111111111111111111111111111111111111111111111111111111111111111111111111111111111111111111111111111111111111111111111111111111111
1111111111111111111111111111111111111111111111111111111111111111111111111111111111111111111111111111111111111111111111111111111111111111111111111111111111111111
1111111111111111111111111111111111111111111111111111110000000011111111111111111111111111111111111111111111111111111111111111111111111111111111111111111111111111
1111111111111111111111111111111111111111111111111110000000000000011111111111111111111111111111111111111111111111111111111111111111111111111111111111111111111111
1111111111111111111111111111111111111111111111111000000000000000000111111111111111111111111111111111111111111111111111111111111111111111111111111111111111111111
1111111111111111111111111111111111111111111111100000000000000000000001111111111111111111111111111111111111111111111111111111111111111111111111111111111111111111
1111111111111111111111111111111111111111111110000000000000000000000000111111111111111111111111111111111111111111111111111111111111111111111111111111111111111111
1111111111111111111111111111111111111111111100000000000000000000000000011111111111111111111111111111111111111111111111111111111111111111111111111111111111111111
1111111111111111111111111111111111111111111100000000000000000000000000001111111111111111111111111111111111111111111111111111111111111111111111111111111111111111
1111111111111111111111111111111111111111111000000000000000000000000000000111111111111111111111111111111111111111111111111111111111111111111111111111111111111111
1111111111111111111111111111111111111111110000000000000000000000000000000011111111111111111111111111111111111111111111111111111111111111111111111111111111111111
1111111111111111111111111111111111111111110000000000000000000000000000000001111111111111111111111111111111111111111111111111111111111111111111111111111111111111
1111111111111111111111111111111111111111100000000000000000000000000000000001111111111111111111111111111111111111111111111111111111111111111111111111111111111111
1111111111111111111111111111111111111111000000000000000000000000000000000000111111111111111111111111111111111111111111111111111111111111111111111111111111111111
1111111111111111111111111111111111111111000000000000000000000000000000000000111111111111111111111111111111111111111111111111111101110111111111111111111111111111
1111111111111111111111111111111111111111000000000000000000000000000000000000111111111111111111111111111111111111111111111110000000000011111111111111111111111111
1111111111111111111111111111111111111110000000000000000000000000000000000000011111111111111111111111111111111111111111111100000000000000001111111111111111111111
1111111111111111111111111111111111111110000000000000000001100000000000000000011111111111111111111111111111111111111111100000000000000000000111111111111111111111
1111111111111111111111111111111111111110000000000000000011110000000000000000011111111111111111111111111111111111111111100000000000000000000011111111111111111111
1111111111111111111111111111111111111110000000000000000111111000000000000000011111111111111111111111111111111111111111100000000000000000000000011111111111111111
1111111111111111111111111111111111111110000000000000000111111000000000000000011111111111111111111111111111111111111100000000000000000000000000011111111111111111
1111111111111111111111111111111111111110000000000000000111111000000000000000011111111111111111111111111111111111111100000000000000000000000000111111111111111111
1111111111111111111111111111111111111110000000000000000011110000000000000000011111111111111111111111111111111111111100000000000000000000000000111111111111111111
1111111111111111111111111111111111111110000000000000000000000000000000000000011111111111111111111111111111111111111100000000000000000000000000011111111111111111
1111111111111111111111111111111111111110000000000000000000000000000000000000011111111111111111111111111111111111111000000000000000000000000000000111111111111111
1111111111111111111111111111111111111111000000000000000000000000000000000000011111111111111111111111111111111111110000000000000000000000000000000111111111111111
1111111111111111111111111111111111111111100000000000000000000000000000000000011111111111111111111111111111111111110000000000000000000000000000001111111111111111
1111111111111111111111111111111111111111110000000000000000000000000000000000111111111111111111111111111111111111110000000000000000000000000000001111111111111111
1111111111111111111111111111111111111111111000000000000000000000000000000001111111111111111111111111111111111111110000000000000000000000000000001111111111111111
1111111111111111111111111111111111111111111100000000000000000000000000000011111111111111111111111111111111111111110000000000000000000000000000001111111111111111
1111111111111111111111111111111111111111111110000000000000000000000000000111111111111111111111111111111111111111110000000000000000000000000000001111111111111111
1111111111111111111111111111111111111111111111000000000000000000000000001111111111111111111111111111111111111111110000000000000000000000000000001111111111111111
1111111111111111111111111111111111111111111111100000000000000000000000011111111111111111111111111111111111111111111000000000000000000000000000011111111111111111
1111111111111111111111111111111111111111111111111000000000000000000000111111111111111111111111111111111111111111111000000000000000000000000000011111111111111111
1111111111111111111111111111111111111111111111111110000000000000000001111111111111111111111111111111111111111111111000000000000000000000000000111111111111111111
1111111111111111111111111111111111111111111111111111110000000000000011111111111111111111111111111111111111111111111100000000000000000000000000111111111111111111
1111111111111111111111111111111111111111111111111111111111111110000011111111111111111111111111111111111111111111111111000000000000000000000001111111111111111111
1111111111111111111111111111111111111111111111111111111111111111000011111111111111111111111111111111111111111111111111000000000000000000000001111111111111111111
1111111111111111111111111111111111111111111111111111111111111111000001111111111111111111111111111111111111111111111111100000000000000000000001111111111111111111
1111111111111111111111111111111111111111111111111111111111111110000000111111111111111111111111111111111111111111111111101100000000000000011001111111111111111111
1111111111111111111111111111111111111111111111111111111111111110000000111111111111111111111111111111111111111111111111111110000000000000111111111111111111111111
1111111111111111111111111111111111111111111111111111111111111110000000111111111111111111111111111111111111111111111111111111000000000001111111111111111111111111
1111111111111111111111111111111111111111111111111111111111111110000000111111111111111111111111111111111111111111111111111111100000000001111111111111111111111111
1111111111111111111111111111111111111111111111111111111111111111000000011111111111111111111111111111111111111111111111111111100000000001111111111111111111111111
1111111111111111111111111111111111111111111111111111111111111111000000011111111111111111111111111111111111111111111111111111100000000011111111111111111111111111
1111111111111111111111111111111111111111111111111111111111111111000000011111111111111111111111111111111111111111111111111111110000000011111111111111111111111111
1111111111111111111111111111111111111111111111111111111111111111000000011111111111111111111111111111111111111111111111111111110000000111111111111111111111111111
1111111111111111111111111111111111111111111111111111111111111111100000001111111111111111111111111111111111111111111111111111110000000111111111111111111111111111
1111111111111111111111111111111111111111111111111111111111111111100000001111111111111111111111111111111111111111111111111111110000001111111111111111111111111111
1111111111111111111111111111111111111111111111111111111111111111100000001111111111111111111111111111111111111111111111111111111000001111111111111111111111111111
1111111111111111111111111111111111111111111111111111111111111111100000001111111111111111111111111111111111111111111111111111111000001111111111111111111111111111
1111111111111111111111111111111111111111111111111111111111111111110000000111111111111111111111111111111111111111111111111111111000011111111111111111111111111111
1111111111111111111111111111111111111111111111111111111111111111110000000111111111111111111111111111111111111111111111111111100000000111111111111111111111111111
1111111111111111111111111111111111111111111111111111111111111111110000000111111111111111111111111111111111111111111111111111100000000111111111111111111111111111
1111111111111111111111111111111111111111111111111111111111111111111000000111111111000111111111111111111111111111111111111111100000000111111111111111111111111111
1111111111111111111111111111111111111111111111111111111111111111111000000000000000000001111111111111111111111111111111111111100000000111111111111111111111111111
1111111111111111111111111111111111111111111111111111111111111111111000000000000000000000011111111111111111111111111111111111100000000111111111111111111111111111
1111111111111111111111111111111111111111111111111111111111111111111000000000000000000000011111111111111111111111111111111111100000000111111111111111111111111111
1111111111111111111111111111111111111111111111111111111111111111110000000000000000000000011111111111111111111111111111111111100000000111111111111111111111111111
1111111111111111111111111111111111111111111111111111111111111111100000000000000000000000111111111111111111111111111111111111100000000111111111111111111111111111
1111111111111111111111111111111111111111111111111111111111111111000000000000000000000000111111111111111111111111111111111111100000000111111111111111111111111111
1111111111111111111111111111111111111111111111111111111111111000000000000000000000000000111111111111111111111111111111111111100000000111111111111111111111111111
1111111111111111111111111111111111111111111111111111111111100000000000000000000000000000111111110111111111111111111111111111100000000111111111111111111111111111
1111111111111111111111111111111111111111111111111111111111000000000000000000000000000000011111100111111111111111111111111111100000000111111111111111111111111111
1111111111111111111111111111111111111111111111111111111110000000000000000000000000000000011110000011111111111111111111111111100000000111111111111111111111111111
1111111111111111111111111111111111111111111111111111111110000000000000000000000000000000000000000001111111111111111111111111100000000111111111111111111111111111
1111111111111111111111111111111100111111111111111111111100000000000000000000000000000000000000000000111111111111111111111111100000000111111111111111111111111111
1111111111111111111111111111110000111111111111111111111100000000000000000000000000000000000000000000111111111111111111111111100000000111111111111111111111111111
1111111111111111111111111111110000111111111111111111111100000000000000000000000000000000000000000000111111111111111111111111100000000111111111111111111111111111
1111111111111111111111111111000000111111111111111111111000000000000000000000000000000000000000000000111111111111111111111111100000000111111111111111111111111111
1111111111111111111111111100000000111111111111111111111000000000000000000000000000000000000000000000111111111111111111111111100000000111111111111111111111111111
1111111111111111111111110000000000011111111101111111111000000000000000000000000000000000000000000000011111111111111111111111100000000111111111111111111111111111
1111111111111111111111100000000000001111111000111111111000000000000000000000000000000000000000000000011111111111111111111111100000000111111111111111111111111111
1111111111111111111111000000000000000000000000111111110000000000000000000000000000000000000000000000011111111111111111111111100000000111111111111111111111111111
1111111111111111111110000000000000000000000000111111000000000000000000000000000000000000000000000000011111111111111111111111100000000111111111111111111111111111
1111111111111111111100000000000000000000000011110000000000000000000000000000000000000000000000000000011111111111111111111111100000000111111111111111111111111111
1111111111111111111100000000000000000000000111000000000000000000000000000000000000000000000000000000011111111111111111111111100000000111111111111111111111111111
1111111111111111111000000000000000000000000000000000000000000000000000000000000000000000000000000000011111111111111111111111100000000111111111111111111111111111
1111111111111111111000000000000000000000000000000000000000000000000000000000000000000000000000000000111111111111111111111111100000000111111111111111111111111111
1111111111111111111000000000000000000000000000000000000000000000000000000000000000000000000000000000111111111111111111111111100000000111111111111111111111111111
1111111111111111111000000000000000000000000000000001111000000000000000000000000000000000000000000000111111111111111111111111100000000111111111111111111111111111
1111111111111111111000000000000000000000000000000111111000000000000000000000000000000000000000000000111111111111111111111111100000000111111111111111111111111111
1111111111111111111000000000000000000000000000011111111000000000000000000000000000000000000000000001111111111111111111111111100000000111111111111111111111111111
1111111111111111111000000000000000000000000011111111111000000000000000000000000000000000000000000001111111111100001111111111100000000111111111111111111111111111
1111111111111111111000000000000000000000000011111111111100000000000000000000000000000000000000000011111111100000000001111111100000000111111111111111111111111111
1111111111111111111000000000000000000000000000111111111100000000000000000000000000000000000000000011111111000000000000111111100000000111111111111111111111111111
1111111111111111111000000000000000000000000000111111111100000000000000000000000000000000000000000011111110000000000000011111100000000111111111111111111111111111
1111111111111111111100000000000000000000000000111111111110000000000000000000000000000000000000000111111100000000000000001111100000000111111111111111111111111111
1111111111111111111110000000000000000000000001111111111110000000000000000000000000000000000000001111111000000000000000011111000000000111111111111111111111111111
1111111111111111111111000000000000000000000011111111111111000000000000000000000000000000000000011111111000000000000000000000000000000111111111111111111111111111
1111111111111111111111100000000000000000000011111111111111100000000000000000000000000000000000111111110000000000000000000000000000000111111111111111111111111111
1111111111111111111111111000000000000000001111111111111111100000000000000000000000000000000001111111110000000000000000000000000000000111111111111111111111111111
1111111111111111111111111100000000000000011111111111111111110000000000000000000000000000000111111111110000000000000000000000000000000111111111111111111111111111
1111111111111111111111111110000000000011111111111111111111110000000000000000000000000000011111111111110000000000000000000000000000001111111111111111111111111111
1111111111111111111111111111111000111111111111111111111111110000000000000000000000000001111111111111111000000000000000000110000000001111111111111111111111111111
1111111111111111111111111111111111111111111111111111111111100000000000000000000000000111111111111111111000000000000000011111000000001111111111111111111111111111
1111111111111111111111111111111111111111111111111111111111100000000000000000000000001111111111111111111100000000000000111111000000001111111111111111111111111111
1111111111111111111111111111111111111111111111111111111111100000000000000000000000111111111111111111111110000000000000111110000000011111111111111111111111111111
1111111111111111111111111111111111111111111111111111111111100000000000000000000001111111111111111111111110000000000000111100000000011111111111111111111111111111
1111111111111111111111111111111111111111111111111111111111100000000000111000000001111111111111111111111111000000000011111100000000111111111111111111111111111111
1111111111111111111111111111111111111111111111111111111111100000000000111100000011111111111111111111111111111100011111111000000000111111111111111111111111111111
1111111111111111111111111111111111111111111111111111111111000000000001111000000011111111111111111111111111111111111111110000000001111111111111111111111111111111
1111111111111111111111111111111111111111111111111111111111000000000111111000000001111111111111111111111111111111111111110000000011111111111111111111111111111111
1111111111111111111111111111111111111111111111111111111110000000001111111000000001111111111111111111111111111111111111100000000011111111111111111111111111111111
1111111111111111111111111111111111111111111111111111111100000000011111111000000001111111111111111111111111111111111111000000000111111111111111111111111111111111
1111111111111111111111111111111111111111111111111111111100000000011111111000000000111111111111111111111111111111111110000000000111111111111111111111111111111111
1111111111111111111111111111111111111111111111111111111000000000111111111100000000111111111111111111111111111111111110000000001111111111111111111111111111111111
1111111111111111111111111111111111111111111111111111110000000001111111111100000000011111111111111111111111111111111110000000011111111111111111111111111111111111
1111111111111111111111111111111111111111111111111111110000000001111111111100000000011111111111111111111111111111111100000000011111111111111111111111111111111111
1111111111111111111111111111111111111111111111111111100000000011111111110000000000001111111111111111111111111111111100000000111111111111111111111111111111111111
1111111111111111111111111111111111111111111111111111000000000111111111100000000000000111111111111111111111111111111000000001111111111111111111111111111111111111
1111111111111111111111111111111111111111111111111111000000000111111111000000000000000011111111111111111111111111110000000011111111111111111111111111111111111111
1111111111111111111111111111111111111111111111111110000000001111111111000000000000000001111111111111111111111111000000000011111111111111111111111111111111111111
1111111111111111111111111111111111111111111111111110000000011111111110000000000000000000111111111111111111111110000000000111111111111111111111111111111111111111
1111111111111111111111111111111111111111111111111100000000011111111110000000000000000000000111111111111111111100000000000111111111111111111111111111111111111111
1111111111111111111111111111111111111111111111111100000000111111111110000000000000000000000000011111111111110000000000001111111111111111111111111111111111111111
1111111111111111111111111111111111111111111111111000000000111111111110000000000000000000000000000011111110000000000000011111111111111111111111111111111111111111
1111111111111111111111111111111111111111111111111000000001111111111110000000000000000000000000000000110000000000000000111111111111111111111111111111111111111111
1111111111111111111111111111111111111111111111110000000011111111111110000000000000000000000000000000000000000000000001111111111111111111111111111111111111111111
1111111111111111111111111111111111111111111111100000000011111111111111000000000000000000000000000000000000000000000111111111111111111111111111111111111111111111
1111111111111111111111111111111111111111111111100000000111111111111111100000000000000000000000000000000000000000011111111111111111111111111111111111111111111111
1111111111111111111111111111111111111111111111000000000111111111111111100000000000000111110000000000000000000001111111111111111111111111111111111111111111111111
1111111111111111111111111111111111111111111110000000001111111111111111110000000000001111111111110000000000000111111111111111111111111111111111111111111111111111
1111111111111111111111111111111111111111111110000000001111111111111111111100000000011111111111111100000000111111111111111111111111111111111111111111111111111111
1111111111111111111111111111111111111111111100000000011111111111111111111111111111111111111111111111111111111111111111111111111111111111111111111111111111111111
1111111111111111111111111111111111111111111100000000111111111111111111111111111111111111111111111111111111111111111111111111111111111111111111111111111111111111
1111111111111111111111111111111111111111111000000000111111111111111111111111111111111111111111111111111111111111111111111111111111111111111111111111111111111111
1111111111111111111111111111111111111111111000000001111111111111111111111111111111111111111111111111111111111111111111111111111111111111111111111111111111111111
1111111111111111111111111111111111111111110000000011111111111111111111111111111111111111111111111111111111111111111111111111111111111111111111111111111111111111
1111111111111111111111111111111111111111110000000011111111111111111111111111111111111111111111111111111111111111111111111111111111111111111111111111111111111111
1111111111111111111111111111111111111111100000000111111111111111111111111111111111111111111111111111111111111111111111111111111111111111111111111111111111111111
1111111111111111111111111111111111111111100000000111111111111111111111111111111111111111111111111111111111111111111111111111111111111111111111111111111111111111
1111111111111111111111111111111111111111000000000111111111111111111111111111111111111111111111111111111111111111111111111111111111111111111111111111111111111111
1111111111111111111111111111111111111111000000001111111111111111111111111111111111111111111111111111111111111111111111111111111111111111111111111111111111111111
1111111111111111111111111111111111111110000000001111111111111111111111111111111111111111111111111111111111111111111111111111111111111111111111111111111111111111
1111111111111111111111111111111111111111100000011111111111111111111111111111111111111111111111111111111111111111111111111111111111111111111111111111111111111111
1111111111111111111111111111111111111111110000011111111111111111111111111111111111111111111111111111111111111111111111111111111111111111111111111111111111111111
1111111111111111111111111111111111111111111100011111111111111111111111111111111111111111111111111111111111111111111111111111111111111111111111111111111111111111
1111111111111111111111111111111111111111111111111111111111111111111111111111111111111111111111111111111111111111111111111111111111111111111111111111111111111111
1111111111111111111111111111111111111111111111111111111111111111111111111111111111111111111111111111111111111111111111111111111111111111111111111111111111111111
1111111111111111111111111111111111111111111111111111111111111111111111111111111111111111111111111111111111111111111111111111111111111111111111111111111111111111
1111111111111111111111111111111111111111111111111111111111111111111111111111111111111111111111111111111111111111111111111111111111111111111111111111111111111111
1111111111111111111111111111111111111111111111111111111111111111111111111111111111111111111111111111111111111111111111111111111111111111111111111111111111111111
1111111111111111111111111111111111111111111111111111111111111111111111111111111111111111111111111111111111111111111111111111111111111111111111111111111111111111
