11111111111111111111111111111111111111111111111111111111111111111111111111111111111111111111111111111111111111111111111111111111111111111111
10000001111111111111111111111111111111111111111111111111111111111111111111111111111111111111111111111111111111111111111111111111111111111111
10000001111111111111111111111111111111111111111111111111111111111111111111111111111111111111111111111111111111111111111111111111111111111111
10000001111111111111111111111111111111111111111111111111111111111111111111111111111111111111111111111111111111111111111111111111111111111111
10000001111111111111111111111111111111111111111111111111111111111111111111111111111111111111111111111111111111111111111111111111111111111111
10000001111111111111111111111111111111111111111111111111111111111111111111111111111111111111111111111111111111111111111111111111111111111111
10000001111111111111111111111111111111111111111111111111111111111111111111111111111111111111111111111111111111111111111111111111111111111111
11111111111111111111111111111111111111111111111111111111111111111111111111111111111111111111111111111111111111111111111111111111111111111111
11111111111111111111111111111111111111111111111111111111111111111111111111111111111111111111111111111111111111111111111111111111111111111111
11111111111111111111111111111111111111111111111111111111111111111111111111111111111111111111111111111111111111111111111111111111111111111111
11111111111111111111111111111111111111111111111111111111111111111111111111111111111111111111111111111111111111111111111111111111111111111111
11111111111111111111111111111111111111111111111111111111111111111111111111111111111111111111111111111111111111111111111111111111111111111111
11111111111111111111111111111111111111111111111111111111111111111111111111111111111111101111111111111111111111111111111111111111111111111111
11111111111111111111111111111111111111111111111111111111111111111111111111111111111111001111111111111111111111111111111111111111111111111111
11111111111111111111111111111111111111111111111111111111111111111111111111111111111110000111111111111111111111111111111111111111111111111111
11111111111111111111111111111111111111111111111111111111111111111111111111111111111100000011111111111111111111111111111111111111111111111111
11111111111111111111111111111111111111111111111111111111111111111111111111111111111000000001111111111111111111111111111111111111111111111111
11111111111111111111111111111111111111111111111111111111111111111111111111111111111100000001111111111111111111111111111111111111111111111111
11111111111111111111111111111111111111111111111111111111111111111111111111111111111110000000011111111111111111111111111111111111111111111111
11111111111111111111111111111111111111111111111111111111111111111111111111111111111111000000001111111111111111111111111111111111111111111111
11111111111111111111111111111111111111111111111111111111111111110111111111111111111111100000000111111111111111111111111111111111111111111111
11111111111111111111111111111111111111111111111111111111111111100001111111111111111111110000000011111111111111111111111111111111111111111111
11111111111111111111111111111111111111111111111111111111111111100000111111111111111111111000000000111111111111111111111111111111111111111111
11111111111111111111111111111111111111111111111111111111111111000000011111111111111111111100000000011111111111111111111111111111111111111111
11111111111111111111111111111111111111111111111111111111111100001100001111111111111111111110000000001111111111111111111111111111111111111111
11111111111111111111111111111111111111111111111111111111111000011110000011111111111111111111000000000111111111111111111111111111111111111111
11111111111111111111111111111111111111111111111111111111110000111111000001111111111111111111100000000011111111111111111111111111111111111111
11111111111111111111111111111111111111111111111111111111100001111111100000111111111111111111110000000001111111111111111111111111111111111111
11111111111111111111111111111111111111111111111111111111000011111111110000011111111111111111111000000000111111111111111111111111111111111111
11111111111111111111111111111111111111111111111111111110000111111111111000001111111111111111110000000000111111111111111111111111111111111111
11111111111111111111111111111111111111111111111111111000001111111111111000000111111111111111100000000001111111111111111111111111111111111111
11111111111111111111111111111111111111111111111111110000011111111111111000000011111111111111000000000011111111111111111111111111111111111111
11111111111111111111111111111111111111111111111111100000111111111111111000000001111111111110000000000111111111111111111111111111111111111111
11111111111111111111111111111111111111111111111111000001111111100111111000000000111111111100000000001111111111111111111111111111111111111111
11111111111111111111111111111111111111111111111110000011111111100001111000000000111111111000000000011111111111111111111111111111111111111111
11111111111111111111111111111111111111111111111100000111111111100000000000001100011111110000000000111111111111111111111111111111111111111111
11111111111111111111111111111111111111111111111000011111111111000000000000111110000111100000000001111111111111111111111111111111111111111111
11111111111111111111111111111111111111111111110000111111111110000000000001111111000011000000000011111111111111111111111111111111111111111111
11111111111111111111111111111111111111111111100001111111111100000000000001111111100000000000001111111111111111111111111111111111111111111111
11111111111111111111111111111111111111111111000011111111111000000000000001111111110000000000011111111111111111111111111111111111111111111111
11111111111111111111111111111111111111111110000111111111111000000000000000111111111000000000111111111111111111111111111111111111111111111111
11111111111111111111111111111111111111111100001111111111111100000000000000111111111100000001111111111111111111100111111111111111111111111111
11111111111111111111111111111111111111111000011111111111111110000000000000011111111110000011111111111111111111000011111111111111111111111111
11111111111111111111111111111111111111110000111111111111111111000000000000011111111111000001111111111111111110000001111111111111111111111111
11111111111111111111111111111111111111100001111111111111111111100000000000011111111111100001111111111111111100000000111111111111111111111111
11111111111111111111111111111111111111000011111111111111111111110000000000111111111111100000111111111111111000000000011111111111111111111111
11111111111111111111111111111111111110000111111111111111111111111000000001111111111111110000011111111111110000000000001111111111111111111111
11111111111111111111111111111111111000001111111111111111111111111100000011111111111111110000001111111111100000000000000111111111111111111111
11111111111111111111111111111111110000011111111111111111111111111110000111111111111111110000000011111111000000000000000011111111111111111111
11111111111111111111111111111111100000111111111111111111111111111111001111111111001111110000000001111110000000000000000001111111111111111111
11111111111111111111111111111111000001111111111111111111111111111111111111111110000011100000010000111100000000000000000000111111111111111111
11111111111111111111111111111111000011111111111111111111100111111111111111111100000000000000111000011100001000000000000000011111111111111111
11111111111111111111111111111111000111111111111111111111000011111111111111111000000000000001111100001100011100000000000000001111111111111111
11111111111111111111111111111110011111111111111111111111000011111111111111110000000000000011111110000000111111000000000000000111111111111111
11111111111111111111111111111100111111111111100001111111000011111111111111100000000000000111111111000000111111100000000000000011111111111111
11111111111111111111111111111001111111111111000000011111100111111111111111100000000000000011111111100000111111110000000000000111111111111111
11111111111111111111111111100011111111111111000000011111111111111111111111110000000000000011111111110000011111111000000000001111111111111111
11111111111111111111111111000111111111111111000000011111111111111111111111111000000000000001111111111000001111111100000000011111111111111111
11111111111111111111111111001111111111111111000000111111111111111111111111111100000000000000111111111110000111111110000000111111111111111111
11111111111111111111111000011111111111111111100001111111111111111111111111111110000000000000111111111111000011111111100001111111111111111111
11111111111111111111110000111111111111111111111111111111111111111111111111111111000000000001111111111111100001111111110011111111111111111111
11111111111111111111100001111111111111111111111111111111111111111100001111111111100000000011111111111111110000111111111111111111111111111111
11111111111111111111000011111111111111111111111111110111111111111100001111111111110000000111111111111111110000011111111111111111111111111111
11111111111111111110000111111111111111111111111111100011111111111100000111111111111000001111111111111111110000001111111111111111111111111111
11111111111111111100001111111111111111111111111110000001111111111110001111111111111100011111111111111111110000000111111111111111111111111111
11111111111111111000001111111111111111111111110000000000111111111111111111111111111111111111111110001111110000000011111111111111111111111111
11111111111111110000001111111111111111111111111000000000011111111111111111111111111111111111111100000111110000000001111111111111111111111111
11111111111111100000011111111111111111111111111000000000001111111111111111111111111111111111111000000001110000010000111111111111111111111111
11111111111111000000011111111111111111111111111111110000000111111111111111111111111111111111100000000000000000111000011111111111111111111111
11111111111110000000011111111111111111111111111111111000000011111111111111111111111111111111000000000000000001111100001111111111111111111111
11111111111100000000011111111111111111111111111111111100000000011111111111111001111111111110000000000000000011111110000111111111111111111111
11111111111000000000001111111111111111111111111111111111100000011111111111110000111111111110000000000000000011111111000011111111111111111111
11111111110000000100000111110111111111111111111111111111100000001111111111110000111111111111000000000000000000111111100001111111111111111111
11111111100000001110000011100011111110111111110001111111000000000111011111110000111111111111100000000000000000111111110000111111111111111111
11111111000000011111000001100000000001111111100000111111100000000000011111110001111111111111110000000000000000111111111000011111111111111111
11111110000000111111100000000000000001111111100000111111110000000001111111111111111111111111111000000000000001111111111100001111111111111111
11111100000000111111110000000000000001111111100001111111110000000001111111111111111111111111111100000000000011111111111110000111111111111111
11111000000000011111111000000000000001111111111111001111110000000000111111111111111111111111111110000000000111111111111111000011111111111111
11111000000000001111111100000000000001111111111110000111110000000000011100111111111111111111111111000000001111111111111111100000111111111111
11111100000000001111111110000000000001111111111100000011110000000000001001111111111111111111111111110000011111111000111111110000011111111111
11111110000000000111111111000000000011111111111110000011100000000000000001111111111111100011111111111000111111111000111111111000001111111111
11111111000000000001111111100000000001111111111111000001100000000000000000111111111111000011111111111111111111111000111111111100000111111111
11111111100000000000111111110000000001111111111111000001000000000000000000111111111111000011111111111111111111111000011111111100000011111111
11111111110000000000011111111000000000011111111111100000000000000000000000001111111111000011111111111111111111100000000111111100000001111111
11111111111000000000001111111100000000011111111111110000000000000000000000000111111111111111111111111111111111000000000110111110000000111111
11111111111100000000000111111110000000011111111111110000000000000000000000000011111111111111111111111111111000000000000000001110000000011111
11111111111110000000000011111111000000011111111111110000000000000000000000000011111111111111111111111111111100000000000000001110000000001111
11111111111111000000000001111111100000000000001111100000000000000000000000000001111111111111111111111111111110000000000000001110000000011111
11111111111111100000000000111111110000000000000000000000000000000000000000000000000111111111111111111111111111000000111100001100000000111111
11111111111111110000000000011111111100000000000000000000000000000000000000000000000111111111111111111111111111100001111110000000000001111111
11111111111111111000000000001111111110000000000000000000000000000000000000000000000111111111111111111111111111110011111111000000000011111111
11111111111111111100000000000111111111000000000000000000000000000000000000000000000111111111111111111001111111111111111110000000000111111111
11111111111111111110000000000011111111100000000000000000000000000000000000000000000000111111111111110000111111111111111110000000001111111111
11111111111111111111000000000001111111110000000000000000000000000000000000000000000000111111111111111000111111111111111100000000011111111111
11111111111111111111100000000000111111111000000000000000000000000000000000000000000001111111111111110000011111111111111000000000111111111111
11111111111111111111110000000000011111111100000000000000000000000000000000000000000011111111111111100000011111111111110000000001111111111111
11111111111111111111111100000000001111111110000000000000000000000000000000000000000111111111111011000000000001111111100000000011111111111111
11111111111111111111111110000000000011111111000000000000000000000000000000000000000011111111111000000000000011111111000000000111111111111111
11111111111111111111111111000000000001111111100000000000000000000000000000000000000011111111111000000000000011111110000000001111111111111111
11111111111111111111111111000000000000111111110000000000000000000000000000000000100011111111111100000000000011111100000000011111111111111111
11111111111111111111111111100000000000011111111100000000000000000000000000000001100111111111111110000000000011111000000000111111111111111111
11111111111111111111111111100000000000001111111110000000000000000000000000000011111111111111111111000000000001100000000001111111111111111111
11111111111111111111111111100000000000000111111110000000000000000000000000000111111111111100111111100001100001000000000011111111111111111111
11111111111111111111111110000000000000000011111111000000000000000000000000001111111111111001111111110011100000000000000111111111111111111111
11111111111111111111111100000000000000000001111111100000000000000000000000011111111111110001111111111111110000000000001111111111111111111111
11111111111111111111111000000000000000000000111111111111000000000000000000111111111111110000111111111111110000000000011111111111111111111111
11111111111111111111110000000000011000000000011111111110000000000000000000111111111111110000011111111111110000000000111111111111111111111111
11111111111111111111100000000000111100000000000111100000000000000000000000011111111111100000001111111111100000000001111111111111111111111111
11111111111111111110000000000011111110000000000111100000000000000000000000111111111111000000000001111111000000000011111111111111111111111111
11111111111111111100000000000111111111000000000001100000111100000000001001111111111000000000000001111110000000000111111111111111111111111111
11111111111111111000000000011111111111100000000001100000111111000000011111111111111000000000000001111100000000001111111111111111111111111111
11111111111111110000000000111111111111110000000000000011111111000000111111111111111100000000000001111000000000011111111111111111111111111111
11111111111111100000000001111111111111111000000000000111111100000001111111111111111110000000000001110000000000111111111111111111111111111111
11111111111111000000000011110000111111111100000000000111111110000011111111111111111111000001000001100000000000111111111111111111111111111111
11111111111111000000000000000000011111111110000000000011111111000111111111111001111111100011100000000000000000111111111111111111111111111111
11111111111111100000000000000000011111111111000000000001111111101111111111110000111111111111110000000000000000011111111111111111111111101111
11111111111111110000000000000000111111111111100000000000111111111111111111110001111111111111111000000000000000001111111111111111111111001111
11111111111111111000000000000001111111111111110000000000011111111111111111110000111111111111111000000000000000000111111111111111111100011111
11111111111111111111100000000011111111111111111000000000001111111111111111100000011111111111110000000000000000000011111111000000000000111111
11111111111111111111111100000111111111111111111100000000000111111111111111000000001111111111100000000011000000000000111110000000000001111111
11111111111111111111111111111111111111111111111110000000000011111111111110000000000011111111000000000111100000000000011100000000000011111111
11111111111111111111111111111111111111111111111111000000000001111111110000000000000011111110000000001111110000000000011100000000000111111111
11111111111111111111111111111111111111111111111111100000000000111111111000000000000111111100000000011111111000000000000000000000001111111111
11111111111111111111111111111111111111111111111111110000000000011111111100000000001111111000000000111111111100000000000000000000011111111111
11111111111111111111111111111111111111111111111111111000000000001111111110000000001111110000000001111111111110000000000000000000111111111111
11111111111111111111111111111111111111111111111111111100000000000111111111000000000111000000000011111111111111000000000000000001111111111111
11111111111111111111111111111111111111111111111111111110000000000011111111100111000010000000000111111111111111100000000000000011111111111111
11111111111111111111111111111111111111111111111111111111000000000000111111111111000000000000001111111111111111110000000000000111111111111111
11111111111111111111111111111111111111111111111111111111100000000000011111111111110000000000011111111111111111111000000000001111111111111111
11111111111111111111111111111111111111111111111111111111110000000000001111111111110000000000111111111111111111111100000000011111111111111111
11111111111111111111111111111111111111111111111111111111111000000000000111111111100000000001111111111111111111111110000000111111111111111111
11111111111111111111111111111111111111111111111111111111111100000000000011111111000000000011111111111111111111111111000001111111111111111111
11111111111111111111111111111111111111111111111111111111111110000000000001111110000000000111111111111111111111111111100011111111111111111111
11111111111111111111111111111111111111111111111111111111111111000000000000111100000000001111111111111111111111111111110111111111111111111111
11111111111111111111111111111111111111111111111111111111111111100000000000111000000000011111111111111111111111111111111111111111111111111111
11111111111111111111111111111111111111111111111111111111111111110000000000000000000000111111111111111111111111111111111111111111111111111111
11111111111111111111111111111111111111111111111111111111111111111000000000000000000001111111111111111111111111111111111111111111111111111111
11111111111111111111111111111111111111111111111111111111111111111100000000000000000011111111111111111111111111111111111111111111111111111111
11111111111111111111111111111111111111111111111111111111111111111110000000000000000111111111111111111111111111111111111111111111111111111111
11111111111111111111111111111111111111111111111111111111111111111111000000000000001111111111111111111111111111111111111111111111111111111111
11111111111111111111111111111111111111111111111111111111111111111111100000000000011111111111111111111111111111111111111111111111111111111111
11111111111111111111111111111111111111111111111111111111111111111111110000000000111111111111111111111111111111111111111111111111111111111111
11111111111111111111111111111111111111111111111111111111111111111111111000000001111111111111111111111111111111111111111111111111111111111111
11111111111111111111111111111111111111111111111111111111111111111111111100000011111111111111111111111111111111111111111111111111111111111111
11111111111111111111111111111111111111111111111111111111111111111111111110000111111111111111111111111111111111111111111111111111111111111111
11111111111111111111111111111111111111111111111111111111111111111111111111001111111111111111111111111111111111111111111111111111111111111111
11111111111111111111111111111111111111111111111111111111111111111111111111111111111111111111111111111111111111111111111111111111111111111111
11111111111111111111111111111111111111111111111111111111111111111111111111111111111111111111111111111111111111111111111111111111111111111111
11111111111111111111111111111111111111111111111111111111111111111111111111111111111111111111111111111111111111111111111111111111111111111111
11111111111111111111111111111111111111111111111111111111111111111111111111111111111111111111111111111111111111111111111111111111111111111111
