11111111111111111111111111111111111111111111111111111111111111111111111111111111111111111111111111111111111111111111111111111111111111111111111111111111111111111111111111111111111111111111111111111111111111111111
11111111111111111111111111111111111111111111111111111111111111111111111111111111111111111111111111111111111111111111111111111111111111111111111111111111111111111111111111111111111111111111111111111111111111111111
11111111111111111111111111111111111111111111111111111111111111111111111111111111111111111111111111111111111111111111111111111111111111111111111111111111111111111111111111111111111111111111111111111111111111111111
11111111111111111111111111111111111111111111111111111111111111111111111111111111111111111111111111111111111111111111111111111111111111111111111111111111111111111111111111111111111111111111111111111111111111111111
11111111111111111111111111111111111111111111111111111111111111111111111111111111111111111111111111111111111111111111111111111111111111111111111111111111111111111111111111111111111111111111111111111111111111111111
11111111111111111111111111111111111111111111111111111111111111111111111111111111111111111111111111111111111111111111111111111111111111111111111111111111111111111111111111111111111111111111111111111111111111111111
11111111111111111111111111111111111111111111111111111111111111111111111111111111111111111111111111111111111111111111111111111111111111111111111111111111111111111111111111111111111111111111111111111111111111111111
11111111111111111111111111111111111111111111111111111111111111111111111111111111111111111111111111111111111111111111111111111111111111111111111111111111111111111111111111111111111111111111111111111111111111111111
11111111111111111111111111111111111111111111111111111111111111111111111111111111111111111111111111111111111111111111111111111111111111111111111111111111111111111111111111111111111111111111111111111111111111111111
11111111111111111111111111111111111111111111111111111111111111111111111111111111111111111111111111111111111111111111111111111111111111111111111111111111111111111111111111111111111111111111111111111111111111111111
11111111111111111111111111111111111111111111111111111111111111111111111111111111111111111111111111111111111111111111111111111111111111111111111111111111111111111111111111111111111111111111111111111111111111111111
11111111111111111111111111111111111111111111111111111111111111111111111111111111111111111111111111111111111111111111111111111111111111111111111111111111111111111111111111111111111111111111111111111111111111111111
11111111111111111111111111111111111111111111111111111111111111111111111111111111111111111111111111111111111111111111111111111111111111111111111111111111111111111111111111111111111111111111111111111111111111111111
11111111111111111111111111111111111111111111111111111111111111111111111111111111111111111111111111111111111111111111111110000000000111111111111111111111111111111111111111111111111111111111111111111111111111111111
11111111111111111111111111111111111111111111111111111111111111111111111111111111111111111111111111111111111111111111110000000000000011111111111111111111111111111111111111111111111111111111111111111111111111111111
11111111111111111111111111111111111111111111111111111111111111111111111111111111111111111111111111111111111111111111100000000000000000111111111111111111111111111111111111111111111111111111111111111111111111111111
11111111111111111111111111111111111111111111111111111111111111111111111111111111111111111111111111111111111111111111000000000000000000011111111111111111111111111111111111111111111111111111111111111111111111111111
11111111111111111111111111111111111111111111111111111111111111111111111111111111111111111111111111111111111111111110000000000000000000001111111111111111111111111111111111111111111111111111111111111111111111111111
11111111111111111111111111111111111111111111111111111111111111111111111111111111111111111111111111111111111111111100000000000000000000000011111111111111111111111111111111111111111111111111111111111111111111111111
11111111111111111111111111111111111111111111111111111111111111111111111111111111111111111111111111111111111111111000000000000000000000000011111111111111111111111111111111111111111111111111111111111111111111111111
11111111111111111111111111111111111111111111111111111111111111111111111111111111111111111111111111111111111111110000000000000000000000000011111111111111111111111111111111111111111111111111111111111111111111111111
11111111111111111111111111111111111111111111111111111111111111111111111111111111111111111111111111111111111111100000000000000000000000000001111111111111111111111111111111111111111111111111111111111111111111111111
11111111111111111111111111111111111111111111111111111111111111111111111111111111111111111111111111111111111111100000000000001111000000000001111111111111111111111111111111111111111111111111111111111111111111111111
11111111111111111111111111111111111111111111111111111111111111111111111111111111111111111111111111111111111111000000000000001111000000000001111111111111111111111111111111111111111111111111111111111111111111111111
11111111111111111111111111111111111111111111111111111111111111111111111111111111111111111111111111111111111111000000000000011111100000000001111111111111111111111111111111111111111111111111111111111111111111111111
11111111111111111111111111111111111111111111111111111111111111111111111111111111111111111111111111111111111111000000000000011111110000000001111111111111111111111111111111111111111111111111111111111111111111111111
11111111111111111111111111111111111111111111111111111111111111111111111111111111111111111111111111111111111111000000000000111111111000000000111111111111111111111111111111111111111111111111111111111111111111111111
11111111111111111111111111111111111111111111111111111111111111111111111111111111111111111111111111111111111111000000000000111111111000000000011111111111111111111111111111111111111111111111111111111111111111111111
11111111111111111111111111111111111111111111111111111111111111111111111111111111111111111111111111111111111111000000000000111111110000000000000111111111111111111111111111111111111111111111111111111111111111111111
11111111111111111111111111111111111111111111111111111111111111111111111111111111111111111111111111111111111111000000000000111111110000000000000001111111111111111111111111111111111111111111111111111111111111111111
11111111111111111111111111111111111111111111111111111111111111111111111111111111111111111111111111111111111111000000000000111111100000000000000000001111111111111111111111111111111111111111111111111111111111111111
11111111111111111111111111111111111111111111111111111111111111111111111111111111111111111111111111111111111111000000000000011100000000000000000000000001111111111111111111111111111111111111111111111111111111111111
11111111111111111111111111111111111111111111111111111111111111111111111111111111111111111111111111111111111111000000000000000000000000000000000000000000001111111111111111111111111111111111111111111111111111111111
11111111111111111111111111111111111111111111111111111111111111111111111111111111111111111111111111111111111111100000000000000000000000000000000000000000000011111111111111111111111111111111111111111111111111111111
11111111111111111111111111111111111111111111111111111111111111111111111111111111111111111111111111111111111111110000000000000000000000000000000000000000000001111111111111111111111111111111111111111111111111111111
11111111111111111111111111111111111111111111111111111111111111111111111111111111111111111111111111111111111111111000000000000000000000000000000000000000000000111111111111111111111111111111111111111111111111111111
11111111111111111111111111111111111111111111111111111111111111111111111111111111111111111111111111111111111111111100000000000000000000000001111100000000000000011111111111111111111111111111111111111111111111111111
11111111111111111111111111111111111111111111111111111111111111111111111111111111111111111111111111111111111111111110000000000000000000000111111111100000000000001111111111111111111111111111111111111111111111111111
11111111111111111111111111111111111111111111111111111111111111111111111111111111111111111111111111111111111111111111000000000000000000111111111111111100000000000111111111111111111111111111111111111111111111111111
11111111111111111111111111111111111111111111111111111111111111111111111111111111111111111111111111111111111111111111110000000000000001111111111111111111100000000011111111111111111111111111111111111111111111111111
11111111111111111111111111111111111111111111111111111111111111111111111111111111111111111111111111111111111111111111111100000000000111111111111111111111111000000001111111111111111111111111111111111111111111111111
11111111111111111111111111111111111111111111111111111111111111111111111111111111111111111111111111111111111111111111111111000000111111111111111111111111111100000000111111111111111111111111111111111111111111111111
11111111111111111111111111111111111111111111111111111111111111111111111111111111111111111111111111111111111111111111111111111111111111111111111111111111111110000000011111111111111111111111111111111111111111111111
11111111111111111111111111111111111111111111111111111111111111111111111111111111111111111111111111111111111111111111111111111111111111111111111111111111111110000000011111111111111111111111111111111111111111111111
11111111111111111111111111111111111111111111111111111111111111111111111111111111111111111111111111111111111111111111111111111111111111111111111111111111111111000000011111111111111111111111111111111111111111111111
11111111111111111111111111111111111111111111111111111111111111111111111111111111111111111111111111111111111111111111111111111111111111111111111111111111111111100000011111111111111111111111111111111111111111111111
11111111111111111111111111111111111111111111111111111111111111111111111111111111111111111111111111100001111111111111111111111111111111111111111111111111111111100000001111111111111111111111111111111111111111111111
11111111111111111111111111111111111111111111111111111111111111111111111111111111111111111100000000000000000111111111111111111111111111111111111111111111111111000000001111111111111111111111111111111111111111111111
11111111111111111111111111111111111111111111111111111111111111111111111111111111111111000000000000000000000000011111111111111111111111111111111111111111111111000000001111111111111111111111111111111111111111111111
11111111111111111111111111111111111111000011111111111111111111111111111111111111110000000000000000000000000000000000000111111111111111111111111111111111111111000000001111111111111111111111111111111111111111111111
11111111111111111111111111111111100000000000000111111111111111111111111111111110000000000000000000000000000000000000000000011111111111111111111111111111111111000000001111111111111111111111111111111111111111111111
11111111111111111111111111111110000000000000000011111111111111111111111111111100000000000000000001110000000000000000000000000001111111111111111111111111111110000000001111111111111111111111111111111111111111111111
11111111111111111111111111111100000000000000000000111111111111111111111111100000000000000000000011111100000000000000000000000000001111111111111111111111111110000000001111111111111111111111111111111111111111111111
11111111111111111111111111111000000000000000000000001111111111111111111111000000000000000000000111111111111000000000000000000000000011111111111111111111111100000000001111111111111111111111111111111111111111111111
11111111111111111111111111110000000000000000000000000111111111111111111100000000000000000000001111111111111111000000000000000000000000011111111111111111111100000000001111111111111111111111111111111111111111111111
11111111111111111111111111100000000001111100000000000011111111111111110000000000110000000000011111111111111111111000000000000000000000000011111111111111111000000000011111111111111111111111111111111111111111111111
11111111111111111111111111000000000111111111000000000001111111111111100000000001111000000000011111111111111111111110000000000000000000000000111111111111111000000000111111111111111111111111111111111111111111111111
11111111111111111111111111000000001111111111110000000000011111111111000000000011111100000000011111111111111111111111100000000000000000000000001111111111110000000001111111111111111111111111111111111111111111111111
11111111111111111111111110000000011111111111111000000000001111111100000000000111111100000000011111111111111111111111110000000000000000000000000011111111100000000001111111111111111111111111111111111111111111111111
11111111111111111111111110000000111111111111111110000000000111111000000000001111111110000000011111111111111111111111111100000000000000000000000000111111000000000011111111111111111111111111111111111111111111111111
11111111111111111111111100000000111111111111111111100000000001110000000000011111111111000000011111111111111111111111111111000000000000000000000000011110000000000111111111111111111111111111111111111111111111111111
11111111111111111111111100000001111111111111111111110000000000000000000000111111111111100000011111111111111111111111111111100000000111000000000000001100000000001111111111111111111111111111111111111111111111111111
11111111111111111111111000000011111111111111111111111000000000000000000011111111111111100000011111111111111111111111111111100001111111100000000000000000000000011111111111111111111111111111111111111111111111111111
11111111111111111111111000000111111111111111111111111000000000000000000111111111111111100000001111111111111111111111111111100001111111111000000000000000000000111111111111111111111111111111111111111111111111111111
11111111111111111111111000001111111111111111111111111110000000000000000111111111111111110000001111111111111111111111111111000011111111111100000000000000000011111111111111111111111111111111111111111111111111111111
11111111111111111111110000001111111111111111111111111110000000000000000011111111111111110000001111111111111111111111111111000011111111111111000000000000000111111111111111111111111111111111111111111111111111111111
11111111111111111111110000001111111111111111111111111111000000000000000001111111111111100000001111111111111111111111111110000011111111111111000000000000000111111111111111111111111111111111111111111111111111111111
11111111111111111111110000001111111111111111111111111110000000000000000000111111111111100000001111111111111111111111111110000001111111111110000000000000000111111111111111111111111111111111111111111111111111111111
11111111111111111111110000001111111111111111111111111100000000000000000000000000000000000000001111111111111111111111111110000001111111111100000000000000000011111111111111111111111111111111111111111111111111111111
11111111111111111111110000001111111111111111111111111000000000000000000000000000000000000000001111111111111111111111111110000000111111111000000000000000000001111111111111111111111111111111111111111111111111111111
11111111111111111111110000001111111111111111111111111000000000000000000000000000000000000000001111111111111111111111111100000000000000000000000000000000000000111111111111111111111111111111111111111111111111111111
11111111111111111111100000001111111111111111111111110000000000000000000000000000000000000000001111111111111111111111111100000000000000000000000000000000000000011111111111111111111111111111111111111111111111111111
11111111111111111111000000001111111111111111111111100000000000000000000000000000000000000000001111111111111111111111111100000000000000000000000000000000000000011111111111111111111111111111111111111111111111111111
11111111111111111110000000001111111111111111111111000000000000000000000000000000000000000000001111111111111111111111111100000000000000000000000000000000000000001111111111111111111111111111111111111111111111111111
11111111111111111100000000001111111111111111111111000000000000000000111111111111111000000000000111111111111111111111111000000000000000000000000000000000000000001111111111111111111111111111111111111111111111111111
11111111111000000000000000001111111111111111111110000000000100000000111111111111111100000000000011111111111111111111111000000000000111111100000000000010000000000111111111111111111111111111111111111111111111111111
11111111100000000000000000000111111111111111111100000000001110000000111111111111111110000000000011111111111111111111111000000000111111111100000000000110000000000111111111111111111111111111111111111111111111111111
11111110000000000000000000000111111111111111111100000000011110000000111111111111111111000000000001111111111111111111111000000001111111111110000000000111000000000111111111111111111111111111111111111111111111111111
11111100000000000000000000000111111111111111111000000000011110000000111111111111111111100000000001111111111111111111110000000011111111111111000000000111000000000011111111111111111111111111111111111111111111111111
11111000000000000000000000000011111111111111111000000000111110000000011111111111111111110000000000111111111111111111110000000111111111111111000000001111100000000011111111111111111111111111111111111111111111111111
11110000000000000000000000000011111111111111110000000000111111000000001111111111111111110000000000111111111111111111100000000111111111111111000000001111100000000001111111111111111111111111111111111111111111111111
11100000000000000000000000000001111111111111110000000001111111000000001111111111111111111000000000111111111111111111100000001111111111111110000000001111100000000001111111111111111111111111111111111111111111111111
11100000000000000011100000000001111111111111100000000001111111000000000111111111111111111000000000011111111111111111000000001111111111111110000000001111110000000000111111111111111111111111111111111111111111111111
11000000000000000111110000000000111111111111100000000011111111100000000011111111111111111100000000011111111111111111000000011111111111111110000000011111111000000000111111111111111111111111111111111111111111111111
11000000000000000111110000000000111111111111000000000011111111100000000001111111111111111110000000001111111111111110000000011111111111111100000000011111111100000000011111111111111111111111111111111111111111111111
11000000000000001111111000000000111111111111000000000011111111100000000000111111111111111110000000001111111111111110000000111111111111111100000000111111111110000000011111111111111111111111111111111111111111111111
10000000000000001111111100000000111111111110000000000111111111100000000000011111111111111111000000000111111111111100000000111111111111111000000000111111111111000000001111111111111111111111111111111111111111111111
10000000000000001111111100000000111111111110000000000111111111110000000000001111111111111111100000000111111111111100000001111111111111111000000001111111111111000000001111111111111111111111111111111111111111111111
10000000000000001111111000000000011111111110000000000111111111110000000000000111111111111111110000000011111111111100000001111111111111111000000001111111111111000000000111111111111111111111111111111111111111111111
10000000000000000111110000000000011111111110000000000111111111110000000000000011111111111111110000000001111111111000000011111111111111111000000011111111111111110000000111111111111111111111111111111111111111111111
10000000000000000011100000000000011111111100000000001111111111111000000000000001111111111111111000000001111111111000000011111111111111110000000111111111111111110000000111111111111111111111111111111111111111111111
10000000000000000000000000000000011111111100000000001111111111111000000000000000111111111111111000000000111111110000000111111111111111110000001111111111111111110000000011111111111111111111111111111111111111111111
11000000000000000000000000000000011111111100000000011111111111111000000000000000011111111111111100000000111111110000000111111111111111110000001111111111111111100000000001111111111111111111111111111111111111111111
11000000000000000000000000000000011111111000000000011111111111111100000000000000000111111111111110000000011111100000001111111111111111100000000111111111111110000000000001111111111111111111111111111111111111111111
11100000000000000000000000000000011111111000000000011111111111111100000000000000000011111111111111000000001111000000001111111111111111100000000000000000000000000000000000111111111111111111111111111111111111111111
11110000000000000000000000000000011111111000000000011111111111111110000000000000000001111111111111000000001111000000011111111111111111100000000000000000000000000000000000111111111111111111111111111111111111111111
11111000000000000000000000000000111111111000000000011111111111111110000000000000000000011111111111100000000110000000011111111111111111000000000000000000000000000000000000111111111111111111111111111111111111111111
11111110000000000000000000000001111111110000000000111111111111111110000000000000000000001111111111110000000000000000111111111111111000000000000000000000000000000000000000011111111111111111111111111111111111111111
11111111000000000000000000000011111111110000000000111111111111111110000000000110000000000111111111111000000000000000111111111100000000000000000000000000000000000000000000011111111111111111111111111111111111111111
11111111100000000000000000001111111111110000000000111111111111111111000000000111000000000001111111111000000000000000111111100000000000000000000001111111111111110000000000001111111111111111111111111111111111111111
11111111110000000000000000011111111111110000000001111111111111111111000000001111110000000000011111111100000000000000011100000000000000000000000111111111111111111100000000001111111111111111111111111111111111111111
11111111111110000000000001111111111111110000000001111111111111111111000000011111111100000000001111111100000000000000000000000000000000000000001111111111111111111110000000001111111111111111111111111111111111111111
11111111111111100000000011111111111111110000000011111111111111111111000001111111111110000000000000111110000000000000000000000000000000000000011111111111111111111111000000001111111111111111111111111111111111111111
11111111111111110000000111111111111111110000000011111111111111111111000001111111111111100000000000001110000000000000000000000000000000000000011111111111111111111111100000000111111111111111111111111111111111111111
11111111111111110000001111111111111111110000000111111111111111111111000001111111111111111000000000000000000000000000000000000000000000000000011111111111111111111111100000000111111111111111111111111111111111111111
11111111111111110000001111111111111111110000000111111111111111111111000001111111111111111100000000000000000000000000000000000000001100000000011111111111111111111111100000000111111111111111111111111111111111111111
11111111111111100000001111111111111111110000001111111111111111111111000001111111111111111111000000000000000000000000000000000001111100000000011111111111111111111111110000000011111111111111111111111111111111111111
11111111111111100000001111111111111111110000001111111111111111111111000000111111111111111111110000000000000000000000000000011111111110000000011111111111111111111111110000000011111111111111111111111111111111111111
11111111111111100000001111111111111111110000001111111111111111111111000000111111111111111111110000000001110000000000000001111111111111000000011111111111111111111111110000000011111111111111111111111111111111111111
11111111111111000000001111111111111111110000001111111111111111111111000000111111111111111111110000000011111000000000000001111111111111000000011111111111111111111111110000000011111111111111111111111111111111111111
11111111111110000000001111111111111111110000001111111111111111111111000000111111111111111111100000000011111000000000000001111111111111000000011111111111111111111111110000000011111111111111111111111111111111111111
11111111111100000000001111111111111111110000001111111111111111111111000000111111111111111100000000000011111000000000000000011111111111000000011111111111111111111111110000000011111111111111111111111111111111111111
11111111111000000000011111111111111111110000001111111111111111111111000000111111111111110000000000000001110000000000000000001111111111000000011111111111111111111111110000000011111111111111111111111111111111111111
11111111110000000000111111111111111111110000001111111111111111111111100000111111111111100000000000000000000000000000000000000111111110000000011111111111111111111111110000000011111111111111111111111111111111111111
11111111100000000000111111111111111111110000001111111111111111111111100000011111111110000000000000000000000000000000000000000011111110000000011111111111111111111111110000000011111111111111111111111111111111111111
11111111000000000001111111111111111111110000001111111111111111111111100000011111111000000000000000000000000000000000000000000000000000000000111111111111111111111111110000000111111111111111111111111111111111111111
11111110000000000011111111111111111111110000001111111111111111111111000000011111000000000000000000000000000000000000000000000000000000000000111111111111111111111111100000000111111111110000000000111111111111111111
11111110000000000111111111111111111111110000000111111111111111111110000000000000000000000000000000000000000000000000000000000000000000000000111111111111111111111111000000001111111111100000000000000000111111111111
11111111000000001111111111111111111111110000000111111111111111110000000000000000000000000000000000000000000000000000000000000000000000000000111111111111111111111111000000001111111111000000000000000000011111111111
11111111100000011111111111111111111111110000000111111111111111000000000000000000000000011000000000000000000000000000000011111110000000000000111111111111111111111110000000001111111110000000000000000000001111111111
11111111110001111111111111111111111111110000000111111111111000000000000000000000000011111100000000000000000111000000001111111111100000000000111111111111111111111100000000001111111100000000000000000000000111111111
11111111111011111111111111111111111111110000000011111110000000000000000000000000001111111110000000000000111111000000011111111111111000000001111110000111111111110000000000001111111000000000000000000000000011111111
11111111111111111111111111111111111111110000000011111000000000000000000000000000111111111110000000000111111111000000011111111111111100000001111000000000000000000000000000011111110000000000001110000000000011111111
11111111111111111111111111111111111111110000000000000000000000000000000000000011111111111110000000011111111111100000111111111111111110000001000000000000000000000000000000011111110000000000111111000000000001111111
11111111111111111111111111111111111111111100000000000000000000000000000000001111111111111100000000111111111111110000111111111111111110000000000000000000000000000000000000011111110000000000111111000000000000111111
11111111111111111111111111111111111111111110000000000000000000000000000000011111111111111110000001111111111111110000011111111111111110000000000000000000000000000000000000111111100000000001111111100000000000011111
11111111111111111111111111111111111111111111100000000000000011000000000000111111111111111110000001111111111111110000011111111111111111000000000000000000000000000000000000111111100000000001111111110000000000011111
11111111111111111111111111111111111111111111100000000000000111100000000001111111111111110100000011111111111111110000011111111111111111000000000111111111111000000000000000111111000000000001111111110000000000001111
11111111111111111111111111111111111111111111100000000000011111100000000001111111111111100000000011111111111111110000011111111111111111000000001111111111111110000000000000111111000000000001111111100000000000001111
11111111111111111111111111111111111111111110000000000011111111110000000011111111111111000000000011111111111111110000011111111111111111100000001111111111111111100000000001111110000000000001111111000000000000001111
11111111111111111111111111111111111111111100000000001111111111110000000011111111111111000000000111111111111111110000011111111111111111110000001111111111111111110000000001111110000000000000111110000000000000001111
11111111111111111111111111111111111111111000000000011111111111100000000111111111111110000000000111111111111111110000011111111111111111110000000111111111111111110000000001111110000000000000000000000000000000001111
11111111111111111111111111111111111111111000000000011111111111000000001111111111111100000000001111111111111111111000001111111111111111111000000111111111111111110000000001111110000000000000000000000000000000001111
11111111111111111111111111111111111111111100000000011111111111000000011111111111111000000000001111111111111111111000001111111111111111111100000011111111111111100000000011111110000000000000000000000000000000001111
11111111111111111111111111111111111111111100000000011111111111000000011111111111111000000000000011111111111111111000000011111111111111111100000011111111111111100000000011111111000000000000000000000000000000001111
11111111111111111111111111111111111111111100000000001111111111000000111111111111110000000000000011111111111111110000000001111111111111111110000001111111111111000000000111111111000000000000000000000000000000001111
11111111111111111111111111111111111111111110000000000111111110000001111111111111100000000000000000000000000000000000000001111111111111111110000000111111111111000000000111111111100000000000000000000000000000011111
11111111111111111111111111111111111111111110000000000111111110000001111111111111000000000000000000000000000000000000000000001111111111111111000000111111111110000000001111111111100000000000000000000000000000111111
11111111111111111111111111111111111111111111000000000111111100000011111111111110000000000000000000000000000000000000000000000011111111111111000000011111111100000000011111111111110000000000000000000000000001111111
11111111111111111111111111111111111111111111000000000111111000000111111111111100000000000000000000000000000000000000000000000000111111111111100000011111111100000000111111111111110000000000000000000000000111111111
11111111111111111111111111111111111111111111100000000001110000000111111111111000000000000000000000000000000000000000000000000000001111111111100000001111111000000000111111111111111000000000000000000000011111111111
11111111111111111111111111111111111111111111100000000000000000001111111111110000000000000000000000000000000000000000000000000000000111111111000000001111110000000001111111111111111000000000000000000011111111111111
11111111111111111111111111111111111111111111110000000000000000001111111110000000000000000000000000000000000000000000000000000000000001111100000000000111110000000001111111111111111100000000000000111111111111111111
11111111111111111111111111111111111111111111110000000000000000000111111000000000000000000000000111111111111111111100000000000000000000000000000000000111100000000011111111111111111100000000111111111111111111111111
11111111111111111111111111111111111111111111110000000000000000000001110000000000000000000000011111111111111111111111111110000000000000000000000000000000000000000111111111111111111100000001111111111111111111111111
11111111111111111111111111111111111111111111111000000000000000000000000000000000000000000011111111111111111111111111111111110000000000000000000000000000000000001111111111111111111110000001111111111111111111111111
11111111111111111111111111111111111111111111111000000000000000000000000000000000000000001111111111111111111111111111111111111110000000000000000000000000000000011111111111111111111110000000111111111111111111111111
11111111111111111111111111111111111111111111111100000000000000000000000000000000000000111111111111111111111111111111111111111111111000000000000000000000000000111111111111111111111110000000111111111111111111111111
11111111111111111111111111111111111111111111111110000000000000000000000000000000000011111111111111111111111111111111111111111111111111000000000000000000000001111111111111111111111110000000111111111111111111111111
11111111111111111111111111111111111111111111111111000000000000000000000000000000000111111111111111111111111111111111111111111111111111110000000000000000000111111111111111111111111110000000111111111111111111111111
11111111111111111111111111111111111111111111111111100000000000000000000000000000001111111111111111111111111111111111111111111111111111111000000000000000001111111111111111111111111110000000111111111111111111111111
11111111111111111111111111111111111111111111111111110000000000000000000000000000011111111111111111111111111111111111111111111111111111111100000000000000000111111111111111111111111110000000111111111111111111111111
11111111111111111111111111111111111111111111111111111000000000000000000000000000011111111111111111111111111111111111111111111111111111111110000000000000000111111111111111111111111100000000111111111111111111111111
11111111111111111111111111111111111111111111111111110000000000000000000000000000011111111111111111111111111111111111111111111111111111111110000000000000000011111111111111111111111000000000111111111111111111111111
11111111111111111111111111111111111111111111111111100000000000000000000000000000011111111111111111111111111111111111111111111111111111111111000000000000000011111111111111111111111000000000111111111111111111111111
11111111111111111111111111111111111111111111111111000000000110000000000000000000011111111111111111111111111111111111111111111111111111111110000000000000000001111111111111111111110000000000111111111111111111111111
11111111111111111111111111111111111111111111111110000000001111000000000000000000011111111111111111111111111111111111111111111111111111111000000000000000000000111111111111111111100000000000111111111111111111111111
11111111111111111111111111111111111111111111111100000000011111100000000000000000001111111111111111111111111111111111111111111111111111100000000000000000000000001111111111111111100000000001111111111111111111111111
11111111111111111111111111111111111111111111111000000000111111110000000000000000001111111111111111111111111111111111111111111111111110000000000000011100000000000111111111111110000000000001111111111111111111111111
11111111111111111111111111111111111111111111110000000001111111111100000000000000001111111111111111111111111111111111111111111111111100000000000001111111000000000011111111111100000000000011111111111111111111111111
11111111111111111111111111111111111111111111100000000011111111111110000000000000001111111111111111111111111111111111111111111111111000000000000111111111100000000001111111110000000000000111111111111111111111111111
11111111111111111111111111111111111111111111100000000011111111111111100000000000000111111111111111111111111111111111111111111100000000000000011111111111110000000000000000000000000000001111111111111111111111111111
11111111111111111111111111111111111111111111000000000111111111111111110000000000000011111111111111111111111111111111111111100000000000000001111111111111110000000000000000000000000000001111111111111111111111111111
11111111111111111111111111111111111111111111000000001111111111111111111000000000000000001111111111111111111111111111111110000000000000000111111111111111111000000000000000000000000000011111111111111111111111111111
11111111111111111111111111111111111111111111000000001111111111111111111110000000000000000111111111111111111111111110000000000000000000001111111111111111111100000000000000000000000000111111111111111111111111111111
11111111111111111111111111111111111111111110000000111111111111111111111111000000000000000000000000000000000000000000000000000000000000111111111111111111111110000000000000000000000001111111111111111111111111111111
11111111111111111111111111111111111111111110000000111111111111111111111111110000000000000000000000000000000000000000000000000000000011111111111111111111111111100000000000000000000111111111111111111111111111111111
11111111111111111111111111111111111111111110000001111111111111111111111111111100000000000000000000000000000000000000000000000000001111111111111111111111111111110000000000000000001111111111111111111111111111111111
11111111111111111111111111111111111111111110000001111111111111111111111111111111100000000000000000000000000000000000000000000000011111111111111111111111111111111100000000000000111111111111111111111111111111111111
11111111111111111111111111111111111111111100000001111111111111111111111111111111111100000000000000000000000000000000000000000011111111111111111111111111111111111111000000000011111111111111111111111111111111111111
11111111111111111111111111111111111111111100000001111111111111111111111111111111111111111100000000000000000000000000000000011111111111111111111111111111111111111111110000011111111111111111111111111111111111111111
11111111111111111111111111111111111111111100000001111111111111111111111111111111111111111111110000000000000000000000001111111111111111111111111111111111111111111111111111111111111111111111111111111111111111111111
11111111111111111111111111111111111111111100000001111111111111111111111111111111111111111111111111111111111111110000001111111111111111111111111111111111111111111111111111111111111111111111111111111111111111111111
11111111111111111111111111111111111111111100000000111111111111111111111111111111111111111111111111111111111111110000001111111111111111111111111111111111111111111111111111111111111111111111111111111111111111111111
11111111111111111111111111111111111111111100000000111111111111111111111111111111111111111111111111111111111111110000001111111111111111111111111111111111111111111111111111111111111111111111111111111111111111111111
11111111111111111111111111111111111111111100000000011111111111111111111111111111111111111111111111111111111111110000001111111111111111111111111111111111111111111111111111111111111111111111111111111111111111111111
11111111111111111111111111111111111111111100000000011111111111111111111111111111111111111111111111111111111111110000000111111111111111111111111111111111111111111111111111111111111111111111111111111111111111111111
11111111111111111111111111111111111111111110000000001111111111111111111111111111111111111111111111111111111111110000000111111111111111111111111111111111111111111111111111111111111111111111111111111111111111111111
11111111111111111111111111111111111111111110000000000111111111111111111111111100000000011111111111111111111111111000000111111111111111111111111111111111111111111111111111111111111111111111111111111111111111111111
11111111111111111111111111111111111111111111000000000001111111111111111111111000000000000111111111111111111111111000000111111111111111111111111111111111111111111111111111111111111111111111111111111111111111111111
11111111111111111111111111111111111111111111100000000000000011111111111111100000000000000001111111111111111111111100000111111111111111111111111111111111111111111111111111111111111111111111111111111111111111111111
11111111111111111111111111111111111111111111110000000000000000000111000000000000000000000000111111111111111111111100000111111111111111111111111111111111111111111111111111111111111111111111111111111111111111111111
11111111111111111111111111111111111111111111111100000000000000000000000000000000000000000000011111111111111111111100000111111111111111111111111111111111111111111111111111111111111111111111111111111111111111111111
11111111111111111111111111111111111111111111111100000000000000000000000000000000000000000000001111111111111111111100000111111111111111111111111111111111111111111111111111111111111111111111111111111111111111111111
11111111111111111111111111111111111111111111111110000000000000000000000000000000000000000000000111111111111111111100000111111111111111111111111111111111111111111111111111111111111111111111111111111111111111111111
11111111111111111111111111111111111111111111111111100000000000000000000000000000111100000000000011111111111111111111111111111111111111111111111111111111111111111111111111111111111111111111111111111111111111111111
11111111111111111111111111111111111111111111111111111110000000000000000000000000111100000000000001111111111111111111111111111111111111111111111111111111111111111111111111111111111111111111111111111111111111111111
11111111111111111111111111111111111111111111111111111111100000000000000000000001111110000000000001111111111111111111111111111111111111111111111111111111111111111111111111111111111111111111111111111111111111111111
11111111111111111111111111111111111111111111111111111111111110000000000000000001111111000000000001111111111111111111111111111111111111111111111111111111111111111111111111111111111111111111111111111111111111111111
11111111111111111111111111111111111111111111111111111111111111111111100000000001111111100000000001111111111111111111111111111111111111111111111111111111111111111111111111111111111111111111111111111111111111111111
11111111111111111111111111111111111111111111111111111111111111111111100000000001111111100000000001111111111111111111111111111111111111111111111111111111111111111111111111111111111111111111111111111111111111111111
11111111111111111111111111111111111111111111111111111111111111111111100000000001111111100000000001111111111111111111111111111111111111111111111111111111111111111111111111111111111111111111111111111111111111111111
11111111111111111111111111111111111111111111111111111111111111111111000000000000111111000000000001111111111111111111111111111111111111111111111111111111111111111111111111111111111111111111111111111111111111111111
11111111111111111111111111111111111111111111111111111111111111111111000000000000011110000000000001111111111111111111111111111111111111111111111111111111111111111111111111111111111111111111111111111111111111111111
11111111111111111111111111111111111111111111111111111111111111111111000000000000000000000000000001111111111111111111111111111111111111111111111111111111111111111111111111111111111111111111111111111111111111111111
11111111111111111111111111111111111111111111111111111111111111111111000000000000000000000000000001111111111111111111111111111111111111111111111111111111111111111111111111111111111111111111111111111111111111111111
11111111111111111111111111111111111111111111111111111111111111111111000000000000000000000000000001111111111111111111111111111111111111111111111111111111111111111111111111111111111111111111111111111111111111111111
11111111111111111111111111111111111111111111111111111111111111111111000000000000000000000000000001111111111111111111111111111111111111111111111111111111111111111111111111111111111111111111111111111111111111111111
11111111111111111111111111111111111111111111111111111111111111111111000000000000000000000000000001111111111111111111111111111111111111111111111111111111111111111111111111111111111111111111111111111111111111111111
11111111111111111111111111111111111111111111111111111111111111111111100000000000000000000000000011111111111111111111111111111111111111111111111111111111111111111111111111111111111111111111111111111111111111111111
11111111111111111111111111111111111111111111111111111111111111111111110000000000000000000000000111111111111111111111111111111111111111111111111111111111111111111111111111111111111111111111111111111111111111111111
11111111111111111111111111111111111111111111111111111111111111111111111000000000000000000000001111111111111111111111111111111111111111111111111111111111111111111111111111111111111111111111111111111111111111111111
11111111111111111111111111111111111111111111111111111111111111111111111100000000000000000000011111111111111111111111111111111111111111111111111111111111111111111111111111111111111111111111111111111111111111111111
11111111111111111111111111111111111111111111111111111111111111111111111110000000000000000000111111111111111111111111111111111111111111111111111111111111111111111111111111111111111111111111111111111111111111111111
11111111111111111111111111111111111111111111111111111111111111111111111111000000000000000001111111111111111111111111111111111111111111111111111111111111111111111111111111111111111111111111111111111111111111111111
11111111111111111111111111111111111111111111111111111111111111111111111111111100000000000111111111111111111111111111111111111111111111111111111111111111111111111111111111111111111111111111111111111111111111111111
11111111111111111111111111111111111111111111111111111111111111111111111111111111111111111111111111111111111111111111111111111111111111111111111111111111111111111111111111111111111111111111111111111111111111111111
11111111111111111111111111111111111111111111111111111111111111111111111111111111111111111111111111111111111111111111111111111111111111111111111111111111111111111111111111111111111111111111111111111111111111111111
11111111111111111111111111111111111111111111111111111111111111111111111111111111111111111111111111111111111111111111111111111111111111111111111111111111111111111111111111111111111111111111111111111111111111111111
11111111111111111111111111111111111111111111111111111111111111111111111111111111111111111111111111111111111111111111111111111111111111111111111111111111111111111111111111111111111111111111111111111111111111111111
11111111111111111111111111111111111111111111111111111111111111111111111111111111111111111111111111111111111111111111111111111111111111111111111111111111111111111111111111111111111111111111111111111111111111111111
11111111111111111111111111111111111111111111111111111111111111111111111111111111111111111111111111111111111111111111111111111111111111111111111111111111111111111111111111111111111111111111111111111111111111111111
11111111111111111111111111111111111111111111111111111111111111111111111111111111111111111111111111111111111111111111111111111111111111111111111111111111111111111111111111111111111111111111111111111111111111111111
11111111111111111111111111111111111111111111111111111111111111111111111111111111111111111111111111111111111111111111111111111111111111111111111111111111111111111111111111111111111111111111111111111111111111111111
