11111111111111111111111111111111111111111111111111111111111111111111111111111111111111111111111111111111
11111111111111111111111111111111111111111111111111111111111111111111111111111111111111111111111111111111
11111111111111111111111111111111111111111111111111111111111111111111111111111111111111111111111111111111
11111111111111111111111111111111111111111111111111111111111111111111111111111111111111111111111111111111
11111111111111111111111111111111111111111111111111111111111111111111111111111111111111111111111111111111
11111111111111111111111111111111111111111111111111111111111111111111111111111111111111111111111111111111
11111111111111111111111111111111111111111111111111111111111111111111111111111111111111111111111111111111
11111111111111111111111111111111111111111111111111111111111111111111111111111111111111111111111111111111
11111111111111111111111111111111111111111111111111111111111111111111111111111111111111111111111111111111
11111111111111111111111111111111111111111111111111111111111111111111111111111111111111111111111111111111
11111111111111111111111111111111111111111111111111111111111111111111111111111111111111111111111111111111
11111111111111111111111111111111111111111111111111111111111111111111111111111111111111111111111111111111
11111111111111111111111111111111111111111111111111111111111111111111111111111111111111111111111111111111
11111111111111111111111111111111111111111111111111111111111111111111111111111111111111111111111111111111
11111111111111111111111111111111111111111111111111111111111111111111111111111111111111111111111111111111
11111111111111111111111111111111111111111111111111111111111111111111111111111111111111111111111111111111
11111111111111111111111111111111111111111111111111111111111111111111111111111111111111111111111111111111
11111111111111111111111111111111111111111111111111111111111111111111111111111111111111111111111111111111
11111111111111111111111111111111111111111111111111111111111111111111111111111111111111111111111111111111
11111111111111111111111111111111111111111111111111111111111111111111111111111111111111111111111111111111
11111111111111111111111111111111111111111111111111111111111111111111111111111111111111111111111111111111
11111111111111111111111111111111111111111111111111111111111111111111111111111111111111111111111111111111
11111111111111111111111111111111111111111111111111111111111111111111111111111111111111111111111111111111
11111111111111111111111111111111111111111111111111111111111111111111111111111111111111111111111111111111
11111111111111111111111111111111111111111111111111111111111111111111111111111111111111111111111111111111
11111111111111111111111111111111111111111111111111111111111111111111111111111111111111111111111111111111
11111111111111111111111111111111111111111111111111111111111111111111111111111111111111111111111111111111
11111111111111111111111111111111111111111111111111111111111111111111111111111111111111111111111111111111
11111111111111111111111111111111111111111111111111111111111111111111111111111111111111111111111111111111
11111111111111111111111111111111111111111111111111111111111111111111111111111111111111111111111111111111
11111111111111111111111111111111000001111111111111111111111111111111111111111111111111111111111111111111
11111111111111111111111111111000000000000111111111111111111111111111111111111111111111111111111111111111
11111111111111111111111111100000000000000001111111111111111111111111111111111111111111111111111111111111
11111111111111111000000001100000000000000000111111111111111111111111111111111111111111111111111111111111
11111111111111110000010001100000000000000000011111111111111111111111111111111111111111111111111111111111
11111111111110111000011000000000000000000000001111111111111111111111111111111111111111111111111111111111
11111111111100011100111000000000000000000000000111111111111111111111111111111111111111111111111111111111
11111111111000000100000000000000000000000000000111111111111111111111111111111111111111111111111111111111
11111111111000000000000000000000000000001100000111111111111111111111111111111111111111111111111111111111
11111111111000000000000000000000000000001100000111111111111111111111111111111111111111111111111111111111
11111111111000000000000000000000000000000000000111111111111111111111111111111111111111111111111111111111
11111111111000000000000000000000000000000000000111111111111111111111111111111111111111111111111111111111
11111111111000000000000000000000000000000000000001111111111111111111111111111111111111111111111111111111
11111111111000000000000000000000000000000001100000111111111111111111111111111111111111111111111111111111
11111111111000000000000000000000000000000001100000011111111111111111111111111111111111111111111111111111
11111111111000000000000000000000000000000000000000001111111111111111111100111111111111111111111111111111
11111111111000000000000000000000000000000000000000001111111111111111110000110001111111111111111111111111
11111111111000000000000000000000000000000001110000000111111111111111000000000000111111111111111111111111
11111111111100000000000000000000000000000001110000000011111111111100000000000000011111111111111111111111
11111111111100000000000000000000000000000000000000000011111111111000000000000000000111111111111111111111
11111111111100000000000000000000000000000000000000000011111111110000000011001100000011111111111111111111
11111111111110000000000000000000000000000000000000000011111111100000000111111100000111111111111111111111
11111111111110000000000000000000000000000000000000000111111111100000011111111100000111111111111111111111
11111111111110000000000000000000000000000000000000001111111111100000011111111000000111111111111111111111
11111111111111000000000000000000000000000000000000011111111111111000000111111100000111111111111111111111
11111111111111000000000000000000000000000000000000111111111111011000000011111100000001111111111111111111
11111111111111100000000000000000000000000000000001111111111111000000000001111000000011111111111111111111
11111111111111100000000000000000000000000000000011111110000111000000000000110000011111111111111111111111
11111111111111110000000000000000000000000000001111111000000111000000000000000001111111111111111111111111
11111111111111110000000000000000000000000000011111110000000111000000000000000000111111111111111111111111
11111111111111111100000000000000000000000111111111100000000011000000000000000000011111111111111111111111
11111111111111111100000000000000000000000011111110000000000011000000000000000000001111111111111111111111
11111111111111111100000000000000000000000011111110000000000011100000000000110000000111111111111111111111
11111111111111111110000000000000000000000001111000000000000001111100000000011000000111111111111111111111
11111111111111111111000000000000000110000001100000000000000001110000000000001100000011111111111111111111
11111111111111111111100000000000001110000000100000000000000001100000000000000110000001111111111111111111
11111111111111111111110000000000011111000000000000000000000001100001000000000111000000111111111111111111
11111111111111111111111100000000111111000000000000000000000001000001100000011111100000011111111111111111
11111111111111111111111110000001111111100000000000000000000001000001110011111111110000001111111111111111
11111111111111111111111111000011111111100000000000000000000000000011111111111111111000001111111111111111
11111111111111111111111111111111111110000000000000000000000000000011111111111111111000000111111111111111
11111111111111111111111111111111111000000000000000000000000000000111111111111111111100000011111111111111
11111111111111111111111111111111110000000000000000000000000000000110111111111111111110000001111111111111
11111111111111111111111111111111100000000000000000000000000000000000111111111111111111000000111111111111
11111111111111111111111111111111000000000000000000000000000000000000111111111111111111100000011111111111
11111111111111111111111111111111000000000000000000000000000000000000111111111111111111110000001111111111
11111111111111111111111111111111100000000000000000000000000000000000111111111111111111111000000111111111
11111111111111111111111111111111100000000000000000000000000000000000111111111111111111111000000011111111
11111111111111111111111111111111100000000000000000000000000000000000111111111111111111111100000011111111
11111111111111111111111111111110000000000000000000000000000000000000111111111111111111111110000111111111
11111111111111111111111111111110000000000000000000000000000000000000111111111111111111111111001111111111
11111111111111111111111111111100100000000000000000000000000000000000111111111111111111111111111111111111
11111111111111111111111111111001100000000000000000000000000000000000111111111111111111111111111111111111
11111111111111111111111111111001100000000000000000000000000000000001111111111111111111111111111111111111
11111111111111111111111111111000000000000000000000000000000000000001111111111111111111111111111111111111
11111111111111111111111111111000000000000000000000000000000000000011111111111111111111111111111111111111
11111111111111111111111111111000000000000000000000000000000000000111111111111111111111111111111111111111
11111111111111111111111111111000000000000000000000000000110000001111111111111111111111111111111111111111
11111111111111111111111111111000000000000000000000000000011000011111111111111111111111111111111111111111
11111111111111111111111111111000000000000000000000000000001100111111111111111111111111111111111111111111
11111111111111111111111111111100000000000000000000000000000111111111111111111111111111111111111111111111
11111111111111111111111111111110000000000000000000011000000111111111111111111111111111111111111111111111
11111111111111111111111111111111100000000000000000001100000011111111111111111111111111111111111111111111
11111111111111111111111111111111110000000000000000000110000001111111111111111111111111111111111111111111
11111111111111111111111111111111111000000000000000000011000001111111111111111111111111111111111111111111
11111111111111111111111111111111111100000000000000000001100000111111111111111111111111111111111111111111
11111111111111111111111111111111111111100000000000000011110000111111111111111111111111111111111111111111
11111111111111111111111111111111111111110000000000000111110000011111111111111111111111111111111111111111
11111111111111111111111111111111111111111100000000011111111000001111111111111111111111111111111111111111
11111111111111111111111111111111111111111111111111111111111100001111111111111111111111111111111111111111
11111111111111111111111111111111111111111111111111111111111100000111111111111111111111111111111111111111
11111111111111111111111111111111111111111111111111111111111110000011111111111111111111111111111111111111
11111111111111111111111111111111111111111111111111111111111110000001111111111111111111111111111111111111
11111111111111111111111111111111111111111111111111111111111111000000111111111111111111111111111111111111
11111111111111111111111111111111111111111111111111111111111111100000011111111111111111111111111111111111
11111111111111111111111111111111111111111111111111111111111111110000001111111111111111111111111111111111
11111111111111111111111111111111111111111111111111111111111111111000000111111111111111111111111111111111
11111111111111111111111111111111111111111111111111111111111111111100000011111111111111111111111111111111
11111111111111111111111111111111111111111111111111111111111111111110000001111111111111111111111111111111
11111111111111111111111111111111111111111111111111111111111111111111000000111111111111111111111111111111
11111111111111111111111111111111111111111111111111111111111111111111100000011111111111111111111111111111
11111111111111111111111111111111111111111111111111111111111111111111110000001111111111111111111111111111
11111111111111111111111111111111111111111111111111111111111111111111111000000111111111111111111111111111
11111111111111111111111111111111111111111111111111111111111111111111111100001111111111111111111111111111
11111111111111111111111111111111111111111111111111111111111111111111111110011111111111111111111111111111
11111111111111111111111111111111111111111111111111111111111111111111111111111111111111111111111111111111
11111111111111111111111111111111111111111111111111111111111111111111111111111111111111111111111111111111
11111111111111111111111111111111111111111111111111111111111111111111111111111111111111111111111111111111
11111111111111111111111111111111111111111111111111111111111111111111111111111111111111111111111111111111
11111111111111111111111111111111111111111111111111111111111111111111111111111111111111111111111111111111
11111111111111111111111111111111111111111111111111111111111111111111111111111111111111111111111111111111
11111111111111111111111111111111111111111111111111111111111111111111111111111111111111111111111111111111
11111111111111111111111111111111111111111111111111111111111111111111111111111111111111111111111111111111
11111111111111111111111111111111111111111111111111111111111111111111111111111111111111111111111111111111
11111111111111111111111111111111111111111111111111111111111111111111111111111111111111111111111111111111
11111111111111111111111111111111111111111111111111111111111111111111111111111111111111111111111111111111
11111111111111111111111111111111111111111111111111111111111111111111111111111111111111111111111111111111
11111111111111111111111111111111111111111111111111111111111111111111111111111111111111111111111111111111
