1111111111111111111111111111111111111111111111111111
1111111111111111111111111111111111111111111111111111
1111111111111111111111111111111111111111111111111111
1111111111111111111111111111111111111111111111111111
1111111111111111111111111111111111111111111111111111
1111111111111111111111111111111111111111111111111111
1111111111111111111111111111111111111111111111111111
1111111111111111111111111111111111111111111111111111
1111111111111111111111111111111111111111111111111111
1111111111111111111111111111111111111111111111111111
1111111111111111111111111111111111111111111111111111
1111111111111111111111111111111011111111111111111111
1111111111111111111111111111110001111111111111111111
1111111111111111111111111111100000111111111111111111
1111111111111111111111111111100000011111111111111111
1111111111111111111111111111000000111111111111111111
1111111111111111111111111110000000011111111111111111
1111111111111111111111111000000000001111111111111111
1111111111111111111111110000000000000110111111111111
1111111111111111111111100000000000000000011111111111
1111111111111111111111000000000011000000011111111111
1111111111111111111110000000001111000000111111111111
1111111111111111111111000000111111000001111111111111
1111111111111111111111000000111111000001111111111111
1111111111111111111110000000011111100000111111111111
1111111111111111111100000000001111100000011111111111
1111111111111111111000000000000001100000001111111111
1111111111111111110000000000000000000000000111111111
1111111111111011000000000000000000000000000011111111
1111111110000000000000000000000000000000000111111111
1111111111000000001000000000000000000000001111111111
1111111111110000011100000000000000000000011111111111
1111111111111100111110000000000000000000111111111111
1111111111111111111111000000000000000001111111111111
1111111111111111111111100000000000000011111111111111
1111111111111111111111110000000000000111111111111111
1111111111111111111111111000000000001111111111111111
1111111111011111111111111100000000011111111111111111
1111111110001111111111111100000000111111111111111111
1111111110000111111111111000000001111111111111111111
1111111111000011111111110000000011111111111111111111
1111111111100001111111100000000111111111111111111111
1111111111110000111111000000001111111111111111111111
1111111111111000011110000000011111111111111111111111
1111111111111100001100000000111111111111111111111111
1111111111111110000000000001111111111111111111111111
1111111111111111000000000011111111111111111111111111
1111111111111111100000000111111111111111111111111111
1111111111111111110000001111111111111111111111111111
1111111111111111111000011111111111111111111111111111
1111111111111111111111111111111111111111111111111111
1111111111111111111111111111111111111111111111111111
1111111111111111111111111111111111111111111111111111
1111111111111111111111111111111111111111111111111111
