11111111111111111111111111111111111111111111111111111111111111111111111111111111
11111111111111111111111111111111111111111111111111111111111111111111111111111111
11111111111111111111111111111111111111111111111111111111111111111111111111111111
11111111111111111111111111111111111111111111111111111111111111111111111111111111
11111111111111111111111111111111111111111111111111111111111111111111111111111111
11111111111111111111111111111111111111111111111111111111111111111111111111111111
11111111111111111111111111111111111111111111111111111111111111111111111111111111
11111111111111111111111111111111111111111111111111111111111111111111111111111111
11111111111111111111111111111111111111111111111111111111111111111111111111111111
11111111111111111111111111111111111111111111111111111111111111111111111111111111
11111111111111111111111111111111111111111111111111111111111111111111111111111111
11111111111111111111111111111111111111111111111111111111111111111111111111111111
11111111111111111111111111111111111111111111111111111111111111111111111111111111
11111111111111111111111111111111111111111111111111111111111111111111111111111111
11111111111111111111111111111111111111111111111111111111111111111111111111111111
11111111111111111111111111111111111111111111111111111111111111111111111111111111
11111111111111111111111111111111111111111111111111111111111111111111111111111111
11111111111111111111111111111111111111111111111111111111111111111111111111111111
11111111111111111111111111111111111111101111111111111111111111111111111111111111
11111111111111111111111111111111111111101111111111111111111111111111111111111111
11111111111111111111111111111111111111000011111111111111111111111111111111111111
11111111111111111111111111111111111111000011111111111011111111111111111111111111
11111111111111111111111111111111111111000011111111100001111111111111111111111111
11111111111111111111111111111111111111000011111111100001111111111111111111111111
11111111111111111111111111111111111111100001111111000011111111111111111111111111
11111111111111111111111111111111111111000000001110000111111111111111111111111111
11111111111111111111111111111111111110000000000000001111111111111111111111111111
11111111111111111111111111111111111110000000000000011111111111111111111111111111
11111111111111111111111111111111100000000000000000011111111111111111111111111111
11111111111111111111111111110110000000000000000000111111111111100111111111111111
11111111111111111111111111110110000000000000000000111111111111100011111111111111
11111111111111111111111111110010000000000000000000011111111111000111111111111111
11111111111111111111111111110011000000000000000000011111111111000111111111111111
11111111111111111111111111111011000000000000000000001111111110001111111111111111
11111111111111111111111111111011000000000000000000001111111100011111111111111111
11111111111111111111111111100011000000000000000000000011111000011111111111111111
11111111111111111111110001100000000000000000000000000000000000011111111111111111
11111111111111111111100000100000000000000000000000000000000000001111111111111111
11111111111111111111100000000000000000000000000000000000000011111111111111111111
11111111111111111111100000000000000000000000000000000000000111111111111111111111
11111111111111111111110000000000000000000000000000000000001111111111111111111111
11111111111111111111111000000000000000000000000000000000001111111111111111111111
11111111111111111111111000000000000000000000000000000000011111111111111111111111
11111111111111111111111100000000000000000000000000000000011111111110011111111111
11111111111111111111111110000000000000000000000000000000011111111110011111111111
11111111111111111111111110000000000000000000000000000000001111111110001111111111
11111111111111111111111110000000000000000000000000000000000111111100001111111111
11111111111111111111111110000000000000000000000000000000000001110000001111111111
11111111111111111111111100000000000000000000000000000000000000000000001111111111
11111111111111111111111000000000000000000000000000000000000000000000001111111111
11111111111111111111100000000000000000000000000000000000000000000000001111111111
11111111111111111111000000000000000000000000000000000001111000000000011111111111
11111111111111111111000000000000000000000000000000000011111100000000011111111111
11111111111111111110000000000000000000000000000000000011111100000000011111111111
11111111111111101100000000000000000000000000000000000011111100000000111111111111
11111111111111101100000000000000000000000000000000000011111100000000111111111111
11111111111111101100000000000000000000000000000000000001111100000001111111111111
11111111111111000100000000000000000000000000000000000000000000000001111111111111
11111111111110000000000000000000000000000000111100000000000000000011111111111111
11111111111110000000000000000000000000000001111110000000000000000111111111111111
11111111111110000000000000000000000000000011111111000000000000001111111111111111
11111111111111000000000000000000000000000011111111000000000000011111111111111111
11111111111111000000000000000000000000000011111111000000000000111111111111111111
11111111111111000000000000000000000000001111111110000000000001111111111111111111
11111111111110000000000000000000000000111111111100000000000011111111111111111111
11111111111110000000000000000000000001111111111000000000001111111111111111111111
11111111111100000000000000000000000001111111110000000000111111111111111111111111
11111111111100000000000000000000000001111111000000000011111111111111111111111111
11111111111100000000000000000000000000111100000000011111111111111111111111111111
11111111111100000000000000000000000000000000000001111111111111111111111111111111
11111111111100000000000000000000000000000000000011111111111111111111111111111111
11111111111100000000000000000000000000000000001111111111111111111111111111111111
11111111111110000000000000000000000000000000011111111111111111111111111111111111
11111111111111000000000000000000000000000000111111111111111111111111111111111111
11111111111111100000000000000000000000000011111111111111111111111111111111111111
11111111111111111000000000000000000000000111111111111111111111111111111111111111
11111111111111111100000000000000000000001111111111111111111111111111111111111111
11111111111111111110000000000000000000111111111111111111111111111111111111111111
11111111111111111111110000000000000001111111111111111111111111111111111111111111
11111111111111111111111111111111111111111111111111111111111111111111111111111111
