11111111111111111111111111111111111111111111111111111111111111111111111111111111111111111111
11111111111111111111111111111100011111111111111111111111111111111111111111111111111111111111
11111111111111111111111111100000011111111111111111111111111111111111111111111111111111111111
11111111111111111111111111100000001111111111111111111111111111111111111111111111111111111111
11111111111111111111111111110000001111111111111111111111111111111111111111111111111111111111
11111111111111111111111111110000000111111111111111111111111111111111111111111111111111111111
11111111111111111111111111111000000111111111111111111111111111111111111111111111111111111111
11111111111111111111111111111000000011111111111111111111111111111111111111111111111111111111
11111111111111111111111111111100000001111111111111111111111111111111111111111111111111111111
11111111111111111111111111111100000001111111111111111111111111111111111111111111111111111111
11111111111111111111111111111110000000111111111111111111111111111111111111111111111111111111
11111111111111111111111111111110000000111111111111111111111111111111111111111111111111111111
11111111111111111111111111111111000000111111111111111111111111111111111111111111111111111111
11111111111111111111111111111111110000111111111111111111111111111111111111111111111111111111
11111111111111111111111111111111110000111111111111111111111111111111111111111111111111111111
11111111111111111111111111111111111000011111111111111111111111111111111111111111111111111111
11111111111111111111111111111111111000001111111111111111111111111111111111111111111111111111
11111111111111111111111111111111111000001111111111111111111111111111111111111111111111111111
11111111111111111111111111111111111000001111111111111111111111111111111111111111111111111111
11111111111111111111111111111111111000001111111111111111111111111111111111111111111111111111
11111111111111111111111111111111111000000111111111111111111111111111111111111111111111111111
11111111111111111111111111111111111100000111111111111111111111111111111111111111111111111111
11111111111111111111111111111111111100000111111111111111111111111111111111111111111111111111
11111111111111111111111111111111111100000111111111111111111111111111111111111111111111111111
11111111111111111111111111111111111110000011111111111111111111111111111111111111111111111111
11111111111111111111111111111111111110000011111111111111111111111111111111111111111111111111
11111111111111111111111111111111111110000011100000000011111111111111111111111111111111111111
11111111111111111111111111111111111110000001100000000000011111111111111111111111111111111111
11111111111111111111111111111111111111000001000000000000111111111111111111111111111111111111
11111111111111111111111111111111100111000000000000000001111111111111111111111111111111111111
11111111111111111111111111111111000111000000000000000011011111111111111111111111111111111111
11111111111111111111111111111110000111000000000000000110011111111111111111111111111111111111
11111111111111111111111111111100000000000000000000001100011111111111111111111111111111111111
11111111111111111111111111111000000000000000000000001100011111111111111111111111111111111111
11111111111111111111111111111000000000000000000000001000001111111111111111111111111111111111
11111111111111111111111111110000000000000000000000011000001111111111111111111111111111111111
11111111111111111111111111100000000000000000000000010000001111111111111111111111111111111111
11111111111111111111111111100000000000000000000000110000000001111111111111111111111111111111
11111111111111111111111111000000000000000000000000100000000000001111111111111111111111111111
11111111111111111111111111000000000000000000000001100000000000011111111111111111111111111111
11111111111111111111111111000000000000000000000011000000000001111111111111111111111111111111
11111111111111111111111110000000000000000000000010000000111111111111111111111111111111111111
11111110000000000000111110000000000000000000000110000000111111111111111111111111111111111111
11000000000000000000001110000000000000000000001100000001111111111111111111111111111111111111
11000000000000000000000111110000000000000000001100000001111111111111111111111111111111111111
11000000000000000000000001111000000000000000001000000011111111111111111101111111111111111111
11000000000000011100000000011000000000000000000000000111111111111111110001111111111111111111
11000000000000011111100000000000000000000000000000000111111111111111000001111111111111111111
11000111111111111111111000000000000000000000000000001111111111111100000001111111111111111111
11111111111111111111111110000000000000000000000000001110011111110000000001111111111111111111
11111111111111111111111111100000000000000000000000011100000000000000000001111111111111111111
11111111111111111111111111111000000000000000000000111000000000000000000001111111111111111111
11111111111111111111111111111100000000000000000000000000000000000000000001111111111111111111
11111111111111111111111111111100000000000000000000000000000000000000000011111111111111111111
11111111111111111111111111100000000000000000000000000000000000000000000011111111111111111111
11111111111111111111111111100000000000000000000000000000000000000000000111111111111111111111
11111111111111111111111111110000000000000000000000000000000000000000000111111111111111111111
11111111111111111111111111110000000000000000000000000000000000000000000111111111111111111111
11111111111111111111111111111000000000000000000000000000000000000000000111111111111111111111
11111111111111111111111111111000000000000000000000000000000000000000000111111111111111111111
11111111111111111111111111111100000000000000000000000000000000000000000000001111111111111111
11111111111111111111111111111110000000000000000000000000000000000000000000001111111111111111
11111111111111111111111111111111000000000000000000000000000000000000000000011111111111111111
11111111111111111111111111111111100000000000000000000000000000000000000000111111111111111111
11111111111111111111111111111111110000000000000000000000000000000000000001111111111111111111
11111111111111111111111111111111111000000000000000000000000000000000000011111111111111111111
11111111111111111111111111111111111100000000000000000000000000000000000111111111111111111111
11111111111111111111111111111111111100000000000000000000000000000000001111111111111111111111
11111111111111111111111111111111111100000000000000000000000000000000111111111111111111111111
11111111111111111111111111111111111110000000000000000000000000000011111111111111111111111111
11111111111111111111111111111111111111000000000000000000000000000111111111111111111111111111
11111111111111111111111111111111111111000000000000000000000000111111111111111111111111111111
11111111111111111111111111111111111110000011000000000000011111111111111111111111111111111111
11111111111111111111111111111111111110000011111111111111111111111111111111111111111111111111
11111111111111111111111111111111111110000011111111111111111111111111111111111111111111111111
11111111111111111111111111111111111100000011111111111111111111111111111111111111111111111111
11111111111111111111111111111111111100000011111111111111111111111111111111111111111111111111
11111111111111111111111111111111111100000011111111111111111111111111111111111111111111111111
11111111111111111111111111111111111000000111111111111111111111111111111111111111111111111111
11111111111111111111111111111111111000000111111111111111111111111111111111111111111111111111
11111111111111111111111111111111111000000111111111111111111111111111111111111111111111111111
11111111111111111111111111111111110000001111111111111111111111111111111111111111111111111111
11111111111111111111111111111111110000001111111111111111111111111111111111111111111111111111
11111111111111111111111111111111110000001111111111111111111111111111111111111111111111111111
11111111111111111111111111111111100000001111111111111111111111111111111111111111111111111111
11111111111111111111111111111111111000011111111111111111111111111111111111111111111111111111
11111111111111111111111111111111111111111111111111111111111111111111111111111111111111111111
11111111111111111111111111111111111111111111111111111111111111111111111111111111111111111111
11111111111111111111111111111111111111111111111111111111111111111111111111111111111111111111
11111111111111111111111111111111111111111111111111111111111111111111111111111111111111111111
11111111111111111111111111111111111111111111111111111111111111111111111111111111111111111111
11111111111111111111111111111111111111111111111111111111111111111111111111111111111111111111
11111111111111111111111111111111111111111111111111111111111111111111111111111111111111111111
11111111111111111111111111111111111111111111111111111111111111111111111111111111111111111111
11111111111111111111111111111111111111111111111111111111111111111111111111111111111111111111
11111111111111111111111111111111111111111111111111111111111111111111111111111111111111111111
