111111111111111111111111111111111111111111111111111111111111111111111111111111111111111111111111111111111111
111111111111111111111111111111111111111111111111111111111111111111111111111111111111111111111111111111111111
111111111111111111111111111111111111111111111111111111111111111111111111111111111111111111111111111111111111
111111111111111111111111111111111111111111111111111111111111111111111111111111111111111111111111111111111111
111111111111111111111111111111111111111111111111111111111111111111111111111111111111111111111111111111111111
111111111111111111111111111111111111111111111111111111111111111111111111111111111111111111111111111111111111
111111111111111111111111111111111111111111111111111111111111111111111111111111111111111111111111111111111111
111111111111111111111111111111111111111111111111111111111111111111111111111111111111111111111111111111111111
111111111111111111111111111111111111111111111111111111111111111111111111111111111111111111111111111111111111
111111111111111111111111111111111111111111111111111111111111111111111111111111111111111111111111111111111111
111111111111111111111111111111111111111111111111111111111111111111111111111111111111111111111111111111111111
111111111111111111111111111111111111111111111111111111111111111111111111111111111111111111111111111111111111
111111111111111111111111111111111111111111111111111111111111111111111111111111111111111111111111111111111111
111111111111111111111111111111111111111111111111111111111111111111111111111111111111111111111111111111111111
111111111111111111111111111111111111111111111111111111111111111111111111111111111111111111111111111111111111
111111111111111111111111111111111111111111111111111111111111111111111111111111111111111111111111111111111111
111111111111111111111111111111111111111111111111111111111111111111111111111111111111111111111111111111111111
111111111111111111111111111111111111111111111111111111111111111111111111111111111111111111111111111111111111
111111111111111111111111111111111111111111111111111111111111111111111111111111111111111111111111111111111111
111111111111111111111111111111111111111111111111111111111111111111111111111111111111111111111111111111111111
111111111111111111111111111111111111111111111111111111111111111111111111111111111111111111111111111111111111
111111111111111111111111111111111111111111111111111111111111111111111111111111111111111111111111111111111111
111111111111111111111111111111111111111111111111111111111111111111111111111111111111111111111111111111111111
111111111111111111111111111111111111111111111111111111111111111111111111111111111111111111111111111111111111
111111111111111111111111111111111111111111111111111111111111111111111111111111111111111111111111111111111111
111111111111111111111111111111111111111111111111111111111111111111111111111111111111111111111111111111111111
111111111111111111111111111111111111111111111111111111111111111111111111111111111111111111111111111111111111
111111111111111111111111111111111111111111111111111111111111111111111111111111111111111111111111111111111111
111111111111111111111111111111111111111111111111111111111111111111111111111111111111111111111111111111111111
111111111111111111111111111111111111111111111111111111111111111111111111111111111111111111111111111111111111
111111111111111111111111111111111111111111111111111111111111111111111111111111111111111111111111111111111111
111111111111111111111111111111111111111111111111111111111111111111111111111111111111111111111111111111111111
111111111111111111111111101111111111111111111111111111111111111111111111111111111111111111111111111111111111
111111111111111111111111000111111111111111111111111111111111111111111111111111111001111111111111111111111111
111111111111111111111110000011111111111111111111111111111111111111111111111111110000111111111111111111111111
111111111111111111111100000011111111111111111111111111111111111111111111111111100000011111111111111111111111
111111111111111111111000000111111111111111111111111111111111111111111111111111110000011111111111111111111111
111111111111111111110000001111111111111111111111111111111111111111111111111111111000001111111111111111111111
111111111111111111100000011111111111111111111111111111111111111111111111111111111100000111111111111111111111
111111111111111111100000111111111111111111111111111111111111111111111111111111111100000111111111111111111111
111111111111111111000001111111111111111111111111111111111111111111111111111111111110000011111111111111111111
111111111111111111000001111111111111111111111111111111111111111111111111111111111111000001111111111111111111
111111111111111110000011111111111111111111111111111111111111111111111111111111111111100000111111111111111111
111111111111111110000111111111111111111111111111111111111111111111111111111111111111100000111111111111111111
111111111111111100000111111111111111111111111111111111111111111111111111111111111111100000111111111111111111
111111111111111100000111111111111111111111111111111111111111111111111111111111111111110000111111111111111111
111111111111111100001111111111111111111111111111111111111111111111111111111111111111110000111111111111111111
111111111111111000001111111111111111111111111111111111111111111111111111111111111111111000011111111111111111
111111111111111000011111111111111111111111111111111111111111110011111111111111111111111000011111111111111111
111111111111111000111111111111111111111111111111111111111111100011111111111111111111111000001111111111111111
111111111111111000111111111111111111111111111111111111111111000001111111111111111111111100001111111111111111
111111111111110000111111111111111111111111111111111111111111100000111111111111111111111100001111111111111111
111111111111110000111111111111111111111001111111111111111111100000111111111111111111111100001111111111111111
111111111111110000111111111111111111111000111111111111111111110000011111111111111111111100001111111111111111
111111111111110000111111111111111111111000111111111111111111110000011111111111111111111110001111111111111111
111111111111110000111111111111111111111000111111111111111111111000011111111111111111111110001111111111111111
111111111111110000111111111111111111111000111111111111111111111000011111111111111111111110001111111111111111
111111111111110000111111111111111111111000111111111111111111111000000001111111111111111110001111111111111111
111111111111110000111111111111111111111000111111111111111111111000000000000000000000000000001111111111111111
111111111111110000111111111111111111111000111111111111111111111100000000000000000000000000001111111111111111
111111111111110000111111111111111111100000111111111111111111111100000000000000000000000000001111111111111111
111111111111110000111111111111111100000000111111111111111111111100001100001110000000000000001111111111111111
111111111111110000111111111111100000000000011111111111111111111100011111111111111111111111111111111111111111
111111111111110000111111111100000000000000011111111111111111111000011111111111111111111111111111111111111111
111111111111110000111110000000000000111100001111111111111111111000111111111111111111111111111111111111111111
111111111111110000110000000000011111111100000111111111111111110001111111111111111111111111111111111111111111
111111111111110000000000000111111111111110000011111111111111100001111111111111111111111111111111111111111111
111111111111110000000000111111111111111111000001111111111110000011111111111111111111111111111111111111111111
111111111111111000000111111111111111111111100000001111110000000111111111111111111111111111111111111111111111
111111111111111000001111111111111111111111111000000000000000001111111111111111111111111111111111111111111111
111111111111111100001111111111111111111111111100000000000000111111111111111111111111111111111111111111111111
111111111111111100001111111111111111111111111111000000000001111111111111111111111111111111111111111111111111
111111111111111100000111111111111111111111111111111110000011111111111111111111111111111111111111111111111111
111111111111111110000111111111111111111111111111111111000001111111111111111111111111111111111111111111111111
111111111111111110000011111111111111111111111111111111000001111111111111111111111111111111111111111111111111
111111111111111111000011111111111111111111111111111111100001111111111111111111111111111111111111111111111111
111111111111111111000001111111111111111111111111111111100001111111111111111111111111111111111111111111111111
111111111111111111100001111111111111111111111111111111100001111111111111111111111111111111111111111111111111
111111111111111111100001111111111111111111111111111111100001111111111111111111111111111111111111111111111111
111111111111111111110000111111111111111111111111111111100000111111111111111111111111111111111111111111111111
111111111111111111111000001111111111111111111111111111110000111111111111111111111111111111111111111111111111
111111111111111111111100000111111111111111111111111111110000111111111111111111111111111111111111111111111111
111111111111111111111000000011111111111111111111111111110000011111111111111111111111111111111111111111111111
111111111111111111110000000001111111111111111111111111110000011111111111111111111111111111111111111111111111
111111111111111111100000000000011111111111111111111111110000011111111111111111111111111111111111111111111111
111111111111111111000001100000001111111111111111111111110000011111111111111111111111111111111111111111111111
111111111111111110000011100000000111111111111111111111110000011111111111111111111111111111111111111111111111
111111111111111100000111110000000011111111111111111111111000001111111111111111111111111111111111111111111111
111111111111111000001111111000000000111111111111111111111000001111111111111111111111111111111111111111111111
111111111111110000111111111110000000000111111111111111111000001111111111111111111111111111111111111111111111
111111111111111001111111111111000000000001111111111111111100001111111111111111111111111111111111111111111111
111111111111111111111111111111110000000000001111111111111100001111111111111111111111111111111111111111111111
111111111111111111111111111111111110000000000000000011111000001111111111111111111111111111111111111111111111
111111111111111111111111111111111111100000000000000001110000001111111111111111111111111111111111111111111111
111111111111111111111111111111111111111100000000000000000000000111111111111111111111111111111111111111111111
111111111111111111111111111111111111111111111000000000000000000111111111111111111111111111111111111111111111
111111111111111111111111111111111111111111111111111111111110000111111111111111111111111111111111111111111111
111111111111111111111111111111111111111111111111111111111110000011111111111111111111111111111111111111111111
111111111111111111111111111111111111111111111111111111111110000011111111111111111111111111111111111111111111
111111111111111111111111111111111111111111111111111111111111000011111111111111111111111111111111111111111111
111111111111111111111111111111111111111111111111111111111111000011111111111111111111111111111111111111111111
111111111111111111111111111111111111111111111111111111111111000011111111111111111111111111111111111111111111
111111111111111111111111111111111111111111111111111111111111100001111111111111111111111111111111111111111111
111111111111111111111111111111111111111111111111111111111111100001111111111111111111111111111111111111111111
111111111111111111111111111111111111111111111111111111111111100001111111111111111111111111111111111111111111
111111111111111111111111111111111111111111111111111111111111100011111111111111111111111111111111111111111111
111111111111111111111111111111111111111111111111111111111111111111111111111111111111111111111111111111111111
111111111111111111111111111111111111111111111111111111111111111111111111111111111111111111111111111111111111
111111111111111111111111111111111111111111111111111111111111111111111111111111111111111111111111111111111111
111111111111111111111111111111111111111111111111111111111111111111111111111111111111111111111111111111111111
111111111111111111111111111111111111111111111111111111111111111111111111111111111111111111111111111111111111
111111111111111111111111111111111111111111111111111111111111111111111111111111111111111111111111111111111111
111111111111111111111111111111111111111111111111111111111111111111111111111111111111111111111111111111111111
111111111111111111111111111111111111111111111111111111111111111111111111111111111111111111111111111111111111
111111111111111111111111111111111111111111111111111111111111111111111111111111111111111111111111111111111111
111111111111111111111111111111111111111111111111111111111111111111111111111111111111111111111111111111111111
111111111111111111111111111111111111111111111111111111111111111111111111111111111111111111111111111111111111
111111111111111111111111111111111111111111111111111111111111111111111111111111111111111111111111111111111111
