1111111111111111111111111111111111111111111111111111111111111111111111111111111111111111111111111111111111111111111111111111111111111111111111111111111111111111
1111111111111111111111111111111111111111111111111111111111111111111111000000111111111111111111111111111111111111111111111111111111111111111111111111111111111111
1111111111111111111111111111111111111111111111111111111111111111111110000000111111111111111111111111111111111111111111111111111111111111111111111111111111111111
1111111111111111111111111111111111111111111111111111111111111111111110000001111111111111111111111111111111111111111111111111111111111111111111111111111111111111
1111111111111111111111111111111111111111111111111111111111111111111100000001111111111111111111111111111111111111111111111111111111111111111111111111111111111111
1111111111111111111111111111111111111111111111111111111111111111111000000011111111111111111111111111111111111111111111111111111111111111111111111111111111111111
1111111111111111111111111111111111111111111111111111111111111111111000000011111111111111111111111111111111111111111111111111111111111111111111111111111111111111
1111111111111111111111111111111111111111111111111111111111111111110000000111111111111111111111111111111111111111111111111111111111111111111111111111111111111111
1111111111111111111111111111111111111111111111111111111111111111110000000111111111111111111111111111111111111111111111111111111111111111111111111111111111111111
1111111111111111111111111111111111111111111111111111111111111111100000001111111111111111111111111111111111111111111111111111111111111111111111111111111111111111
1111111111111111111111111111111111111111111111111111111111111111100000001111111111111111111111111111111111111111111111111111111111111111111111111111111111111111
1111111111111111111111111111111111111111111111111111111111111111000000011111111111111111111111111111111111111111111111111111111111111111111111111111111111111111
1111111111111111111111111111111111111111111111111111111111111111000000111111111111111111111111111111111111111111111111111111111111111111111111111111111111111111
1111111111111111111111111111111111111111111111111111111111111110000000111111111111111111111111111111111111111111111111111111111111111111111111111111111111111111
1111111111111111111111111111111111111111111111111111111111111110000001111111111111111111111111111111111111111111111111111111111111111111111111111111111111111111
1111111111111111111111111111111111111111111111111111111111111100000001111111111111111111111111111111111111111111111111111111111111111111111111111111111111111111
1111111111111111111111111111111111111111111111111111111111111000000011111111111111111111111111111111111111111111111111111111111111111111111111111111111111111111
1111111111111111111111111111111111111111111111111111111111111000000011111111111111111111111111111111111000111111111111111111111111111111111111111111111111111111
1111111111111111111111111111111111111111111111111111111111110000000111111111111111111111111111111111000000111111111111111111111111111111111111111111111111111111
1111111111111111111111111111111111111111111111111111111111100000001111111111111111111111111111111111000000011111111111111111111111111111111111111111111111111111
1111111111111111111111111111111111111111111111111111111111100000011111111111111111111111111111111111100000011111111111111111111111111111111111111111111111111111
1111111111111111111111111111111111111111111111111111111111000000111111111111111111111111111111111111100000011111111111111111111111111111111111111111111111111111
1111111111111111111111111111111111111111111111111111111111000001111111111111111111111111111111111111100000001111111111111111111111111111111111111111111111111111
1111111111111111111111111111111100011111111111111111111111000001111111111111111111111111111111111111100000001111111111111111111111111111111111111111111111111111
1111111111111111111111111111111100000000111111111111111110000011111111111111111111111111111111111111110000001111111111111111111111111111111111111111111111111111
1111111111111111111111111111111110000000001111111111111110000011111111111111111111111111111111111111110000001111111111111111111111111111111111111111111111111111
1111111111111111111111111111111111110000000011110111111110000011111111111111111111111111111111111111110000001111111111111111111111111111111111111111111111111111
1111111111111111111111111001111111111000000000000111111110000011111111111111111111111111111111111111110000000111111111111111111111111111111111111111111111111111
1111111111111111111111111000001111111100000000000111111100000011111111111111111111111111111111111111111000000111111111111111111111111111111111111111111111111111
1111111111111111111111111110011111111000000000001111000000000011111111111111111111111111111111111111111000000011111111111111111111111111111111111111111111111111
1111111111111111111111111111011111100000000000001111000000000011111101111111111111111111111111111111111000000011111111111111111111111111111111111111111111111111
1111111111111111111111111111001110000000000000000000000000000011111000111111111111111111111111111111111100000011111111111111111111111111111111111111111111111111
1111111111111111111101111111100000000000000000000000000000000000000000111111111111111111111111111111111100000011111111111111111111111111111111111111111111111111
1111111111111111111100011111100000000000000000000000000000000000000001111111111111111111111111111111111100000011111111111111111111111111111111111111111111111111
1111111111111111111000000111100000000000000000000000000000000000000111111111111111111111111111111111111100000001111111111111111111111111111111111111111111111111
1111111111111111111000000001100000000000000000000000000000000000011111111111111111111111111111111111111110000001111111111111111111111111111111111111111111111111
1111111111111111111100001100000000000000000000000000000000000000011111111111111111111111111111111111111110000001111111111111111111111111111111111111111111111111
1111111111111111111111011110000000000000000000000000000000000000011111111111111111111111111111111111111110000000111111111111111111111111111111111111111111111111
1111111111111111111111111111000000000000000000000000000000000000011111111111111111111111111111111111111111000000111111111111111111111111111111111111111111111111
1111111111111111111111111110000000000000000000000000000000000000011111111001111111111111111111111111111111000000111111111111111111111111111111111111111111111111
1111111111111111111111111100000000000000000000000000000000000000001110000001111111111111111111111111111111000000111111111111111111111111111111111111111111111111
1111111111111111111111111100000000000000000000000000000000000000000000001111111111111111111111111111111111000000011111111111111111111111111111111111111111111111
1111111111111111111111111100000000000000000000000000000000000000000000111111111111111111111111111111111111100000011111111111111111111111111111111111111111111111
1111111111111111100000001100000000000000000000001110000000000000000001111111111111111111111111111111111111100000011111111111111111111111111111111111111111111111
1111111111111111100000000000000000000000000000011111000000000000000001111111111111111111111111111111111111110000011111111111111111111111111111111111111111111111
1111111111111111100000000000000000000000001111111111000000000000000000111111111111111111111111111111111111110000000000111111111111111111111111111111111111111111
1111111111111111110000000000000000000000011111111110000000000000000000111111111111111111111111111111111111110000000000111111111111111111111111111111111111111111
1111111111111111111110000000000000000000111111111110000000000000000000111111111111111111111111111111111111100000000000011111111111111111111111111111111111111111
1111111111111111111110000000000000000000111111111110000000000000000000111111111111111111111111111111111111100000000000011111111111111111111111111111111111111111
1111111111111111111100000000000000000001111111111111000000000000000001111111111111111111111111111111111111100000000000011111111111111111111111111111111111111111
1111111111111111111100000000000000000111111111111110000000000000000011111111111111111111111111111111111111000000000000011111111111111111111111111111111111111111
1111111111111111111000000000000000001111111111111110000000000000000111111111111111111111111111111111111111100000000000111111111111111111111111111111111111111111
1111111111111111110000000000000000001111111111111100000000000000001111111111111111111111111111111111111111110000000000111111111111111111001111111111111111111111
1111111111111111110000000000000000000111111111111000000000000000001111111111111111111111111111111111111111111000000000111111111111111110000111111111111111111111
1111111111111111110000000000000000000011111111111000000000000000001111111111111111111111111111111111111111111000000000111111111111111100000011111111111111111111
1111111111111111100000000000000000000001100001111000000000000000000001111111111111111111111111111111111111111000000000111111111111111100000011111111111111111111
1111111111111111110000000000000000000000000000111000000000000000000000111111111111111111111111111111111111111000000000011111111111111000000001111111111111111111
1111111111111111111000000000000000000000000000110000000000000000000000011111111111111111111111111111111111111000000000011111111111111000000000111111111111111111
1111111111111111111100000000000000000000000000000000000000000000000000001111111111111111111111111111111111111000000000001111111111110000000000011111111111111111
1111111111111111111100000000000000000000000000000000000000000000011100001111111111111111110001111111111111111000000000000011111111100000000000001111111111111111
1111111111111111110000000000000000000000000000000000000000000001111110001111111111111111110000111111111111110000000000000000001100000000000000001111111111111111
1111111111111111000000000000000000000000000000000000000000000011111110011111111111111111100000111111111111110000000000000000000000000000000000000111111111111111
1111111111111111000000000000000000000000000000000000000000000011111110011111111111111111100000001111111111100000000000000000000000000000000000000111111111111111
1111111111111111100000000000000000000000000000000000000000000001111100111111111111111111100000000011111110000000000000000000000000000000000000000011111111111111
1111111111111111100000000000000000000000000000000000000000000001111101111111111111111111000000000000000000000000000000000000000000000000000000000011111111111111
1111111111111111111111111110000000000000000000000000000000000000000001111111111111111111000000000000000000000000000000000000000000000000000000000001111111111111
1111111111111111111111111111000000000000000000000000000000000000000001111111111111111111000000000000000000000000000000000000000000000000000000000001111111111111
1111111111111111111111111111100000000000000000000000000000111000000011111111111111111110000000000000000000000000000000000000000000000000000000000000111111111111
1111111111111111111111111111110000000000000000000000000011111000000011111111111111111110000000000000000000000000000000000000000000000000000000000000111111111111
1111111111111111111111111111110000000000000000000000000111111000000000111111111111111110000000000000000000000000000000000000000000000000000000000000111111111111
1111111111111111111111111111111000000000000000000000001111100000000001111111111111111110000000000000000000000000001111111100000000000000000000000000111111111111
1111111111111111111111111111111000000000010000000000001111000000000011111111111111111100000000000000000000000000001111111110000000000000000000000000111111111111
1111111111111111111111111111111000000000111000000000000000000000000111111111111111111100000000000000000000000000011111111110000000000000000000000000111111111111
1111111111111111111111111111110000000111111000000000000000000000011111111111111111111100000000000000000000000000011111111110000000000000000000000000111111111111
1111111111111111111111111111110000001111111110000000000000000000111111111111111111111100000000000000000000000000111111111110000000000000000000000000111111111111
1111111111111111111111111111111100001111111111000000000000000011111111111111111111111100000000000000000000000000111111111110000000000000000000000000111111111111
1111111111111111111111111111111110001111111111000000000000001111111111111111111111111100000000000000000000000000111111111110000000000000000000000000011111111111
1111111111111111111111111111111111111111111111111110000000011111111111111111111111111100000000000000000000000000111111111100000000000000000000000000011111111111
1111111111100011111111111111111111111111111111111111000000011111111111111111111111111100000000000000000000000000111111111100000000000000000000000000011111111111
1111111111000001111111111111111111111111111111111111100000011111111111111111111111111100000000000000000000000000000011111000000000000000000000000000011111111111
1111111111000000111111111111111111111111111111111111100000000001111111111111111111111110000000000000000000000000000000110000000000000000000000000000011111111111
1111111110000000001111111111111111111111111111111110000000000001111110000011111111111110000000000000000000000000000000000000000000000000000000000000011111111111
1111111110000000000011111111111111111111111111111100000000000000000000000000111111111110000000000000000000000000000000000000000000000000000000000000011111111111
1111111111100000000000111111111111111111111111110000000000000001110000000000001111111110000000000000000000000000000000000000000000000000000000000000111111111111
1111111111110000000000001111111111111111111111100000000000000001111000000000001111111111000000000000000000000000000000000000000000000000000000000000111111111111
1111111111111100000000000111111111111111111111000000000000000001111000000000001111111111000000000000000000000000000000000000000000000000000000000000111111111111
1111111111111110000000000001111111111111111110000000000000000000000000000000000111111111000000000000000000000000000000000000000000111111000000000000111111111111
1111111111111111100000000000011111111111111000000100000000000000000000000000000001111111000000000000000000000000000000000000000011111111100000000000111111111111
1111111111111111111000000000001111111111110000011100110000000000000000000000000000000111100000000000000000000000000000000000000111111111110000000001111111111111
1111111111111111111110000000000011111111100000011101110000000000000000000000000000000011000000000000000000011110000000000000001111111111111110000001111111111111
1111111111111111111111100000000000001111000000011101110000000000000000000000000000000000000000000000000000111111100000000000001111111111111111000011111111111111
1111111111111111111111110000000000000100000000000001110000000000000000000000000000000000000000000000000011111111110000000000001111111111111111000111111111111111
1111111111111111111111111100000000000000000000000000000000000000000000000000000000000000000110000000000111111111111000000000001111111111111111100111111111111111
1111111111111111111111111111000000000000000000000000000000000000000000000000000000000000000111000000000111111111111100000000001111111111111111101111111111111111
1111111111111111111111111111100000000000000000000000000000000000000000000000000000000000001111100000001111111111111100000000001111111111111111111111111111111111
1111111111111111111111111111111001100000000000000000000000000000000000000000000000000000000111110000011111111111111100000000001111111111111111111111111111111111
1111111111111111111111111111111111100000000000000000000000000000000000000000000000000000000011111000111111111111111100000000001111111111111111111111111111111111
1111111111111111111111111111111111100000000000000000000000000000000000000000000000000000000011111100111111111111111100000000000111111111111111111111111111111111
1111111111111111111111111111111111100000000000000000000000000000000000000000000000000000000011111111111111111111111100000000000111111111111111111111111111111111
1111111111111111111111111111111111000000000000000000000000000000000000000000000000000000000001111111111111111111111100000000000111111111111111111111111111111111
1111111111111111111111111111111111000000000000000000000000000000000000000000000000000111000001111111111111111111111100000000000011111111111111111111111111111111
1111111111111111111111111111111111000000000000000000000000000000000000000000000000001111100000111111111111111111111100000000000011111111111111111111111111111111
1111111111111111111111111111111111000000000000000000000000000000000000000000000000000111110000111111111111111111111100000000000111111111111111111111111111111111
1111111111111111111111111111111110000000000000000000000000000000000000000000000000000000111000011111111111111111111100000011111111111111111111111111111111111111
1111111111111111111111111111111110000000000000000000000000000000000000000000000000000000011000011111111111111111111111111111111111111111111111111111111111111111
1111111111111111111111111111111100000000000000000000000000000000000000000000000000000000000000011111111111111111111111111111111111111111111111111111111111111111
1111111111111111111111111111111100000000000000000000000000000000000000000000000000000000000000011111111111111111111111111111111111111111111111111111111111111111
1111111111111111111111111111111100000000000000000000000000000000000000000000000000000000000000011111111111111111111111111111111111111111111111111111111111111111
1111111111111111111111111111111100000000000000000000000000000000000000000000000000000000000000001111111111111111111111111111111111111111111111111111111111111111
1111111111111111111111111111111100000000000000000000000000000000000000000000000000000000000000001111111111111111111111111111111111111111111111111111111111111111
1111111111111111111111111111111100000000000000000000000000000000000000000000000000000000000000001111111111111111111111111111111111111111111111111111111111111111
1111111111111111111111111111111100000000000000000000000000000000000000000000000000000000000000001111111111111111111111111111111111111111111111111111111111111111
1111111111111111111111111111111100000000000000000000000000000000000000000000000000000000000000001111111111111111111111111111111111111111111111111111111111111111
1111111111111111111111111111111100000000000000000000000000000000000000000000000000000000000000001111111111111111111111111111111111111111111111111111111111111111
1111111111111111111111111111111100000000000000000000000000000000000000000000000000000000000000001111111111111111111111111111111111111111111111111111111111111111
1111111111111111111111111111111100000000000000000000000000000000000000000000000000000000000000001111111111111111111111111111111111111111111111111111111111111111
1111111111111111111111111111111100000000000000000000000000000000000000000000000000000000000000001111111111111111111111111111111111111111111111111111111111111111
1111111111111111111111111111111100000000000000000000000000000000000000000000000000000000000000011111111111111111111111111111111111111111111111111111111111111111
1111111111111111111111111111111100000000000000000000000000000000000000000000000000000000000000011111111111111111111111111111111111111111111111111111111111111111
1111111111111111111111111111111100000000000000000000000000000000000000000000000000000000000000011111111111111111111111111111111111111111111111111111111111111111
1111111111111111111111111111111100000000000000000000000000000000000000000000000000000000000000111111111111111111111111111111111111111111111111111111111111111111
1111111111111111111111111111111110000000000000000000000000000000000000000000000000000000000000111111111111111111111111111111111111111111111111111111111111111111
1111111111111111111111111111111111000000000000000000000000000000000000000000000000000000000000111111111111111111111111111111111111111111111111111111111111111111
1111111111111111111111111111111111000000000000000000000000000000000000000000000000000000000001111111111111111111111111111111111111111111111111111111111111111111
1111111111111111111111111111111111100000000000000000000000000000000000000000000000000000000001111111111111111111111111111111111111111111111111111111111111111111
1111111111111111111111111111111111110000000000000000000000000000000000000000000000000000000011111111111111111111111111111111111111111111111111111111111111111111
1111111111111111111111111111111111111000000000000000000000000000000000000000000000000000000111111111111111111111111111111111111111111111111111111111111111111111
1111111111111111111111111111111111111100000000000000000000000000000000000000000000000000001111111111111111111111111111111111111111111111111111111111111111111111
1111111111111111111111111111111111111110000000000000000000000000000000000000000000000000011111111111111111111111111111111111111111111111111111111111111111111111
1111111111111111111111111111111111111111000000000000000000000000000000000000000000000000111111111111111111111111111111111111111111111111111111111111111111111111
1111111111111111111111111111111111111111100000000000000000000000000000000000000000000001111111111111111111111111111111111111111111111111111111111111111111111111
1111111111111111111111111111111111111111110000000000000000000000000000000000000000000011111111111111111111111111111111111111111111111111111111111111111111111111
1111111111111111111111111111111111111111111000000000000000000000000000000000000000001111111111111111111111111111111111111111111111111111111111111111111111111111
1111111111111111111111111111111111111111111100000000000000000000000000000000000000111111111111111111111111111111111111111111111111111111111111111111111111111111
1111111111111111111111111111111111111111111110000000000000000000000000000000000011111111111111111111111111111111111111111111111111111111111111111111111111111111
1111111111111111111111111111111111111111111110000000000000000000000000000000001111111111111111111111111111111111111111111111111111111111111111111111111111111111
1111111111111111111111111111111111111111111100001100000000000000000000000000111111111111111111111111111111111111111111111111111111111111111111111111111111111111
1111111111111111111111111111111111111111111000011111000000000000000000000011111111111111111111111111111111111111111111111111111111111111111111111111111111111111
1111111111111111111111111111111111111111110000001111110000000000000000001111111111111111111111111111111111111111111111111111111111111111111111111111111111111111
1111111111111111111111111111111111111111110000001111111110000000001111111111111111111111111111111111111111111111111111111111111111111111111111111111111111111111
1111111111111111111111111111111111111111100000001111111111111111111111111111111111111111111111111111111111111111111111111111111111111111111111111111111111111111
1111111111111111111111111111111111111111100000011111111111111111111111111111111111111111111111111111111111111111111111111111111111111111111111111111111111111111
1111111111111111111111111111111111111111000000111111111111111111111111111111111111111111111111111111111111111111111111111111111111111111111111111111111111111111
1111111111111111111111111111111111111110000000111111111111111111111111111111111111111111111111111111111111111111111111111111111111111111111111111111111111111111
1111111111111111111111111111111111111110000001111111111111111111111111111111111111111111111111111111111111111111111111111111111111111111111111111111111111111111
1111111111111111111111111111111111111100000001111111111111111111111111111111111111111111111111111111111111111111111111111111111111111111111111111111111111111111
1111111111111111111111111111111111111000000011111111111111111111111111111111111111111111111111111111111111111111111111111111111111111111111111111111111111111111
1111111111111111111111111111111111111000000011111111111111111111111111111111111111111111111111111111111111111111111111111111111111111111111111111111111111111111
1111111111111111111111111111111111110000000111111111111111111111111111111111111111111111111111111111111111111111111111111111111111111111111111111111111111111111
1111111111111111111111111111111111100000001111111111111111111111111111111111111111111111111111111111111111111111111111111111111111111111111111111111111111111111
1111111111111111111111111111111111100000001111111111111111111111111111111111111111111111111111111111111111111111111111111111111111111111111111111111111111111111
1111111111111111111111111111111111000000011111111111111111111111111111111111111111111111111111111111111111111111111111111111111111111111111111111111111111111111
1111111111111111111111111111111111000000011111111111111111111111111111111111111111111111111111111111111111111111111111111111111111111111111111111111111111111111
1111111111111111111111111111111110000000111111111111111111111111111111111111111111111111111111111111111111111111111111111111111111111111111111111111111111111111
1111111111111111111111111111111110000001111111111111111111111111111111111111111111111111111111111111111111111111111111111111111111111111111111111111111111111111
1111111111111111111111111111111100000001111111111111111111111111111111111111111111111111111111111111111111111111111111111111111111111111111111111111111111111111
1111111111111111111111111111111000000011111111111111111111111111111111111111111111111111111111111111111111111111111111111111111111111111111111111111111111111111
1111111111111111111111111111110000000011111111111111111111111111111111111111111111111111111111111111111111111111111111111111111111111111111111111111111111111111
1111111111111111111111111111110000000111111111111111111111111111111111111111111111111111111111111111111111111111111111111111111111111111111111111111111111111111
1111111111111111111111111111111111111111111111111111111111111111111111111111111111111111111111111111111111111111111111111111111111111111111111111111111111111111
