1111111111111111111111111111111111111111111111111111111111111111111111111111111111111111111111111111111111111111111111111111111111111111111111111111111111111111111111111111111111111111111111111111111111111111111111111111111111111111111111111111
1111111111111111111111111111111111111111111111111111111111111111111111111111111111111111111111111111111111111111111111111111111111111111111111111111111111111111111111111111111111111111111111111111111111111111111111111111111111111111111111111111
1111111111111111111111111111111111111111111111111111111111111111111111111111111111111111111111111111111111111111111111111111111111111111111111111111111111111111111111111111111111111111111111111111111111111111111111111111111111111111111111111111
1111111111111111111111111111111111111111111111111111111111111111111111111111111111111111111111111111111111111111111111111111111111111111111111111111111111111111111111111111111111111111111111111111111111111111111111111111111111111111111111111111
1111111111111111111111111111111111111111111111111111111111111111111111111111111111111111111111111111111111111111111111111111111111111111111111111111111111111111111111111111111111111111111111111111111111111111111111111111111111111111111111111111
1111111111111111111111111111111111111111111111111111111111111111111111111111111111111111111111111111111111111111111111111111111111111111111111111111111111111111111111111111111111111111111111111111111111111111111111111111111111111111111111111111
1111111111111111111111111111111111111111111111111111111111111111111111111111111111111111111111111111111111111111111111111111111111111111111111111111111111111111111111111111111111111111111111111111111111111111111111111111111111111111111111111111
1111111111111111111111111111111111111111111111111111111111111111111111111111111111111111111111111111111111111111111111111111111111111111111111111111111111111111111111111111111111111111111111111111111111111111111111111111111111111111111111111111
1111111111111111111111111111111111111111111111111111111111111111111111111111111111111111111111111111111111111111111111111111111111111111111111111111111111111111111111111111111111111111111111111111111111111111111111111111111111111111111111111111
1111111111111111111111111111111111111111111111111111111111111111111111111111111111111111111111111111111111111111111111111111111111111111111111111111111111111111111111111111111111111111111111111111111111111111111111111111111111111111111111111111
1111111111111111111111111111111111111111111111111111111111111111111111111111111111111111111111111111111111111111111111111111111111111111111111111111111111111111111111111111111111111111111111111111111111111111111111111111111111111111111111111111
1111111111111111111111111111111111111111111111111111111111111111110111111111111111111111111111111111111111111111111111111111111111111111111111111111111111111111111111111111111111111111111111111111111111111111111111111111111111111111111111111111
1111111111111111111111111111111111111111111111111111111111111111100001111111111111111111111111111111111111111111111111111111111111111111111111111111111111111111111111111111111111111111111111111111111111111111111111111111111111111111111111111111
1111111111111111111111111111111111111111111111111111111111111111000001111111111111111111111111111111111111111111111111111111111111111111111111111111111111111111111111111111111111111111111111111111111111111111111111111111111111111111111111111111
1111111111111111111111111111111111111111111111111111111111111110000001111111111111111111111111111111111111111111111111111111111111111111111111111111111111111111111111111111111111111111111111111111111111111111111111111111111111111111111111111111
1111111111111111111111111111111111111111111111111111111111111100000001111111111111111111111111111111111111111111111111111111111111111111111111111111111111111111111111111111111111111111111111111111111111111111111111111111111111111111111111111111
1111111111111111111111111111111111111111111111111111111111111100000001111111111111111111111111111111111111111111111111111111111111111111111111111111111111111111111111111111111111111111111111111111111111111111111111111111111111111111111111111111
1111111111111111111111111111111111111111111111111111111111111100000011111111111111111111111111111111111111111111111111111111111111111111111111111111111111111111111111111111111111111111111111111111111111111111111111111111111111111111111111111111
1111111111111111111111111111111111111111111111111111111111111000011111111111111111111111111111111111111111111111111111111111111111111111111111111111111111111111111111111111111111111111111111111111111111111111111111111111111111111111111111111111
1111111111111111111111111111111111111111111111111111111111110000111111111111111111111111111111111111111111111111111111111111111111111111111111111111111111111111111111111111111111111111111111111111111111111111111111111111111111111111111111111111
1111111111111111111111111111111111111111111111111111111111110000111111100011111011111111111111111111111111111111111111111111111111111111111111111111111100111111111111111111111111111111111111111111111111111111111111111111111111111111111111111111
1111111111111111111111111111111111111111111111111111111111110001111111000001111011111111111111111111111111111111111111111111111111111111111111111111111000111111111111111111111111111111111111111111111111111111111111111111111111111111111111111111
1111111111111111111111111111111111111111111111111111111111110001111111000000010011111111111111111111111111111111111111111111111111111111111111111111110000011111111111111111111111111111111111111111111111111111111111111111111111111111111111111111
1111111111111111111111111111111111111111111111111111111111110000011111000000000111111111111111111111111111111111111111111111111111111111111111111111100000001111111111111111111111111111111111111111111111111111111111111111111111111111111111111111
1111111111111111111111111111111111111111111111111111111111100000001111000000001111111111111111111111111111111111111111111111111111111111111111111111100000000111111111111111111111111111111111111111111111111111111111111111111111111111111111111111
1111111111111111111111111111111111111111111111111111111111110000000111000000011111111111111111111111111111111111111111111111111111111111111111111111110000000011111111111111111111111111111111111111111111111111111111111111111111111111111111111111
1111111111111111111111111111111111111111111111111111111111111000000100000011111111111111111111111111111111111111111111111111111111111111111111111111110000000000111111111111111111111111111111111111111111111111111111111111111111111111111111111111
1111111111111111111111111111111111111111111111111111111111111100000000001111111111111111111111111111111111111111111111111111111111111111111111101111111000000000011111111111111111111111111111111111111111111111111111111111111111111111111111111111
1111111111111111111111111111111111111111111111111111111111111110000000001111111110000111111111111111111111111111111111111111111111111111111111100111111100000000001111111111111111111111111111111111111111111111111111111111111111111111111111111111
1111111111111111111111111111111111111111111111111111111111111111000000000111111100000111111111111111111111111111111111111111111111111111111110001111111110000000000111111111111111111111111111111111111111111111111111111111111111111111111111111111
1111111111111111111111111111111111111111111111111111111111111111100000000011111000001111111111111111111111111111111111111111111111111111111100001101111100000000000011111111111111111111111111111111111111111111111111111111111111111111111111111111
1111111111111111111111111111111111111111111111110011111111111111110000000011110000000111111111111111111111111111111111111111111111111111111000000001111000011000000011111111111111111111111111111111111111111111111111111111111111111111111111111111
1111111111111111111111111111111111111111111111110001111111111111111000000011110000000111111111111111111111111111111111111111111111111111110000000000110000111100000111111111111111111111111111111111111111111111111111111111111111111111111111111111
1111111111111111111111111111111111111111111111110000110011111111111100000001110000000011111111111111111111111111111111111111111111111111100000000000000001111110001111111111111111111111111111111111111111111111111111111111111111111111111111111111
1111111111111111111111111111111111111111111111111000000001111111111110000000000001111111111111111111111111111111111111111111111111111111000000000000000111111111011111111111111111111111111111111111111111111111111111111111111111111111111111111111
1111111111111111111111111111111111111111111111111000000001111111111111000000000011111111111111111111111111111111111111111111111111111110000000000000000011111111111111111111111111111111111111111111111111111111111111111111111111111111111111111111
1111111111111111111111111111111111111111111000010000000011111111111111100000000011111111111111111111111111111111111111111111111111111110000000000000000001111111111111111011111111111111111111111111111111111111111111111111111111111111111111111111
1111111111111111111111111111111111111111110000000001100111111111111111110000000001111111111111011101111111111111111111111111111111111111000000000000000000111111111111110001111111111111111111111111111111111111111111111111111111111111111111111111
1111111111111111111111111111111111111111100000000011111111111111111111111000000000111111110000001100111111111111111111111111111111111111100000000000000000011111111111100000111111111111111111111111111111111111111111111111111111111111111111111111
1111111111111111111111111111111111111111100000000001111111111111111111111100000000011111100000000000111111111111111111111111111111111111110000000000000000001111111111000000011111111111111111111111111111111111111111111111111111111111111111111111
1111111111111111111111111111111111111110110000000000111111111111111111111110011100011111000000000001111111111111111111111111111111111111111000000000000000000111111110000000001111111111111111111111111111111111111111111111111111111111111111111111
1111111111111111111111111111111111111110110000000000011111111111111111110111111100001111100000000011111111111111111111111111111111111111111100000000000000000011111110000000000111111111111111111111111111111111111111111111111111111111111111111111
1111111111111111111111111111111111111110000111110000001111101110101111110011111110000111100000000111111111111111111111111111111111111111111110000000000111000001111110000000000011111111111111111111111111111111111111111111111111111111111111111111
1111111111111111111111111111111111111000000111111000000111000000000111110001111110000011000000001111111111111111111111111111111111111111111111000000001111110000111111000000000000111111111111111111111111111111111111111111111111111111111111111111
1111111111111111111111111111111111111100000111111100000011100000000011110000011110000000000000011111111111111111111111111111111111111111111111100000011110110000011111100000000000011111111111111111111111111111111111111111111111111111111111111111
1111111111111111111111111111111110011110000011111110000001110000000111110000000110000000000001111111111111111111111111111111111111111111111111110000111100010000001111000000000000001111111111111111111111111111111111111111111111111111111111111111
1111111111111111111111111111111110001111000001111111000000100000001111110000000000000000000011111111111111111111111111111111111111111111111111111001111000011000000110001111100000000111111111111111111111111111111111111111111111111111111111111111
1111111111111111111111111111111111000111000011111111000000000111111111111000000000000000000111111111111111111111111111111111111111111111111111111111110000001000000000011111110000001111111111111111111111111111111111111111111111111111111111111111
1111111111111111111111111111111111100010000111111111000000001111111111111000000000000000001111111111111111111111111111111111111111111111111111111111100000001100000000111111111000011111111111111111111111111111111111111111111111111111111111111111
1111111111111111111111111111111111110000001111111111000000000111111111111000000000000000011111111111111111111111111111111111111111111111111111111111000000000100000000111111111100111111111111111111111111111111111111111111111111111111111111111111
1111111111111111111111111111111111111000011111111111100000000001111111110000000000000000111111111111111111111111111111111111111111111111111111111111100000000110000000111111111111111111111111111111111111111111111111111111111111111111111111111111
1111111111111111111111111111111111111100111111111001100000000000111111110000000000000001111111111111111111111111111111111111111111111111111111111111110000000010000000000111111111111111111111111111111111111111111111111111111111111111111111111111
1111111111111111111111111111111111111111111111111001000000000000111111110000000000000011111111111111111111111111111111111111111111111111111111111111111000000011000000000011111111111111100111111111111111111111111111111111111111111111111111111111
1111111111111111111111111111111111111111111111111000001111100000111111100000000000000111111111111111111111111111111111111111111110111111111111111111111100000001000000000001111111111111000011111111111111111111111111111111111111111111111111111111
1111111111111111111111111111111111111111111001100000001111110000011111000000000000001111111111111111111111111111111111111111111110011111111111111111111110000000000000000000111111111110000001111111111111111111111111111111111111111111111111111111
1111111111111111111111111111111111111111110000000000000111111110001110000000000000011111111111111111111111111111111111111111111110011111111111111111111111000000000000000000011111111110000000111111111111111111111111111111111111111111111111111111
1111111111111111111111111111111111111111111000000000001111111110001111000000000001111111111111111111111111111111111111111111110010011111111111111111111111100000000000000000001111111110000000011111111111111111111111111111111111111111111111111111
1111111111111111111111111111111111111111111100000000011111111111000011000000000011111111111111111111111111111111111111111111100000011111111111111111111111100000000000000000000111111110000000001111111111111111111111111111111111111111111111111111
1111111111111111111111111111111111111111111110000001111111111111000000000000000111111111111111111111111111111111111111111111000000011111111111111111111111110000000000000000000011111111000000000111111111111111111111111111111111111111111111111111
1111111111111111111111111111111111111111111111000001111111111111100000000000001111111111111111111111111111111111111111111110000000111111111111111111111111110000000000000000000001111111100000000001111111111111111111111111111111111111111111111111
1111111111111111111111111111111111111111111111100001111111111110100000000000011111111111111111111111111111111111111111111100000001111111111111111111111110110000000000000000000000111111110000000000111111111111111111111111111111111111111111111111
1111111111111111111111111111111111111111111111110001111111111100000000000000111111111111111111111111111111111111111111111000000011111111111111111111111100000011100000000000000000001111110000000000011111111111111111111111111111111111111111111111
1111111111111111111111111111111111111111111111111011111111111000000000000001111111111111111111111111111111111111111111110000000111111111111111111111111000000111110000000000000000000111110000000000001111111111111111111111111111111111111111111111
1111111111111111111111111111111111111111111111111111111111111100000000000011111111111111111111111111111111111111111111110000001111111111111111111111110000000001111000000000000000000011100001100000000111111111111111111111111111111111111111111111
1111111111111111111111111111111111111111111111111111111110111000000000000111111111111111111111111111111111111111111111111000000111111111111111111111100000000001111100000000000000000011000011110000000011111111111111111111111111111111111111111111
1111111111111111111111111111111111111111111111111111111100011000000000001111111111111111111111111111111111111111111111111100000011111111111111111111000000000011111110000000000000000000000111111000000111111111111111111111111111111111111111111111
1111111111111111111111111111111111111111111111111111111000000000000000011111111111111111111111111111111111111111111111111110000001111111111111111110000000000111111111000000000000000000001111111100001111111111111111111111111111111111111111111111
1111111111111111111111111111111111111111111111111111110000000000000000111111111111111111111111111111111111111110111111111111000000111111111111111100000000001111111111110000000000000000011111111111011111111111111111111111111111111111111111111111
1111111111111111111111111111111111111111111111111111100000000000000001111111111111111111111111111111111111111100011111111111100000011111111111110000000000011111111111111000000000000000000111111111111111111111111111111111111111111111111111111111
1111111111111111111111111111111111111111111111111111000000000000000011111111111111111111111111111111111111111000001111111111110000001111111111100000000001111111111111111000000000000000000011111111111111111111111111111111111111111111111111111111
1111111111111111111111111111111111111111111111111111000000000000000011111111111111111111111111111111111111110000000111111111111000000111111111000000000011111111111111111000000000000000000001111111111111111111111111111111111111111111111111111111
1111111111111111111111111111111111111111111111111111000000000000000111111111111111111111111111111111111111000000000011111111111100000011111110000000000111111111111111111100000000000000000000111111111111111111111111111111111111111111111111111111
1111111111111111111111111111111111111111111111111111000000000000000111111111111111111111111111111111111110000000000000111111111110000001111100000000001111111111111111111100000000000000000000011111111111111111111111111111111111111111111111111111
1111111111111111111111111111111111111111111111111111100000000000000111111111111111111111111111111111111100000000010000011111111111000000111000000000111111111111111111110000001110000000000000011111111111111111111111111111111111111111111111111111
1111111111111111111111111111111111111111111111111111100000000000001111111111111111111111111111111111111000000000000000001111111111100000010000000001111111111111111111100000001111000000000000111111111111111111111111111111111111111111111111111111
1111111111111111111111111111111111111111111111111110000000000000000111111111111111111111111111111111110000001100000000000111111111111110000000000011111111111111111111000001111111100000000001111111111111111111111111111111111111111111111111111111
1111111111111111111111111111111111111111111111111100001111111110000001111111111111111111111111111111100000000000111000000011111111111110000000000111111111111111111110000000111111110000000011111111111111111111111111111111111111111111111111111111
1111111111111111111111111111111111111111111111111000001111111111110001111111111111111111111111111111100000000001111011000001111111111110000000001111100111111111111100000000111111111000000111111111111111111111111111111111111111111111111111111111
1111111111111111111111111111111111111111111111111000000111111111110000111111111111111111111111111111110000000001111000000000111111111100000000011111100001111111111000000001111111111100001111111111111111111111111111111111111111111111111111111111
1111111111111111111111111111111111111111111111110000000111111111110000011111111111111111111111111111111000000000000000000000011111111000000000111110000001111111110000000011111111111111011111111111111111111111111111111111111111111111111111111111
1111111111111111101111111111111111111111111111110000001111111111111000011111111111111111111111111111111100000000000000000000011111110000000001111100000001111111100000000111111111111111111111111111111111111111111111111111111111111111111111111111
1111111111111111000001111111111111111111111111100000011111111111111000011111111111111111111111111111111110000000000000000000011111100000000011111000000001111111000000001111111111111111111111111111111111111111111111111111111111111111111111111111
1111111111111110000000111111110111111111111111100000011111111111111100001111111111111111111111111111111111000000000000000000011111000000000111110000000011111110000000011111111111111111111111111111111111111111111111111111111111111111111111111111
1111111111111110000000010001101111111111011111000000111111111111111100001111111111111111111111111111111111100000000000000000001110000000001111100000000111111100000000001111111111111111111111111111111111111111111111111111111111111111111111111111
1111111111111110000110000000011111111111011111000000111111111111111110000111111111111111111111111111111111110000000000000000001100000000011111000000001111111110000000000111111111111111111111111111111111111111111111111111111111111111111111111111
1111111111111110001111000000111111111110011111000001111111111111111110000111111111111111111111111111111111111000000000001000000000000000111111000000011111111111000000000011111111111111111111111111111111111111111111111111111111111111111111111111
1111111111111100011111100001111111111100011110000001111111111111111110000111111111111111111111111111111111111100000000011100000000000001111110000000111111111111100000000001111111111111111111111111111111111111111111111111111111111111111111111111
1111111111100000111111110011111111110000001110000011111111111111111111000011111111111111111111111111111111111110000000111110000000000011111100000001111111111111100000000000111111111111111111111111111111111111111111111111111111111111111111111111
1111111111100001111111000111111111100000011100000011111111111111111111100011111111111111111111111111111111111111000001111110000000000111111000000011111111111111110000000000011111111111111111111111111111111111111111111111111111111111111111111111
1111111111000011111110001111111110000000111000000111111111111111111111100001111111111111111111111111111111111111110011111100000000001111110000000111111111111111110000000000001111111111111111111111111111111111111111111111111111111111111111111111
1111111110000001111100011111111110000001110000000111111111111111111111110000111111111111111111111111111111111111111111111000000000011111100000011111111111111111111000000000000111111111111111111111111111111111111111111111111111111111111111111111
1111111000000000111000111111111000000011100000000111111111111111111111111000011111111111111111111111111111111111111111110000000001111111000000111111111111111111111000000000000111111111111111111111111111111111111111111111111111111111111111111111
1111110000000000000001111111111000000111000000000111111111111111111111111100001111111111111111111111111111111111111111100000000011111110000001111111111111111111110000000000000111111111111111111111111111111111111111111111111111111111111111111111
1111100000000000000001111111111000000111000000000111111111111111111111111110000111111111111111111111111111111111111111000000000111111100000011111111111111111111100000000000000001101111111111111111111111111111111111111111111111111111111111111111
1111110000000000000001111111100000000011100000000011111111111111111111111111000001111111111111111111111111111111111110000000001111110000000111111111111111111000000000000000000000000011111111111111111111111111111111111111111111111111111111111111
1111111000000000000000111110000000000011110000000011111111111111111111111111100000111111111111111111111111111111111100000000011111100000001111111111111111100000000000000000000000000000111111111111111111111111111111111111111111111111111111111111
1111111100000001111100000000000000000011111111000001111111111111111111111111110000011111111111111111111111111111111000000000111111000000011111111111111110000000000000000000000000000000011111111111111111111111111111111111111111111111111111111111
1111111110000011111111000000000000000011111111100001111101111111111111111111111000011111111111111111111111111111110000000001111110000000111111111111111100000000000000000000000000000000000111111111111111111111111111111111111111111111111111111111
1111111111000111111110000000000000000011111111100001100000111111111111111111111000001111111111111111111111111111100000000011111100000001111111111111111000000000000000000000000000000000000011111111111111111111111111111111111111111111111111111111
1111111111101111111100000000000000001111111111110000100000011111111111111111111100001111111111111111111111111111000000000111111000000001111111111111110000000000000000000000000000000000000001111111111111111111111111111111111111111111111111111111
1111111111111111111000000000010000001111111111110000110000001111111111111111111100000111111111111111111111111110000000001111110000000011111111111111100000000011000000000000000000000000000000111111111111111111111111111111111111111111111111111111
1111111111111111111000000000111000000111111111111000010000000111111111111111111110000111111111111111111111111000000000011111100000000011111111111111000000000011000000000000000000110000000000011111111111111111111111111111111111111111111111111111
1111111111111111111000000001111110000011111111111000010000000011111111111111111110000111111111111111111111110000000000111111000000000111111111111111000000011111000100000000000000111000000000011111111111111111111111111111111111111111111111111111
1111111111111111111100000011111111100001111111111000000000000001111111111111111111000011111111111111111111100000000001111110000000001111111111111110000001111111000110000000001100111110000000001111111111111111111111111111111111111111111111111111
1111111111111111111100000111111111100000111110011100000000000000011111111111111111000011111111111111111111000000000011111100000000001111111111111100000011111111001111000000011100111111100000000111111111111111111111111111111111111111111111111111
1111111111111111101100001111111111100000000000001110000000000000111111111111111111000001111111111111111110000000000111111000000000001111111111111100000111111111001111100000011100111111110000000111111111111111111111111111111111111111111111111111
1111111111111111000000011111111111000000000000000110000000000000111111111100011111100000011111111111111100000000001111110000000000011111111111111000001111111110001111100000011100111111111000000011111111111111111111111111111111111111111111111111
1111111111111110000000111111111111000000000000000000000000000000011111111100001111100000011111111111111000000000011111110000000000011111111111111000001111110000001111100000111100011111111100000011111111111111111111111111111111111111111111111111
1111111111111100000001111111111100000000000000110000000000000000111111111110000000110000011111111111110000000000111111111000000000011111111111110000011111100000000011110000111100000011111100000001111111111111111111111111111111111111111111111111
1111111111111000000001111111110000000000000001111100000000000001111111111111000000000000011111111111100000000001111111111100000000011111111111110000011110000000000001110001110000000001111110000001111111111111111111111111111111111111111111111111
1111111110110000000001111110110000000000000001111100000000000000111111111111100000000000001111111111000000000011111111111110000000011111111111110000011110000000000001110011110000000000011110000001111111111111111111111111111111111111111111111111
1111111100000000000001111110000000000000000011111100000000000000011111111111110000000000001111111111000000000111111111111111100000011111111111110000011100000000000000110011110000000000001110000000111111111111111111111111111111111111111111111111
1111111000000000000000001100000000000000000011111100000011000000000111111111111000000000000111111111000000001111111111111111100000011111111111100000011100000000000000110011100000000000001110000000111111111111111111111111111111111111111111111111
1111110000000000000000000000000000010000000000111100000111100000000010110111111100000000000111111111000001111111111111111111100000011111111111100000001100000000000000110011100000000000000110000000111111111111111111111111111111111111111111111111
1111110000000000000000000000000001111100000000001100001111110000000000000011111110000000000011110110000111111111111111111110000000011111111111100000001110000000000001110011100000000000000110000000111111111111111111111111111111111111111111111111
1111111000000000000000000000000011111100000000000000011111111000000000000011111111000000000001100000001111111111111111111100000000011111111111100000001111000000000111100001100000000000001110000000111111111111111111111111111111111111111111111111
1111111100000000000000111000000001111100000000000000111100011100000000000011111111100000000000000000111111111111111111111000000000011111111111000000000111100000011111100001110000000000001100000000111111111111111111111111111111111111111111111111
1111111110000000000000111100000001111100000000000001111000001110000000000000111111110000000000000000111111111111111111110000000000011111111111000000000011110000111111000000111000000000011100000000111111111111111111111111111111111111111111111111
1111111111000000000001111110000000111000000000000001110000000111000000000000111111111000000000000000011111111111111111100000000000111111111111000000000001111111111100000000111100000001111000000000111111111111111111111111111111111111111111111111
1111111111000000000001111110000000110000000000000000110010000011100000000000011111111110000000000000111111111111111111000000000000111111111111000000000000111111110000000000011111000111110000000000111111111111111111111111111111111111111111111111
1111111111100000000011111000000000110000000000001100000111100001110000000000001111111110000000000001111111111111111100000000000000011111111111000000000000000000000111111110000111111111000000000000111111111111111111111111111111111111111111111111
1111111111110000000011000000000000000000000000011100000111111000111011000000001111111111000000000001111111111111111100000000000000001111111111100000000000000000001111111111100001111100000000000001111111111111111111111111111111111111111111111111
1111111111111000000000000000000000000001110000111100000111111000011111000000000111111111000000000001111111111111111000000000000000000011111111100000000000000000111111111111110000000000000000000011111111111111111111111111111111111111111111111111
1111111111111100000000000000000000000011111111111000000001110000001111000000000111111111000000000001111110011111111000000000000000000001111111110000000000000001111111111111110000000000000000000011111111111111111111111111111111111111111111111111
1111111111111110000000000000000000000111111111110000000000010000000111100000000000100010001100000000111100001111110000000001100000000000111111111000000000000001111111111111111000000000000000000111111111111111111111111111111111111111111111111111
1111111111111111000000000000000000000011111111100000000000000000000011100000000000000000011110000000000000011111110000000011110000000000011111111100000000000011111111100111111100000000000000000111111111111111111111111111111111111111111111111111
1111111111111111100000000000000000000001111111000000000000000000000000000000000000000000111111000000000000111111100000000011111000000000001111111111000000000011111000000001111100000000000000001111111111111111111111111111111111111111111111111111
1111111111111111111000000000000000000000000011100000000000001100000000000000000000000000111111100000000001111111100000000111111100000000000111111111100000000111110000000000111100000000000000011111111111111111111111111111111111111111111111111111
1111111111111111111100000000000000000000000001110000000000001110000000000011000000000000111111110000000001111111000000000111111110000000000011111111110000000111100000000000011110000000000000111111111111111111111111111111111111111111111111111111
1111111111111111111110000000000000000000000000011000000000111111000000000111100000000000011111111000000000111111000000001111111111000000000001111111111000000111000000000000001111000000000001111111111111111111111111111111111111111111111111111111
1111111111111111111111000000000000000000000000001100000001111111000000000111100000000000011111111100001100011110000000001111111111100000000000011100111100000011000000000000001111000000000011111111111111111111111111111111111111111111111111111111
1111111111111111111111110000000000111111000000000110000001111111100000000001110000000000011111111110011110001100000000001111111111110000000000011100011100000011000000000000001100000000000111111111111111111111111111111111111111111111111111111111
1111111111111111111111111000000011111111111100000011000001111111110000000000111000000000001111111111111111000000000000001111111111111100000000000000001110000011000000000000000000000000000111111111111111111111111111111111111111111111111111111111
1111111111111111111111111100111111111111111111000001100000111111111000000000011100000000001111111111111111100000000000011111111111111110000000000000000111000011100000000000011100000000000111111111111111111111111111111111111111111111111111111111
1111111111111111111111111111111111111111111111110000110000011111111100000000001110000000000111110111111111100000000000011111111111111111000000000000000011100001110000000000111000000000000011111111111111111101111111111111111111111111111111111111
1111111111111111111111111111111111111111111111111100011000000111111110000000000111000000000011000111111111000000000000111111111111111111100000000000000001100001111000000001110000000000000001111111111111110000111111111111111111111111111111111111
1111111111111111111111111111111111100000111111111110011110000011111111000000000011100000000001001111111111100000000000111111111111111111110000000000000000110000111111111111110000000010000000111111111111100000011111111111111111111111111111111111
1111111111111111111111111111111100000000000011111111001110000001111111100000000001110000000000000111111111110000000001111111111111111111111000000000000000011000011111111111100000000110000000001111111111000000001111111111111111111111111111111111
1111111111111111111111111111111000000000000000011111100110000000111111110000000000111000000000000011111111111000000001111111111111111111111100000000000000001000001111111111000001111110000000000111111110000000000111111111111111111111111111111111
1111111111111111111111111111000000000000000000001111100000000000011111111000000000011100000000000000111111111100000011111111111111111111111110000000000000011100000000000000000011111111000000000011111100000000000011111111111111111111111111111111
1111111111111111111111111110000000000000000000000111110000000000001111111100000000001110000000000000111111111110000111111111111111111111111111000000000000111110000000000000000111111111100000000111111100000000000001111111111111111111111111111111
1111111111111111111111111100000000000000000000000011110000011100000111111111000000000111000000000000111111111111001111111111111111111111111111100000000000111111000000000000001111111111111000000111111100000000000000111111111111111111111111111111
1111111111111111111111111000000000000000000000000011111000011110000011111111100000000011100000000000001111111111111111111111111111111111111111110000000000111111100000000000011111111111111100000011111000000000000001111111111111111111111111111111
1111111111111111111111111000000000000000000000000001111000001111000001111111110000000001110000000000001111111111111111111111111111111111111111111000000000001111111111111111111111111111111111001000000000000000000011111111111111111111111111111111
1111111111111111111111110000000000000000000000000001111000000111100000111111111000000000111000000000000011111111111111111111111111111111111111111100000000000111111111111111111111111111111111111000000000001000000111100111111111111111111111111111
1111111111111111111111110000000000000000000000000001111000000011110000011111111110000000111100000000000001101111111111111111111111111111111111111110000000000011111111111111111111111111111111110000000000111000001111000011111111111111111111111111
1111111111111111111111100000000000000000000000000000111000000000111000011111111110000001111110000000000000001111111111111111111111111111111111111111000000000001111111111111111111111111111111110000000000111100111110000001111111111111111111111111
1111111111111111111111100000000000000000000000000000111000000000011100111111111000000011111111100000011111111111111111111111111111111111111111111111110000000000111111111111111111111111111111111000000000111111111100000000111111111111111111111111
1111111111111111111111100000000000000000000000000001111000000000001110000111111000000011111111100000010111111111111111111111111111111111111111111111111000000000011111111111111111111111111111111000000000001111111000000000011111111111111111111111
1111111111111111111111000000000000000000000000000001111000000000000111000110010000000111111111000000000111111111111111111111111111111111111111111111111100000000001111111111111111111111111111011000000000000111110000000000001111111111111111111111
1111111111111111111111000000000000000000000000000001111000000000000011100000000000000111111110000000011111111111111111111111111111111111111111111111111110000000000111111111111111111111111110000000000000000011110000000000000111111111111111111111
1111111111111111111111000000000000000000000000000001110000000000000001110000000000000011111100000000011111111111111111111111111111111111111111111111111111000000000011111111111111111111111011000000000000000001111100000000000011111111111111111111
1111111111111111111111000000000000000000000000000001110000000000000000111000000000000001111100000000001111111111111111111111111111111111111111111111111111100000000001111111111111111111110011000001111000000000111100000000000001111111111111111111
1111111111111111111111000000000000000000000000000001100000000000000000011100000000000000111000000000001111111111111111111111111111111111111111111111111111110000000001111111111111111111100000000001111100000000011000000000000011111111111111111111
1111111111111111111111000000000000000000000000000001100000000000000000001111000000000100000000000000000011111111111111111111111111111111111111111111111111111000000011111111111111111111000000000000111110000000000000000000000111111111111111111111
1111111111111111111111000000000000000000000000000001100000000010000000000011100000001110000000000000000001111111111111111111111111111111111111111111111111111100000111111111111111111110000000000000011111000000000000000000001111000111111111111111
1111111111111111111111100000000000000000000000000001100000001111000000000011110000011110000000000000000000111111111111111111111111111111111111111111111111111110001111111111111111111111000000000000001111100000000000111000011110000011111111111111
1111111111111111111111100000000000000000000000000001100000001111000000000011111000111000000000000000000001111111111111111111111111111111111111111111111111111111011111111111111111111111100000000000011111111000000001111101111100000001111111111111
1111111111111111111111110000000000000000000000000011110000001111100000000111111111110000000000000000000011111111111111111111111111111111111111111111111111111111111111111111111111111111110000000000111111111000000000011111111000000000111111111111
1111111111111111111111111000000000000000000000000011111000001111100000001111111111100000000000000000000111111111111111111111111111111111111111111111111111111111111111111111111111111111111000000001111101110000000000001111110000000000011111111111
1111111111111111111111111100000000000000000000000111111100000111100000001111111111000000000000000000001111111111111111111111111111111111111111111111111111111111111111111111111111111111111100000011110000110000000000000111110000000000001111111111
1111111111111111111111111110000000000000000000011111111110000000000000001111111111000000000000000000011111111111111111111111111111111111111111111111111111111111111111111111111111111111111110000111100000000000000000000011110000000000000111111111
1111111111111111111111111111100000000000000011111111111111000000000000001111111100000000000000000000111111111111111111111111111111111111111111111111111111111111111111111111111111111111111111111111000000000000000000000001111000000000000011111111
1111111111111111111111111111111111111111111111111111111111100000000000001111111100000000000000000001111111111111111111111111111111111111111111111111111111111111111111111111111111111111111111111110000000000000100000000000111000000000000001111111
1111111111111111111111111111111111111111111111111111111111110000000000000111111110000000000000000011111111111111111111111111111111111111111111111111111111111111111111111111111111111111111111111100000000000001111000000000010000000000000001111111
1111111111111111111111111111111111111111111111111111111111111000000000000011111110000000000000000111111111111111111111111111111111111111111111111111111111111111111111111111111111111111111111111000000000000000011100000000000000000000000011111111
1111111111111111111111111111111111111111111111111111111111111100000000000000111110000000000000001111111111111111111111111111111111111111111111111111111111111111111111111111111111111111111111111100000000000000011110000000000000100000000111111111
1111111111111111111111111111111111111111111111111111111111111110000000000000110000000000000000011111111111111111111111111111111111111111111111111111111111111111111111111111111111111111111111111110000000000000111111000000000001110000001111111111
1111111111111111111111111111111111111111111111111111111111111111000000000000000000000000000000111111111111111111111111111111111111111111111111111111111111111111111111111111111111111111111111111111000000000001111111100000000001111000011111111111
1111111111111111111111111111111111111111111111111111111111111111100000000000000000000000000001111111111111111111111111111111111111111111111111111111111111111111111111111111111111111111111111111111100000000011111111110000000000111100111111111111
1111111111111111111111111111111111111111111111111111111111111111110000000000000000000000000111111111111111111111111111111111111111111111111111111111111111111111111111111111111111111111111111111111110000000111111001111000000000011111111111111111
1111111111111111111111111111111111111111111111111111111111111111111000000000011111000000001111111111111111111111111111111111111111111111111111111111111111111111111111111111111111111111111111111111111000001111100000111000000000001111111111111111
1111111111111111111111111111111111111111111111111111111111111111111100000000111111000000011111111111111111111111111111111111111111111111111111111111111111111111111111111111111111111111111111111111111100011111000000000000100000000111111111111111
1111111111111111111111111111111111111111111111111111111111111111111110000000111111000000111111111111111111111111111111111111111111111111111111111111111111111111111111111111111111111111111111111111111111111110000000000001110000001111111111111111
1111111111111111111111111111111111111111111111111111111111111111111111000000011111000001111111111111111111111111111111111111111111111111111111111111111111111111111111111111111111111111111111111111111111111100000000000001111000011111111111111111
1111111111111111111111111111111111111111111111111111111111111111111111100000001100000011111111111111111111111111111111111111111111111111111111111111111111111111111111111111111111111111111111111111111111111000000000000000111100111111111111111111
1111111111111111111111111111111111111111111111111111111111111111111111110000000000000111111111111111111111111111111111111111111111111111111111111111111111111111111111111111111111111111111111111111111111110000000000000000011111111111111111111111
1111111111111111111111111111111111111111111111111111111111111111111111111000000000001111111111111111111111111111111111111111111111111111111111111111111111111111111111111111111111111111111111111111111111111000000000000000001111111111111111111111
1111111111111111111111111111111111111111111111111111111111111111111111111100000000011111111111111111111111111111111111111111111111111111111111111111111111111111111111111111111111111111111111111111111111111100000000000000000111111111111111111111
1111111111111111111111111111111111111111111111111111111111111111111111111110000000111111111111111111111111111111111111111111111111111111111111111111111111111111111111111111111111111111111111111111111111111110000000000000001111111111111111111111
1111111111111111111111111111111111111111111111111111111111111111111111111111000001111111111111111111111111111111111111111111111111111111111111111111111111111111111111111111111111111111111111111111111111111111100000000000011111111111111111111111
1111111111111111111111111111111111111111111111111111111111111111111111111111111111111111111111111111111111111111111111111111111111111111111111111111111111111111111111111111111111111111111111111111111111111111110000000000111111111111111111111111
1111111111111111111111111111111111111111111111111111111111111111111111111111111111111111111111111111111111111111111111111111111111111111111111111111111111111111111111111111111111111111111111111111111111111111111000000001111111111111111111111111
1111111111111111111111111111111111111111111111111111111111111111111111111111111111111111111111111111111111111111111111111111111111111111111111111111111111111111111111111111111111111111111111111111111111111111111100000011111111111111111111111111
1111111111111111111111111111111111111111111111111111111111111111111111111111111111111111111111111111111111111111111111111111111111111111111111111111111111111111111111111111111111111111111111111111111111111111111110000111111111111111111111111111
1111111111111111111111111111111111111111111111111111111111111111111111111111111111111111111111111111111111111111111111111111111111111111111111111111111111111111111111111111111111111111111111111111111111111111111111001111111111111111111111111111
1111111111111111111111111111111111111111111111111111111111111111111111111111111111111111111111111111111111111111111111111111111111111111111111111111111111111111111111111111111111111111111111111111111111111111111111111111111111111111111111111111
1111111111111111111111111111111111111111111111111111111111111111111111111111111111111111111111111111111111111111111111111111111111111111111111111111111111111111111111111111111111111111111111111111111111111111111111111111111111111111111111111111
1111111111111111111111111111111111111111111111111111111111111111111111111111111111111111111111111111111111111111111111111111111111111111111111111111111111111111111111111111111111111111111111111111111111111111111111111111111111111111111111111111
1111111111111111111111111111111111111111111111111111111111111111111111111111111111111111111111111111111111111111111111111111111111111111111111111111111111111111111111111111111111111111111111111111111111111111111111111111111111111111111111111111
1111111111111111111111111111111111111111111111111111111111111111111111111111111111111111111111111111111111111111111111111111111111111111111111111111111111111111111111111111111111111111111111111111111111111111111111111111111111111111111111111111
1111111111111111111111111111111111111111111111111111111111111111111111111111111111111111111111111111111111111111111111111111111111111111111111111111111111111111111111111111111111111111111111111111111111111111111111111111111111111111111111111111
