1111111111111111111111111111111111111111111111111111111111111111111111111111111111111111111111111111111111111111111111111111111111111111111111111111111111111111
1111111111111111111111111111111111111111111111111111111111111111111111111111111111111111111111111111111111111111111111111111111111111111111111111111111111111111
1111111111111111111111111111111111111111111111111111111111111111111111111111111111111111111111111111111111111111111111111111111111111111111111111111111111111111
1111111111111111111111111111111111111111111111111111111111111111111111111111111111111111111111111111111111111111111111111111111111111111111111111111111111111111
1111111111111111111111111111111111111111111111111111111111111111111111111111111111111111111111111111111111111111111111111111111111111111111111111111111111111111
1111111111111111111111111111111111111111111111111111111111111111111111111111111111111111111111111111111111111111111111111111111111111111111111111111111111111111
1111111111111111111111111111111111111111111111111111111111111111111111111111111111111111111111111111111111111111111111111111111111111111111111111111111111111111
1111111111111111111111111111111111111111111111111111111111111111111111111111111111111111111111111111111111111111111111111111111111111111111111111111111111111111
1111111111111111111111111111111111111111111111111111111111111111111111111111111111111111111111111111111111111111111111111111111111111111111111111111111111111111
1111111111111111111111111111111111111111111111111111111111111111111111111111111111111111111111111111111111111111111111111111111111111111111111111111111111111111
1111111111111111111111111111111111111111111111111111111111111111111111111111111111111111111111111111111111111111111111111111111111111111111111111111111111111111
1111111111111111111111111111111111111111111111111111111111111111111111111111111111111111111111111111111111111111111111111111111111111111111111111111111111111111
1111111111111111111111111111111111111111111111111111111111111111111111111111111111111111111111111111111111111111111111111111111111111111111111111111111111111111
1111111111111111111111111111111111111111111111111111111111111111111111111111111111111111111111111111111111111111111111111111111111111111111111111111111111111111
1111111111111111111111111111111111111111111111111111111111111111111111111111111111111111111111111111111111111111111111111111111111111111111111111111111111111111
1111111111111111111111111111111111111111111111111111111111111111111111111111111111111111111111111111111111111111111111111111111111111111111111111111111111111111
1111111111111111111111111111111111111111111111111111111111111111111111111111111111111111111111111111111111111111111111111111111111111111111111111111111111111111
1111111111111111111111111111111111111111111111111111111111111111111111111111111111111111111111111111111111111111111111111111111111111111111111111111111111111111
1111111111111111111111111111111111111111111111111111111111111111111111111111111111111111111111111111111111111111111111111111111111111111111111111111111111111111
1111111111111111111111111111111111111111111111111111111111111111111111111111111111111111111111111111101011111111111111111111111111111111111111111111111111111111
1111111111111111111111111111111111111111111111111111111111111111111111111111111111111111111111111111000011111111111111111111111111111111111111111111111111111111
1111111111111111111111111111111111111111111111111111111111111111111111111111111111111111111111100110000011111111111111111111111111111111111111111111111111111111
1111111111111111111111111111111111111111111111111111111111111111111111111111111111111111110001100000000011111111111111111111111111111111111111111111111111111111
1111111111111111111111111111111111111111111111111111111111111111111111111111111110111111100000000000000001111111111111111111111111111111111111111111111111111111
1111111111111111111111111111111111111111111111111111111111111111111111111111111100111111000000000000000000111111111111111111111111111111111111111111111111111111
1111111111111111111111111111111111111111111111111111111111111111111111111111111000001110000000000000000000111111111111111111111111111111111111111111111111111111
1111111111111111111111111111111111111111111111111111111111111111111111111111110000000000000000000000000000001111111111111111111111111111111111111111111111111111
1111111111111111111111111111111111111111111111111111111111111111111111111111111001110000000000001110000000000111111111111111111111111111111111111111111111111111
1111111111111111111111111111111111111111111111111111111111111111111111111111111100111000000000011110000000001111111111111111111111111111111111111111111111111111
1111111111111111111111111111111111111111111111111111111111111111111111111111111110111000000000111111000000001111111111111111111111111111111111111111111111111111
1111111111111111111111111111111111111111111111111111111111111111111111111111111110000000000001111111000000001111111111111111111111111111111111111111111111111111
1111111111111111111111111111111111111111111111111111111111111111111111111111111110011000000011111111000000011111111111111110111111111111111111111111111111111111
1111111111111111111111111111111111111111111111111111111111111111111111111111111111111000000011111111100000111111111111111110011111111111111111111111111111111111
1111111111111111111111111111111111111111111111111111111111111111111111111111111111111000000011111111000000111111111111111110011111111111111111111111111111111111
1111111111111111111111111111111111111111111111111111111111111111111111111111111111100000000011111100000001111111111111111110011111111111111111111111111111111111
1111111111111111111111111111111111111111111111111111111111111111111111111111111001000000000001110000000001111111111111111000011111111111111111111111111111111111
1111111111111111111111111111111111111111111111111111111111111111111111111111111000000000000000000000000000111111111111110000111111111111111111111111111111111111
1111111111111111111111111111111111111111111111111111111111111111111111111111111000000000000000000000000000011111111111100000111111111111111111111111111111111111
1111111111111111111111111111111111111111111111111111111000000000001111111111111100000000000000000000000000001111111111000000111111111111111111111111111111111111
1111111111111111111111111111111111111111111111111111000000000000000001111111111110000000000000000000000000011111111110000000011111111111111111111111111111111111
1111111111111111111111111111111111111111111111111110000000000000000000001111111111100000000000000000000000111111111110000000000111111111111111111111111111111111
1111111111111111111111111111111111111111111111111100000000110000000000011101111111100000000000000000000001111111111100000000000011111111111111111111111111111111
1111111111111111111111111111111111111111111111111000000001110000000000000000011111100000000000000000000011111111111000000000000111111111111111111111111111111111
1111111111111111111111111111111111111111111111110000000011100000000000000000000111100000000000000000000111111111110000000000001111111111111111111111111111111111
1111111111111111111111111111111111111111111111100000000111000000000000000000000011001100000000000000011111110001100000000000111111111111111111111111111111111111
1111111111111111111111111111111111111111111111000000001100000000000000000000000000001110000000000000111111100000000000000001111111111111111111111111111111111111
1111111111111111111111111111111111111111111110000000011000000000000000000000000000011111000000000001111111000000000000000011111111101111111111111111111111111111
1111111111111111111111111111111111111111111111000000110000000000000000000000000000011111000000000011111111000000000000000111111110000011111111111111111111111111
1111111111111111111111111111111111111111111111100001100000000011110000000000000000000111100000000111111110000000000000001111111100000001111111111111111111111111
1111111111111111111111111111111111111111111111110011000000000011110000000000000000000111100000000111111100000000000000011111111100000011111111111111111111111111
1111111111111111111111111111111111111111111111111110000000000000000000000000000000001111110000000111100000000000000000111111111000000011111111111111111111111111
1111111111111111111111111111111111111111111111111100000000000000000000000000000000001111111000100111100000000000000001111111110000001111111111111111111111111111
1111111111111111111111111111111111111111111111111000000000000000000000000000000000000001111001100010000000000000000011111111000000001111111111111111111111111111
1111111111111111111111111111111111111111111111110000000000000000000000000000000000000001111111100010000000000000000111111110000000011111111111111111111111111111
1111111111111111111111111111111111111111111111100000000000000000000000000000000000000000111111100000000000000000001111111110000000111111111101111111111111111111
1111111111111111111111111111111111110111111111000000000000000000000000000000000000000000011111110000000000000000011111110000000001111111111000111111111111111111
1111111111111111111111111111111111100011111110000000000000000000000000000000000000000000011111110000000000000000111111000000000000111111110000111111111111111111
1111111111111111111111111111111111000001111100000000000000000000000000000000000000000000001111110000000000000001111111001000000000011111100000111111111111111111
1111111111111111111111111111111110000001110000000000000000000000000000000000000000000000001111100000000000000011111110011000000000001111000000001111111111111111
1111111111111111111111111111111100000011100000000000000000000000000000000000000000000000000111110000000000000111111100001100000000000110000000001111111111111111
1111111111111111111111111111111100000111000000000000000000000000000000000000000000000000000111111000000000001111111000001100000000000000000000000111111111111111
1111111111111111111111111111111000001110000000000000000000000000000000000000001110000000000011111100000000011111110000001100000000000000000000000011111111111111
1111111111111111111111111111111000111100000000000000000000000000000000000000001110000000000011111110000000111111100000001110000000000000000000000001111111111111
1111111111111111111111111111111000011000000000000000000000000000000000000000000000000000000011111111000001111111000000000110000000000000000010000000111111111111
1111111111111111111111111111111000000000000000000000000000000000000000000000000000000000000011111111100001111110000000000000000000000000110111000000011111111111
1111111111111111111111111111111000000000000000000000000000000000000000000000000000000000000000011111110000110000000000000000000000000001111111100000000111111111
1111111111111111111111111111111000000000000000000000000000000000000000000000000000000000000000011111111000000000000000000000000000000001111111110000000000111111
1111111111111111111111111111111000000000000000000000000000000000000000000000000000000000000000001111111100000000000000000000000000000000111111110000000000011111
1111111111111111111111111111111000000000000000000000000000000000000000000000000000000000000000000111111110000000000000000000000000000000011111100000000000001111
1111111111111111111111111111111000000000011100000000000000000000000000000000000000000000000000000011111111000000000001100000000000000000001111000000000000000111
1111111111111111111111111111111000000000011100000000000000000000000000000000000000000000000000000001111111100000001111100000000000000000000110000000000000000111
1111111111111111111111111111111000000000001000000000000000000000000000000000000000000000000000000000111111110000001111000000000001000000000000000000000000000111
1111111111111111111111111111111000000000000000000000000000000000000000000000000000000000000000000000011111110000011111000000000011110000000000000000000000001111
1111111111111111111111111111111000000000000000000000000000000000000000000000000000000000000000000000001111111000001110000000000011111000000000000000000000011111
1111111111111111111111111111111100000000000000000000000000000000000000000000000000011000000000000000000111111100001110000000000011111100000000000000000000111111
1111111111111111111111111111111100000000000000000000000000000000000000000000000000111100000000000000000011111110000000000000000111111110000000000000000001111111
1111111111111111111111111101111110000000000000000000000000000000000000000000000011111000000000000000000001111111100000000000001111111111000000000000000011111111
1111111111111111111111111000111110000000000000000000000000000000000000000000000111100000000000000000000000111111110000000000101111111111100000000000000111111111
1111111111111111111111110011111111000000000000000000000000000000000000000000001110000000000000000000000000011111111000000001111111111111110000000000001111111111
1111111111111111111111110011111111000000000000000000000000000000000000000000001100000001100000000000000000001111111100000001111111111111110000000000011111111111
1111111111111111111111100000011111100000000000000000000000000000000000000000000000000011110000000000000000000011111110000000111111111101100000000000111111111111
1111111111111111111111000000001111110000000000000000000000000000000000000010000000011111110000000000000000000001111111000000011111111000000000000001111111111111
1111111111111111111111100000000111111000000000000000001110000000000000000111000000111110100000000000000000000000111111100000001111100000000000000011111111111111
1111111111111111111111110000000011111000000000000000001110000000000000000111000000011100000000000000000000000000011111110000000111000000000000000111111111111111
1111111111111111111111111000000001111100000000000000000000000000000001101110000000001000000000000000000000000000001111111000000010000000000000001111111111111111
1111111111111111111111111000000000111100000000000000000000000000000011111110000000000000000000000000100000000000000111111100000000000000000000011111111111111111
1111111111111111110111111000000000011000010000000000000000000000000000111100000110000000000000000111111110000000000011111100000000000000000000111111111111111111
1111111111111111100011111000000000010000111000000000000000000000000000011100001110000000000000000111111111000000000001111100000000000000000001111111111111111111
1111111111111111000001100000000000000001111100000000000000000000000000000000011100000000000000000111111111000000000000111001100000000000000011111111111111111111
1111111111111110000000000000000000000011111111000000000000000000000000000000111000000000000000000111111111000000000000010000110000000000000111111111111111111111
1111111111111100000000000000000000000001111111100000000000000000000000000001111000000000000000001111111110000000000000000001111000000000001111111111111111111111
1111111111111100000000000001000000000000111111111100000000000000000000000001110000000000000000001111111000000000000000000011111100000000011111111111111111111111
1111111111111110000000001111100000000000001111111111000000000000000000000001100000000000000000000111110000000000000000000011111110000000111111111111111111111111
1111111011111110000000001111110000000000000111111111110000000000000000000000000000000000000000000111100110000000000000000001111111000001111111111111111111111111
1111110001111111000000111111111000000000000011111111111100000000000000000000000000000000000000000111000000000000000000000000111111110011111111111111111111111111
1111100000111111000000111111111000000000000000111111111111000000000000000000000000000000000000000000000000000000000000000000011111111111111111111111111111111111
1111000000011110000001111111111000001100000000001111111111100000000000000000000000000000000000000000000000000000000000000000001111111111111111111111111111111111
1110000000000000000011111111110000011110000000000110111111111000000000000000000000000000000000000000000000000000000000000000000111111111111111111111111111111111
1110000000000000000000111111100000111111000011100110001111111100000000000000000000000000110000000000000000000000000000000000000001111111111111111111111111111111
1110000000000000000001111111000000111111100111100010000011111110000000000000000000000001110000000000000000000000000000000000000011111111111111111111111111111111
1110000000000000000001111110000000011111111111110000000000111111000000000000000000000011110000000000000000000000000000000000000111111111111111111111111111111111
1110000000000000000000001100000000001111111111110000000000011111100000000000000000000111111000000000000000000000000000000000001111111111111111111111111111111111
1111000000000000000000000000000000000111111111000000000000001111111000000000000000000001111000000000000000000000000000000000011111111111111111111111111111111111
1111100000000000000000000000100000000011111100000000000000000011111100000000000000000000110000000000000000000000000000000000111111111111111111111111111111111111
1111110000000000000000000001110000000111111000000000000000000011111110000000000000000000000000000000000000000000000000000001111111111111111111111111111111111111
1111111000000000000000000011111000001111100000000000000000000011111111000000000000000000000000000000000000000000000000000011111111111111111111111111111111111111
1111111100000000000000000011111110011111000000000000000000010001111111100000000000000000000000000000000000000000000000000111111111111111111111111111111111111111
1111111110000000000000000011111111111110000000000000000001111000111111110000000000000000000000000000000000000000000000001111111111111111111111111111111111111111
1111111111000000000000000001111111111100000000000000000011111000111111111000000000000000000000000000000000000000000000011111111111111111111111111111111111111111
1111111111100000000000000000011111111100000000000000000111111100110011111100000000000000000000000000000000000000000000111111111111111111111111111111111111111111
1111111111110000000000000000001111111100000000000000001111110000000011111111000000000000000000000000000000000000000001111111111111111111111111111111111111111111
1111111111111000000000000000001111111000000000000000011110000000000111111111000000000000000000000000000000000000000011111111111111111111111111111111111111111111
1111111111111100000000000000011111000000000000000000111100000000011111111111100000000000000000000000000000000000000111111111111111111111111111111111111111111111
1111111111111110000000000000111110000000000000000001111000000000111111111111110000000000000000000000000000000000011111111111111111111111111111111111111111111111
1111111111111111000000000111111100000000000000000011110000000001111111111111111000000000000000000000000000000000111111111111111111111111111111111111111111111111
1111111111111111100000000111111000000000000000000111100000000001111111111111111100000000000000000000000000000001111111111111111111111111111111111111111111111111
1111111111111111110000000110110000000000000000001111000000000001111111110001111111000000000000000000000000000011111111111111111111111111111111111111111111111111
1111111111111111111000000110000000000000000000011110000000000001111111100001111111100000000000000000000000000111111111111111111111111111111111111111111111111111
1111111111111111111100000110000000000000000000111110000000000001111111000011111111110000000000000000000000001111111111111111111111111111111111111111111111111111
1111111111111111111110001110000000000000000001111110011000000000111110000000001111111000000000000000000000011111111111111111111111111111111111111111111111111111
1111111111111111111111001110000000000000000011110000011000000000000000000000000111111000000000000000000001111111111111111111111111111111111111111111111111111111
1111111111111111111111111110000000000000000111100000111000000000000000000000000111111000000000000000000011111111111111111111111111111111111111111111111111111111
1111111111111111111111111110000000000000001111110001111100000000000000000000000111111000000000000000000111111111111111111111111111111111111111111111111111111111
1111111111111111111111111111000000000000111111111001101100000000000000000000000011010000000000000000001111111111111111111111111111111111111111111111111111111111
1111111111111111111111111111100000000001111111111011101100000000000000000000000000000001100000000000011111111111111111111111111111111111111111111111111111111111
1111111111111111111111111111110000000001111111000011100110000000000000000000000000000011110000000000111111111111111111111111111111111111111111111111111111111111
1111111111111111111111111111111000000000111111000011000000000000000000000000000000000011111000000001111111111111111111111111111111111111111111111111111111111111
1111111111111111111111111111111100000000011111100000000000000000000000000000000000000001111111000011111111111111111111111111111111111111111111111111111111111111
1111111111111111111111111111111110000000000111110000000000000000000000000000000000000000111111100111111111111111111111111111111111111111111111111111111111111111
1111111111111111111111111111111111000000000011111000000000000000000001100000000000000000011111111111111111111111111111111111111111111111111111111111111111111111
1111111111111111111111111111111111100000000001111100000000000000000011100000000000000000001111111111111111111111111111111111111111111111111111111111111111111111
1111111111111111111111111111111111110000000000111110000000000000000111100000000000000000000111111111111111111111111111111111111111111111111111111111111111111111
1111111111111111111111111111111111111000000000011111000000000000001111000010000000000000000011111111111111111111111111111111111111111111111111111111111111111111
1111111111111111111111111111111111111100000000001111100000000000011110000111000000000000000011111111111111111111111111111111111111111111111111111111111111111111
1111111111111111111111111111111111111110000000000111110000000000111100001111100000000000000111111111111111111111111111111111111111111111111111111111111111111111
1111111111111111111111111111111111111111000000000011111000000001110000000011110000000000001111111111111111111111111111111111111111111111111111111111111111111111
1111111111111111111111111111111111111111100000000001111110000001111000000111100000000000011111111111111111111111111111111111111111111111111111111111111111111111
1111111111111111111111111111111111111111110000000001111111000000111100000111100000000000111111111111111111111111111111111111111111111111111111111111111111111111
1111111111111111111111111111111111111111111000000000001111100000111110000110000000000001111111111111111111111111111111111111111111111111111111111111111111111111
1111111111111111111111111111111111111111111100000000000111110000011111000000000000000011111111111111111111111111111111111111111111111111111111111111111111111111
1111111111111111111111111111111111111111111110000000000011111000001111100000000000000111111111111111111111111111111111111111111111111111111111111111111111111111
1111111111111111111111111111111111111111111111000000000001111100000111100000000000001111111111111111111111111111111111111111111111111111111111111111111111111111
1111111111111111111111111111111111111111111111100000000000111110000010000000000000011111111111111111111111111111111111111111111111111111111111111111111111111111
1111111111111111111111111111111111111111111111110000000000011111000000000000000000111111111111111111111111111111111111111111111111111111111111111111111111111111
1111111111111111111111111111111111111111111111111000000000001111100000000000000001111111111111111111111111111111111111111111111111111111111111111111111111111111
1111111111111111111111111111111111111111111111111100000000000111110000000000000011111111111111111111111111111111111111111111111111111111111111111111111111111111
1111111111111111111111111111111111111111111111111111000000000011111111000000000111111111111111111111111111111111111111111111111111111111111111111111111111111111
1111111111111111111111111111111111111111111111111111100000000011111111110000001111111111111111111111111111111111111111111111111111111111111111111111111111111111
1111111111111111111111111111111111111111111111111111111000000001111100110000011111111111111111111111111111111111111111111111111111111111111111111111111111111111
1111111111111111111111111111111111111111111111111111111100000000011000110000111111111111111111111111111111111111111111111111111111111111111111111111111111111111
1111111111111111111111111111111111111111111111111111111110000000000000110001111111111111111111111111111111111111111111111111111111111111111111111111111111111111
1111111111111111111111111111111111111111111111111111111111000000000000111011111111111111111111111111111111111111111111111111111111111111111111111111111111111111
1111111111111111111111111111111111111111111111111111111111100000000000111111111111111111111111111111111111111111111111111111111111111111111111111111111111111111
1111111111111111111111111111111111111111111111111111111111111000000000111111111111111111111111111111111111111111111111111111111111111111111111111111111111111111
1111111111111111111111111111111111111111111111111111111111111100000000111111111111111111111111111111111111111111111111111111111111111111111111111111111111111111
1111111111111111111111111111111111111111111111111111111111111110000000111111111111111111111111111111111111111111111111111111111111111111111111111111111111111111
1111111111111111111111111111111111111111111111111111111111111111000001111111111111111111111111111111111111111111111111111111111111111111111111111111111111111111
1111111111111111111111111111111111111111111111111111111111111111111111111111111111111111111111111111111111111111111111111111111111111111111111111111111111111111
1111111111111111111111111111111111111111111111111111111111111111111111111111111111111111111111111111111111111111111111111111111111111111111111111111111111111111
1111111111111111111111111111111111111111111111111111111111111111111111111111111111111111111111111111111111111111111111111111111111111111111111111111111111111111
