11111111111111111111111111111111111111111111111111111111111111111111
11111111111111111111111111111111111111111111111111111111111111111111
11111111111111111111111111111111111111111111111111111111111111111111
11111111111111111111111111111111111111111111111111111111111111111111
11111111111111111111111111111111111111111111111111111111111111111111
11111111111111111111111111111111111111111111111111111111111111111111
11111111111111111111111111111111111111111111111111111111111111111111
11111111111111111111111111111111111111111111111111111111111111111111
11111111111111111111111111111111111111111111111111111111111111111111
11111111111111111111111111111111111111111111111111111111111111111111
11111111111111111111111111111111011111111111111111111111111111111111
11111111111111111111111111111110001111111111111111111111111111111111
11111111111111111111111111111100000111111111111111111111111111111111
11111111111111111111111111111000000011111111111111111111111111111111
11111111111111111111111111111000000001111111111111111111111111111111
11111111111111111111111111111000000000001111111111111111111111111111
11111111111111111111111111110000000000000111111111111111111111111111
11111111111111111111111110100000000000000011111111111111111111111111
11111111111111111111111100000001110000000001111111111111111111111111
11111111111111111111111000000011110001100000111111111111111111111111
11111111111111111111110000000111111100110000011111111111111111111111
11111111111111111111100000000111111110011000001111111111111111111111
11111111111111111111000000000001111111001000000111111111111111111111
11111111111111111111100000000001111111100000000011111111111111111111
11111111111111111011110000000000111111100000000001111111111111111111
11111111111111110001111000000110011111000000000000111111111111111111
11111111111111111000111100000011001110000000000000111111111111111111
11111111111111111100011110000001100100000000000001111111111111111111
11111111111111111110011111000000110000000000000011111111111111111111
11111111111111111111011111100000000000000000000111111111111111111111
11111111111110111110001111110000000000000000001111111111111111111111
11111111111100011100000111111000000000000000011111111110111111111111
11111111111000001000000000111100000000000000111111111100011111111111
11111111111100000000000000001111000000000001111111100000011111111111
11111111111110000000000000000111100000000011111111100000001111111111
11111111111111000000000000000111100000000111111110000011001111111111
11111000111110000000000000000111100000001111110000000111100111111111
11111100011100000000000000000000000000000111100000001111100001111111
11111110001000000000000000100000000000000000000000011111100000111111
11111111000000000000000001110000000000000000000000011111000001111111
11111111100000000000000011100000000000000000000000011110000011111111
11111111110000000000000111000000000000000000000100011110001111111111
11111111111000000000001110000000000000000000001110000110011111111111
11111111111100000000011100000000000000000000001111000000111111111111
11111111111110000000111100000000000000000000000111100001111111111111
11111111111110000001111100000000000000000000000001110011111111111111
11111111111111000011111000000000110000000000000000111111111111111111
11111111111111100111000000000001111100000000000000011111111111111111
11111111111111111110000000000111111100000000000000011111111111111111
11111111111111111100000000000111111100000000000000111111111111111111
11111111111111111100000000000011111101110000000001111111111111111111
11111111111111111110000000000111111111110000000011111111111111111111
11111111111111111111000000001111111111110000000111111111111111111111
11111111111111111111100000001111111111100000001111111111111111111111
11111111111111111111110000000111111111000000011111111111111111111111
11111111111111111111111000000011111110000000111111111111111111111111
11111111111111111111111100000001111100000001111111111111111111111111
11111111111111111111111110000000000000000011111111111111111111111111
11111111111111111111111111000000000000000111111111111111111111111111
11111111111111111111111111100000000000001111111111111111111111111111
11111111111111111111111111110000000000011111111111111111111111111111
11111111111111111111111111111000000000111111111111111111111111111111
11111111111111111111111111111100000001111111111111111111111111111111
11111111111111111111111111111111000011111111111111111111111111111111
11111111111111111111111111111111111111111111111111111111111111111111
11111111111111111111111111111111111111111111111111111111111111111111
11111111111111111111111111111111111111111111111111111111111111111111
11111111111111111111111111111111111111111111111111111111111111111111
11111111111111111111111111111111111111111111111111111111111111111111
11111111111111111111111111111111111111111111111111111111111111111111
