11111111111111111111111111111111111111111111111111111111111111111111111111111111111111111111111111111111111111111111111111111111
11111111111111111111111111111111111111111111111111111111111111111111111111111111111111111111111111111111111111111111111111111111
11111111111111111111111111111111111111111111111111111111111111111111111111111111111111111111111111111111111111111111111111111111
11111111111111111111111111111111111111111111111111111111111111111111111111111111111111111111111111111111111111111111111111111111
11111111111111111111111111111111111111111111111111111111111111111111111111111111111111111111111111111111111111111111111111111111
11111111111111111111111111111111111111111111111111111111111111111111111111111111111111111111111111111111111111111111111111111111
11111111111111111111111111111111111111111111111111111111111111111111111111111111111111111111111111111111111111111111111111111111
11111111111111111111111111111111111111111111111111111111111111111111111111111111111111111111111111111111111111111111111111111111
11111111111111111111111111111111111111111111111111111111111111111111111111111111111111111111111111111111111111111111111111111111
11111111111111111111111111111111111111111111111111111111111111111111111111111111111111111111111111111111111111111111111111111111
11111111111111111111111111111111111111111111111111111111111111111111111111111111111111111111111111111111111111111111111111111111
11111111111111111111111111111111111111111111111111111111111111111111111111111111111111111111111111111111111111111111111111111111
11111111111111111111111111111111111111111111111111111111111111111111111111111111111110011111111111111111111111111111111111111111
11111111111111111111111111111111111111111111111111111111111111111111111111111111111100001111111111111111111111111111111111111111
11111111111111111111111111111111111111111111111111111111111111111111111111111111100000001111111111111111111111111111111111111111
11111111111111111111111111111111111111111111111111111111111111111111111111111111000011001111111111111111111111111111111111111111
11111111111111111111111111111111111111111111111111111111111111111111111111111111000011000111111111111111111111111111111111111111
11111111111111111111111111111111111111111111111111111111111111111111111111111111000001000011111111111111111111111111111111111111
11111111111111111111111111111111111111111111111111111111111111111111111111111110000001000110011111111111111111111111111111111111
11111111111111111111111111111111111111111111111111111111111111111111111111111100000000001110000111111111111111111111111111111111
11111111111111111111111111111111111111111111111111111111111111111111111111100000000000001100000111111111111111111111111111111111
11111111111111111111111111111111111111111111111111111111111111111111111111000000000000000000001111111111111111111111111111111111
11111111111111111111111111111111111111111111111111111111111111111111111110000000000000000000001111111111111111111111111111111111
11111111111111111111111111111111111111111111111111111111111111111111111100000000000000000000000111111111111111111111111111111111
11111111111111111111111111111111111111111111111111111111111111111111111000000000000000000001100000001111111111111111111111111111
11111111111111111111111111111111111111111111111111111111111111111111110000000000000000000011100000000111111111111111111111111111
11111111111111111111111111111111111111111111111111111111111111111111100000000000000000000011000000000011111111111111111111111111
11111111111111111111111111111111111111111111111111111111111111111111000000000000000000000001000000000111111111111111111111111111
11111111111111111111111111111111111111111111111111111111111111111110000000000000000000000000000000000011111111111111111111111111
11111111111111111111111111111111111111111111111111111111111111111100000000000000000000000000000000000001111111111111111111111111
11111111111111111111111111111111111111111111111111111111111111111000000000000000000000000000000000001100111111111111111111111111
11111111111111111111111111111111111111111111111111111111111111110000000000000000000000000000110000001100011111111111111111111111
11111111111111111111111111111111111111111111111111111111111111110000000000000000000000000001111000001000011111111111111111111111
11111111111111111111111111111111111111111111111111111111000111110000000000000000000000001111111100000000111111111111111111111111
11111111111111111111111111111111111111111111111111111111000111110000000000000000000000011111111110000001111111111111111111111111
11111111111111111111111111111111111111111111111111111111000111110000000000000000000000001111111110000001111111111111111111111111
11111111111111111111111111111111111111111111111111111111000111100000000000000000000000000111111100000011111111111111111111111111
11111111111111111111111111111111111111111111111111111111000111000000000000000000000000000011111000000011111111111111111111111111
11111111111111111111111111111111111111111111111110011111000110000000000000000000000000000001111000000011001111111111111111111111
11111111111111111111111111111111111111111111111100000000000000000000000000000000000000000000110001111000000111111111111111111111
11111111111111111111111111111111111111111111111000000000000000000000000000000000000000000000000011110000000011111111111111111111
11111111111111111111111111111111111111111111110000011110000000011100000000000000000000000000000011110000000001111111111111111111
11111111111111111111111111111111111111111111100000010011000000011000000000000000000000000000000111110000000000111111111111111111
11111111111111111111111111111111111111111111000000000001000000000000000000000000000000000000000011111000000000011111111111111111
11111111111111111111111111111111111111111101000000000001000000000000000000000000000000000000000011111100000000001111111111111111
11111111111111111111111111111111111111111100000000011001101100000000011000000000000000000000000001111110000000000111111111111111
11111111111111111111111111111111111111111110000011111000101100000000011000000000000000000000000000111111000000000011111111111111
11111111111111111111111111111111111111111111000111111000000110000000110000000000000000000000000000011111100000000001111111111111
11111111111111111111111111111111111111111111100000111000010000000000000000000000000000000000000000001111110000000000111111111111
11111111111111111111111111111111111110011111100000000000010000011110000000000000000000000000000000000111111000000000011111111111
11111111111111111111111111111111111100001111100000000000000000111110000000000000000000000000000000000011111110000000001111111111
11111111111111111111111111111111111000000111100000000000000000001100000000000000000000000000000000000111111111000000000111111111
11111111111111111111111111111111110000000011000000000000000000000000000000000000000000000000000000001111111111100000000011111111
11111111111111111111111111111111100000000011000111000000000000000000000000000000000000000000000000011111111111110000000001111111
11111111111111111111111111111111000000000011000111100000000000000000000000000000000000000000000000111111111111111000000000111111
11111111111111111111111111111110001100000110001111110000000000000000000000000000000000000000000001111111111111111100000000011111
11111111111111111111111111111100001100000110001111111100000111100000000000000000000000000000000011111111111111111110000000001111
11111111111111111111111111111000001110000100011111111100000111100000000000000000000000000000000111111111111111111111000000000111
11111111111111111111111111110000000111000000011111111110000111100000000001100000000000000000001111111111111111111111100000000111
11111111111111111111111111100000000111100000011111111111000011100000000001100000000000000000011111111111111111111111100000001111
11111111111111111111111111000000000011110000110111111111100000000000000011001100000011100000111111111111111111111111100000011111
11111111111111111111111110000000110001111000100000111111110000000000000010011100000011100001111111111111111111111111000000111111
11111111111111111111111100000000111000011100000000111111111000000000000000111000000000000011111111111111111111111100000001111111
11111111111111111111111001100000011100001110000000100111111100011000000000100000000000000111111111111111111111111100001111111111
11111111111111111111100001101110001110000111000000000011111110011000000000000000000000001111111111111111111111111100001111111111
11111111111111111111000001101111000111000011000000000011111111000000000000000000000000011111111111111111111111111100000111111111
11111111111111111110000000000111100011100000000000000010111111100000000000000000000000111111111111111111111111111100000011111111
11111111111111111100000000000011110001110000000000000000011111100000000000000000000001111111111111111111111111111000000001111111
11111111111111111000000011000001111000110000000000000000001111100000000010000000000000111111111111111111111111111100000000111111
11111111111111110000000011100000111100000000000000000000001111100000000010000000000000011111111111111111111111111000000000011111
11111111111111100000000001110000011110000000000000111000000001100010000000000000000000001111111111111111011111110000000000011111
11111111111111000000000000111000001110000000000000111100000001000111000000000000000000000111111111111110000000000000000000111111
11111111111110001100011000011100000000000000000000011110000011000111100000000011000000000011111111111100000000000000000001111111
11111111111100001100011100001110000000000000000000001111000010000111110000000111100000000011111111111100000000000000000011111111
11111111111000001100001100000111000000000000000011000111100010001111111000001111110000000011111111111000000000000000000111111111
11111111110000000000000110000011000000000000000011100011100110001111111100011111111000000000101111011000000000000000001111111111
11111111100000000000000111000011000000000011100011110001110000011001111110111111111101111000000000000000000000000000011111111111
11111111110000000110000011100000000000000011110001110000111000011000111111111111111111111000000000000001000000000000111111111111
11111111111000000111000001110000000000000001111000111000010000010000011111111111111111110000000000001111110000000001111111111111
11111111111100000111100000110000000000000000111110011100000000000000001111111111111111110000000000111111110000000011111111111111
11111111111110000001111000110000000000011100001111001110000000000000011111111111111111110000000001111111110000000111111111111111
11111111111111000000111100000000000000011110000111101110000000000000111111111111111111111000000001111111110000001111111111111111
11111111111111000000001110000000000011000111000011100110000000000001111111111111111111111100000001111111110000011111111111111111
11111111111111100000000111000000000011100011100001100000000000000011111111111111111111111110000001111111000000111111111111111111
11111111111111110000000011000000000001110001110000000000000000000111111111111111111111111111000000111110000001111111111111111111
11111111111111110000000000000000011000111100111000000000000000001111111111111111111111111111100000000000000011111111111111111111
11111111111111111000000000000000011000011110011100000000000000011111111111111111111111111111110000000000000111111111111111111111
11111111111111111000000000000000011100001111001100000000000000111111111111111111111111111111111000000000001111111111111111111111
11111111111111111100000000000000001110000111000000000000000001111111111111111111111111111111111100000000011111111111111111111111
11111111111111111100000000000000000111000011000000000000000011111111111111111111111111111111111110000000111111111111111111111111
11111111111111111100000000000000000011100000000000000000000111111111111111111111111111111111111111000001111111111111111111111111
11111111111111111100000000000000000001111000000000000000001111111111111111111111111111111111111111100011111111111111111111111111
11111111111111110000000000000000000000111000000000000000011111111111111111111111111111111111111111110111111111111111111111111111
11111111111111110000000000000000000000011000000000000000111111111111111111111111111111111111111111111111111111111111111111111111
11111111111111100000000000000000000000000000000000000001111111111111111111111111111111111111111111111111111111111111111111111111
11111111111111000000000000000000000000000000000000000011111111111111111111111111111111111111111111111111111111111111111111111111
11111111111111000000000000000000000000000000000000000111111111111111111111111111111111111111111111111111111111111111111111111111
11111111111110000000000000000000000000000000000000001111111111111111111111111111111111111111111111111111111111111111111111111111
11111111111110000000000000000001000000000000000000011111111111111111111111111111111111111111111111111111111111111111111111111111
11111111111111111110000000000011100000000000000000111111111111111111111111111111111111111111111111111111111111111111111111111111
11111111111111111110000000000111110000000000000001111111111111111111111111111111111111111111111111111111111111111111111111111111
11111111110111111100000000001111111000000000000011111111111111111111111111111111111111111111111111111111111111111111111111111111
11110000000001111000000000011111111100000000000111111111111111111111111111111111111111111111111111111111111111111111111111111111
11100000000000000000000000111111111110000000001111111111111111111111111111111111111111111111111111111111111111111111111111111111
11000000000000000000000001111111111111000000011111111111111111111111111111111111111111111111111111111111111111111111111111111111
10000000000000000000000011111111111111100000111111111111111111111111111111111111111111111111111111111111111111111111111111111111
11000000000000000000000111111111111111110001111111111111111111111111111111111111111111111111111111111111111111111111111111111111
11100000000000000000001111111111111111111011111111111111111111111111111111111111111111111111111111111111111111111111111111111111
11110000000000000000011111111111111111111111111111111111111111111111111111111111111111111111111111111111111111111111111111111111
11111000000000000000111111111111111111111111111111111111111111111111111111111111111111111111111111111111111111111111111111111111
11111100000000000001111111111111111111111111111111111111111111111111111111111111111111111111111111111111111111111111111111111111
11111110000000000011111111111111111111111111111111111111111111111111111111111111111111111111111111111111111111111111111111111111
11111111000000000111111111111111111111111111111111111111111111111111111111111111111111111111111111111111111111111111111111111111
11111111100000001111111111111111111111111111111111111111111111111111111111111111111111111111111111111111111111111111111111111111
11111111110000011111111111111111111111111111111111111111111111111111111111111111111111111111111111111111111111111111111111111111
11111111111000111111111111111111111111111111111111111111111111111111111111111111111111111111111111111111111111111111111111111111
11111111111111111111111111111111111111111111111111111111111111111111111111111111111111111111111111111111111111111111111111111111
11111111111111111111111111111111111111111111111111111111111111111111111111111111111111111111111111111111111111111111111111111111
