11111111111111111111111111111111111111111111111111111111
11111111111111111111111111111111111111111111111111111111
11111111111111111111111111111111111111111111111111111111
11111111111111111111111111111111111111111111111111111111
11111111111111111111111111111111111111111111111111111111
11111111111111111111111111111111111111111111111111111111
11111111111111111111111111111111111111111111111111111111
11111111111111111111111111111111111111111111111111111111
11111111111111111111111111111111111111111111111111111111
11111111111111111111111111111111111111111111111111111111
11111111111111111111111111111111111110111111111111111111
11111111111111111111111111111111111110011111111111111111
11111111111111111111111111111111111110001111111111111111
11111111111111111111111111111111111000000111111111111111
11111111111111111111111111111111111000000011111111111111
11111111111111111111111111111111100000000011111111111111
11111111111111111111111111111111100000000111111111111111
11111111111111111111111111111111100000011111111111111111
11111111111111111111111111111100000000111111111111111111
11111111111111111111111111011100000011111111111111111111
11111111111111111111111000001110000111111111111111111111
11111111111111111111110000000000011111111111111111111111
11111111111111111111111000000000011111111111111111111111
11111111111111111111111100000000011111111111111111111111
11111111111111111111111110000000011111111111111111111111
11111111111111111101111111000001111111111111111111111111
11111111111111110000111111100011111111111111111111111111
11111111111111110000011111000011111111111111111111111111
11111111111111110000001110000011111101111111111111111111
11111111111111100000000000000001111000111111111111111111
11111111111111110000000000000011110000011111111111111111
11111111111111111000000000000111100000001111111111111111
11111111111111111100000000000001100000001111111111111111
11111111111111111000000000000001100000001111111111111111
11111111111111110000000010000000110010000111111111111111
11111111111101100000000111000000011110000111111111111111
11110111111000000000001111100000000000000011111111111111
11100000000000000000011111110000000000000011111111111111
11000000000000000000011111110000000000000011111111111111
11100000000000000000001111111000000000000001111111111111
11100000000000000000000111111101100000000000111111111111
11110000000000110000000111111111100000000000000111111111
11111000000001111000000011111111100000000000000011111111
11111100000011111000000001111111100000000000000001111111
11111110000111101100000000111111100001111000000000111111
11111111001111000100000000011111000001111110000000001111
11111111111111000110000000001111000011111110000000000001
11111111111111000010000000000000000111111100000000000011
11111111111111100011000000000000000111111100000000000111
11111111111111100001100000000000000000011100000000001111
11111111111111110001110000000000000000000000000000011111
11111111111111110000100000000000000000000000000000111111
11111111111111111000100000000000000000000000000001111111
11111111111111111000110000000000000000000000000011111111
11111111111111111100000000000000000000000000000111111111
11111111111111111110000000000000000000000000001111111111
11111111111111111100000000000000000000000000011111111111
11111111111111111000000000000000000000000001111111111111
11111111111111111000000000000000000000000011111111111111
11111111111111111100000000000000000000000111111111111111
11111111111111111110000000000000000000001111111111111111
11111111111111111111000000000000000000011111111111111111
11111111111111111111100000000000000000111111111111111111
11111111111111111111110000000000000001111111111111111111
11111111111111111111111000000000000011111111111111111111
11111111111111111111111100000000001111111111111111111111
11111111111111111111111110000000011111111111111111111111
11111111111111111111111111100000111111111111111111111111
11111111111111111111111111111111111111111111111111111111
11111111111111111111111111111111111111111111111111111111
