11111111111111111111111111111111111111111111111111111111111111111111111111111111
11111111111111111111111111111111111111111111111111111111111111111111111111111111
11111111111111111111111111111111111111111111111111111111111111111111111111111111
11111111111111111111111111111111111111111111111111111111111111111111111111111111
11111111111111111111111111111111111111111111111111111111111111111111111111111111
11111111111111111111111111111111111111111111111111111111111111111111111111111111
11111111111111111111111111111111111111111111111111111111111111111111111111111111
11111111111111111111111111111111111111111111111111111111111111111111111111111111
11111111111111111111111111111111111111111111111111111111111111111111111111111111
11111111111111111111111111111111111111111111111111111111111111111111111111111111
11111111111111111111111111111111111111111111111111111111111111111111111111111111
11111111111111111111111111111111111111111111111111111111111111111111111111111111
11111111111111111111111111111111111111111111111111111111111111111111111111111111
11111111111111111111111111111111111111111111111111111111111111111111111111111111
11111111111111111111111111111111111111111111111111111111111111111111111111111111
11111111111111111111111111111111111111111111111111111111111101111111111111111111
11111111111111111111111111111111111111111111111111111111111100111111111111111111
11111111111111111111111111111111111111111111111111111111111000111111111111111111
11111111111111111111111111111111111111001111111111111111110001111111111111111111
11111111111111111111111111111111111000000000000000000011100001111111111111111111
11111111111111111111111111111111110000000000000000000000100011111111111111111111
11111111111111111111111111000000110000000000000000000001100011111111111111111111
11111111111111111111111100000000000000000000000000000001000011011111111111111111
11111111111111111111110000000000000000000000000000000001000010011111111111111111
11111111111111111111100000000000000000000000000000000011000110011111111111111111
11111111111111111011100000000000000000000000000000000010000110011111111111111111
11111111111111011001100000000000000000000000000000000010000110001111111111111111
11111111111111000000000000000000000000000000000000000110001110000111111111111111
11111111111110000000000000000000000000000000000000000100001110000011111111111111
11111111111110000000000000000000000000000000000000011100001100000001111111111111
11111111111100000000000000000000000000000000000000011100011100000000111111111111
11111111111100000000000000000000000000000000000000111000011000000000011111111111
11111111111000000000000000000000000000000000000000000000011000000000001111111111
11111111110000000000000000000000000000000000000000000000111000000000000111111111
11111111100000000000000000000000000000000000000000000001111100000000000111111111
11111111100000000000000000000000000000000000000000000000000000000000000111111111
11111111100000000000000000000000000000000000000000000000000000000000000111111111
11111111110000000000000000000000000000000000000000000000000000000000000011111111
11111011110000000000000000000000000000000000000000000000000000000000000011111111
11111000000000000000000000000000000000000000000000000000000000000000000001111111
11111000000000000000000000000000000000000000000000000000000000000000000001111111
11111000000000000000000000000000000000000000000000000000000000000000000000111111
11111000000000000000000000000000000011111110000000000000000000000000000000011111
11111000000000000000000000000000001111111111000000000000000000000000000000011111
11111000000000000000000000000000001111111111000000000000000000000000000000001111
11111000000000000000000000000000011111001111000011000000000000000000000000000111
11111000000000000000000000000000011100001110000111000000000000000000000000000111
11111000000000000000000000000000000000000000001111000000000000000000000000000111
11111000000000000000000000000110000000000000011111100000000000000000000000000111
11111000000000000000000000110111000000000000011111100000000000000000000000000111
11111000000000000000000000111111100000000000011111100000000000000000000000000111
11111000000000000000000000001111100000000000001111110000000000000000000000000111
11111000000000000000000000001111100000000000000011110000000000000000000000000111
11111000000000000000000000001111000000000000000001110000000000000000000000000111
11111000000000000000000000001111000000000000000011110000000000000000000000000111
11111000000000000000000000001110000000000000000111110000000000000000000000000111
11111000000000000000000000001110000000000000001111100000000000000000000000000111
11111000000000000000000000001111100000000000000111100000000000000000000000000111
11111000000000000000000000000111100000000000000011100000000000000000000000000111
11111000000000000000000000000111111000000000000000000000000000000000000000000111
11111000000000000000000000000011110000000000001000000000000000000000000000000111
11111000000000000000000000000000000000000000111000000000000000000000000000000111
11111000000000000000000000000000000000111111111110000000000000000000000000000111
11111000000000000000000000000000000001111111111110000000000000000000000000000111
11111000000000000000000000000000000111111111110000000000000000000000000000000111
11111000000000000000000000000000000111111111100000000000000000000000000000000111
11111000000000000000000000000000000000000000000000000000000000000000000000000111
11111000000000000000000000000000000000000000000000000000000000000000000000000111
11111000000000000000000000000000000000000000000000000000000000000000000000000111
11111000000000000000000000000000000000000000000000000000000000000000000000001111
11111000000000000000000000000000000000000000000000000000000000000000000000001111
11111100000000000000000000000000000000000000000000000000000000000000000000011111
11111100000000000000000000000000000000000000000000000000000000000000000000011111
11111110000000000000000000000000000000000000000000000000000000000000000000111111
11111111000000000000000000000000000000000000000000000000000000000000000011111111
11111111100000000000000000000000000000000000000000000000000000000000000111111111
11111111111000000000000000000000000000000000000000000000000000000000011111111111
11111111111111000000000000000000000000000000000000000000000000000001111111111111
11111111111111110000000000000000000000000000000000000000000000000111111111111111
11111111111111111110000000000000000000000000000000000000000000011111111111111111
11111111111111111111100000000000000000000000000000000000000011111111111111111111
11111111111111111111111100000000000000000000000000000000001111111111111111111111
11111111111111111111111111000000000000000000000000000000111111111111111111111111
11111111111111111111111111110000000000000000000000000011111111111111111111111111
11111111111111111111111111111111111111111111111111111111111111111111111111111111
11111111111111111111111111111111111111111111111111111111111111111111111111111111
