11111111111111111111111111111111111111111111111111111111111111111111111111111111111111111111
11111111111111111111111111111111111111111111111111111111111111111111111111111111111111111111
11111111111111111111111111111111111111111111111111111111111111111111111111111111111111111111
11111111111111111111111111111111111111111111111111111111111111111111111111111111111111111111
11111111111111111111111111111111111111111111111111111111111111111111111111111111111111111111
11111111111111111111111111111111111111111111111111111111111111111111111111111111111111111111
11111111111111111111111111111111111111111111111111111111111111111111111111111111111111111111
11111111111111111111111111111111111111111111111111111111111111111111111111111111111111111111
11111111111111111111111111111111111111111111111111111111111111111111111111111111111111111111
11111111111111111111111111111111111111111111111111111111111111111111111111111111111111111111
11111111111111111111111111111111111111111111111111111111111111111111111111111111111111111111
11111111111111111111111111111111111111111111111111111111111111111111111111111111111111111111
11111111111111111111111111111111111111111111111111111111111111111111111111111111111111111111
11111111111111111111111111111111111111111111111111111111111111111111111111111111111111111111
11111111111111111111111111111111111111111111111111111111111111111111111111111111111111111111
11111111111111111111111111111111111111111111111111111111111111111111111111111111111111111111
11111111111111111111111111111111111111111111111111111111111111111111111111111111111111111111
11111111111111111111111111111111111111111111111111111111111111111111111111111111111111111111
11111111111111111111111111111111111111111111111111111111111111111111111111111111111111111111
11111111111111111111111111111111111111000000000000000000011111111111111111111111111111111111
11111111111111111111111111111111100000000000000000000000000111111111111111111111111111111111
11111111111111111111111111111000000000000000000000000000000111111111111111111111111111111111
11111111111111111111111111100000000000000000000000000000000111111111111111111111111111111111
11111111111111111111111110000000000000000000000000000000000111111111111111111111111111111111
11111111111111111111111000000000000000000000000000000000000111111111111111111111111111111111
11111111111111111111100000000000000000000000000000000000000111111111111111111111111111111111
11111111111111111111000000000000000000000000000000000000000111111111111111111111111111111111
11111111111111111110000000000000000000000000000000000000000111111111111111111111111111111111
11111111001111111000000000000000000000000110000000110000000111111111111111111111111111111111
11111111000111110000000000000000000000001111000001111000000111111111111111111111111111111111
11111110000111100000000000000000110000000000000000000000000111110011111111111111111000111111
11111110000011000000000000000001111000011111111111111000000111110001111111111111110000011111
11111100000000000000000000000000111111111111111111111111100111110001111111111111100000011111
11111100000000000000000011000000111111111111111111111111111111110000111111111111000000011111
11111100000000000000000011100111111111111111111111111111111111110000111111111110000000011111
11111000000000000000000111111111111111111111111111111111111111110000111111111100000000011111
11111000000000000000000001111111111111111111111111111111111111100000111111111000000000001111
11110000000000000000000111111111111111111111111111111111111111000000111111110000000000001111
11110000000000000000001111111111111111111111111111111111111110000000111111110000000000001111
11110000000000000111111111111111111111111111111111111111111100000000111111110000000000000111
11110000000000000111111111111111111111111111111111111111111000000001111111110000000000000111
11100000000000000111111111111111111111111111111111111111110000000001111111110000000000000111
11100000000000000000111111111111111111111111111111111111110000000011111111110000000000000111
11100000000000000000011111111111111111111111111111111111100000000111111111000000000000000111
11100000000000000000000111111111111111111111111111111111000000001111111111100000000000000111
11100000000000000000000001111111111111111111111111111110000000001111111111110000000000000111
11100000000000000000000000011111111111111111111111111100000000011111111111111011000000000111
11100000000011110000000000001111111111111111111111111000000000111111111111111111000000000111
11100000000111111000000000000011111111111111111111111000000001111111111111111111100000000111
11100000000001111110000000000000111111111111111111110000000001111111111111111111100000000111
11100000000001111111000000000000011111111111111111100000000011111111111111111110000000000111
11100000000001111111110000000000001111111111111111000000000111111111111111111110000000000111
11100000000011111111111000000000000011111100000000000000001111111111111111111111000000000111
11100000000011111111111110000000000001100000000000000000001111111111111111111111000000000111
11100000000011111111111111000000000000000000000000000000011111111111111111111111100000000111
11100000000111111111111111110000000000000000000000000000011111111111111111111111100000000111
11100000000111111111111111111000000000000000000000000000011111111111111111111111110000000111
11100000000111111111111111111110000000000000000000000000001111111111111111111111110000000111
11100000000111111111111111111111000000000000000000000000001111111111111111111111110000000111
11100000000111111111111111111111100000000000111100000000000111111111111111111111110000000111
11100000000011111111111111111111100000000011111111000000000111111111111111111111110000000111
11100000000011111111111111111111100000000111111111100000000111111111111111111111110000000111
11100000000011111111111111111111100000001111111111100000000111111111111111111111110000000111
11100000000011111111111111111111100000001111111111100000000111111111111111111111110000000111
11100000000011111111111111111111100000001111111111100000000111111111111111111111110000000111
11100000000001111111111111111111100000001111111111100000000111111111111111111111110000000111
11100000000001111111111111111111100000000111111111100000000111111111111111111111110000000111
11100000000001111111111111111111100000000111111111000000000111111111111111111111100000000111
11100000000000111111111111111111110000000011111110000000000111111111111111111111100000000111
11100000000000011111111111111111110000000001111100000000000001111111111111111111100000000111
11100000000000011111111111111111111000000000000000000000000000111111111111111111100000000111
11100000000000001111111111111111111000000000000000000000000000001111111111111111000000000111
11100000000000001111111111111111110000000000000000000000000000000011111111111110000000000111
11100000000000000111111111111111110000000000000000000110000000000000111111111100000000000111
11100000000000000011111111111111110000000000000000011111000000000000011111111100000000000111
11100000000000000011111111111111100000000011000011111111110000000000000111111000000000000111
11100000000000000001111111111111000000000111111111111111111000000000000001110000000000000111
11100000000000000000111111111111000000001111111111111111111110000000000000000000000000000111
11100000000000000000111111111110000000011111111111111111111111000000000000000000000000000111
11100000000000000000011111111100000000011111111111111111111111100000000000000000000000000111
11100000000000000000001111111100000000111111111111111111111111110000000000000000000000000111
11110000000000000000001111110000000001111111111111111111111111111000000000000000000000000111
11111100000000000000000011000000000011111111111111111111111111111100000000000000000000001111
11111100000000000000000000000000000111111111111111111111111111111100000000000000000000011111
11111110000000000000000000000000001111111111111111111111111111111000000000000000000000111111
11111111100000000000000000000000011111111111111111111111111111111000000000000000000001111111
11111111110000000000000000000000111111111111111111111111111111110000000000000000000011111111
11111111111100000000000000000000001111111111111111111111111111100000000000000000001111111111
11111111111111000000000000000000000111111111111111111111111000000000000000000000011111111111
11111111111111100000000000000000000000000011111111111111100000000000000000000001111111111111
11111111111111111100000000000000000000000000000000000000000000000000000000000011111111111111
11111111111111111110000000000000000000000000000000000000000000000000000000011111111111111111
11111111111111111111000000000000000000000000000000000000000000000000000111111111111111111111
11111111111111111111110000000000000000000000000000000000000000000000111111111111111111111111
11111111111111111111111000000000000000000000000000000000000000000001111111111111111111111111
11111111111111111111111111100000000000000000000000000000000000011111111111111111111111111111
11111111111111111111111111111100000000000000000000000000000011111111111111111111111111111111
11111111111111111111111111111111000000000000000000000000001111111111111111111111111111111111
11111111111111111111111111111111111100000000000000000000111111111111111111111111111111111111
11111111111111111111111111111111111111111111111111111111111111111111111111111111111111111111
11111111111111111111111111111111111111111111111111111111111111111111111111111111111111111111
11111111111111111111111111111111111111111111111111111111111111111111111111111111111111111111
