111111111111111111111111111111111111111111111111111111111111
111111111111111111111111111111111111111111111111111111111111
111111111111111111111111111111111111111111111111111111111111
111111111111111111111111111111111111111111111111111111111111
111111111111111111111111111111111111111111111111111111111111
111111111111111111111111111111111111111111111111111111111111
111111111111111111111111111111111111111111111111111111111111
111111111111111111111111111111111111111111111111111111111111
111111111111111111111111111111111111111111111111111111111111
111111111111111111111100000000000000000111111111111111111111
111111111111111111100000000000000000000000111111111111111111
111111111111111110000000000000000000000000001111111111111111
111111111111111000000000000000000000000000000011111111111111
111111111111100000000000000000000000000000000001111111111111
111111111111000000000000000000000000000000000000111111111111
111111111110000000000000001111000000000000000000011111111111
111111111100000011000000001111111000000000000000001111111111
111111111000000111000010000001111000000000000000000111111111
111111110000001110000010000000000000000000000000000011111111
111111100000011100000000000000000011000001000000000001111111
111111000000111000000000000000000111100001000000000001111111
111111000000010000000000000000000001111000000000000000111111
111110000000000000000000000000000000111100000000010000111111
111110000000000000000000000000000000010000000000111000011111
111100000000000000000000000000000000000001000000011100001111
111100000000000000000000001100000000000011111000001110101111
111100000000000000000000011111100000000111111100000111101111
111100000000000000000000001111110000000000011000000111111111
111100000000000000000000000011000000000000000000000011111111
111100000001100000000000000000000000000000000000000011111111
111100000000100000000000000000000000000000000000000001111111
111100000000000000000011100000000000000000000000000000111111
111101100000000011000111110000010000000000000000000000001111
111111110000000111100001111100110000000000000000000000001111
111111111000000111100000011100000000000000000000100000001111
111101110000001111100000001000000000000000000000110000001111
111100110000000010110000000000000000000000000000000000001111
111100000000000000000000000000000000001100000000000000001111
111100000000000000000000000000000000011100000000011000001111
111100000000000000000000000000000000011110000000111100001111
111110000000000000000000000000000000111100000000111100001111
111110000000000000000000000000000000000100000001111100001111
111111000001100000000000000000000000000000000000011110001111
111111000011110000000000000000000000000000000000000000001111
111111100111111000000000000000000000000000000000000000011111
111111100001111000000000000000000000000000000000000000111111
111111110000110000000000000000000000000000001111000000111111
111111110000000000000000000000000000000000001111000001111111
111111111000000000100000000000000000000000011111000011111111
111111111000000000110000000000000110000000000000000111111111
111111111100000000000000000000001111000000000000001111111111
111111111111000000000000000000001111000011000000011111111111
111111111111110000000000000000001111100000000001111111111111
111111111111111111111111111111111111111111111111111111111111
