111111111111111111111111111111111111111111111111111111111111
111111111111111111111111111111111111111111111111111111111111
111111111111111111111111111111111111111111111111111111111111
111111111111111111111111111111111111111111111111111111111111
111111111111111111111111111111111111111111111111111111111111
111111111111111111111111111111111111111111111111111111111111
111111111111111111111111111111111111111111111111111111111111
111111111111111111111111111111111111111111111111111111111111
111111111111111111111111111111111111111111111111111111111111
111111111111111111111111111111111111111111111111111111111111
111111111111111111111111111111111111111111111111111111111111
111111111111111111111111111111111111111111111111111111111111
111111111111111111111111111111111111111111111111111111111111
111111111111111111111111111111111111100011111111111111111111
111111111111111111111111111111111111111001111111111111111111
111111111111111111111111111111111101111100111111111111111111
111111111111111111111111111111111000111110011111111111111111
111111111111111111111111111111110000011111001111111111111111
111111111111111111111111111111100000011111000111111111111111
111111111111111111111111111111111000011110000000111111111111
111111111111111111111111111111111000000000000010011111111111
111111111111111111111111111111100000000000000111001111111111
111111111111111111111111111111000000000000001110000111111111
111111111111111111111111111110000000000000011111000011111111
111111111111111111111111110011000000000000011111111001111111
111111111111111111111110110111000000000000111111111000111111
111111111111111111111110000000000000000000111011000000011111
111111111111111111111100000000000001110000000000000000001111
111111111111111111110000000000000001110000000000000000001111
111111111111111111100000000000000000000000000000000000011111
111111111111111111000001100000000000000000000000000000111111
111111111111111110000011110011000000000000000000000001111111
111111111111111110000111111111000000000000000000000011111111
111111111111111100011111111100000000000000000000000111111111
111111111111111000111111111110011000000000000000001111111111
111111111111110000011111111111111000000000000000011111111111
111111111111100000011111111111100000000000000000111111111111
111111111110000000001001111111110000000000000001111111111111
111111111110000000000000111111111000000000000011111111111111
111111111111000000000000111111111100000000000111111111111111
111111111110000000000000111111110000000000001111111111111111
111111101100000000000001111111100000000000011111111111111111
111111000000000000000011111111000000000000111111111111111111
111110000000000000000111111111100000000001111111111111111111
111100000000000000001111111111000000000011111111111111111111
111100000000000000011111111000000000000111111111111111111111
111110000000000000111111111100000000001111111111111111111111
111111000000000001111111101000000000011111111111111111111111
111111100000000011111111000000000000111111111111111111111111
111111110000000111111110000000000001111111111111111111111111
111111111000001111111110000000000011111111111111111111111111
111111111100000111111100000000000111111111111111111111111111
111111111110000011110000000000001111111111111111111111111111
111111111111000001100000000000011111111111111111111111111111
111111111111100000000000000000111111111111111111111111111111
111111111111110000000000000011111111111111111111111111111111
111111111111111000000000000111111111111111111111111111111111
111111111111111100000000001111111111111111111111111111111111
111111111111111110000000011111111111111111111111111111111111
111111111111111111100000111111111111111111111111111111111111
111111111111111111110001111111111111111111111111111111111111
111111111111111111111111111111111111111111111111111111111111
111111111111111111111111111111111111111111111111111111111111
111111111111111111111111111111111111111111111111111111111111
