1111111111111111111111111111111111111111111111111111111111111111111111111111111111111111111111111111111111111111111111111111111111111111111111111111111111111111111111111111111111111111111111111111111111111111111111111111111111111111
1111111111111111111111111111111111111111111111111111111111111111111111111111111111111111111111111111111111111111111111111111111111111111111111111111111111111111111111111111111111111111111111111111111111111111111111111111111111111111
1111111111111111111111111111111111111111111111111111111111111111111111111111111111111111111111111111111111111111111111111111111111111111111111111111111111111111111111111111111111111111111111111111111111111111111111111111111111111111
1111111111111111111111111111111111111111111111111111111111111111111111111111111111111111111111111111111111111111111111111111111111111111111111111111111111111111111111111111111111111111111111111111111111111111111111111111111111111111
1111111111111111111111111111111111111111111111111111111111111111111111111111111111111111111111111111111111111111111111111111111111111111111111111111111111111111111111111111111111111111111111111111111111111111111111111111111111111111
1111111111111111111111111111111111111111111111111111111111111111111111111111111111111111111111111111111111111111111111111111111111111111111111111111111111111111111111111111111111111111111111111111111111111111111111111111111111111111
1111111111111111111111111111111111111111111111111111111111111111111111111111111111111111111111111111111111111111111111111111111111111111111111111111111111111111111111111111111111111111111111111111111111111111111111111111111111111111
1111111111111111111111111111111111111111111111111111111111111111111111111111111111111111111111111111111111111111111111111111111111111111111111111111111111111111111111111111111111111111111111111111111111111111111111111111111111111111
1111111111111111111111111111111111111111111111111111111111111111111111111111111111111111111111111111111111111111111111111111111111111111111111111111111111111111111111111111111111111111111111111111111111111111111111111111111111111111
1111111111111111111111111111111111111111111111111111111111111111111111111111111111111111111111111111111111111111111111111111111111111111111111111111111111111111111111111111111111111111111111111111111111111111111111111111111111111111
1111111111111111111111111111111111111111111111111111111111111111111111111111111111111111111111111111111111111111111111111111111111111111111111111111111111111111111111111111111111111111111111111111111111111111111111111111111111111111
1111111111111111111111111111111111111111111111111111111111111111111111111111111111111111111111111111111111111111111111111111111111111111111111111111111111111111111111111111111111111111111111111111111111111111111111111111111111111111
1111111111111111111111111111111111111111111111111111111111111111111111111111111111111111111111111111111111111111111111111111111111111111111111111111111111111111111111111111111111111111111111111111111111111111111111111111111111111111
1111111111111111111111111111111111111111111111111111111111111111111111111111111111111111111111111111111111111111111111111111111111111111111111111111111111111111111111111111111111111111111111111111111111111111111111111111111111111111
1111111111111111111111111111111111111111111111111111111111111111111111111111111111111111111111111111111111111111111111111111111111111111111111111111111111111111111111111111111111111111111111111111111111111111111111111111111111111111
1111111111111111111111111111111111111111111111111111111111111111111111111111111111111111111111111111110000000000111111111111111111111111111111111111111111111111111111111111111111111111111111111111111111111111111111111111111111111111
1111111111111111111111111111111111111111111111111111111111111111111111111111111111111111111111111110000000000000000011111111111111111111111111111111111111111111111111111111111111111111111111111111111111111111111111111111111111111111
1111111111111111111111111111111111111111111111111111111111111111111111111111111111111111111111110000000000000000000000111111111111111111111111111111111111111111111111111111111111111111111111111111111111111111111111111111111111111111
1111111111111111111111111111111111111111111111111111111111111111111111111111111111111111111111000000000000000000000000001111111111111111111111111111111111111111111111111111111111111111111111111111111111111111111111111111111111111111
1111111111111111111111111111111111111111111111111111111111111111111111111111111111111111111100000000000000000000000000000011111111111111111111111111111111111111111111111111111111111111111111111111111111111111111111111111111111111111
1111111111111111111111111111111111111111111111111111111111111111111111111111111111111111111000000000000000000000000000000000111111111111111111111111111111111111111111111111111111111111111111111111111111111111111111111111111111111111
1111111111111111111111111111111111111111111111111111111111111111111111111111111111111111110000000000000000000000000000000000011111111111111111111111111111111111111111111111111111111111111111111111111111111111111111111111111111111111
1111111111111111111111111111111111111111111111111111111111111111111111111111111111111111100000000000000000000000000000000000001111111111111111111111111111111111111111111111111111111111111111111111111111111111111111111111111111111111
1111111111111111111111111111111111111111111111111111111111111111111111111111111111111111000000000000000000000000000000000000000111111111111111111111111111111111111111111111111111111111111111111111111111111111111111111111111111111111
1111111111111111111111111111111111111111111111111111111111111111111111111111111111111110000000000000000000000000000000000000000011111111111111111111111111111111111111111111111111111111111111111111111111111111111111111111111111111111
1111111111111111111111111111111111111111111111111111111111111111111111111111111111111100000000000000000000000000000000000000000011111111111111111111111111111111111111111111111111111111111111111111111111111111111111111111111111111111
1111111111111111111111111111111111111111111111111111111111111111111111111111111111111000000000000000000000000000000000000000000001111111111111111111111111111111111111111111111111111111111111111111111111111111111111111111111111111111
1111111111111111111111111111111111111111111111111111111111111111111111111111111111111000000000000000000000000000000000000000000000111111111111111111111111111111111111111111111111111111111111111111111111111111111111111111111111111111
1111111111111111111111111111111111111111111111111111111111111111111111111111111111110000000000000000000000000000000000000000000000111111111111111111111111111111111111111111111111111111111111111111111111111111111111111111111111111111
1111111111111111111111111111111111111111111111111111111111111111111111111111111111100000000000000000000000000000000000000000000000011111111111111111111111111111111111111111111111111111111111111111111111111111111111111111111111111111
1111111111111111111111111111111111111111111111111111111111111111111111111111111111100000000000000000000000000000000000000000000000011111111111111111111111111111111111111111111111111111111111111111111111111111111111111111111111111111
1111111111111111111111100111111111111111111111111111111111111111111111111111111111000000000000000000000000000000000000000000000000011111111111111111111111111111111111111111111111111111111111111111111111111111111111111111111111111111
1111111111111111111110000111111111111111111110011111111111111111111111111111111111000000000000000000000000000000000000000000000000001111111111111111111111111111111111111111111111111111111111111111111111111111111111111111111111111111
1111111111111111111100000011111111111111111100000111111111111111111111111111111111000000000000000000000000000000000000000000000000001111111111111111111111111111111111111111111111111111111111111111111111111111111111111111111111111111
1111111111111111110000000001111111111111111000000011111111111111111111111111111111000000000000000000000001111100000000000000000000000111111111111111111111111111111111111111111111111111111111111111111111111111111111111111111111111111
1111111111111111100000000001111111111111111000000001111111111111111111111111111110000000000000000000000111111110000000000000000000000111111111111111111111111111111111111111111111111111111111111111111111111111111111111111111111111111
1111111111111111000000000001111111111111111000000000111111111111111111111111111110000000000000000000001111111111000000000000000000000011111111111111111111111111111111111111111111111111111111111111111111111111111111111111111111111111
1111111111111110000000000001111111111111111000000000011111111111111111111111111110000000000000000000011111111111100000000000000000000011111111111111111111111111111111111111111111111111111111111111111111111111111111111111111111111111
1111111111111100000000000001111111111111111000000000001111111111111111111111111110000000000000000000111111111111110000000000000000000011111111111111111111111111111111111111111111111111111111111111111111111111111111111111111111111111
1111111111111000000000000001111111111111111000000000000111111111111111111111111110000000000000000000111111111111110000000000000000000011111111111111111111111111111111111111111111111111111111111111111111111111111111111111111111111111
1111111111111000000000000001111111111111110000000000000011111111111111111111111110000000000000000000111111111111110000000000000000000011111111111111111111111111111111111111111111111111111111111111111111111111111111111111111111111111
1111111111110000000000000000111111111111100000000000000011111111111111111111111110000000000000000000111111111111110000000000000000000011111111111111111111111111111100000000111111111111111111111111111111111111111111111111111111111111
1111111111100000000000000000011111111111000000000000000001111111111111111111111110000000000000000000111111111111100000000000000000000011111111111111111111111111100000000000001111111111111111111111111111111111111111111111111111111111
1111111111100000000000000000000111111110000000000000000001111111111111111111000110000000000000000000011111111111100000000000000000000011111111111111111111111111100000000000000001111111111111111111111111111111111111111111111111111111
1111111111000000000000000000000000000000000000000000000000111111111111110000000000000000000000000000001111111111000000000000000000000011111111111111111110111110000000000000000000111111111111111111111111111111111111111111111111111111
1111111111000000000000000000000000000000000000000000000000011111110000000000000000000000000000000000000111111110000000000000000000000011111111111111111100011000000000000000000000011111111111111111111111111111111111111111111111111111
1111111110000000000000000000000000000000000000000000000000010000000000000000000000000000000000000000000001111000000000000000000000000011111111111111111000000000000000000000000011000001111000111111111111111111111111111111111111111111
1111111110000000000000000000000000000000000000000000000000000000000000000000000110000000000000000000000000000000000000000000000000000011111111111111110000000000000000000000011111000000110000011111111111111111111111111111111111111111
1111111110000000000000000000000000000000000000000000000000000000000000000000001110000000000000000000000000000000000000000000000000000011111111111111100000000000000000000000000000000000000000011111111111111111111111111111111111111111
1111111110000000000000000000000000000000000000000000000000000000000000001111111111000000000000000000000000000111100000000000000000000011111111111111000000000000000000000000000000010000000000011111111111111111111111111111111111111111
1111111110000000000000000000000000000000000000000000000000000000000111111111111111000000000000000000000000111111100000000000000000000111111111111111000000000000000000011110000000110000000000111111111111111111111111111111111111111111
1111111110000000000000000000000000000000000000000000000000000111111111111111111111100000000000000000000000111111000000000000000000000111111111111110000000000000000000011110000000000000000001111111111111111111111111111111111111111111
1111111110000000000000000000000000000000000000000000000000000111111111111111111111110000000000000000000000011111000000000000000000001111111111111100000000000000000000000000000000000000000011111111111111111111111111111111111111111111
1111111110000000000110000000000000000000000000000000000000000111111111111111111111110000000000000000000000001111000000000000000000001111111111111100000000000000000000000000000000000000000011111111111111111111111111111111111111111111
1111111110000000001111000000000000000000000000000000000000000111111111111111111111111000000000000000000000000110000000000000000000011111111111111100000000000000000000000000000000000000000011111111111111111111111111111111111111111111
1111111110000000011111100000000000000000000000000000000000000111111111111111111111111100000000000000000000000110000000000000000000011111111111111100011000000000000000000000000000000000000001111111111111111111111111111111111111111111
1111111110000001111111100000000000000000000000000000000000000111111111111111111111111110000000000000000000000110000000000000000000111111111111111100111000000000000000000000000000000000001001111111111111111111111111111111111111111111
1111111111000111111111110000000000000000000000000000000000001111111111111111111111111111000000000000000000000111000000000000000001111111111111111100011000000000000000000000000000000000001011111111111111111111111111111111111111111111
1111111111111111111111111000000000000000000000000000000000001111111111111111111111111111100000000000000000000011000000000000000111111111111111110000000000000000000000000000000000000000011011111111111111111111111111111111111111111111
1111111111111111111111111000000000000000000000000000000000001111111111111111111111111111110000000000000000000011000000000000001111111111111111110000000000000000000000000000000000000000110000111111111111111111111111111111111111111111
1111111111111111111111111000000000000000001111111000000000011111111111111111111111111111111100000000000000000011000000000000111111111111111111110000000000000000000000000000000000001100000000111111111111111111111111111111111111111111
1111111111111111111111111000000000000000011111111100000000011111111111111111111111111111111111000000000000000011100000000001111111111111111111110000000000000011100000000000000111101100000000111111111111111111111111111111111111111111
1111111111111111111111111000000000000000111111111100000000111111111111111111111111111111111111110000000000000001100000000111111111111111111111110000000000000111100000000000000111100000000000111111111111111111111111111111111111111111
1111111111111111111111111000000000000000111111111110000000111111111111111111111111111111111111111100000000000001100000001111111111111111111111110000000000000111100000000000000111100000000000111111111111111111111111111111111111111111
1111111111111111111111110000000000000001111111111111000001111111111111111111111111111111111111111111000000000001100000111111111111111111111111110000000000000011100000000000000000000000000000111111111111111111111111111111111111111111
1111111111111111111111110000000000000001111111111111100011111111111111111111111111111111111111111111111000000001100111111111111111111111111111111000000000000000000000000000000000000000000000111111111111111111111111111111111111111111
1111111111111111111111100000000000000001111111111111110111111111111111111111111111111111111111111111111111111111111111111111111111111111111111111000000000000000000111100000000000000000000000111111111111111111111111111111111111111111
1111111111111111111110000000000000000001111111111111111111111111111111111111111111111111111111111111111111111111111111111111111111111111111111111000000000000000000111100000000000000000000000111111111111111111111111111111111111111111
1111111111111111111000000000000000000001111111111111111111111111111111111111111111111111111111111111111111111111111111111111111111111111111111111000000000000000000111100000000000000000000000111111111111111111111111111111111111111111
1111111111111111100000000000000000000001111111111111111111111111111111111111111111111111111111111111111111111111111111111111111111111111111111111000000000000000000111100000000000000000000000111111111111111111111111111111111111111111
1111111111111111000000000000000000000000111111111111111111111111111111111111111111111111111111111111111111111111111111111111111111111111111111111100000000000000000000000000000000000000000000111111111111111111111111111111111111111111
1111111111111111100000000000000000000000011111111111111111111111111111111111111111111111111111111111111111111111111111111111111111111111111111111100000000000000000000000000000000000000000000111111111111111111111111111111111111111111
1111111111111111110000000000000000000000011111111111111111111111111111111111111111111111111111111111111111111111111111111111111111111111111111111110000000000000000000000000000000000000000001111111111111111111111111111111111111111111
1111111111111111111000000000000000000000001111111111111111111111111111111111111111111111111111111111111111111111111111111111111111111111111111111111000000000000000000000000000000011000000011111111111111111111111111111111111111111111
1111111111111111111110000000000000000000001111111111111111111111111111111111111111111111111111111111111111111111111111111111111111111111111111111111100000000000000000000000000000011000000111111111111111111111111111111111111111111111
1111111111111111111111110000000000000000001111111111111111111111111111111111111111111111111111111111111111111111111111111111111111111111111111111111110000000000000000000000000000000000001111111111111111111111111111111111111111111111
1111111111111111111111111111000000000001111111111111111111111111111111111111111111111111111111111111111111111111111111111111111111111111111111111111100000000000001100000000000000000000011111111111111111111111111111111111111111111111
1111111111111111111111111111000011111111111111111111111111111111111111111111111111111111111111111111111111111111111111111111111111111111111111111111000000100000011100000000000000000000111111111111111111111111111111111111111111111111
1111111111111111111111111111000011111111111111111111111111111111111111111111111111111111111111111111111111111111111111111111111111111111111111111111000001110000001000000000000000000011111111111111111111111111111111111111111111111111
1111111111111111111111111111000011111111111111111111111111111111111111111111111111111111111111111111111111111111111111111111000001111111111111111110000001111000000000000000000000001111111111111111111111111111111111111111111111111111
1111111111111111111111111111000001111111111111111111111111111111111111111111111111111111111111111111111111111111111111111110000000011111111111111100000001111100000000000000000000011111111111111111111111111111111111111111111111111111
1111111111111111111111111111000001111111111111111111111111111111111111111111111111111111111111111111111111111111111111111100000000011111111111110000000001111111000000000000000001111111111111111111111111111111111111111111111111111111
1111111111111111111111111110000001111111111111111111111111111111111111111111111111111111111111111111111111111111111111111100000000011111111110000000000001111111110000000000011111111111111111111111111111111111111111111111111111111111
1111111111111111111111111110000001111111111111111111111111111111111111111111111111111111111111111111111111111111111111111000000000000000000000000000000011111111111111110011111111111111111111111111111111111111111111111111111111111111
1111111111111111111111111110000001111111111111111111111111111111111111111111111111111111111111111111111111111111111111111000000000000000000000000000000111111111111111111111111111111111111111111111111111111111111111111111111111111111
1111111111111111111111111110000011111111111111111111111111111111111111111111111111111111111111111111111111111111111111110000000000000000000000000000111111111111111111111111111111111111111111111111111111111111111111111111111111111111
1111111111111111111111111110000011111111111111111111111111111111111111111111111111111111111111111111111111111111111111110000000000000000000000000011111111111111111111111111111111111111111111111111111111111111111111111111111111111111
1111111111111111111111111110000011111111111111111111111111111111111111111111111111111111111111111111111111111111111111111000000000000000000000001111111111111111111111111111111111111111111111111111111111111111111111111111111111111111
1111111111111111111111111110000011111111111111111111111111111111111111111111111111110000000000111111111111111111111111111000000000000000111111111111111111111111111111111111111111111111111111111111111111111111111111111111111111111111
1111111111111111111111111100000011111111111111111111111111111111111111111111111100000000000000001111111111111111111111110000000000000011111111111111111111111111111111111111111111111111111111111111111111111111111111111111111111111111
1111111111111111111111111100000011111111111111111111111111111111111111111111110000000000000000000111111111111111111000000000000000000111111111111111111111111111111111111111111111111111111111111111111111111111111111111111111111111111
1111111111111111111111111100000111111111111111111111111111111111111111111111100000000000000000000001111111111111110000000000000000011111111111111111111111111111111111111111111111111111111111111111111111111111111111111111111111111111
1111111111111111111111111000000111111111111111111111111111111111111111111110000000000000000000000000011111111111110000000000000001111111111111111111111111111111111111111111111111111111111111111111111111111111111111111111111111111111
1111111111111111111111111000000111111111111111111111111111111111111111111100000000000000000000000000001111111111100000000000001111111111111111111111111111111111111111111111111111111111111111111111111111111111111111111111111111111111
1111111111111111111111111000000111111111111111111111111111111111111111111000000000000000000000000000000011111111000000011111111111111111111111111111111111111111111111111111111111111111111111111111111111111111111111111111111111111111
1111111111111111111111111000000111111111111111111111111111111111111111110000000000000000000000000000000001111111000000111111111111111111111111111111111111111111111111111111111111111111111111111111111111111111111111111111111111111111
1111111111111111111111111000000111111111111111111111111111111111111111100000000000000000000000000000000000111100000000111111111111111111111111111111111111111111111111111111111111111111111111111111111111111111111111111111111111111111
1111111111111111111111111000000111111111111111111111111111111111111111000000000000000000000000000000000000011000000001111111111111111111111111111111111111111111111111111111111111111111111111111111111111111111111111111111111111111111
1111111111111111111111000000000111111111111111111111111111111111111110000000000000000000000000000000000000000000000011111111111111111111111111111111111111111111111111111111111111111111111111111111111111111111111111111111111111111111
1111111111111111111110000000000000111111111111111111111111111111111100000000000000000000000000000000000000000000000011111111111111111111111111111111111111111111111111111111111111111111111111111111111111111111111111111111111111111111
1111111111111111111111000000000001111111111111111111111111111111111100000000000000000000000000000000000000000010001111111111111111111111111111111111111111111111111111111111111111111111111111111111111111111111111111111111111111111111
1111111111111111111111000000000011110011111111111111111111111111111000000000000000000000000000000000000000000010011111111111111111111111111111111111111111111111111111111111111111111111111111111111111111111111111111111111111111111111
1111111111111111111111100000000001110011111111111111111111111111111000000000000000000000000000000000000000000011111111111111111111111111111111111111111111111111111111111111111111111111111111111111111111111111111111111111111111111111
1111111111111111111111110000000000000001111111111111111111111111110000000000000000000000000000000000000000000001111111111111111111111111111111111111111111111111111111111111111111111111111111111111111111111111111111111111111111111111
1111111111111111111111111000000000000001111111111111111111111111110000000000000000000000000000000000000000000001111111111111111111111111111111111111111111111111111111111111111111111111111111111111111111111111111111111111111111111111
1111111111111111111111111000000000000011111111111111111111111111110000000000000000000011110000000000000000000001111111111111111111111111111111111111111111111111111111111111111111111111111111111111111111111111111111111111111111111111
1111111111111111111111111000000000000001111111111111111111111111110000000000000000000111111000000000000000000001111111111111111111111111111111111111111111111111111111111111111111111111111111111111111111111111111111111111111111111111
1111111111111111111101110000000000000001111111000000000000000000000000000000000000000111111000000000000000000001111111111111111111111111111111111111111111111111111111111111111111111111111111111111111111111111111111111111111111111111
1111111111111111111100000000000000000000000000000000000000000000000000000000000000000011110000000000000000000001111111111111111111111111111111111111111111111111111111111111111111111111111111111111111111111111111111111111111111111111
1111111111111111111100000000000000000000000000000000000000000000000000000000000000000000000000000000000000000001111111111111111111111111111111111111111111111111111111111111111111111111111111111111111111111111111111111111111111111111
1111111111111111111100000000000000000000000000000000000000000000000000000000000000000000000000000000000000000001111111111111111111111111111111111111111111111111111111111111111111111111111111111111111111111111111111111111111111111111
1111111111000001111100000000000000000000000011000000000000000000110000000000000000000000000000000000000000000001111111111111111111111111111111111111111111111111111111111111111111111111111111111111111111111111111111111111111111111111
1111111111000000111000000000000000110000000011111111111111111111110000000000000000000000000000000000000000000001111111111111111111111111111111111111111111111111111111111111111111111111111111111111111111111111111111111111111111111111
1111111110000000000000000000000001111000000011111111111111111111110000000000000000000000000000000000000000000001111111111111111111111111111111111111111111111111111111111111111111111111111111111111111111111111111111111111111111111111
1111111110000000000000000000000001111111110011111111111111111111110000000000000000000000000000000000000000000001111111111111111111111111111111111111111111111111111111111111111111111111111111111111111111111111111111111111111111111111
1111111110000000000000000000000001111111110011111111111111111111110000000000000000000000000000000000000000000011111111111111111111111111111111111111111111111111111111111111111111111111111111111111111111111111111111111111111111111111
1111111110000000000000000000000000111000000111111111111111111111111000000000000000000000000000000000000000000011111111111111111111111111111111111111111111111111111111111111111111111111111111111111111111111111111111111111111111111111
1111111110000000000000000000000011111000000111111111111111111111111000000000000000000000000000000000000000000111111111111111111111111111111111111111111111111111111111111111111111111111111111111111111111111111111111111111111111111111
1111111110000000000000000000001111111110001111111111111111111111111000000000000000000000000000000000000000000111111111111111111111111111111111111111111111111111111111111111111111111111111111111111111111111111111111111111111111111111
1111111110000000000000000000111111111110001111111111111111111111111100000000000000000000000000000000000000001111111111111111111111111111111111111111111111111111111111111111111111111111111111111111111111111111111111111111111111111111
1111111111000000000000000001111111111000011111111111111111111111111110000000000000000000000000000000000000011111111111111111111111111111111111111000000000011111111111111111111111111111111111111111111111111111111111111111111111111111
1111111111100000000000000001111111100000111111111111111111111111111111000000000000000000000000000000000000111111111111111111111111111111111111000000000000000001111111111111111111111111111111111111111111111111111111111111111111111111
1111111111110000000000000000111110000001111111111111111111111111111111100000000000000000000000000000000001111111111111111111111111111111111100000000000000000000001111111111111111111111111111111111111111111111111111111111111111111111
1111111111111000000000000000111000000011111111111111111111111111111111110000000000000000000000000000000011111111111111111111111111111111110000000000000000000000000111111111111111111111111111111111111111111111111111111111111111111111
1111111111111000000000000000000000000111111111111111111111111111111111111000000000000000000000000000000111111111111111111111111111111111100000000000000000000000000011111111111111111111111111111111111111111111111111111111111111111111
1111111111111110000000000000000000001111111111111111111111111111111111111100000000000000000000000000011111111111111111111111111111111111000000000000000000000000000001111111111111111111111111111111111111111111111111111111111111111111
1111111111111111100000000000000001111111111111111111111111111111111111111110000000000000000000000001111111111111111111111111111111111111000000000000000000000000000000111111111111111111111111111111111111111111111111111111111111111111
1111111111111111111110000000001111111111111111111111111111111111111111111111100000000000000000000011111111111111111111111111111111111110000000000000000000000000000000011111111111111111111111111111111111111111111111111111111111111111
1111111111111111111110000011111111111111111111111111111111111111111111111111111000000000000011100001111111111111111111111111111111111110000000000000000000000000000000011111111111111111111111111111111111111111111111111111111111111111
1111111111111111111110000011111111111111111111111111111111111111111111111111111111111111111111100000111111111111111111111111111111111100000000000000000000000000000000011111111111111111111111111111111111111111111111111111111111111111
1111111111111111111100000011111111111111111111111111111111111111111111111111111111111111111111100000111111111111111111111111111111111000000000000000000000000000000001111111111111111111111111111111111111111111111111111111111111111111
1111111111111111111100000001111111111111111111111111111111111111111111111111111111111111111111100000111111111111111111111111111111111000000000000000000000000000000001111111111111111111111111111111111111111111111111111111111111111111
1111111111111111111100000001111111111111111111111111111111111111111111111111111111111111111111100000111111111111111111111111111111111000000000000000000000000000000000001111111111111111111111111111111111111111111111111111111111111111
1111111111111111111100000001111111111111111111111111111111111111111111111111111111111111111111110000011111111111111111111111111111110000000000000000111111000000000000001111111111111111111111111111111111111111111111111111111111111111
1111111111111111111100000001111111111111111111111111111111111111111111111111111111111111111111110000011111111111111111111111111111110000000000000001111111100000000000000111111111111111111111111111111111111111111111111111111111111111
1111111111111111111100000001111111111111111111111111111111111111111111111111111111111111111111110000011111111111111111111111111111110000000000000111111111110000000000000111111111111111111111111111111111111111111111111111111111111111
1111111111111111111100000001111111111111111111111111111111111111111111111111111111111111111111110000011111111111111111111111111111110000000000001111111111110000000000000111111111111111111111111111111111111111111111111111111111111111
1111111111111111111100000000111111111111111111111111111111111111111111111111111111111111111111111000001111111111111111111111111111110000000000001111111111110000000000000111111111111111111111111111111111111111111111111111111111111111
1111111111111111111100000000111111111111111111111111111111111111111111111111111111111111111111111000001111111111111111111111111111110000000000001111111111110000000000000111111111111111111111111111111111111111111111111111111111111111
1111111111111111111100000000111111111111111111111111111111111111111111111111111111111111111111111000001111111111111111111111111111110000000000001111111111110000000000000111111111111111111111111111111111111111111111111111111111111111
1111111111111111111110000000011111111111111111111111111111111111111111111111111111111111111111111100000111111111111111111111111111110000000000000111111111110000000000000111111111111111111111111111111111111111111111111111111111111111
1111111111111111111110000000011111111111111111111111111111111111111111111111111111111111111111111100000111111111111111111111111111110000000000000011111111110000000000000111111111111111111111111111111111111111111111111111111111111111
1111111111111111111110000000001111111111111111111111111111111111111111111111111111111111111111111100000111111111111111111111111111110000000000000001111111100000000000000111111111111111111111111111111111111111111111111111111111111111
1111111111111111111111000000001111111111111111111111111111111111111111111111111111111111111111111110000011111111111111111111111111110000000000000000000000000000000000000111111111111111111111111111111111111111111111111111111111111111
1111111111111111111111000000000111111111111111111111111111111111111111111111111111111111111111111110000011111111111111111111111111111000000000000000000000000000000000000111111111111111111111111111111111111111111111111111111111111111
1111111111111111111111100000000111111111111111111111111111111111111111111111111111111111111111111110000001111111111111111111111111111000000000000000000000000000000000000111111111111111111111111111111111111111111111111111111111111111
1111111111111111111111100000000011111111111111111111111111111111111111111111111111111111111111111111000001111111111111111111111111111100000000000000000000000000000000001111111111111111111111111111111111111111111111111111111111111111
1111111111111111111111110000000001111111111111111111111111111111111111111111111111111111111111111111000000111111111111111111111111111110000000000000000000000000000000011111111111111111111111111111111111111111111111111111111111111111
1111111111111111111111111000000000111111111111111111111111111111111111111111111111111111111111111111100000111111111111111111111111111111000000000000000000000000000001111111111111111111111111111111111111111111111111111111111111111111
1111111111111111111111111000000000000111111111111111111111111111111111111111111111111111111111111111100000111111111111111111111111111111100000000000000000000000000011111111111111111111111111111111111111111111111111111111111111111111
1111111111111111111111111100000000000011111111111111111111111111111111111111111111111111111111111111110000011111111111111111111111111111110000000000000000000000001111111111111111111111111111111111111111111111111111111111111111111111
1111111111111111111111111110000000000011111111111111111111111111111111111111111111111111111111111111110000011111111111111111111111111111111000000000000000000000111111111111111111111111111111111111111111111111111111111111111111111111
1111111111111111111111111110000000000011111111111111111111111111111111111111111111111111111111111111111000001111111111111111111111111111111110000000000000000011111111111111111111111111111111111111111111111111111111111111111111111111
1111111111111111111111111111000000000011111111111111111111111111111111111111111111111111111111111111111000001111111111111111111111111111111111100000000000001111111111111111111111111111111111111111111111111111111111111111111111111111
1111111111111111111111111111100000000001111111111111111111111111111111111111111111111111111111111111111100001111111111111111111111111111111111111111000001111111111111111111111111111111111111111111111111111111111111111111111111111111
1111111111111111111111111111100000000000111111111111111111111111111111111111111111111111111111111111111100000111111111111111111111111111111111111111000001111111111111111111111111111111111111111111111111111111111111111111111111111111
1111111111111111111111111111100000000000011111111111111111111111111111111111111111111111111111111111111110011111111111111111111111111111111111111111100001111111111111111111111111111111111111111111111111111111111111111111111111111111
1111111111111111111111111111100000000000001111111111111111111111111111111111111111111111111111111111111111111111111111111111111111111111111111111111100001111111111111111111111111111111111111111111111111111111111111111111111111111111
1111111111111111111111111111110000000000000000111111111111111111111111111111111111111111111111111111111111111111111111111111111111111111111111111111100001111111111111111111111111111111111111111111111111111111111111111111111111111111
1111111111111111111111111111111000000000000000001111111110001111111111111111111111111111111111111111111111111111111111111111111111111111111111111111100001111111111111111111111111111111111111111111111111111111111111111111111111111111
1111111111111111111111111111111100000000000000000111111100001111111111111111111111111111111111111111111111111111111111111111111111111111111111111111100001111111111111111111111111111111111111111111111111111111111111111111111111111111
1111111111111111111111111111111110000000000000000011111000001111111111111111111111111111111111111111111111111111111111111111111111111111111111111111100001111111111111111111111111111111111111111111111111111111111111111111111111111111
1111111111111111111111111111111111000000000000000001110000001111111111111111111111111111111111111111111111111111111111111111111111111111111111111111100001111111111111111111111111111111111111111111111111111111111111111111111111111111
1111111111111111111111111111111111100000000000000001100000001111111111111111111111111111111111111111111111111111111111111111111111111111111111111111100001111111111111111111111111111111111111111111111111111111111111111111111111111111
1111111111111111111111111111111111110000000000000001100000111111111111111111111111111111111111111111111111111111111111111111111111111111111111111111100001111111111111111111111111111111111111111111111111111111111111111111111111111111
1111111111111111111111111111111111111000000000000001100001111111111111111111111111111111111111111111111111111111111111111111111111111111111111111111100001111111111111111111111111111111111111111111111111111111111111111111111111111111
1111111111111111111111111111111111111000000000000000000011111111111111111111111111111111111111111111111111111111111111111111111111111111111111111111100001111111111111111111111111111111111111111111111111111111111111111111111111111111
1111111111111111111111111111111111111100000000000000000111111100111111111111111111111111111111111111111111111111111111111111111111111111111111111111100001111111111111111111111111111111111111111111111111111111111111111111111111111111
1111111111111111111111111111111111111100000000000000000111111000011111111111111111111111111111111111111111111111111111111111111111111111111111111111100001111111111111111111111111111111111111111111111111111111111111111111111111111111
1111111111111111111111111111111111111110000000000000000111000000011111111111111111111111111111111111111111111111111111111111111111111111111111111111100001111111111111111111111111111111111111111111111111111111111111111111111111111111
1111111111111111111111111111111111111110000000000000000000000000001111111111111111111111111111111111111111111111111111111111111111111111111111111111100001111111111111111111111111111111111111111111111111111111111111111111111111111111
1111111111111111111111111111111111111110000000000000000000000000001111111111111111111111111111111111111111111111111111111111111111111111111111111111110001111111111111111111111111111111111111111111111111111100000011111111111111111111
1111111111111111111111111111111111111111000000000000000000000000001111111111111111111111111111111111111111111111111111111111111111111111111111111111110001111111111111111111111111111111111111111111111111000000000000000111111111111111
1111111111111111111111111111111111111111000000000000000000000000001111111111111111111111111111111111111111111111111111111111111111111111111111111111110001111111111111111111111111111111111111111111111100000000000000000001111111111111
1111111111111111111111111111111111111111000000000000000000000000001111111111111111111111111111111111111111111111111111111111111111111111111111111110000000011111111111111111111111111111111111111111111000000000000000000000111111111111
1111111111111111111111111111111111000000000000000000000000000000001111111111111111111111111111111111111111111111111111111111111111111111111111111000000000000111111111111111111111111111111111111111110000000000000000000000011111111111
1111111111111111111111111111111111000000000000000000000000000000001111111111111111111111111111111111111111111111111111111111111111111111111111110000000000000111111111111111111111111111111111111111100000000011111110000000001111111111
1111111111111111111111111111111111000000000000000000000000000000011111111111111111111111111111111111111111111111111111111111111111111111111111100000000000000000111111111111111111111111111111111111000000001111111111100000001111111111
1111111111111111111111111111111111000000000000000000000000000000011111111111111111111111111111111111111111111111111111111111111111111111111111100000000000000000011111111111111111111111111111111110000000111000000000111000000111111111
1111111111111111111111111111111111111111000000000000000000000000011111111111111111111111111111111111111111111111111111111111111111111111111111110000000000000000000111111111111111111111111111111110000001100000000000001100000011111111
1111111111111111111111111111111111111111100000000000000000000000111111111111111111111111111111111111111111111111111111111111111111111111111111100000111110000000001111111111111111111111111111111100000011000000000000000110000011111111
1111111111111111111111111111111111111111100000000000000000000000111111111111111111111111111111111111111111111111111111111111111111111111111111000001111111000000001111111111111111111111111111111000000010000000000000000011000001111111
1111111111111111111111111111111111111111000000000000000000000000111111111111111111111111111111111111111111111111111111111111111111111111111000000000111111000000001111111111111111111111111111111000000110000000000000000011000001111111
1111111111111111111111111111111111111100000000000000000000000000111111111111111111111111111111111111111111111111111111111111111111111111111000000001111111110000001111111111111111111111111111111000000100000000000000000001100001111111
1111111111111111111111111111111111110000000000000000000000000000011111111111111111111111111111111111111111111111111111111111111111111111110000000001111111110000000000111111111111111111111111111000001100000000000000000001100000111111
1111111111111111111111111111111111100000000000000000000000000000011111111111111111111111111111111111111111111111111111111111111111111111110000000001111111100000000000111111111111111111111111111000001100000000000000000001100000111111
1111111111111111111111111111111111100000000000000000000000000000001111111111111111111111111111111111111111111111111111111111111111111111111100000000111111100000000000111111111111111111111111111000001100000000000000000001100000111111
1111111111111111111111111111111111100000000000000000000000000000000111111111111111111111111111111111111111111111111111111111111111111111111100000000011111000000000000111111111111111111111111111000001100000000000000000001100000111111
1111111111111111111111111111111111100000000000000000000000000000000011111111111111111111111111111111111111111111111111111111111111111111111000000000000000000000000000111111111111111111111111111000001100000000000000000001100000111111
1111111111111111111111111111111111111111000000000000000000000000000001111111111111111111111111111111111111111111111111111111111111111111111000000000000000000000000000111111111111111111111111111000001100000000000000000001100000111111
1111111111111111111111111111111111111111111110000000000000000000000000111111111111111111111111111111111111111111111111111111111111111111111000000000000000000000000000111111111111111111111111111000001100000000000000000001000000111111
1111111111111111111111111111111111111111111111111111000000000000000000011111111111111111111111111111111111111111111111111111111111111111111000000000000000000000000000111111111111111111111111111100000100000000000000000011000000111111
1111111111111111111111111111111111111111111111111111111110000000000000000111111111111111111111111111111111111111111111111111111111111111111000000000000000000000000000111111111111111111111111111100000110000000000000000011000000111111
1111111111111111111111111111111111111111111111111111111111111110000000000000111111111111111111111111111111111111111111111111111111111111111000000000000000000000000001111111111111111111111111111110000011000000000000000110000001111111
1111111111111111111111111111111111111111111111111111111111111111111000000000011111111111111111111111111111111111111111111111111111111111111100000000000000000000000001111111111111111111111111111110000001100000000000011110000011111111
1111111111111111111111111111111111111111111111111111111111111111111110000000000011111111111111111111111111111111111111111111111111111111111110000000000000000000000011111111111111111111111111111110000000111000000000111100000011111111
1111111111111111111111111111111111111111111111111111111111111111111111100000000000000011111111111111111111111111111111111111111111111111111100000000000000000000000111111111111111111111111111111111000000011111111111111000000111111111
1111111111111111111111111111111111111111111111111111111111111111111111110000000000000011111111111111111111111111111111111111111111111110000000000000000000000000000011111111111111111111111111111111100000000111111111100000001111111111
1111111111111111111111111111111111111111111111111111111111111111111111111100000000000011111111111111111111111111111111111111111111111100000000110000000000000001100001111111111111111111111111111111100000000000000000000000011111111111
1111111111111111111111111111111111111111111111111111111111111111111111111111000000000001111111111111111111111111110000000000000000000000000001111100000000000111100000111111111111111111111111111111110000000000000000000011111111111111
1111111111111111111111111111111111111111111111111111111111111111111111111111100000000000111110000000111111111111111000000000000000000000000111111111000000011111100000011111111111111111111111111111100000000000000000001111111111111111
1111111111111111111111111111111111111111111111111111111111111111111111111111100000000000111000000000011111111111111000000000000000000001111111111111111111111111100000001111111111111111111111111111000000111000000001111111111111111111
1111111111111111111111111111111111111111111111111111111111111111111111111111100000000000000000000000001111111111111000000000000000111111111111111111111111111111110000001111111111111111111111111110000000111111111111111111111111111111
1111111111111111111111111111111111111111111111111111111111111111111111111111100000000000000000000000000111111111111100000000001111111111111111111111111111111111111000000111111111111111111111111110000000111111111111111111111111111111
1111111111111111111111111111111111111111111111111111111111111111111111111111110000000000000000000000000001111111110000000001111111111111111111111111111111111111111100000011111111111111111111111100000001111111111111111111111111111111
1111111111111111111111111111111111111111111111111111111111111111111111111111111100000000000000000000000000001111000000000001111111111111111111111111111111111111111110000001111111111111111111111100000011111111111111111111111111111111
1111111111111111111111111111111111111111111111111111111111111111111111111111111100000000000000000000000000000000000000000001111111111111111111111111111111111111111111000000011111111111111111111000000011111111111111111111111111111111
1111111111111111111111111111111111111111111111111111111111111111111111111111111110000000000000000000000000000000000000000001111111111111111111111111111111111111111111100000001111111111111111110000000111111111111111111111111111111111
1111111111111111111111111111111111111111111111111111111111111111111111111111111100000000000000000000000000000000000000000001111111111111111111111111111111111111111111110000000111111111111111110000011111111111111111111111111111111111
1111111111111111111111111111111111111111111111111111111111111111111111111111111100000000000000000000000000000000000000000011111111111111111111111111111111111111111111111000000011110000000000110000111111111111111111111111111111111111
1111111111111111111111111111111111111111111111111111111111111111111111111111111100000000000000000000000000000000000000000011111111111111111111111111111111111111111111111100000010000000000000000000111111111111111111111111111111111111
1111111111111111111111111111111111111111111111111111111111111111111111111111111100000000000000000000000000000000000000000011111111111111111111111111111111111111111111111111000000000000000000000000111111111111111111111111111111111111
1111111111111111111111111111111111111111111111111111111111111111111111111111111100000000000000000000000000000000000000000111111111111111111111111111111111111111111111111111000000000000000000000001111111111111111111111111111111111111
1111111111111111111111111111111111111111111111111111111111111111111111111111111100000000000000000000000000000000000000000111111111111111111111111111111111111111111111111111100000000000000000000000111111111111111111111111111111111111
1111111111111111111111111111111111111111111111111111111111111111111111111111111100000000000000000000000000000000000000000111111111111111111111111111111111111111111111111111100000000000000000000000011111111111111111111111111111111111
1111111111111111111111111111111111111111111111111111111111111111111111111111111100000000000000000000000000000000000000001111111111111111111111111111111111111111111111111110000000000000000000000000001111111111111111111111111111111111
1111111111111111111111111111111111111111111111111111111111111111111111111111110000000000000000000000000000000000000000001111111111111111111111111111111111111111111111111100000000000000000000000000000111111111111111111111111111111111
1111111111111111111111111111111111111111111111111111111111111111111111111111100000000000000000000000000000000000000000001111111111111111111111111111111111111111111111111100000000000000000000000000000111111111111111111111111111111111
1111111111111111111111111111111111111111111111111111111111111111111111111111000000000000000000000000000000000000000000011111111111111111111111111111111111111111111111111100000000000000000000000000000011111111111111111111111111111111
1111111111111111111111111111111111111111111111111111111111111111111111111110000000000000000000000000000000000000000000111111111111111111111111111111111111111111111111111000000000000000000000000000000011111111111111111111111111111111
1111111111111111111111111111111111111111111111111111111111111111111111111000000000000000000000000000000000000000000000111111111111111111111111111111111111111111111111111000000000000000000000000000000001111111111111111111111111111111
1111111111111111111111111111111111111111111111111111111111111111111111100000000000100000100000000000000000000000000001111111111111111111111111111111111111111111111111111000000000000000000000000000000001111111111111111111111111111111
1111111111111111111111111111111111111111111111111111111111111111111000000000000000100000100000000000000000000000000011111111111111111111111111111111111111111111111111111000000000000000000000000000000001111111111111111111111111111111
1111111111111111111111111111111111111111111111111111111111111111100000000000000001100000100000000000000000000000001111111111111111111111111111111111111111111111111111111000000000000000000000000000000001111111111111111111111111111111
1111111111111111111111111111111111111111111111111111111111111111000000000000000001100000110000000000000000000000011111111111111111111111111111111111111111111111111111111000000000000000000000000000000001111111111111111111111111111111
1111111111111111111111111111111111111111111111111111111111111111000000000000000001100000111000000000000000000000111111111111111111111111111111111111111111111111111111111000000000000000000000000000000001111111111111111111111111111111
1111111111111111111111111111111111111111111111111111111111111110000000000000000001100000111000000000000000000011111111111111111111111111111111111111111111111111111111111000000000000000000000000000000001111111111111111111111111111111
1111111111111111111111111111111111111111111111111111111111111100000000000000000001100000111000000000000000001111111111111111111111111111111111111111111111111111111111110000000000000000000000000000000001111111111111111111111111111111
1111111111111111111111111111111111111111111111111111111111111100000000000000000001111111111000000000001111111111111111111111111111111111111111111111111111111111111111000000000000000000000000000000000001111111111111111111111111111111
1111111111111111111111111111111111111111111111111111111111111100000000000000000011111111111000111111111111111111111111111111111111111111111111111100011111111111111000000000000000000000000000000000000001111111111111111111111111111111
1111111111111111111111111111111111111111111111111111111111111100000000000000000011111111111111111111111111111111111111111111111111111111111111000000011111111111100000000000000000000000000000000000000001111111111111111111111111111111
1111111111111111111111111111111111111111111111111111111111111100000000000000001111111111111111111111111111111111111111111111111111111111111111000001111111110000000000001100000000000000000000000000000011111111111111111111111111111111
1111111111111111111111111111111111111111111111111111111111111100000000000000111111111111111111111111111111111111111111111111111111110111111000000001111111000000000000001110000000000000000000000000000011111111111111111111111111111111
1111111111111111111111111111111111111111111111111111111111111100000000000000111111111111111111111111111111111111111111111111111111100111110000000000111110000000000000011111000000000000000000000000000111111111111111111111111111111111
1111111111111111111111111111111111111111111111111111111111111000000000000001111111111111111111111111111111111111111111111111111111100111100000000000000000000011000001111111100000000000000000000000001111111111111111111111111111111111
1111111111111111111111111111111111111111111111111111111111111000000000000011111111111111111111111111111111111111111111111111111110000111100000000000000000000011001111111111110000000000000000000000001111111111111111111111111111111111
1111111111111111111111111111111111111111111111111111111111111100000000000111111111111111111111111111111111111111111111111111111110000111000000000000000000000111111111111111111000000000000000000000000111111111111111111111111111111111
1111111111111111111111111111111111111111111111111111111111111110000000001111111111111111111111111111111111111111111111111111111110000111000000000000000000000011111111111111111100000000000000000010000011111111111111111111111111111111
1111111111111111111111111111111111111111111111111111111111111111000000011111111111111111111111111111111111111111111111111111111111000111000000000000000000000011111111111111111111100000000000001110000001111111111111111111111111111111
1111111111111111111111111111111111111111111111111111111111111111111111111111111111111111111111111111111111111111111111111111111111000000000000000000000000000011111111111111111111111111111111111111000000111111111111111111111111111111
1111111111111111111111111111111111111111111111111111111111111111111111111111111111111111111111111111111111111111111111111111111111000000000000000000000000110011111111111111111111111111111111111111000000011111111111111111111111111111
1111111111111111111111111111111111111111111111111111111111111111111111111111111111111111111111111111111111111111111111111111111111000000000000000000000001110011111111111111111111111111111111111111100000001111111111111111111111111111
1111111111111111111111111111111111111111111111111111111111111111111111111111111111111111111111111111111111111111111111111111111111000000000000000000000001110011111111111111111111111111111111111111110000000111111111111111111111111111
1111111111111111111111111111111111111111111111111111111111111111111111111111111111111111111111111111111111111111111111111111111111100011100000000000000001110011111111111111111111111111111111111111110000000111111111111111111111111111
1111111111111111111111111111111111111111111111111111111111111111111111111111111111111111111111111111111111111111111111111111111111100011111000000000000000000011111111111111111111111111111111111111111000000011111111111111111111111111
1111111111111111111111111111111111111111111111111111111111111111111111111111111111111111111111111111111111111111111111111111111111110111111100000000000000000111111111111111111111111111111111111111111100000001111111111111111111111111
1111111111111111111111111111111111111111111111111111111111111111111111111111111111111111111111111111111111111111111111111111111111111111111100000000000000001111111111111111111111111111111111111111111110000000111111111111111111111111
1111111111111111111111111111111111111111111111111111111111111111111111111111111111111111111111111111111111111111111111111111111111111111111000000000000000011111111111111111111111111111111111111111111110000000011111111111111111111111
1111111111111111111111111111111111111111111111111111111111111111111111111111111111111111111111111111111111111111111111111111111111111111110000000000000001111111111111111111111111111111111111111111111111000000001111111111111111111111
1111111111111111111111111111111111111111111111111111111111111111111111111111111111111111111111111111111111111111111111111111111111111111110000000000000111111111111111111111111111111111111111111111111111100000000111111111111111111111
1111111111111111111111111111111111111111111111111111111111111111111111111111111111111111111111111111111111111111111111111111111111111111110000000000111111111111111111111111111111111111111111111111111111110000000011111111111111111111
1111111111111111111111111111111111111111111111111111111111111111111111111111111111111111111111111111111111111111111111111111111111111111111100000111111111111111111111111111111111111111111111111111111111111000000001111111111111111111
1111111111111111111111111111111111111111111111111111111111111111111111111111111111111111111111111111111111111111111111111111111111111111111111111111111111111111111111111111111111111111111111111111111111111100000001111111111111111111
1111111111111111111111111111111111111111111111111111111111111111111111111111111111111111111111111111111111111111111111111111111111111111111111111111111111111111111111111111111111111111111111111111111111111110000000111111111111111111
1111111111111111111111111111111111111111111111111111111111111111111111111111111111111111111111111111111111111111111111111111111111111111111111111111111111111111111111111111111111111111111111111111111111111111000000011111111111111111
1111111111111111111111111111111111111111111111111111111111111111111111111111111111111111111111111111111111111111111111111111111111111111111111111111111111111111111111111111111111111111111111111111111111111111100000001111111111111111
1111111111111111111111111111111111111111111111111111111111111111111111111111111111111111111111111111111111111111111111111111111111111111111111111111111111111111111111111111111111111111111111111111111111111111100000000111111111111111
1111111111111111111111111111111111111111111111111111111111111111111111111111111111111111111111111111111111111111111111111111111111111111111111111111111111111111111111111111111111111111111111111111111111111111110000000011111111111111
1111111111111111111111111111111111111111111111111111111111111111111111111111111111111111111111111111111111111111111111111111111111111111111111111111111111111111111111111111111111111111111111111111111111111111111000000001111111111111
1111111111111111111111111111111111111111111111111111111111111111111111111111111111111111111111111111111111111111111111111111111111111111111111111111111111111111111111111111111111111111111111111111111111111111111100000000111111111111
1111111111111111111111111111111111111111111111111111111111111111111111111111111111111111111111111111111111111111111111111111111111111111111111111111111111111111111111111111111111111111111111111111111111111111111110000000011111111111
1111111111111111111111111111111111111111111111111111111111111111111111111111111111111111111111111111111111111111111111111111111111111111111111111111111111111111111111111111111111111111111111111111111111111111111111000000001111111111
1111111111111111111111111111111111111111111111111111111111111111111111111111111111111111111111111111111111111111111111111111111111111111111111111111111111111111111111111111111111111111111111111111111111111111111111100000000111111111
1111111111111111111111111111111111111111111111111111111111111111111111111111111111111111111111111111111111111111111111111111111111111111111111111111111111111111111111111111111111111111111111111111111111111111111111110000000111111111
1111111111111111111111111111111111111111111111111111111111111111111111111111111111111111111111111111111111111111111111111111111111111111111111111111111111111111111111111111111111111111111111111111111111111111111111111000001111111111
1111111111111111111111111111111111111111111111111111111111111111111111111111111111111111111111111111111111111111111111111111111111111111111111111111111111111111111111111111111111111111111111111111111111111111111111111100011111111111
1111111111111111111111111111111111111111111111111111111111111111111111111111111111111111111111111111111111111111111111111111111111111111111111111111111111111111111111111111111111111111111111111111111111111111111111111100111111111111
1111111111111111111111111111111111111111111111111111111111111111111111111111111111111111111111111111111111111111111111111111111111111111111111111111111111111111111111111111111111111111111111111111111111111111111111111111111111111111
1111111111111111111111111111111111111111111111111111111111111111111111111111111111111111111111111111111111111111111111111111111111111111111111111111111111111111111111111111111111111111111111111111111111111111111111111111111111111111
1111111111111111111111111111111111111111111111111111111111111111111111111111111111111111111111111111111111111111111111111111111111111111111111111111111111111111111111111111111111111111111111111111111111111111111111111111111111111111
1111111111111111111111111111111111111111111111111111111111111111111111111111111111111111111111111111111111111111111111111111111111111111111111111111111111111111111111111111111111111111111111111111111111111111111111111111111111111111
1111111111111111111111111111111111111111111111111111111111111111111111111111111111111111111111111111111111111111111111111111111111111111111111111111111111111111111111111111111111111111111111111111111111111111111111111111111111111111
