111111111111111111111111111111111111111111111111111111111111111111111111111111111111111111111111111111111111111111111111111111111111111111111111111111111111111111111111111111111111111111111111111111111111111111111111111111111111111111111111
111111111111111111111111111111111111111111111111111111111111111111111111111111111111111111111111111111111111111111111111111111111111111111111111111111111111111111111111111111111111111111111111111111111111111111111111111111111111111111111111
111111111111111111111111111111111111111111111111111111111111111111111111111111111111111111111111111111000000000000011111111111111111111111111111111111111111111111111111111111111111111111111111111111111111111111111111111111111111111111111111
111111111111111111111111111111111111111111111111111111111111111111111111111111111111111111111111111111000000000000011111111111111111111111111111111111111111111111111111111111111111111111111111111111111111111111111111111111111111111111111111
111111111111111111111111111111111111111111111111111111111111111111111111111111111111111111111111111111000000000000011111111111111111111111111111111111111111111111111111111111111111111111111111111111111111111111111111111111111111111111111111
111111111111111111111111111111111111111111111111111111111111111111111111111111111111111111111111111110000000000000011111111111111111111111111111111111111111111111111111111111111111111111111111111111111111111111111111111111111111111111111111
111111111111111111111111111111111111111111111111111111111111111111111111111111111111111111111111111110000000000000011111111111111111111111111111111111111111111111111111111111111111111111111111111111111111111111111111111111111111111111111111
111111111111111111111111111111111111111111111111111111111111111111111111111111111111111111111111111110000000000000011111111111111111111111111111111111111111111111111111111111111111111111111111111111111111111111111111111111111111111111111111
111111111111111111111111111111111111111111111111111111111111111111111111111111111111111111111111111110000000000000011111111111111111111111111111111111111111111111111111111111111111111111111111111111111111111111111111111111111111111111111111
111111111111111111111111111111111111111111111111111111111111111111111111111111111111111111111111111110000000000000011111111111111111111111111111111111111111111111111111111111111111111111111111111111111111111111111111111111111111111111111111
111111111111111111111111111111111111111111111111111111111111111111111111111111111111111111111111111100000000000000011111111111111111111111111111111111111111111111111111111111111111111111111111111111111111111111111111111111111111111111111111
111111111111111111111111111111111111111111111111111111111111111111111111111111111111111111111111111100000000000000011111111111111111111111111111111111111111111111111111111111111111111111111111111111111111111111111111111111111111111111111111
111111111111111111111111111111111111111111111111111111111111111111111111111111111111111111111111111100000000000000011111111111111111111111111111111111111111111111111111111111111111111111111111111111111111111111111111111111111111111111111111
111111111111111111111111111111111111111111111111111111111111111111111111111111111111111111111111111100000000000000011111111111111111111111111111111111111111111111111111111111111111111111111111111111111111111111111111111111111111111111111111
111111111111111111111111111111111111111111111111111111111111111111111111111111111111111111111111111100000000000000011111111111111111111111111111111111111111111111111111111111111111111111111111111111111111111111111111111111111111111111111111
111111111111111111111111111111111111111111111111111111111111111111111111111111111111111111111111111100000000000000011111111111111111111111111111111111111111111111111111111111111111111111111111111111111111111111111111111111111111111111111111
111111111111111111111111111111111111111111111111111111111111111111111111111111111111111111111111111100000000000001111111111111111111111111111111111111111111111111111111111111111111111111111111111111111111111111111111111111111111111111111111
111111111111111111111111111111111111111111111111111111111111111111111111111111111111111111111111111100000000000001111111111111111111111111111111111111111111111111111111111111111111111111111111111111111111111111111111111111111111111111111111
111111111111111111111111111111111111111111111111111111111111111111111111111111111111111111111111111000000000000001111111111111111111111111111111111111111111111111111111111111111111111111111111111111111111111111111111111111111111111111111111
111111111111111111111111111111111111111111111111111111111111111111111111111111111111111111111111100000000000000001111111111111111111111111111111111111111111111111111111111111111111111111111111111111111111111111111111111111111111111111111111
111111111111111111111111111111111111111111111111111111111111111111111111111111111111111111111111100000000000000000011111111111111111111111111111111111111111111111111111111111111111111111111111111111111111111111111111111111111111111111111111
111111111111111111111111111111111111111111111111111111111111111111111111111111111111111111111111111000000000000000011111111111111111111111111111111111111111111111111111111111111111111111111111111111111111111111111111111111111111111111111111
111111111111111111111111111111111111111111111111111111111111111111111111111111111111111111111111111000000000000000111111111111111111111111111111111111111111111111111111111111111111111111111111111111111111111111111111111111111111111111111111
111111111111111111111111111111111111111111111111111111111111111111111111111111111111111111111111111000000000000000111111111111111111111111111111111111111111111111111111111111111111111111111111111111111111111111111111111111111111111111111111
111111111111111111111111111111111111111111111111111111111111111111111111111111111111111111111111100000000000000000011111111111111111111111111111111111111111111111111111111111111111111111111111111111111111111111111111111111111111111111111111
111111111111111111111111111111111111111111111111111111111111111111111111111111111111111111111110000000000000000000000011111111111111111111111111111111111111111111111111111111111111111111111111111111111111111111111111111111111111111111111111
111111111111111111111111111111111111111111111111111111111111111111111111111111111111111111110000000000000000000000000000011111111111111111111111111111111111111111111111111111111111111111111111111111111111111111111111111111111111111111111111
111111111111111111111111111111111111111111111111111111111111111111111111111111111111111111100000000000000000000000000000011111111111111111111111111111111111111111111111111111111111111111111111111111111111111111111111111111111111111111111111
111111111111111111111111111111111111111111111111111111111111111111111111111111111111111111110000000000000000000000000000011111111111111111111111111111111111111111111111111111111111111111111111111111111111111111111111111111111111111111111111
111111111111111111111111111111111111111111111111111111111111111111111111111111111111111111111100000000000000000000000000011111111111111111111111111111111111111111111111111111111111111111111111111111111111111111111111111111111111111111111111
111111111111111111111111111111111111111111111111111111111111111111111111111111111111111111111110000000000000000000000000001111111111111111111111111111111111111111111111111111111111111111111111111111111111111111111111111111111111111111111111
111111111111111111111111111111111111111111111111111111111111111111111111111111111111111111111111000000000000000000000000001111111111111111111111111111111111111111111111111111111111111111111111111111111111111111111111111111111111111111111111
111111111111111111111111111111111111111111111111111111111111111111111111111111111111111111111111000000000000000000000000001111111111111111111111111111111111111111111111111111111111111111111111111111111111111111111111111111111111111111111111
111111111111111111111111111111111111111111111111111111111111111111111111111111111111111111111111000000000000000000000000000111111111111111111111111111111111111111111111111111111111111111111111111111111111111111111111111111111111111111111111
111111111111111111111111111111111111111111111111111111111111111111111111111111111111111111111100000000000000000000000000000011111111111111111111111111111111111111111111111111111111111111111111111111111111111111111111111111111111111111111111
111111111111111111111111111111111111111111111111111111111111111111111111111111111111111111111100000000000000000000000000000011111111111011111111111111111111111111111111111111111111111111111111111111111111111111111111111111111111111111111111
111111111111111111111111111111111111111111111111111111111111111111111111111111111111111111111000000000000000000000000000000000111111110001111111111111111111111111111111111111111111111111111111111111111111111111111111111111111111111111111111
111111111111111111111111111111111111111111111111111111111111111111111111111111111111111111111100000000000000000000000000000000000111100011111111111111111111111111111111111111111111111111111111111111111111111111111111111111111111111111111111
111111111111111111111111111111111111111111111111111111111111111111111111111111111111111111111100000000000000000000000000000000000000000111111111111111111111111111111111111111111111111111111111111111111111111111111111111111111111111111111111
111111111111111111111111111111111111111111111111111111111111111111111111111111111111111111111100000000000000000000000000000000000000000111111111111111111111111111111111111111111111111111111111111111111111111111111111111111111111111111111111
111111111111111111111111111111111111111111111111111111111111111111111111111111111111111111111100000000000000000000000000000000000000001111111111111111111111111111111111111111111111111111111111111111111111111111111111111111111111111111111111
111111111111111111111111111111111111111111111111111111111111111111111111111111111111111111100000000000000000000000000000000000000000001111111111111111111111111111111111111111111111111111111111111111111111111111111111111111111111111111111111
111111111111111111111111111111111111111111111111111111111111111111111111111111111111111110000000000000000000000000000000000000000000011111111111111111111111111111111111111111111111111111111111111111111111111111111111111111111111111111111111
111111111111111111111111111111111111111111111111111111111111111111111111111111111111000000000000000000000000000000000000000000000000111111111111111111111111111111111111111111111111111111111111111111111111111111111111111111111111111111111111
111111111111111111111111111111110111111111111111111111111111111111111111111111111111000000000000000000000000000000000000000000000001111111111111111111111111111111111111111111111111111111111111111111111111111111111111111111111111111111111111
111111111111111111111111111111000111111111111111111111111111111111111111111111111111000000000000000000000000000000000000000000000001111111111111111111111111111111111111111111111111111111111111111111111111111111111111111111111111111111111111
111111111111111111111111111110000111111111111111111111111111111111111111111111111111000000000000000000000000000000000000000000000001111111111111111111111111111111111111111111111111111111111111111111111111111111111111111111111111111111111111
111111111111111111111111111110000111111111111111111111111111111111111111111111111111000000000000000000000000000000000000000000000001111111111111111111111111111111111111111111111111111111111111111111111111111111111111111111111111111111111111
111111111111111111111111111100001111111111111111111111111111111111111111111111111111000000000000000000000000000000000000000000000000011111111111111111111111111111111111111111111111111111111111111111111111111111111111111111111111111111111111
111111111111100111111111111000001111111111111111111111111111111111111111111111111110000000000000000000000000000000000000000000000000001111111111111111111111111111111111111111111111111111111111111111111111111111111111111111111111111111111111
111111111111100111111111110000011111111111111111111111111111111111111111111111111110000000000000000000000000000000000000000000000000011111111111111111111111111111111111111111111111111111111111111111111111111111111111111111111111111111111111
111111111111100111111111000001111111111111111111111111111111111111111111111111111100000000000000000000000000000000000000000000000000111111111111111111111111111111111111111111111111111111111111111111111111111111111111111111111111111111111111
111111111111100111111110000011111111111111111111111111111111111111111111111111111100000000000000000000000000000000000000000000000000111111111011111111111111111111111111111111111111111111111111111111111111111111111111111111111111111111111111
111111111111100111111000000111111111111111111111111100111111111111111111111111111100000000000000000000000000000000000000000000000000111111110000111111111111111111111111111111111111111111111111111111111111111111111111111111111111111111111111
111111111111100111100000001111111111111111111111000000111111111111111111111111111000000000000000000000000000000000000000000000000000001111110000011111111111111111111111111111111111111111111111111111111111111111111111111111111111111111111111
111111111111100110000000111111111111111111111000000000011111111111111111111111111000000000000000000000000000000000000000000000000000000011100000001111111111111111111111111111111111111111111111111111111111111111111111111111111111111111111111
111111111111100000000001111111111111111111111000000000011111111111111111111111111000000000000000000000000000000000000000000000000000000000000000011111111111111111111111111111111111111111111111111111111111111111111111111111111111111111111111
111111111110000000000011111111111111111111111000000000011111111111111111111111111000000000000000000000000000000000000000000000000000000000000000111111101111111111111111111111111111111111111111111111111111111111111111111111111111111111111111
111111111110000000000011111111111111111111111000000100011111111111111111111111111000000000000000000000000000000000000000000000000000000000000001111111100111111111111111111111111111111111111111111111111111111111111111111111111111111111111111
111111111110000000000111111111111111111110011000001100011111111111111111111111111000000000000000000000000000000000000000000000000000000000000001111111100111111111111111111111110111111111111111111111111111111111111111111111111111111111111111
111111111111000000001111111101111111111110011000001100001111111111111111111111111000000000000000000000000000000000000000000000000000000000000001111111100111111111111111111111100111011111111111111111111111111111111111111111111111111111111111
111111111111100000111111111000111111111110011000001100001111111111111111100000000000000000000000000000000000000000000000000000000000000000000000011111000111111111111111111111100100001111111111111111111111111111111111111111111111111111111111
111111111111111111111111110000111111111110011000001100001001111111111111110000000000000000000000000000000000000000000000000000000000000000000000000110000111111111111111111111100000000011111111111111111111111111111111111111111111111111111111
111111111111111111111111111000111111111100000000001100001001111111111111110000000000000000000000000000000000000000000000000000000000000000000000000000000111111111111111111111100000000011111111111111111111111111111111111111111111111111111111
111111111111111111111111111000011111100000000000011100001001111111111111111000000000000000000000000000000000000000000000000000000000000000000000000000000111111111111111111111100000000001111111111111111111111111111111111111111111111111111111
111111111111111111111111111100011100000000000000011100001001111111101111111000000000000000000000000000000000000000000000000000000000000000000000000000000011111111111111111111000000000001111111111111111111111111111111111111111111111111111111
111111111111111111111111111110010000000000000000111100001101111111101111100000000000000000000000000000000000000000000000000000000000000000000000000000000000111111111111111110000001000000111111111111111111111111111111111111111111111111111111
111111111111111111111111111111000000000010000001111110001101111110001110000000000000000000000000000000000000000000000000000000000000000000000000000000000000000111111111111111000011000000111111111111111111111111111111111111111111111111111111
111111111111111111111111111111100000000111000011111110000101111110000000000000000000000000000000000000000000000000000000000000000000000000000000000000000000001111111111111111000111000000111111111111111111111111111111111111111111111111111111
111111111111111111111111111111110000000000000111111110000101111100000000000000000000000000000000000000000000000000000000000000000000000000000000000000000000111111111111111111111111000001111111111111111111111111111111111111111111111111111111
111111111111111111111111111111111100000000111111111110000100000000000000000000000000000000000000000000000000000000000000000000000000000000000000000000000000111111111111111111111110000111111111111111111111111111111111111111111111111111111111
111111111111111111111111111111111111111111111111111010000100000000000000000000000000000000000000000000000000000000000000000000000000000000000000000000000001111111111111111111111110000111111111111111111111111111111111111111111111111111111111
111111111111111111111111111111111111111111111111111010000100000000000000000000000000000000000000000000000000000000000000000000000000000000000000000000000001111111111111111111111100001111111111111111111111111111111111111111111111111111111111
111111111111111111111111111111111111111111111111111011000110000000000000000000000000000000000000000000000000000000000000000000000000000000000000000000000001111111111111111111111100001111111111111111111111111111111111111111111111111111111111
111111011111111111111111111111111111111111111111110011000010000000000000000000000000000000000000000000000000000000000000000000000000000000000000000000000011011101111111111111111000001111111111111111111111111111111111111111111111111111111111
111111000111101111111111111111111111111111111111110011000000000000000000000000000000000000000000000000000000000000000000000000000000000000000000000000000111000001111111111111111000011111111111111111111111111111111111111111111111111111111111
111111000000001111101111111111111111111111111111100000000000000000000000000000000000000000000000000000000000000000000000000000000000000000000000000000000000000000011111111111111000011111111111111111111111111111111111111111111111111111111111
111110000000000000001111111111111111111111111111100000000000000000000000000000000000000000000000000000000000000000000000000000000000000000000000000000000000000000000111111111110000111111111111111111111111111111111111111111111111111111111111
111110000000000000001111111111111111111111111111000000000000000000000000000000000000000000000000000001111000000000000000000000000000000000000000000000000000000000000001111111110000111111111111111111111111111111111111111111111111111111111111
111110000000110000000111111110111111111111111110000000000000000000000000000000000000000000000000000111111111111100000000000000000000000000000000000000000000000000000000000001110000111111111111111111111111111111111111111111111111111111111111
111100000011111000000111101110001111111111111000000000000000000000000000000000000000000000000000001111111111111110000000000000000000000000000000000000000000000000000000000001100001111111111111111111111111111111111111111111111111111111111111
111100000111111100000000001111000001111111100000000000000000000000000000000000000000000000000111111111111111111111100000000000000000000000000000000000000000000000000000000011100001111111111111111111111111111111111111111111111111111111111111
111100000111111111000000001111000000000000000000000000000000000000000000000000000000000111111111111111111111111111111000000000000000000000000000000000000000000000000000000111000011111111111111111111111111111111111111111111111111111111111111
111100000111111111000000001110000000000000000000000000000000000000000000000000000001111111111111111111111111111111111111100000000000000000000000000000000000000000000000011111000011111111111111111111111111111111111111111111111111111111111111
111100000111111111000000000000000000000000000000000000000000000000000000000000011111111111111111111111111111111111111111111000000000000000000000000000000000000000001111111111000011111111111111111111111111111111111111111111111111111111111111
111100000111111111100000000000000000000000000000000000000000000000000000000011111111111111111111111111111111111111111111111110000000000000000000000000000000000000001111111110000111111111111111111111111111111111111111111111111111111111111111
111100000001111111100000000000000000000000000000000000000000000000000000000111111111111111111111111111111111111111111111111111000000000000000000000000000000000000001111111110000111111111111111111111111111111111111111111111111111111111111111
111100000000011111100000000000000000000000000000000000000000000000000000011111111111111111111111111111111111111111111111111111100000000000000000000000000000000000000011111100001111111111111111111111111111111111111111111111111111111111111111
111100000000000111000000000000000000000000000000000000000000000000000000111111111111111111111111111111111111111111111111111111100000000000000000000000000000000000000011111100001111111111111111111111111111111111111111111111111111111111111111
111100000000000110000000000000000000000000000000000000000000000000000111111111111111111111111111111111111111111111111111111111100000000000000000000000000000000000000011111000001111111111111111111111111111111111111111111111111111111111111111
111000000000000000000000000000000000000000000000000000000000000000001111111111111111111111111111111111111111111111111111111111110000000000000000000000000000000000000011111000011111111111111111111111111111111111111111111111111111111111111111
111000000000000000000000000000000000000000000000000000000000000001111111111111111111111111111111111111111111111111111111111111111100000000000000000000000000000000000001110000011111111111111111111111111111111111111111111111111111111111111111
111000000000000000000000000000000000000000000000000000000000001111111111111111111111111111111111111111111111111111111111111111111110000000000000000000000000000000000000010000111111111011110011111111111111111111111111111111111111111111111111
111100000000000000000000000000000000000000000000000000000000111111111111110111111111111111111111111111111111111111111111111111111111100000000000000000000000000000000000110000111111110001110001111111111111111111111111111111111111111111111111
100100000000000000000000000000000000000000000000000000000111111111111111100111111111111111111111111111111111111111111111111111111111111100000000000000000000000000000000100000111111000000000000111111111111111111111111111111111111111111111111
100111000000000000000000000000000000000000000000000000001111111111111110001111111111111111111111111111111111111111111111111111111111111110000000000000000000000000000000000001111000000000000000111111111111111111111111111111111111111111111111
100001100000000000000000000000000000000000000000000000011111111111111100011111111111111111111111111111111111111111111111111111111111111110000000000000000000000000000000000001110000000000000000011011111111111111111111111111111111111111111111
100000110000000000000000000000000000000000000000000000111111111111111000111111111111111111111111111111111111111111111111111111111111111111000000000000000000000000000000000011110000000000000000011001111111111111111111111111111111111111111111
100000010000000000000000000000000000000000000000000001111111111111100001111111111111111111111111111111111111111111111111111111111111111111100000000000000000000000000000000011100000000000000000001001111111111111111111111111111111111111111111
111000000000000000000000000000000000000000000000000011111111111111000011111111111111111111111111111111111111111111111111111111111111111111100000000000000000000000000000000000000000000000000000000001111111111011111111111111111111111111111111
111000000000000000000000000000000000000000000000000011111111111100000111111111111111111111111111111111111111111111111111111111111111111111110000000000000000000000000000000000000000000000000000000001111110000001111111111111111111111111111111
111100000000000000000000000000000000000000000000000111111111111000001111111111111111111111111111111111111111111111111111111111111111111111110000000000000000000000000000000000000000000000000000000001111000000000001111111111111111111111111111
111111000000000000000000000000000000000000000000001111111111100000011111111111111111111111111111111111111111111111111111111111111111111111111000000000000000000000000000000000000000000000000000000000000000000000011111111111111111111111111111
101011100000000000000000000000000000000000000000001111111111000000111111111111111111111111111111111111111111111111111111111111111111111111111100000000000000000000000000000000000000000000000000000000000000000001111111111111111111111111111111
101000100000000000000000000000000000000000000000001111111110000001111111111111111111111111111111111111111111111111111111111111111111111111111110000000000000000000000000000000000000000000000000000000000000000011111111111111111111111111111111
100000000000000000000000000000000000000000000000001111111100000011111111111111111111111111111111111111111111111111111111111111111111111111111111000000000000000000000000000000000000000000000000000000000000000111111111111111111111111111111111
100000000000000000000000000000000000000000000000001111111000000111111111111111111111111111111111111111111111111111111111111111111111111111111111100000000000000000000000000000000000000000000000000000000000011111111111111111111111111111111111
100000000000000000000000000000000000000000000000000111110000001111111111111111111111111111110001111111111111111111111111111111111111111111111111110000000000000000000000000000000000000000000000000000000000111111111111111111111111111111111111
100000000000000000000000000000000000000000000000001111110000000111111111111111111111101111100001111111111111111111111111111111111111111111111111111000000000000000000000000000000000000000000000000000000011111111111111111111111111111111111111
100000000000000000000000000000000000000000000000001111111000000011111111111111111111001111000000111111111111111111111111111111111111111111111111111100000000000000000000000000000000000000000000000000000111111111111111111111111111111111111111
101000000000000000000000000000000000000000000000011111111110000001111111111111111111001110000000011111111111111111111111111111111111111111111111111110000000000000000000000000000000000000000000000000011111111111111111111101111111111111111111
101000000000000000000000000000000000000000000000011111111111000000111111111111111111001100000000111111111111111111111111111111111111111111111111111111000000000000000000000000000000000000000000000000111111111111111111101101111111111111111111
101000000000000000000000000000000000000000000000011111111111100000011111111111111111000000000001111111111111111111111111111111111111111111111111111111100000000000000000000000000000000000000000000001111111111111111111000101111111111111111111
111111111100000000000000000000000000000000000000011111111111110000001111111111111111000000000111111111111111111111111111111111111111111111111111111111110000000000000000000000000000000000000000000111111111111111111100000001111111111111111111
111111111100000000000000000000000000000000000000011111111111111000001111111111111111000000001111111111111111111111111111111111111111111111111111111111111000000000000000000000000000000000000000001111111111111111111000000001111111111111111111
111111111100000000000000000000000000000000000000011111111111111100000111111111111110000000001111111111111111111111111111111111111111111111111111111111111100000000000000000000000000000000000000111111111111111111110000000001111111111111111111
111111100000000000000000000000000000000000000000111111111111111100000011111111111100000000011111111111111111111111111111111111111111111111111111111111111110000000000000000000000000000000000000111111111111111111000000000001111111111111111111
111111100000000000000000000000000000000000000001111111111111111100000001111111111000000000111111111111111111111111111111111111111111111111111111111111111111000000000000000000000000000000000000111111111111111110000000000000111111111111111111
111111100000000000000000000000000000000000000011111111111111111000000000111111100000000001111111111111111111111111111111111111111111111111111111111111111111100000000000000000000000000000000000011111111111111110000000000000111111111111111111
111111111000000000000000000000000000000000000111111111111111111000000000011111000000001111111111111111111111111111111111111111111111111111111111111111111111110000000000000000000000000000000000011111111111111110000000000000011111111111111011
111111111100000000000000000000000000000000001111111111111111111000000000001110000000011111111111111111111111111111111111111111111111111111111111111111111111111000000000000000000000000000000000001111111111111000000000000000000000111111100011
111000000000000000000000000000000000000000011111111111111111110000011000000000000000111111111111111111111111111111111111111111111111111111111111111111111111111100000000000000000000000000000000000111111111100000000001000000000000000000000011
111000000000000000000000000000000000000000111111111111111111110000111100000000000001111111111111111111111111111111111111111111111111111111111111111111111111111110000000000000000000000000000000000011111111000000000011100000000000000000000011
111000000000000000000000000000000000000001111111111111111111100000111110000000000011111111111111111111111111111111111111111111111111111111111111111111111111111111000000000000000000000000000000000001111111100000000111110000000000000000000011
111000000000000000000000000000000000000011111111111111111111100001111111000000000111111111111111111111111111111110111111111111111111111111111111111111111111111111100000000000000000000000000000000000111111110000000111111100000000000000000011
111000000000000000000000000000000000000111111111111111111111000011111111100000011111111111111111111111111111111100111111111111111111111111111111111111111111111111110000000000000000000000000000000000111111111000000111111111000000000000000011
111111000000000000000000000000000000001111111111111111111111000011111111110000111111111111111110111111111111111000001111111111111111111111111111111111111111111111111000000000000000000000000000000000011111111000000011111111110000000000000011
111111000000000000000000000000000000011111111111111111111110000111111111110001111111111111111100111111111111111000001111111111111111111111111111111111111111111111111110000000000000000000000000000000011111111100000001111111111100000000000011
111111000000000000000000000000000000011111111111111111111110000111111111111111111111111111111000111111111111110000000101111111111111111111111111111111111111111111111111000000000000000000000000000000001111111100000001111111111111100000000011
111110000000000000000000000000000000111111111111111111111100000111111111111111111111111111111000011111111111000000000001111111111111111111111111111111111111111111111111110000000000000000000000000000000111111110000001101111111111111100000011
111110000000000000000000000000000001111111111111111111111100001111111111111111111111111111111000011111111110000000000001111111111111111111111111111111111111111111111111111110000000000000000000000000000111111110000000100111111111111000000111
111110000000000000000000000000000001111111111111111111111000001111111111111111111111111111111000001111111100000000000000111111111111111111110011111111111111111111111111111111000000000000000000000000000011111111000000000001111111100000000111
111110000000000000000000000000000011111111111111111111111000011111111111111111111111111111111100001111110000000000000000011111111111111111110011111111111111111111111111111111100000000000000000000000000001111111000000000000111111000000001111
111110000000000000000000000000000111111111111111111111110000011111111111111111111111111111111100001111100000000000000000011110111111111111110011111111111111111111111111111111110000000000000000000000000000111111100000000000000111000000111111
111110000000000000000000000000001111111111111111111111110000111111111111111111111111111111111110000111000000000000000000011110011111111111110011111111111111111111111111111111111000000000000000000000000000111111100000000000000110000001111111
111110000000000000000000000000011111111111111111111111100000111111111111111111111111111111111110000110000000000000000000000000011111111110000011111111111111111111111111111111111100000000000000000000000000011111110000000000000100000011111111
111110000000000000000000000000011111111111111111111111100001111111111111111111111111111111111111000000000000000000000000000000011111110000000011111111111111111111111111111111111110000000000000000000000000001111110000000000001100000011111111
111110000000000000000000000000011111111111111111111110000001111111111111111111111111111111111111000000000000000000000000000000011011110000000011111111111111111111111111111111111111000000000000000000000000001111111000000000011000000111111111
111110000000000000000000000000011111111111111111111100000011111111111111111111111111111111111111000000000000000000000000000000000000000000000001111111111111111111111111111111111111100000000000000000000000000111111100000000010000001111111111
111110000000000000000000000000001111111111111111111000000011101111111111111111111111111111111111000000000000000000000000000000000000000000000000111111111111111111111111111111111111100000000000000000000000000011111100000000000000001111111111
111110000000000000000000000000000111111111111111110000000011000111111111111111111111111111111100000000000000000000001000000000000000000000000000011111111111111111111111111111111111110000000000000000000000000001111110000000000000011111111111
111110000000000000000000000000000011111111111111000000000000000000011111111111111111111111111100000000000000000000011001000000000000000000000000001111111111111111111111111111111111111000000000000000000000000001111111000000000000111111110011
111110000000000000000000000000000011111111111110000000000000000000011100001111111111111111111100000000000000000000110011100000000000000000000000000111111111111111111111111111111111111100000000000000000000000000111111100000000000111111100011
111110000000000000000000000000000001111111111100000000000000000000000000001111111111111111111100000000000000000001100011110000000000000000000000000011111111111111111111111111111111111110000000000000000000000000011111100000000001111110000011
111110000000000000000000000000000001111111111000000000000000000000000000000111111111111111111100000000000000000111000111111000000000001100000000000001111111111111111111111111011111111111000000000000000000000000001111100000000001111000001111
111110000000000000000000000000000001111111110000000000000000000000000000000011111111111111111000000000000000001111000111110000000000011110000000000000111111111111111111111111001111111011000000000000000000000000001111000000000001110000011111
111110000000000000000000000000000001111111100000000000000000000000000000000001111111111111110000000000000000001110001111100000000000111100000000000000011111111111111111111110011111100001100000000000000000000000001110000000000000000001111111
111110000000000000000000000000000001111111000000000000000000000000000000000011111111111111000000000000000000000100011111000000011011110000000000000000001111111111111111111100111111000000110000000000000000000000011100000010000000000011111111
111110000000000000000000000000000001111100000000000000000000000000000000000011110011001100000000000000000000000000011100000000111111100000110000000000000111111111111111111001111111000000011000000000000000000000011100000110000000001111111111
110000000000000000000000000000000001111100000000000000000000000000011111100011000000000000000000000000000000000000111000000011111111000011111000000000000011111111111111110011111111000000001100000000000000000000111000001111000000011111111111
110000000000000000000000000000000001111110000000000000000000000000011111100000000000000000000000000000000000000000110000000011111100000111111100000000000011111111111111100111111111000000000110000000000000000001111000001111100000111111111111
110000000000000000000000000000000001111111000000000000000000000000111111100000000000000000000000000000000000000000000000000001111000001111111100000000000000011111111110000011111110000000000011000000000000000001110000011111110011111111111111
110000000000000000000000000000000001111111100000000000000000000001111111000000000000000000000000000000000000000000000000000011100000111111110000000000000000000011100000000111111110000000000001100000000000000011100000011111111111111111111111
100000000000000000000000000000000001111111100000000000000000000011111111000000000000000000000000000000000000000000000000000011000001111111100000000000000000000000000000001111111100000000000000110000000000000011000000111111111111111111111111
100000000000000000000000000000000001111111110000000000000000000011111111000000000000000000000000000000000000000000000000000000000011111111000000000000000000000000000000011111111100000000000000110000000000000000000001111111111111111111111011
100000000000000000000000000000000011111111111000000000000000000011111100000000000000000000000000000000000000000000000000000000000111111110000000000011111110000000000000111111111000000000011100010000000000000000000001111111111111111111110011
100000000000000000000000000000000011111111111100000000000000000000000000000000000000000000000000000000001000000000000000000000000111111100000000000111111111000000000011111111110000000000111100011000000000000000000011111111111111111111000011
100000000000000000000000000000000111111111111110000000000000000000000000000000000000000000000000000000011111100000011000000000000011110000000000111111111111100000000111111111100000000001111100011000000000000000000111111111111111111110000011
111110000000000000000000000000000111111111111111000000000000000000000000000000000000000000000000000000111111110000111000000000000001100000000000111111111111110000001111111111000000000011111110001100000000000000000111111001111111111000000111
111110000000000000000000000000000111111111111111100000000000000000000000000000000000000000000000000001111111110001111100000000000000000000000000111111111111111101111111111110000000001111111110001100000000000000000111110000111111110000001111
100110000000000000000000000000001111111111111111100000000000000000000000000000000000000000000000000011111111111111111111000000000000000000000000111111111111111111111111111100000000011111111111001100000000000000000111100000011111100000011111
100110000000000000000000000000001111111111111111110000000000000000000000000000011100000000000000000111111111111111111111100000000000000000000000111111111111111111111111111000000000111111111111000110000000000000000010000000011110000000111111
100110000000000000000000000001001111111111111111111000000000000000000000000000011111111100000000011111111111111111111111110000000000000000000000000111111111111111111111110000000001111111111111000011000000000000000000000000001000000001111111
100110000000000000000000000111111111111111111111111100000000000000000000000000111111111110000001111111111111111111111111111000000000000000000000001111111111111111111111110000000011111111111111000001100000000000000000000000000000000011111111
100110000000000000000000011111111111111111111111111110000000000000000000000000111111111110000011111111111111111111111111111000000000000000000000011111111111111111111110000000000111111111111111000011100000000000000000000000000000000111111111
100110000000000000000000111111111111111111111111111111000000000000000000000000111111111110000011111111111111111111111111111100000000000000000000111111111110011111100000000000011111111111111111000111100000000000000000000000000000001111111111
100110000000000000000000111111111111111111111111111111100000000000000000000000001111111110000111111111111111111111110000111100000000011100000001111111111100000111000000000000011111111111111110001111000000000000000000000000000000011111111111
100110000000000000000001111111111111111111111111111111110000000000000000000000000011111110001111111111111111111111110000111000000011111100000011111111111000000000000000000000111111111110011110001111000000000000000000000000000000111111111111
100110000000000000000001111111111111111111111111111111111100000000000011000000000000000000001111111111111111111111100000000000000011111110000000111111110000000000000000000001111111111110011100011111000000000000000000000000000001111111111111
100110000000000000000001111111111111111111111111111111111110000000000111100000000000000000001111111111111000011111000000010000000001111111000000011111110000000000000000000011111111111110011100011100000000000000000000000000000011111111111111
100110000000000000000001111111111111111111111111111111111111000000001111110000000000000000001111111111111000000111110011110000000000011111000000001111100000000000000000000111111111111110010000111100000000000000000000000000000111111111111111
100110000000000000000001111111111111111111111111111111111111000000011111111000000000000000001111111111111000000001100011110000000000011111110000000111000000000000000000001111111111111110000000111000000000000000000000000000001111111111111111
100110000000000000000000111111111111111111111111111111111111000000111111111100000000000000001111111111111000000000000111111000000110011111110000000110000000000000000000111111111111111110000001110000000000000000000000000000011111111111111111
100110000000000000000000011111111111111111111111111111111110000011111111111110000000000000001111111111111000000000000011111000000110011111100000000110000000000000000001111111111111111110000011100000000000000000000000000000111111111111111111
100110000000000000000000000111111111111111111111111111111100000111111111111111000000000000000111111111111000000000000011000000000000011111100000001110000001110000000011111111111111111100000010000000000000000000000000000001111111111111111111
100110000000000000000000000111111111111111111111111111111100001111111111111111100000000000000111111111110000000000000000000000000000111111100000111110000011111000000011111111111111111000000000000000000000000000000000000011111111111111111111
100110000000000000000000000111111111111111111111111111111110111111111111111111100000000000000111111111110000000000000000000000000011111111000011111110000111111100000011111111111111111000000000000000000000000000000000000111111111111111111111
100110000000000000000000000111111111111111111111111111111111111111111111111111000000000000001111111111100000000000000000100000000111111111000011111100001111111110000001111111111111111100000000000000000000000000000000001111111111111111111111
100110000000000000000000000111111111111111111111111111111111111111111111111111100000000000011111111111000000000000000011110000001111111110000111111100011111111111000001111111111111111100000000000000000000000000000000011111111111111111111111
100110000000000000000000001111111111111111111111111111111111111111111111111111100000000000111111111111000000000000001111111100011111111110000111111100111111111111100001111111111111111100000000000000000000000000000000111001111111111111111111
100110000000000000000000001111111111111111111111111111111111111111111111111111110000000011111111111111100000000000001111111111111111111000001111111111111111111111100000111111111111111000000000000000000000000000000001110000111111111111111111
100111000000000000000000001111111111111111111111111111111111111111111111111111111000000111111111111111110000000000001111111111111111110000001111111111111111111111110000111111111111110000000000000000000000000000000011100000111111111111111011
100001100000000000000000001111111111111111111111111111111111111111111111001111110000001111111111111111111000000000000111111111111111110000011111111111111111111111110000011111111111110000000000000000000000000000000111000000011111111111110011
100000000000000000000000001111111111111111111111111111111111111111111110000111100000001111111110011111111100000000000111111111111111100000111111111111111111111111110000011111111111100000000000000000000000000000001110000000001111111111100011
100000000000000000000000000011111111111111111111111111111111111111111000000011000000000111111100001111111110000000000011001111111111100001111111111111111111111111111000011111111111000000000000000000000000000000011100000000000111111111000011
100000000000000000000000000001111111111111111111111111111111111111110000000000000000000011111000000111111111000000000000011111111111000011111110001111111101111111111000001111111110000000000000000000000000000000111000000000000011111100000011
101100000000000000000000000000111111111111111111111111111111111111000000000000000000000001110000000011111111100000000000111111111111000011111100000111111001111111111100001111111100000000000000000000000000000001111100000000000001111000000011
111111000000000000000000000001111111111111111111111111111111111110000000000000000000000000100000000001111111110000000011111111111110000011111000000011111001111111111100000111111000000000000000000000000000000011111110000000000000110000000111
111111100000000000000000000111111111111111111111111111111111111111000000000000000000000000000000000001111111111000011111111111100110000111110000000001111001111111111100000111110000000000000000000000000000000111111111000000000000000000001111
111000000000000000000000000111111111111111111111111111111111111111100000000000000000000000000000000011111111111101111111111111000000000111100000000001111001000111111110000111100000000000000000000000000000011111111111100000000000000000011111
110000000000000000000000000111111111111111111111111111111111111111110000000000000000000000000000000111111111111111111111111110000000001111000000000111111000000011111110000011000000000000000000000000000000111111100000100000000000000000111111
110000000000000000000000001111111111111111111111111111111111111111111000000000000000000000000000001111111111111111111111111100000000011100000000001111111000000000111110000000000000000000000000000000000000111111000000000000000000000001111111
110000000000000000000000001111111111111111111111111111111111111111111100000000000000000000000000011111111111111111111111110000000000011000000000111111111000000000111111000000000000000000000000000000000000111111100000000000000000000011111111
110000000000000000000000001111111111111111111111111111111111111111111110000000000000000000000000111111111111111111111111110000000000011000000001111111111000000001111011100000000000000000000000000000000001111111110000000000000000000111111111
110000000000000000000000001111111111111111111111111111111111111111111111000000000000000000000001111111111111111111111111100000000000000000000011111111000000000001110011100000000000000000000000000000000001111111100000000000000000001111111111
110000000000000000000000001111111111111111111111111111111111111111111111100000000000000000000011111111111111111111111111000000000000000000001111111111000000000000000000000000000000000000000000000000000001111111000000000000000000011111111111
110000000000000000000000001111111111111111111111111111111111111111111111110000000000000000001111111111111111111111111110000000011100000000011111111111100000000000000000000000000000000000000000000000000011111111100000000000000000111111111111
110000000000000000000000000111111111111111111111111111111111111111111111110000000000000000011111111111111111111111110000000000111100000000111111111111100000000000000000000000000000000000000000000000000011111111110000000111000001111111111111
110000000000000000000000000011111111111111111111111111111111111111111111111000000000000001111111111111111111111111110000000001111111000001111111111111100000000000000000000000000000000000000000000000000111111111110000001111100011111111111111
110000000000000000000000000001111111111111111111111111111111111111111111111100000000000011111111111111111111111111110000000011111111000011111111111111100000000000000000000000000000000000000000000000001111111111111000001111111111111111111111
110000000000000000000000000001111111111111111111111111111111111111111111111110000000001111111111111111111111111111110000000111111111101111111111111111000000000000000000000000000000000000000000000000011111111111111100001111111111111111111111
110000000000000000000000000001111111111111111111111111111111111111111111111111000000011111111111111111111111111111100000001111111111111111111111111110000000000000000000000000000000000000000000000000111111111111111111000111111111111111111111
110000000000000000000000000000011111111111111111111111111111111111111111111111100000111111111111111111111111111111000000011111111111111111111111111100000000000000000000000000000000000000000000000001111111111111111111000111111111111111111111
110000000000000000000000000000011111111111111111111111111111111111111111111111110001111111111111111111111111111100000000111111111111111111111111111000000000000000000000000000000000000000000000000011111111111111111111100011111111111111111111
110000000000000000000000000000111111111111111111111111111111111111111111111111111011111111111111111111111111111000000001111111111111111111111111110000000000000000000000000000000000000000000000000111111111111111111111100011111110001111110011
110000000000000000000000000000111111111111111111111111111111111111111111111111111111111111111111111111111111110000000111111111111111111111111111000000000000000000000000000000000000000000000000001111111111111111111111100001111100000111110011
111000000000000000000000000000111111111111111111111111111111111111111111111111111111111111111111111111111111100000001111111111111111111111111110000000000000000000000000000000000000000000000000011111111111111111111111110001111000000011100011
111100000000000000000000000000111111111111111111111111111111111111111111111111111111111111111111111111111111000000011111111111111111111111111100000000000000000000000000000000000000000000000000111111111111111111111111110000110000000000000011
111110000000000000000000000000111111111111111111111111111111111111111111111111111111111111111111111111111110000001111111111111111111111111111000000000000000000000000000000000000000000000000001111111111111111111111111111000100000000000000011
111110000000000000000000000000111111111111111111111111111111111111111111111111111111111111111111111111111000000011111111111111111111111111110000000000000000000000000000000000000000000000000011111111111111111111111111111000110000000000000011
111111000000000000000000000000111111111111111111111111111111111111111111111111111111111111111111111111110000000111111111111111111111111111110000000000000000000000000000000000000000000000000111111111111111111111111111111000011100000000000011
111111100000000000000000000000111110111111111111111111111111111111111111111111111111111111111111111111100000001111111111111111101111110111110000000000000000000000000000000000000000000000001111111111111111111111111111111100000111100000000011
111111100000000000000000000000111110001111111111111111111111111111111111111111111111111111111111111111000000111111111111111111000000000011100000000000000000000000000000000000000000000000111111111111111111111111111111111100000000111000000011
111111110000000000000000000000000000000111111111111111111111111111111111111111111111111111111111111100000001111111111111111111000000000000000000000000000000000000000000000000000000000001111111111111111111111111111111111100000000001100000011
111111111000000000000000000000000000000001111111111111111111111111111111111111111111111111111111111000000011111111111111111110000000000000000000000000000000000000000000000000000000000011111111111111111111111111111111111100000111100000000011
111111111100000000000000000000000000000001111111111111111111111111111111111111111111111111111111110000000111111111111111111100000000000000000000000000000000000000000000000000000000000111111111111111111111111111111111111110001111111000000011
111111111100000000000000000000000000000001111111111111111111111111111111111111111111111111111111100000011111111111111001111000000000000000000000000000000000000000000000000000000000001111111111111111111111111111111111111111011111111110000011
111111111110000000000000000000000000000001111111111111111111111111111111111111111111111111111111000000111111111111111001100000000000000000000000000000000000000000000000000000000000011111111111111111111111111111111111011111111111111111100011
111111111111000000000000000000000000000000111111111111111111111111111111111111111111111111111111000001111111111111111001100000000000000000000000000000000000000000000000000000000000011111111111111111111111111111111110001111111111111111110011
111111111111000000000000000000000000000000001110000111111111111111111111111111111111111111111110000011111111111111111001100000000000000000000000000000000000000000000000000000000000001111111111111111111111111111111100000111111111111111110011
111111111111100000000000000000000000000000000000001111111111111111111111111111111111111111111110000111111111111111111000000000000000000000000000000000000000000000000000000000000000000111111111111111111111111111111000000011111111100000000011
111111111111110000000000000000000000000000000000111111111111111111111111111111111111111111111100000111111111111111111000000000000000000000000000000000000000000000000000000000000000000011110111111111111111111111110000000000111111100000000011
111111111111111000000000000000000000000000000001111111111111111111111111111111111111111111111100001111111111111111111000000000000000000000000000000000000000111000000000000000000000000001100011111111111111111111100000000000001100000000000011
111111111111111100000000000000000000000000000001111111111111111111111111111111111111111111111000001111111111111111111000000000000000000000000000000000000011111110000000000000000000000000000001111111111111111111100000000000000000000000000011
111111111111111110000000000000000000000000000000100111111111111111111111111111111111111111111000011111111111111111000000000000000000000000000000000000000111111111100000000000000000000000000000111111111111111111110000000000000000000000000011
111111111111111111000000000000000000000000000000000111111111111111111111111111111111111111110000011111111111111110000000000000000000000000000000000000111111111111110000000000000000000000000000001111111111111111111000000000000000000000000011
111111111111111111000000000000000000000000000000000011111111111111111111111111111111111111100000111111111111111100000000000000000000000000000000000001111111111111111000000000000000000000000000001111111111111111111100000000000000000000000011
111111111111111111100000000000000000000000000000000001111111111111111111111111111111111111000000111111111111110000000000000000000000000000000000000011111111111111111100000000000000000000010000000111111111111111111111000000000000000000000011
111111111111111111110000000000000000000000000000000000000111111111111111111111111111111111000000111111111111100000000000000000000000000000000000000111111111111111111111000000000000000000111000001111111111111111111111100000000000000000000011
111111111111111111110000000000000000000000000000000000000011111111111111111111111111111111000000111111111111000000000000000000000000000000000000001111111111111111111111100000000000000001111100011111111111111111111111110000111000000000000011
111111111111111111111000000000000000000000000000000000000001111111111111111111111111111111100000111111111100000000000000000000000000000000000000111111111111111111111111110000000000000001111100011111111111111111111111111111111111111100000011
111111111111111111111100000000000000000000000000000000000000111111111111111111111111111111110000111111111000000000000000000000000000000000000001111111111111111111111111110000000000000001111110001111111111111111111111111111111111111111000011
111111111111111111111100000000000000000000000000000000000001111111111111111111111111111011111000011111110000000000000000000000000000000000000011111111111111111111111111111000000000000000111111000111111111111111111111111111111111111111110011
111111111111111111111110000000000000000000000000000000000011111111111111111111111111110001111000011111100000000000000000000000000000000000000111111111111111111111111111111100000000000000111111000011111111111111111111111111111111111111110011
111111111111111111111111000000000000000000000000000000000111111111111111111111111111110000111000001111000000000000000000000000000000000000001111111111111111111111111111111100000000000000011111000001111111111111111111111111111111111111100011
111111111111111111111111100000000000000000000000000000000111111111111111111111111111111000111100001110000000000000000000000000000000000000011111111111111111111111111111111110000000000000011111000000111111111111111111111111111111111111100011
111111111111111111111111100000000011100000000000000000000111111111111111111111111111111100011100000000000000000000000000000000000000000000111111111111111111111111111111110111000000000000011100000000111111111111111111111111111111111111100011
111111111111111111111111110000001111110000000000000000000011111111111111111111111111111110001110000000000000000000000000000000000000000001111111111111111111111111111111100111100000000000000000000000011111111011111111111111111111111111100011
111111111111111111111111111000111111111100000000000000000011111111111111111111111111111111000110000000000000000000000000000000000000000011111111111111111111111111111111100111100000000000000000000000000111110001111111111111111111111111100011
111111111111111111111111111101111111111100000000000000000001111111111111111111111111111111100000000000000000000000000000000000000000000111111111111111111111111111111111100111110000000000000000000000000000000001111111111111111111111111000011
111111111111111111111111111111111111111111100000000000000000111111111111111111111111111111110000000000000000000000000000000000000000001111111111111111111111111111111111100111110000000000000000000000000000000001111111111111111111111111000011
111111111111111111111111111111111111111111100000000000000000011111111111111111111111111111100000000000000000000000000000000000000000011111111111111111111111111111111111100001110000000000000000000000000000000001111111111111111111111111000011
111111111111111111111111111111111111111111100000000000000000001111111111111111111111111110000000000000000000000000000000000000000000111111111111111111111111111111111111100000111000000000000000000000000000000000111111111111111111111111000011
111111111111111111111111111111111111111111000000000000000000000111111111111111111111011110000000000000000000000000000000000000000001111111111111111111111111111111111111110000111000000000000000000000000000000000111111111111111111111111000011
111111111111111111111111111111111111111110000000000000000000000011111111111111111110011100000000000000000000000000000000000000000001111111111111111111111111111111111111111001111100000000000000000000000000000000001111111111111111111110000011
111111111111111111111111111111111111111100000000000000000000000001111111111111111100000000000000000000000000000000000000000000000011111111111111111111111111111111111111111111111100000000000000000000000000000000001111111111111111111110000011
111111111111111111111111111111111111111100000000000000000000000000111111111111111000000000000000000000000000000000000000000000000111111111111111111111111111111111111111111111111100000000000000000000000000000000001111111111111111111110000011
111111111111111111111111111111111111111100000000000000000000000000111111111111100000000000000000000000000000000000000000000000001111111111111111111111111111111111111111111111111100000000000000000000000000000000000001111111111111111110000011
111111111111111111111111111111111111111110000000000000000000000000011111111111000000000000000000000000000000000000000000000000011111111111111111111111111111111111111111111111111100000000000000000000000000000000000000000011111111111100000011
111111111111111111111111111111111111111111000000000000000000000000001111111110000000000000000000000000000000000000000000000001111111111111111111111111111111111111111111111111111100000000000000000000000000000000000000000000000011111100000011
111111111111111111111111111111111111111111000000000000000000000000000111111100000000000000000000000000000000000000000000000011111111111111111111111111111111111111111111111111111110000000000000000000000000000000000000000000000000000000000011
111111111111111111111111111111111111111111100000000000000000000000000011110000000000000000000000000000000000000000000000011111111111111111111111111111111111111111111111111111111110000000000000000000000000000000000000000000000000000000000011
111111111111111111111111111111111111111111110000000000000000000000000001100000000000000000000000000000000000000000000001111111111111111111111111111111111111111111111111111111111110000000000000000000000000000000000000000000000000000000000011
111111111111111111111111111111111111111111110000000000000000000000000000000000000000000000000000000000000000000000000111111111111111111111111111111111111111111111111111111111110000000000000000000000000000000000000000000000000000000000000011
111111111111111111111111111111111111111111111111111111111111111111111111111111111111111111111111111111111111111111111111111111111111111111111111111111111111111111111111111111111111111111111111111111111111111111111111111111111111111111111111
111111111111111111111111111111111111111111111111111111111111111111111111111111111111111111111111111111111111111111111111111111111111111111111111111111111111111111111111111111111111111111111111111111111111111111111111111111111111111111111111
