111111111111111111111111111111111111111111111111111111111111111111111111
111111111111111111111111111111111111111111111111111111111111111111111111
111111111111111111111111111111111111111111111111111111111111111111111111
111111111111111111111111111111111111111111111111111111111111111111111111
111111111111111111111111111111111111111111111111111111111111111111111111
111111111111111111111111111111111111111111111111111111111111111111111111
111111111111111111111111111111111111111111111111111111111111111111111111
111111111111111111111111111111111111111111111111111111111111111111111111
111111111111111111111111111111111111111111111111111111111111111111111111
111111111111111111111111111111111111111111111111111111111111111111111111
111111111111111111111111111111111111111111111111111111111111111111111111
111111111111111111111111111111111111111111111111111111111111111111111111
111111111111111111111111111111111111111111111111111111111111111111111111
111111111111111111111111111111111111111111111111111111111111111111111111
111111111111111111111111111111111111111111111111111111111111111111111111
111111111111111111111111111111111111111111111111111111111111111111111111
111111111111111111111111111111111111111111111111111111111111111111111111
111111111111111111111111111111111111111111111111111111111111111111111111
111111111111111111111111111111111111111111111111111111111111111111111111
111111111111111111111111111111111111111111111111111111111111111111111111
111111111111111111111111111111111111111111111111111111111111111111111111
111111111111111111111111111111111111111111111111111111111111111111111111
111111111111111111111111111111111111111111111111111111111111111111111111
111111111111111111111111111111111111111111111111111111111111111111111111
111111111111111111111111111111111111111111111110011111111111111111111111
111111111111111111111111111111111111111111111100001111111111111111111111
111111111111111111111111111111111111111111111000000111001111111111111111
111111111111111111111111111111111111111111100000000000000111111111111111
111111111111111111111111111111111111111111000000000000000011111111111111
111111111111111111111111111111111111111110000000000000000001111111111111
111111111111111111111111111111111111111100000000011110000000111111111111
111111111111111111111111111111111111111000000001111111000000011111111111
111111111111111111111111111111111111110000011111111111100000011111111111
111111111111111111111111111111111111100000111111111111111000001111111111
111111111111111111111111111111111111000001111111111111111000001111111111
111111111111111111111111111111111110000011111111111111111100001111111111
111111111111111111111111111111111100000111111111111111111100000111111111
111111111111111111111111111111111000001111111111111111111110000111011111
111111111111111111111111111111110000011111111111111111111110000011001111
111111111111111111111111111111100000111111111111111111111111000001001111
111111111111111111111111111111000000111111111111111111111111000000001111
111111111111111111111111111110000000110011111111111111111111000000001111
111111111111111111111111111100000001100001111111111111111111000000000111
111111111111111111111111111000000011100000111111111111111111000000000011
111111111111111111111111110000000111100000111111111111111100000000000011
111111111111111111111111100000001111000001111111111111111000000000000111
111111111111111111111111000000011111000001111111111111110000000000001111
111111111111111111111110000000111111000001111111111111100000000000011111
111111111111111111111100000001111110000011111111111111000000000000111111
111111111111111111111000000011111000001111111111111110000000000001111111
111111111111111111110000000111110000111111111111111100000000000011111111
111111111111111111100000001111100001111111111111111000000000000111111111
111111111111111111000000011111000011111111111111110000000000001111111111
111111111111111110000000111110000111111111111111100000000000011111111111
111111111111111000000001100000001111111111111111000000000000111111111111
111111111111110000000000000000011111111111111110000000000001111111111111
111111111111110000000000000000111111111111111100000000000011111111111111
111111111111111000000110000000111111111111111000000000000111111111111111
111111111111111100111111000001111111111111110000000000001111111111111111
111111111111111111111111100000011111111111100000000000011111111111111111
111111111111111111111111110000011111111111000000000000111111111111111111
111111111111111111111111111000011111111110000000000001111111111111111111
111111111111111111111111111100001111111000000000000011111111111111111111
111111111111111111111111111100001111110000000000000111111111111111111111
111111111111111111111111111110000111100000000000001111111111111111111111
111111111111111111111111111110000111000000000000011111111111111111111111
111111111111111111111111111110000110000000000000111111111111111111111111
111111111111111111111111111111000000000000000001111111111111111111111111
111111111111111111111111111111000000000000000011111111111111111111111111
111111111111111111111111111111100000000000000111111111111111111111111111
111111111111111111111111111111111000000000001111111111111111111111111111
111111111111111111111111111111111100000000011111111111111111111111111111
111111111111111111111111111111111110000000111111111111111111111111111111
111111111111111111111111111111111111000001111111111111111111111111111111
111111111111111111111111111111111111000011111111111111111111111111111111
111111111111111111111111111111111111111111111111111111111111111111111111
111111111111111111111111111111111111111111111111111111111111111111111111
111111111111111111111111111111111111111111111111111111111111111111111111
111111111111111111111111111111111111111111111111111111111111111111111111
111111111111111111111111111111111111111111111111111111111111111111111111
