111111111111111111111111111111111111111111111111111
111111111111111111111111111111111111111111111111111
111100000000000011110111000111101111000000000000111
111000000000000011100000000111001110000000000000111
110000000000000000000000000000000000000000000000011
110000000000000000000000000000000000000000000000011
110000000000000000000000000000000000000000000000011
110000000000000000000000000000000000000000000000011
110000000000000000000000011000000000000000000000011
110000000000000000000000111000000000000000000000011
110000000000000000000000111000000000000000000000011
110000000000000000000000000000000000000000000000011
110000000000000000000000000000000000000000000000011
110000000000000000000000000000000000000000000000011
110000000000000000000000000000000000000000000000011
110000000000000000000000000000000000000000000000011
111100000000000011110000000000001111000000000000111
111100000000000011110000000000001111000000000000111
111100000000000011110000000000001111000000000000111
111000000000000011100000000000001110000000000000111
111000000000000000000000000000000000000000000000011
111000000000000000000000000000000000000000000000011
111000000000000000000000000000000000000000000000011
111000000000000000000000000000000000000000000000011
110000000000000000000000000000000000000000000000011
110000000000000000000000000000000000000000000000011
110000000000000000000000000000000000000000000000011
111000000000000000000000000000000000000000000000011
111100000000000000000000000000000000000000000000011
111100000000000000000000000000000000000000000000011
111100000000000000000000000000000000000000000000011
110000000000000000000000000000000000000000000000011
111100000000000011110000000000001111000000000000111
111100000000000011110000000000001111000000000000111
111100000000000011110000000000001111000000000000111
111000000000000011100000000000001110000000000000111
110000000000000000000000000000000000000000000000011
110000000000000000000000000000000000000000000000011
110000000000000000000000000000000000000000000000011
110000000000000000000000000000000000000000000000011
110000000000000000000000000000000000000000000000011
110000000000000000000000000000000000000000000000011
110000000000000000000000000000000000000000000000011
110000000000000000000000000000000000000000000000011
110000000000000000000000000000000000000000000000011
110000000000000000000000000000000000000000000000011
110000000000000000000000000000000000000000000000011
110000000000000000000111000111000000000000000000011
111100000000000011110111100111101111000000000000111
111111111111111111111111111111111111111111111111111
111111111111111111111111111111111111111111111111111
