11111111111111111111111111111111111111111111111111111111111111111111111111111111111111111111111111111111111111111111111111111111111111111111111111111111111111111111111111111111111111111111111111111111111111111111111111111111111
11111111111000000000000000000000000000000000000000000000000000000000111111111111111111110000000000000000000000000000000000000000000000000111111111111111111111111111111111111111111111111111111111000000000000000000000000000000001
11111111111000000000000000000000000000000000000000000000000000000000000000000000000000000000000000000000000000000000000000000000000000000000000000000000000000000000000000000000000000000000000000000000000000000000000000000000001
11111111111000000000000000000000000000000000000000000000000000000000000000000000000000000000000000000000000000000000000000000000000000000000000000000000000000000000000000000000000000000000000000000000000000000000000000000000011
11111111111000000000000000000000000000000000000000000000000000000000000000000000000000000000000000000000000000000000000000000000000000000000000000000000000000000000000000000000000000000000000000000000000000000000000000000000011
11111111111000000000000000000000000000000000000000000000000000000000000000000000000000000000000000000000000000000000000000000000000000000000000000000000000000000000000000000000000000000000000000000000000000000000000000000000011
11111111110000000000000000000000000000000000000000000000000000000000000000000000000000000000000000000000000000000000000000000000000000000000000000000000000000000000000000000000000000000000000000000000000000000000000000000000011
11111111110000000000000000000000000000000000000000000000000000000000000000000000000000000000000000000000000000000000000000000000000000000000000000000000000000000000000000000000000000000000000000000000000000000000000000000000011
11111111110000000000000000000000000000000000000000000000000000000000000000000000000000000000000000000000000000000000000000000000000000000000000000000000000000000000000000000000000000000000000000000000000000000000000000000000011
11111111100000000000000000000000000000000000000000000000000000000000000000000000000000000000000000000000000000000000000000000000000000000000000000000000000000000000000000000000000000000000000000000000000000110000000000000000011
11111111100000000000000000000000000000000000000000000000000000000000000000000000000000000000000000000000000000000000000000000000000000000000000000000000000000000000000000000000000000000000000000000000000011111000000000000000011
11111111100000000000000000000000000000000000000000000000000000000000000000000000000000000000000000000000000000000000000000000000000000000000000000000000000000000000000000000000000000011110000000000000000011111000000000000000011
11111111100000000000000000000000000000000000000000000000000000000000000000000000000000000000000000000000000000000000000000000000000000000000000000000000000000000000000000000000000000111110000000000000000011111000000000000000111
11111111100000000000000000000000000000000000000000000000000000000000000000000011100000000000000000000000000000000000000000000000000000000000000000000000000000000000000000000000000000111110000000000000000001111000000000000000111
11111111100000000000000000000000000000000000000000000000000000000000000000000011100000000000000000000000000000000000000000000000000000000000000000000000000000000000000000000000000000111110000000000000000000000000000000000000111
11111111100000000000000000000000000000000000000000000000000000000000000000000000000000000000000000000000000000000000000000000000000000000000000000000000000000000000000000000000000000011100000000000000000000000000000000000000111
11111111100000000000000011110000000000000000000000000000000000000000000000000000000000000000000000000000000000000000000000000000000000000000000000000000000000000000000000000000000000000000000000000000000000000000000000000000111
11111111110000000000000011110000000000000000000000000000000000000000000000000000000000000000000000000000000000000000000000000000000000000000000000000000000000000000000000000000000000000000000000000000000000000000000000000000111
11111111110000000000000011110000000000000000000000000000000000000000000000000000000000000000000000000000000000000000000000000000000000000000000000000000000000000000000000000000000000000000000000000000000000000000000000000000111
11111111110000000000000001100000000000000000000000000000000000000000000000000000000000000000000000000000000000000000000000000000000000000000000000000000000000000000000000000110000000000000000000000000000000000000000000000001111
11111111110000000000000000000000000000000000000000000000000000000000000000000000000000000000000000000000000000000000000000000000000000000000000000000000000000000000000000000110000000000000000000000000000000000000000000000001111
11111111110000000000000000000000000000000000000000000000000000000000000000000000000000000000000000000000000000000000000000000000000000000000000000000000000000000000000000000000000000000000000000000000000000000000000000000001111
11111111111111000000000000000000000000000000000000000000000000000000000000000000000000000000000000000000000000000000000000000000000000000000000000000000000000000000000000000000000000000000000000000000000000000000000000000001111
11111111111111100000000000000000000000000000000000000000000000000000000000000000000000000000000000000000000000000000000000000000000000000000000000000000000000000000000000000000000000000000000000000000000000000000000000000001111
11111111111111100000000000000000000000000000000000000000000000000000000000000000000000000000000000000000000000000000000000000000000000000000000000000000000000000000000000000000000000000000000000000000000000000000000000000001111
11111111111111000000000000000000000000000000000000000000000000000000000000000000000000000000000000000000000000000110000000000000000000000000000000000000000000000000000000000000000000001111000000000000000000000000000000000001111
11111111111111100000000000000000000000000000000000000000000000000000000000000000000000000000000000000000000000001111000000000000000000000000000000000000000000000000000000000000000000001111000000000000000000000000000000000001111
11111111111111110000000000000000000000000000000000000000000000000000000000000000000000000000000000000000000000001111000000000000000000000000000000000000000000000000000000000000000000001111000000000000000000000000000000000001111
11111111111111110000000000000000000000000000000000000000000000000000000000000000000000000000000000000000000000001111000000000000000000000000000000000000000000000000000000000000000000001111000000000000000000000000000000000001111
11111111111111110000000000000000000000000000000000000000000000000000000000000000000000000000000000000000000000000000000000000000000000000000000000000000000000000000000000000000000000000000000000000000000000000000000000000011111
11111111111111110000000000000000000000000000000000000000000000000000000000000000000000000000000000000000000000000000000000000000000000000000000000000000000000000000000000000110000000000000000000000000000000000000000000000011111
11111111111111110000000000000000000000000000000000000000000000000000000000000000000000000000000000000000000000000000000000000000000000000000000000000000000000000011000000000110000000000000000000000000000000000000000000000011111
11111111111111110000000000000000000000000000000000000000000000000000000000000000000001100000000000000000000000000000000000000000000000000000000000000000000000000011000000000000000000000000000000000000000000000000000000000011111
11111111111111111000000000000000000000000000000000000000000000000000000000000000000011100000000000000000000000000000000000000000000000000000000000000000000000000000000000000000000000000000000000000000000000000000000000000011111
11111111111111111100000000000000000000000000000000000000000000000000000000000000000001100000000000000000000000000000000000000000000000000000000000000000000000000000000000000000000000000000000000000000000000000000000000000011111
11111111111111111110000000000000000000000000000000000000011110000000000000000000000000000000000011000000000000000000000000000000000000000000000000000000000000000000000000000000000000000000000000000000000000000000000000000011111
11111111111111111111000000000000000000000000000000000000001111000000000000000000000000000000000011000000000000000000000000000000000000000000000000000000000000000000000000000000000000000000000000000000000110000000000000000011111
11111111111110011111100000000000000000000000000000000000001011100000000000000000000000000000000000000000000000000000000000000000000000000000000000000000000000000000000000000000000000000000000000000000000110000000000000000011111
11111111111110001111100000000000000000000000000000000000000011110000000000000000000000000000000000000000000000000000000000000000000000000000000000000000000000000000000000000000000000000000000000000000000111000000000000000011111
11111111111110000011111000000000000000000000000000000000000011111000000000000000000000000000000000000000000000000000000000000000000000000000000000000000000000000000000000000000000000000000000000000000000000000000000000000011111
11111111111110000011111000000000000000010000000000000000000001111000000000000000000000000000000000000000000000000000000000000000000000000000000000000000000000000000000000000000000000000000000000000000000000000000000000000011111
11111111111100000111111000000000000000010000000000000000000000100000000000000000000000000000000000000000000000000000000000000000000000000000000000000000000000000000000000000000000000000000000000000000000000000110000000000011111
11111111111100000111111000000000000000011000000000000000000000000000000000000000000000000000000000000000000000000000000000000000000000000000000000000000000000000000000000000000000000000000000000000000000000001110000000000011111
11111111111000000111111000000000000000001000000000000000000000000000000000000000000000000000000000000000000000000000000000000000000000000000000000000000000000000000000000000000000000000000000000000000000000000110000000000011111
11111111111000001110111100000000000000001000000000000000000000000000000000000000000000000000000000000000000000000000000000000000000000000000000000000000000000000000000000000000000000000000000000000000000000000000000000000011111
11111111111000001000111110000000000000001100000000000000000000000000000000000000000000000000000000000000000000000000000000000000000000000000000000000000000000000000000000000000000000000000000000000000000000000000000000000011111
11111111111000000000000110100000000000000100000000000000000000000000000000000000000000000000000000000000000000000000011100000000000000011000000000000000000000000000000000000000000000000000000000000000000000000000000000000011111
11111111111000000000000010110000000000000100000000000000000000000000000000000000000000000000000000000000000000000000011100000000000000011000000000000000000000000000000000000000000000000000000000000000000000000000000000000011111
11111111111000000000000000010000000000000111000000000000000000000000000000000000000000000000000000000000000000000000000000000000000000000001111000000000000000000000000000000000000000000000000000000000000000000000000000000011111
11111111111000000000000000001000000000000011100000000000000000000000000000000000000000000000000000000000000000000000001110000000000000000001111000000000000000000000000000000000000000000000000000000000000000000000000000000011111
11111111111000000000000000001100000000001111110000000000000000000000000000000000000010000000000000000000000000000000001110000000011000000001111000000000000000000000000000000000000000000000000000000000000000000000000000000011111
11111111111000000000000000000000000000011001111000000000000000000000000000000000000110000001111100000000000000000000000000000000011000000000110000000000000000000000000000000000000000000000000000000000000000000000000000000011111
11111111111000000000000000000000000000110001111000000000000000000000100000000000000000000001100000000000000000000000000000000000000000000000000000000000000000000000000000000000000000000000000000000000000000000000000000000001111
11111111110000000000000000100000000011100000111000000000000000000000100000000000000000000000000000000000000000000000000000000000000000000000000001100000000000000000000000000000000000000000000000000000000000000000000000000001111
11111111110000000000000000010011100110000000011100000000000000000000100000000000000000000000000000000000000000000000000000000000000000000000000001100000000000000000000000000000000000000000000000000000000000000000000000000001111
11111111110001000000000000000001111110000000000111100011100000000000100000001010000000000000000000000000000000000000000000000000000000000000000000000000000000000000000000000000000000000000000000000000000000000000000000000001111
11111111110000000000000000000000111011000000000000111110000000000000011100011111100000000000000000000000000000000000000000000000000000000000000000000000000000000000000000000000000000000000000000000000000000000000000011000001111
11111111100000000000000000000000000001100000000000000011111111111111000111111111100010000000000000000000000000000000000000000000000000000000000000000000000000000000000000000000000000000000000000000000000000000000000011000001111
11111111100001000000000000000000000000110000000000000000000000000001111111111111110011000000000000000000000000000000000000000000000000000000000000000000000000000000000000000000000000000000000000000000000000000000000011000001111
11111111100000000000000000000000000000010000000000000000000000000000000000000001111111000000000000000000000000000000000000000000000000000000000000000000000000000000000000000000000000000000000000000000000000000000000000000000111
11111111100000000000000000000000000000010000000000000000000000000100000000000000111111000000000000000000000000110000000000000000000000000000000000000000000000000000000000000000000000000000000000000000000000000000000000000000111
11111111100000000000000000000000000001110000000000000000000000000100000000000000001111100000000110000000000000111000000000000000000000000000000000000000000000000000000000000001111110000000000000000000000000000000000000000000111
11111111101000000000000000000000000001110000000000000000000000000000000000000000000111110011110111100000000001011000000000000000000000000000000000000000000000000000000000000000111100000000000000000000000000000000000000000000111
11111111111000000000000000000000000000110000000000000000000000000000000000000000000001111011111111111000000000001100000000010000000000000000000000000000000000000000000000000000011000000000000000000000000000000000000000000000111
11111111111100000000000000000000000000100000000000000000000000000000000000000000000000111000000111111110000000011110000000010000000000000000000000000000000000000000000000000000001111111000000000000000000000000000000000000000011
11111111111000000000000000000000000000100000000000000000000000000000000000000000000000001111111111111111000000111111100000001100000000000000011000001100000000000000000000000000000111111000000000000000000000000000000000000000011
11111111101100000000000000000000000001100000000000000000000000000000000000000000000000000000000000000111100111111111110111101111000000000011111111111111000000000000000000000000000011110000000000000000000000000000000000000000011
11111111101100000000000000000000000111000000000000000000000000000000000000000000000000000000000000000000001111111111111111101111110000011111000011111111100000000010000000000000000001111000000000000000000000000000000000000000011
11111111100100000000000000000100000111000000000000000000000000000000000000000000000000000000000000000000000000100000000111000000011110011000001110011111110000000111100000000000000000111001000000000000000000000000000000000000011
11111111100100000000000000000111000101100000000000000000000000000000000000000000000000000000000000000000000000100000000001100000000000000000000000000011111000000111100000000000000000011010000000000000000000000000000000000000011
11111111100000000000000000001110000000111000000000000000000000000000000000000000000000000000000000000000000000000000000000110000000000000000000000000011111100000011000000000000000000001000000000000000000000000000000000000000011
11111111100000000000000000001101000000001100000000000000000000000000000000000000000000000000000000000000000000000000000000011000000000000000011000000000110000000000000000000000000000001100000000000000000000000000000000000000011
11111111100000000000000000001000100000000110000000000000000000000000000000000000000000000000000000000000000000000000000000001110000000000000011000000000000000000000000000000000000000001111000000000000000000000000000000000000011
11111111100000000000000000000000100000000011100000000000000000000000000000000000000000000000000000000000000000000000000000000011000000000000000000000000000000000000000000000000000000001111000000000000000000000000000000000000011
11111111100000000000000000000000001000000011111000000000000000000000000000000000000000000000000000000000000000000000000000000001100000000000000000000000000000000000000000000000000000001111100000000000000000000000000000000000011
11111111100000000000000000000000001000000000001110000000000000000000000000000000000000000000000000000000000000000000000000000000110000000000000000000000000000000000000000000000000000001111110000000000000000000000000000000000011
11111111100000000000000000001000011100000000000110000000000000000000000000000000000000000000000000000000000000000000000000000000011000000000000000000000000000000000000000000000000000000110110000000000000000000000000000000000011
11111111100000000000000000001111001110000000000011000000000000000000000000000000000000000000000000000000000000000000000000000000001100000000000000000000000100000000000000000000000000000010000000000000000000000000000000000000011
11111111100000000000000000001111001111000000000001000000000000000000000000000000000000000000000000000000000000000000000000000000000111111100000000001100000100000000000000000000000000000000000000000000001110000000000000000000001
11111111100000000000000000000110101111100000000001100000000000000000000000000000000000000000000000000000000000000000000000000000000000000100000000000000010000000000000000000000000000000000110000000000001110000000000000000000001
11111111100000000000000000000010011110000000100000100000000000000000000000000000000000000000000000000000000000000000000000000000000000000110000000000000011000000000000000000000000000000000010000000000000000000000000000000000001
11111111100000000000000000000000001111000001000000111000000000000000000000000000000000000000000000000000000000000000000000000000000000000010000000000000011000000000000000000000000000000000000000000000000000000000000000000000001
11111111100000000000000000000000001111000000001000001110000000000000000000000000000000000000000000000000000000000000000000000000000000000010000000000000010000000000000000000000000000000000000001000000000000000000000000000000001
11111111100000000000000000000000001111110001111100000011100011000000000000000000000000000000000000000000000000000000000000000000000000000010010000000000011000000000000000000000000000000000000000000000000000000000000000000000001
11111111100000000000000000000000001110111100111111000001111111100000000000000000000000000000000000000000000000000000000000000000000000000011000000000000011000000000000000000000000000000000000000000000000000000000000000000000001
11111111100000000000000000000000000000000000001111100001100000111000000000000000000000000000000000000000000000000000000000000000000000000011100000000000011000000000000000000000000000000000000000000000000000000000000000000000001
11111111110000000000000000000000000000000000000011100000000000001100000000000000000000000000000000000000000000000000000000000000000000000011000000011000001000000000000000000000000000000000000000000000000000000000000000000000001
11111111110000000000000000000000000000000000000001110000000000000111000000000000000000000000000000000000000000000000000000000000000000000011000000011000000000000000000000000000000000000000000000000000000000000000000000000000001
11111111110000000000000000000000000000000000000000011110000000000011110000000000000000000000000000000000000000000000000000000000000000000011000000000000000000000000000000000000000000000000000000000000000000000000000000000000001
11111111111000000000000000000000000000000000000000000000000000000000011110000000000000000000000000000000000000000000000000000000000000000011000000000000000000000000000000000000000000000000000000000000000000000001110000000000001
11111111111110000000000000000000000000000000000000000000000000000000000111000000000000000000000000000000000000000000000000000000000000000001100000000000000010000000000000000000000000000000000000000000000000000001111000000000001
11111111111110000000000000000000000000000000000000000000000000000000000001100000000000000000000000000000000000000011000000000000000000000001110000000000000011000000000000000000000000000000000000000000000000000001110000000000001
11111111111110000000000000000000000000000000000000000000000000000000000000110000000000000000000000000000000000011111111000000000000000000001111000000000000011000000000000000000000000000000000000000000000000000000110000000000001
11111111111110000000000000000000000000000000000000000000000000000000001000010000000000000000000000000000000000011111111110000000000000000001111110000000000001100000000000000000000000000000000000000000000000000000000000000000001
11111111111100000000000000000000000000000000000000000000000000000000001000011000000000000010000000000011111111111111111111100000000000000001111111100000000000110000000000000000000000000000000000000000000000000000000000000000001
11111111111100000000000000000000000000000000000000000000000000000000000000001111111111111111110000011111111111111111111111111000000000000000111111100000000000111000000000000000000000000000000000000000000000000000000000000000001
11111111111100000000000000000000000000000000000000000000000000000000000000000000000000000000011111111111111111111111111111111000000000000000011111100000000000111000000000000000000000000000000000000000000000000000000000000000001
11111111111111111100000000000000001000111101100000000000000000000000000001111000001100011111111111111111111111111111111111111100000000000000001111000000000000011100000000000000000000000000000000000000000000000000000000000000001
11111111111111111110000000000000111111111111000000000000000111111111110111111111111111111111111111111111111111111111111111111100000000000000000001110000000000001111100000000000000000000000000000000000000000000000000000000000001
11111111111111111111000000000011111111011111100000000000011111111111111111111111111111111111111111111000000011111111111111111100000000000000000000011100000000000111110000000000000000000000000000000000000000000000000000000000001
11111111111111111111100000011111111110011111100000000000111111111111111111110000000000000000000000000000000000011111111111111000000000000000000000000110000000000111110100000000000000000000000000000000000000000000000000000000001
11111111111000111111111101111001111000011111100000000010111111111111100000000000000000000000000000000000000000000001111111110000000000000000000000000011000000000010000000000000000000000000000000000000000000000000000000000000001
11111111111000111111001001111100000000011111000000000110111111110000000000000000000000000000000000000000000000000000000000000000000000000000000000000001000000000001000000000000000000000000000000000000000000000000000000000000001
11111111111000111000000011111110000000001110000000000111111111000000000000000000000000000000000000000000000000000000000000000000000000000000000000000001100000000001100000000000000000000000000000000000000000000000000000000000001
11111111111000000000000000011110000000000000000000011111111110000000000000000000000000000000000000000000000000000000000000000000000000000000000000000000110000000000000000000000000000000000000000000000000000000000000000000000001
11111111111100000000000000000110000000000000000000111111111000000000000000000000000000000000000000000000000000000000000000000000000000000000000000000000010000000000000000000000000000000000000000000000000000000000000000000000001
11111111111100000000000000000111110000000000000000111111100000000000000000000000000000000000000000000000000000000000000000000000000000000000000000000000011000000000000000000000000000000000000000000000000000000110000000000000001
11111111111111000000000000000011111000000000000000111111000000000000000000000000000000000000000000000000000000000000000000000000000000000000000000000000001100000000100000000000000000000000000000000000000000000111000000000000001
11111111111111000000000000000000001100000000000001111111000000000000000000000000000000000000000000000000000000000000000000000000000000000000000000000000000100000001100000000000000000000000000000000000000000000110000000000000001
11111111111111000000000000000000000100000000000001111110000000000000000000000000000000000000000000000000000000000000000000000000000000000000000000000000000100000001100000000000000000000000000000000000000000000000000000000000001
11111111111111100000000000000000000000000000000001111100000000000000000000000000000000000000000000000000000000000000000000000000000000000000000000000000000100000000010000000000000000000000000000000000000000000000000000000000001
11111111111111100000000000000000000000000000000011111000000000000000000000000000000000000000000000000000000000000000000000000000000000000000000000000000000100000000010000000000000000000000000000000000000000000000000000000000001
11111111111111110000000000000000000000000000000011110000000000000000000000000000000000000000000000000000000000000000000000000000000000000000000000000000000110000000011000000000000000000000000000000000000000000000000000000000001
11111111111111110000000000000000000000000000001011110000000000000000000000000000000000000000000000000000000000000000000000000000000000000000000000000000000010000000011000000000000000000000000000000000000000000000000000000000001
11111111111111111000000000000000000000000000001111100000000000000000000000000000000000000000000000000000000000000000000000000000000000000000000000000000000010000000011000000000000000000000000000000000000000000000000000000000001
11111111111111111000000000000000000000000000000011000000000000000000000000000000000000000000000000000000000000000000000000000000000000000000000000000000000010000000010000000000000000000000000000000000000000000000000000000000001
11111111111111111100000000000000000000000000000110000000000000000000000000000000000000000000000000000000000000000000000000000000000000000000000000000000000010000000010000000000000000000000000000000000000000000000000000000000001
11111111111111111100000000000000000000000000000100000000000000000000000000000000000000000000000000000000000000000000000000000000000000000000000000000000000010000000001110000000000000000000000000000000000000001111000000000000001
11111111111111111100000000000000000000000000001100000000000000000000000000000000000000000000000000000000000000000000000000000000000000000000000000000000000010000000001110000000000000000000000000000000000000001111000000000000001
11111111111111111110000000000000000000000000111000000000000000000000000000000000000000000000000000000000000000000000000000000000000000000000000000000000000010000000001110000000000000000000000000000000000000001111000000000000001
11111111111111111111000000000000000000000001100000000000000000000000000000000000000000000000000000000000000000000000000000000000000000000000000000000000000010000000001110000000000000000000000000000000000000001110000000000000001
11111111111111111111000000000000000000000011000000000000000000000000000000000000000000000000000000000000000000000000000000000000000000000000000000000000000010000000001111000000000000000000000000000000000000000000000000000000001
11111111111111111111100000000000000000001110000000000000000000000000000000000000000000000000000000000000000000000000000000000000000000000000000000000000000010000000000111100000000000000000000000000000000000000000000000000000001
11111111111111111111100000000000000000011000000000000000000000000000000000000000000000000000000000000000000000000000000000000000000000000000000000000000000010000000000011110000000000000000000000000000000000000000000000000000001
11111111111111111111110000110000001001110000000000000000000000000000000000000000000000000000000000000000000000000000000000000000000000000000000000000000000010000000000001110100000000000000000000000000000000000000000000000000001
11111111111111111111110000011100001111000000000000000000000000000000000000000000000000000000000000000000000000000000000000000000000000000000000000000000000010000000000000110000000000000000000000000000000000000000000000000000001
11111111111111111111110000000111111110000000000000000000000000000000000000000000000000000000000000000000000000000000000000000000000000000000000000000000000010000000000000010000000000000000000000000000000000000000000000000000001
11111111111111111111110000000001111100000000000000000000000000000000000000000000000000000000000000000000000000000000000000000000000000000000000000000000000110000000000000000000000000000000000000000000000000000000000000000000001
11111111111111111111111000000000111100000000000000000000000000000000000000000000000000000000000000000000000000000000000000000000000000000000000000000000000110000000000000000000000000000000000000000000000000000000000000000000001
11111111111111111111111000000000001100000000000000000000000000000000000000000000000000000000000000000000000000000000000000000000000000000000000000000000000010000000000000000000000000000000000000000000000000000000000000000000001
11111111111111111111111000000000000110000000000000000000000000000000000000000000000000000000000000000000000000000000000000000000000000000000000000000000000010000000000000000000000000000000000000000000000000000000000000000000001
11111111111111111111111000000000000110000000000000000000000000000000000000000000000000000000000000000000000000000000000000000000000000000000000000000000000010000100000000000000000000000000000000000000000000000000000000000000001
11111111111111111111111000000000000011000000000000000000000000000000000000000000000000000000000000000000000000000000000000000000000000000000000000000000000110001100000000000000000000000000000000000000000000000000000000000000001
11111111111111111111111000000000000001000000000000000000000000000000000000000000000000000000000000000000000000000000000000000000000000000000000000000000000100111100000000000000000000000000000000000000000000000000000000000000001
11111111111111111111111000000000000001000000000000000000000000000000000000000000000000000000000000000000000000000000000000000000000000000000000011000000001101111100000000000000000000000000000000000000000000000000000000000000001
11111111111111111111111000000000000001100000000000000000000000000000000000000000000000000000000000000000000000000000000000000000000000000000000011000000001011000000000000000000000000000000000000000000000000000000000000000000001
11111111111111111111110000000000000000100000000000000000000000000000000000000000000000000000000000000000000000000000000000000000000000000000000000000000011011011000000000000000000000000000000000000000000000000000000000000000001
11111111111111111111110000000000000000110000000000000000000000000000000000000000000000000000000000000000000000000000000000000000000000000000000000000000010011110000000000000000000000000000000000000000000000000000000000000000001
11111111111111111111110000000000000000010000000000000000000000000000000000000000000000000000000000000000000000000000000000000000000000000000000000000000010011000000000000000000000000000000000000000000000000000000000000000000001
11111111111111111111110000000000000000010000000000000000000000000000000000000000000000000000000000000000000000000000000000000000000000000000000000000000010011000000000000000000000000000000000000000000000000000000000000000000001
11111111111111111111110000000000000000010000000000000000000000000000000000000000000000000000000000000000000000000000000000000000000000000000000000000000010011000000000000000000000000000000000000000000000000000000000000000000001
11111111111111111111110000000000000000011000000000000000000000000000000000000000000000000000000000000000000000000000000000000000000000000000000000000000010011000000000000000000000000000000000000000000000000000000000000000000001
11111111111111111111110000000000000000011000000000000000000000000000000000000000000000000000000000000000000000000000000000000000000000000000000000000000010011000010000000000000000000000000000000000000000000000000000000000000001
11111111111111111111111000000000000000011000000000000000000000000000000000000000000000000000000000000000000000000000000000000000000000000000000000000000011011000000000000000000000000000000000000000000000000000000000000000000001
11111111111111111111111000000000000000011111000000000000000000000000000000000000000000000000000000000000000000000000000000000000000000000000000000000010001011000000000000000100000000000000000000111000000000000000000000000000001
11111111111111111111111000000000000000001111111000000000000000000000000000000000000000000000000000000000000000000000000000000000000000000000000000000111001001000000000000000100000000000000000000111100000000000000000000000000001
11111111111111111111111100000000000000001100001100000000000000000000000000000000000000000000000000000000000000000000000000000000000000000000000000000110001001100000000000000000000000000000000000111100000000000000000000000000001
11111111111111111111111100000000000000000100000110000000000000000000000000000000000000000000000000000000000000000000000000000000000000000000000000000000001101110000000000000000000000000000000000111100000000000000000000000000001
11111111111111111111111100000000000000000000000011100000000000000000000000000000000000000000000000000000000000000000000000000000000000000000000000000000000101111100000000000000000000000000000000000000000000000000000000000000001
11111111111111111111111100000000000000000000000000110000000000000000000000000000000000000000000000000000000000000000000000000000000000000000000000000000000100111100000000000000000000000000000000000000000000000000000000000000001
11111111111111111111111000000000000000000000000000011000000000000000000000000000000000000000000000000000000000000000000000000000000000000000000000000000000110001100000000000000000000000000000000000000000000000000000000000000001
11111111111111111111111000000000000000000000000000001100000000000000000000000000000000000000000000000000000000000000000000000000000000000000000000000000000010000111100000000000000000000000000000000000000000000000000000000000001
11111111111111111111110000000000000000000000000000000110000000000000000000000000000000000000000000000000000000000000000000000000000000000000000000000000000011000111000000000000000000000000000000000000110000000000000000000000001
11111111111111111111110000000000000000000000000000000011000000000000000000000000000000000000000000000000000000000000000000000000000000000000000000000000000001000111000000000000000000000000000000000001110000000000000000000000001
11111111111111111111110000000000000000000000000000000000110000000000000000000000000000000000000000000000000000000000000000000000000000000000000000000000000001000001000000000000110000000000000000000000000000000000000000000000001
11111111111111111111110000000000000000000000000000000000011000000000000000000000000000000000000000000000000000000000000000000000000000000000000000000000000001100001000000000000000000000000000000000000000000000000000000000000001
11111111111111111111110000000000000000000000000000000000001100110000000000000000000000000000000000000000000000000000000000000000000000000000000000000000000000100001000000000000000000000000000000000000000000000000000000000000001
11111111111111111111100000000000000000000000000000000000000111110000000000000000000000000000000000000000000000000000000000000000000000000000000000000000000000110001000000000000000000000000000011000000000000000000000000000000001
11111111111111111111100000000000000000000000000000000000000001100000000000000000000000000000000000000000000000000000000000000000000000000000000000000000110000010001010000000000000000000000000000000000000000000000000000000000001
11111111111111111111100000000000000000001110000000000000000000110000000000000000000000000000000000000000000000000000000000000000000000000000000000000000000000110001000000000000000000000000000000000000000000000000000000000000001
11111111111111111111000000000000000000001111000000000000000000010000000000000000000000000000000000000000000000000000000000000000000000000000000000000000000000100011000000000000000000000000000000000000000000000000000000000000001
11111111111111111111000000000000000000001110000000000000000000001000000000000000000000000000000000000000000000000000000000000000000000000000000000000011100001100111000000000000000000000000000000000000000000000000000000000000001
11111111111111111110000000000000000000000000000000000000000000001100000000000000000000000000000000000000000000000000000000000000000000000000000000000011100011001111000000000000000000000000000000000001100000000000000000000000001
11111111111111111110000000000000000000000000000000000000000000000110000000000000000000000000000000000000000000000000000000000000000000000000000000000001100010011110000000000000000000000000000000000001100000000000000000000000001
11111111111111111110000000000000000000000000000000000000000000000011100000000000000000000000000000000000000000000000000000000000000000000000000000000000001110001100000000000000000000000000000000000001100000000000000000000000001
11111111111111111100000000000000000000000000000000000000000000000000011100000000000000000000000000000000000000000000000000000000000000000000000000000001111000001000000000000000000000000000000000000000000000000000000000000000001
11111111111111111100000000000000000000000000000000000000000000000000000111000000000000000000000000000000000000000000000000000000000000000000000000001111000000000000000000000000000000000000000000000000000000000000000000000000001
11111111111111111000000000000000000000000000000000000000000000000000000001100000000000000000000000000000000000000000000000000000000000000000000001111000000000001000000000000000000000000000000000000000000000000000011100000000001
11111111111111111000000000000000000000000000000000000000000000000000000000100000000000000000000000000000000000000000000000000000000000000001111111000000000000000110000000000000000000000000000000000001110000000000011110000000001
11111111111111110000000000000000000000000000000000000000000000000000000000100000000000000000000000000000001111111111000000000000000011111111000000000000000000000111000000000000000000000000000000000011110000000000011110000000001
11111111111111110000000000000000000000000000000000000000000000000000000000110000000000000000000000000000000100000000111111111111111110000000000000000000000000000110100000000000000000000000000000000011110000000000011100000000001
11111111111111100000000000000000000000000000000000000000000000000000000000010000000000000000000000000000000010000000000000000000000000011111111111111111111000000010111000000000000000000000000000000011110000000000000000000000001
11111111111111100000000000000000000000000000000000000000000000000000000000010000000000000000000000000000000011111111000000000000000000011111111111111111111100000000011000000000000000000000000000000000000000000000000000000000001
11111111111111000000000000000000000000000000000000000000000000000000000000010000000000000000000000000000000000000001111111000000000000011111100000000000000001000010000000000000000000000000000000000000000000000000000000000000001
11111111111110000000000000000000000000000000000000000000000000000000000000010000000000000000000000000000000000000000000001111111111111111111100000000000000000100011100000000000000000000000000000000000000000000000000000000000001
11111111111100000000000000000000000000000000000000000000000000000000000000010000000000000000000000000000000000000000000000000000000000011111000000000000000000000001100000000000000000000000000000000000000000000000000000000000001
11111111111000001000000000000000000000000000011000000000000000000000000000010000000000000000000000000000000000000000000000000000000000011111000000100000000000000001000010000000000000000000000000000000000000000000000000000000001
11111111100000000000000000000000000000000000011000000000000000000000000000010000000000000000000000000000000000000000000000000000000000000010000001000000000000000000000000000000000000000000000000000000000000000000000000000000001
11111110000000000000000000000000000000000000000000000000000000000000000000011000000000000000000000000000000000000000000000000000000000000010000000000000000000000000000000000000000000000000000000000000000000000000000000000000001
11110000100011000000000000000000000000000000000000000000000000000000000000001000000000000000000000000000000000000000000000000000000000000110000000000000000000000000000000000000000000000000000000000000000000000000000000000000001
10000000001110000000000000000000000000000000000000000000000000000000000000001000000000000000000000000000000000000000000000000000000000000100000000000000000000000000000000000000000000000000000000000000000000000000000000000000001
11111111111100000000000000000000000000000000000000000000000000000000000000001111000000000000000000000000000000000000000000000000000000000100000000000000000000000000000000000000000000000000000000000000000000000000000000000000001
11111111111000000000000000000000000000000000000000000000000001000000000000000111000000000000000000000000000000000000000000000000000000001100000000000000000000000000000000000000000000000111110000000000000000000000000000000000001
11111111100000000000000000000000000000000000000000000000000000010000000000000011000000000000000000000000000000000000000000000000000000001000000000000000000000000000000000000000000000000111111000000000000000000000000000000000001
11110000000000000000000000000000000000000000000000000000000000000000000000000001100000000000000000000000000000000000000000000000000000001000000000000000000000000000000000000000000000000111111000000000000000000000000000000000001
11110000000000000000000000000000000000000000000000000000000000000000000000000000100000000000000000000000000000000000000000000000000000001000000000000000000000000000000000000000000000000111111100000000000000000000000000000000001
11110000000000000000000000000000000000000000000000000000000000011111100000000000110000000000000000000000000000000000000000000000000000011000000000110000000000000000000000000000000000000111111100000000000000000000000000000000001
11111000000000000000000000000000000000000000000000000000000000011111100000000000011000000000000000000000000000000000000000000000000000010000000001111000000000000000000000000000000000000011111000000000000000000000111000000000001
11111000000000000000000000000000000000000000000000000000000000011111110000000000001100000000000000000000000000000000000000000000000000010000000001111001100000000000000000000000000000000000010000000000000000000000111000000000001
11111000000000000000000000000000000000000000000000000000000000001111110000000000000110000000000000000000000000000000000000000000000000010000000001110001000000000000000000000000000000000000000000000000000000000000111000000000001
11111000000000000000000000000000000000000001000000000000000000000111100000000000000010000000000000000000000000000000000000000000000000110000000000000000000000000000000000000000000000000000000000000000000000000000111000000000001
11111100000000000000000000000000000000000000000000000000000000000000000000000000000011000000000000000000000000000000000000000000000000100000000000000000000000000000000000000000000000000000000000000000000000000000000000000000001
11111100000000000000000000000000000000000000000000000000000000000000000000000000000001100000000000000000000000000000000000000000000000100000000000000000000000000000000000000000000000000000000000000000000000000000000000000000001
11111100000000000000000000000000000000000000000000000000000000000000000000000000000000110000000000000000000000000000000000000000000000100000000000000000000000000000000000000000000000010000000000000000000000000000000000000000001
11111100000000000000000000000000000000000000000000000000000000000000000000000000000000011000000000000000000000000000000000000000000000100000000000000000000000000000000000000000000000110000000000000000000000000000000000000000001
11111100000000000000000000000000000000000000000000000000000000000000000000000000000000001110000000000000000000000000000000000000000000100000000000000000000000000000000000000000000001100000000000000000000000000000000000000000001
11111100000000000000000000000000000000000000000000000000000000000000000000000000000000000011000000000000000000000000000000000000000000100000000000000000000000000000000000000000000111100000000000000000000000000000000000000000001
11111110000000000000000000000000000000000000000000000000000000000000000000000000000000000001111000000000000000000000000000000000000000100000000001001110000000000000000000000000000111100000000000000000000000000000000000000000001
11111110000000000000000000000000000000000000000000000000000000000000000000000000000000000000001100000000000000000000000000000000000000100000000001111000000000000000000000000000001100000000000000000000000000000000000000000000001
11111110000000000000000000000000000000000000000000000000000000000000000000100000000000000000000110000000000000000000000000000000000000100000000000100000000000000000000000000000011100000000000000000000000000000000000000000000001
11111110000000000000000000000000000000001100000000000000000000000000000000000000000000000000000010000000000000000000000000000000000000100000000000100000000000000000000000000000111100000000000000000000000000000000000000000000001
11111110000000000000000000000000000000001100000000000000000000000000000000000000000000000000000011000000000000000000000000000000000000111100000010100000000000000000000000000001111100000000000000000000000000000000000000000000001
11111110000000000000000000000000000000000000000000000000000000000000000000000000000000000000000001000000000000000000000000000000000000111100000011100000000000000000000000000000001100000000000000000000000000000000000000000000001
11111110100001100000000000000000000000000000000000000000000000000000000000000000000000000000000001100000000000000000000000000000000000111100000011100000000000000000000000000000001100000000000000000000000000000000000000000000001
11111110000000000000000000000000000000000000000000000000000000000000000000000000000000000000000000100000000000000000000000000000000000100000000010100000000000000000000000000000001100000000000000000000000000000000000000000000001
11111110000000000000000000000000000000000000000000000000000000000000000000000000000000000000000000110000000000000000000000000000000000100000000000100000000000000000000000000000001100000000000000000000000000000000000000000000001
11111110011000000000000000000000000000000000000000000000000000000000000000000000000000000000000000010000000000000000000000000000000000100000000000100000000000000000000000000000000100000000000000000000000000000000000000000000001
11111111011000000000000000000000000000000000000000000000000000000000000000000000000000000000000000011000000000000000000000000000000000100000000001110000000000000000000000000000000010000000000000000000000000000000000000000000001
11111111000000000000000000000000000000000000000000000000000000000000000000000000000000000000011000001100000000000000000000000000000000100000000001110000000000000000000000000000000000000000000000000000000000000000000000000000001
11111111000000000000000000000000000000000000000000000000000000000000000000000000000000000000011000000100000000000000000000000000000000110000000000000000000000000000000000000000000000000000000000000000000000000000000000000000001
11111111000000000000000000000000000000000000000000000000000000000000000000000000000000000000000000000100000000000000000000000000000000010000000000000000000000000000000000000000010000000000000000000000000000000000000000000000001
11111111100000000000000000000000000000000000000000000000000000000000000000000000000000000000000000000110000000000000000000000000000000010000000000000000000000000000000000000000000000000000000000000000000000000000000000000000001
11111111100000000000000000000000000000000000000000000000000000000000000000000000000000000000000000000010000000000000000000000000000000010000000000000000000000000000000000000000000000000000000000000000000000000000000000000000011
11111111100000000000000000000000000000000000000000000000000000000000000000000000000000000000000000000011000000000000000000000000000000011000000000000000000000000000000000000000000000000000000000000000110000000000000000000000001
11111111100000000000000000000000000000000000000000000000000000000000000000000000000000000000000000000001000000000000000000000000000000001000000000000000000000000000000000000000000000000000000000000001110000000000000000000001001
11111111100000000000000000000000000000000000000000000000000000000000000000000000000000000000000000000001001000000000000000000000000000001100000000000000000000000000000000000000000000000000000000000011110000000000000000000000001
11111111100000000000000000000000000000000000000000000000000000000000000000000000000000000000000000000001100000000000000000000000000000000100000000000000000000000000000000000000000000000000000000001111110000000000000000000100001
11111111100000000000000000000000000000000000000000000000000000000000000000000000000000000000000000000000110000000000000000000000000000000110000000000000000000000000000000000000000000000000000000001111110000000000001111111111111
11111111100000000000000000000000000000000000000000000000000000000000000000000000000000000000000000000000011100000000000000000000000000000011000000010000000000000000000000000000000000000000000001000000000000000001111111111111101
11111111100000000000000000000000000000000000000000000000000000000000000000000000000000000000000000000000000110000000000000000000000000000001100000011000000000000000000000000000000000000000100001000000000011110000111111111111001
11111111100000000000000000000000000000000000000000000000000000000000000000000000000000000000000000000000000011000000000000000000000000000000100000011000000000000000000000000000000000000000000000000000000001111101111111111110001
11111111100000000000000000000000000000000000000000000000000000000001110000000000000000000000000000000000000001100000000000000000000000000000110000011000000000000000000000000000000000000000000000000000000000111111111111111100001
11111111100000000000000000000000000000000000000000000000000000000001110000000000000000000000000000000000000000110000000000000000000000000000011000010000000000000000000000000000000000000000000000000000000000001111111111111000001
11111111100000000000000000000000000000000000000000000000000000000001110000000000000000000000000000000000000000011000000000000000000000000000001000010000000000000000000000000000000000000000000000000000000000000000000111100000001
11111111100000000000000000000000000000000000000000000000000000000001110000000000000000000000000000000000000000001100000000000000000000000000001000010000000000000000000000000000000000000000000000000000011110000000000000000000001
11111111100000000000000000000000000000000000000000000000000000000000000000000000000000000000000000000000000000000110000000000000000000000000001100000000000000000000000000000000000000000000010000000000111110001000000000000000001
11111111111000000000000000000000000000000000000000000000000000000000000000000000000000000000000000000000000000000011000000000000000000000000000100100000000000000000000000000000000000000000100000000001000010001100000000000000001
11111111111000000000000000000000000000000000000000000000000000000000000000000011000000000000000000000000000000000001100000000000000000000000000110000000000000000000000000000000000000000010000000000000000000000000000000000000001
11111111111000000000000000000000000000000000000000000000000000000000000000000011000000000000000000000000000000000000110000000000000000000000000010000000000000000000000000000000000000000110000000000000000000000000000000000000001
11111111100000000000000000000000000000000000000000000000000000000000000000000000000000000000000000000000000000000000011100000000000000000000000011001110000000000000000000000000000000000110000000000000000000000000000000000000001
11111111100000000000000000000000000000000001100000001100000000000000000000000000000000000000000000000000000000000000000110000000000000000000000001000111000000000000000000000000000000000000000000000000000000000000000000000000001
11111111100000000000000000000000000100000001100000001100000000000000000000000000000000000000000000000000000000000000000011000011100000000000000001100100000000000000000000000000000000000000000000000000000000000000000000000000001
11111111100000000000000000000000000100000001100000000000000000000000000000000000000000000000000000000000000000000000000001110011100000000000000000100010000000000000000000000000000000000000000000000000000000000000000000000000001
11111111100000000000000000000000000000000000000000000000000000000000000000000000000000000000000000000000000000000000000000011000000000000000000000110011000000000000000000000000000011000000000000000000000000000000000000000000001
11111111110000000000000000000000000000000000000000000000000000000000000000000000000000000000000000000000000000000000000000001110000000000000000000011011000000000000000000000000000110000000000000000000000000000000000000000000001
11111111110000000010000000100000000000000000000000000000000000000000000000000000000000000000000000000000000000000000000000000011100000000000000000001001000000000000000000000000001111100000000000000000000000000000000000000000001
11111111110000000010000001110000000000000000000000000000000000000000000000000000000000000000000000000000000000000000000000000000110000000000000000001101100000000000000000000011111110000000000000000000000000000000000000000000001
11111111110000000000000001110000000000000001111000000000000000000000000000000000000000000000000000000000000000000000000000000000011100000000000000000111100000000000000000111111111110000000000000000000000000000000000000000000001
11111111110000000000000000000000000000000001111000000000000000000000000000000000000000000000000000000000000000000000000000000000110111000000000000000011110000000000000000111111111110000000000000000000000000000000000000000000001
11111111110000000000000000000000000000000001111000000000000000000000000000000000000000000000000000000000000000000000000000000000010001100000000000000001111101000011000000111110000000000000000000000000000000000000000000000000001
11111111110000000000000000000000000000000000111000000000000000000000000000000000000000000000000000000000000000000000000000000000000000111000000000000000011110000001110000000000000000000000000000000000000000000000000000000000001
11111111110000000000000000000000000000000000000000000000000000000000001110000000000000000000000000000000000000000000000000000000001111111100000000000000001111110000000000000000000000000000000000000000000000000000000000000000001
11111111110000000000000000000000000000000000000000010000000000000000001110000000000000000000000000000000000000000110000000000000001011111110000000000000000001110000000000000000000000000000000000000000000000000000000000000000001
11111111110000000000000000000000000000000000000000110000000000000000000000000000000000000000000000000000000000000110000001100000000011111111100000000000000000011000000000000000000000000000000000000000000000000000000000000000001
11111111110000000000000000000000000000000000000000000000000000000000000000000110000000000000000111100000000000000000000001100000000001111111110000000000000000011000000000000000000000000000000000000000000000000000000000000000001
11111111110000000000000000000000000000000000000000000000000000000000000000000000000000000000000111100000000000000000000000000000000000111111111100000000000000010000000000000000000000000000000000000000000000000000000000000000001
11111111110000000000000000000000000000000000000000000000000000000000000000000000000000000000000111100000000000000000000000000000000000001111111111000000000000110000000000000000000000000000000000000000000000000000000000000000001
11111111110000000000000000000000000000000000000000000000000000000000000000000000000000000000000111000000000000000000000000000000000000001111111001100000000000100000000000000000000000000000000000000000000000000000000000000000001
11111111110000000000000000000000000000000000000000000000000000000000000000000000000000000000000000000000000000000000000000000000000000000011111100110000000001100000000000000000000000000000000000000000000000000000000000000000001
11111111110000000000000000000000000000000000000000000000000001110000000000000000000000000000000000000000000000000000000000000000000000000001111110010000000001000000000000000000000000000000000000000000000000000000000000000000001
11111111110000000000000000000000000000000000000000000000000001111000000000000000000000000000000000000000000000000000000000000000000000000000001110011000000010000000000000000000000000000000000000000000000000000000000000000000001
11111111110000000000000000000000000000000000000000000000000001111000000000000000000000000000000000000000000000000000000000000000000000000000001110001100000110000000000000000000000000000000000000000000000000000000000000000000001
11111111110000000000000000000000000000000000000000000001100001110000000000000000000000000000000000000000000000000000000000000000000000000000001110000110000100000000000000000000000000000000000000000000000000000000000000000000001
11111111110000000000000000000000000000000000000000000001100000000000000000000000000000000000000000000000000000000000000000000000000000000000000110000011001100000000000000000000000000000000000000000000000000000000000000000000001
11111111110000000000000000000000000000000000000000000001100000000000000000000000000000000000000000000000000000000000000000000000000000000000000110000001111100000000000000000000000000000000000000000000000000000000000000000000001
11111111110000000000000000000000000000000000000000000000000000000000000000000000000000000000000000000000000000000000000000000000000000000000000010000001111000000000000000000000000000000000000000000000000000000000000000000000001
11111111110000000000000000000000000000000000000000000000000000000000000000000000000000000000000011100000000000000000000000000001100000000000001111100000000110000000000000000000000000000000000000000000000000000000000000000000001
11111111110000000000000000000000000000000000000000000000000000000000000000000000000000000000000011100000000000000000000000000001110000000000001110000000000011100000000000000000000000000000000000000000000000000000000000000000001
11111111110000000000000000000000000000000000000000000000000000000000000000000000000000000000000000000000000000000000000000000001110000000000001110100000000000111000000000000000000000000000000000000000000000000000000000000000001
11111111110000000000000000000000000000000000000000000000000000000000000000000000000000000000000000000000000000000000000000000000000000000000000110001000000000001110000000000000000000000000000000000000000000000000000000000000011
11111111110000000000000000000000000000000000000000000000000000000000000000000000000000000000000000000000000000000000000000000000000000000000000110001000001000000011100000111000000000000000000000000000000000000000000000000000111
11111111110000000000000000000000000000000000000000000000000000000000000000000000000000000000000000000000000000000000000000000000000000000000000000000110001100000000111001111000000000000000000000000000000000000000000000000001111
11111111110000000000000000000000000000000000000000000000000000000000000000000000000000000000000000000000001110000000000000000000000000000000000000000000001110000000001101111000001100000000000000000000000000000000000011111111111
11111111110000000000000000000000000000000000000000000000000000000000000000000000000000000000000000000000000100000000000000000000000000000000000000000000001110000000000001111000001100000000000000000000000000000000000011111111111
11111111110000000000000000000000000000000000000000000000000000000000000000000000000000000000000000011100000000000000000000000000000000000000000000000000001111000000000000000000001100000000000000000000000000000000000111111111111
11111111110000000000000000000000000000000000000000000000000000000000000000000000000000000000000000011100000000000000000000000000000000000000000000000000000110000000000000000000000000000000000000000000000000000000011111111111101
11111111110000000000000000000000000000000000000000000000000000000000000000000000000000000000000000001000000000000000000000000000000000000000000000000000000010000000000000000000000000000000000000000000000000000000111111111111001
11111111110000000000000000000000000000000000000000000000000000000000000000000000000000000000000000000000000000000000000000000000000000000000000000000000000011000000000000000000000000000000000000000000000000000001111111111110001
11111111110000000000000000000000000000000000000000000000000000000000000000000000000000000000000000000000000000000000000000000000000000000000000000000000000001110000000000000000000000000000000000000000000001100011111111111100001
11111111110000000000000000000000000000000000000000000000000000000000000000000000000000000000000000000000000000000000000000000000000000000000000000000000000001110000000000000000000000000000000000000000000001110111111111111000001
11111111110000000000000000000000000000000000000000000000000000000000000000000000000000000000000000000000000000000000000000000000000000000000000000000000000001110000000000000000000000000000000000000000000000001111111111110000001
11111111110000000000000000000000000000000000000000000000000000000000000000000000000000000000000000000000000000000000000000000000000000000000000000000000000001111111100000000000000000000000000000000000000000011111100000000000001
11111111110000000000000000000000000000000000000000000000000000000000000000000011110000000000000000000000000000000000000000000000000000000000000000000000000001111111111000000000000000000000000000000000000000111111000000000000001
11111111110000000000000000000000000000000000000000000000000000000000000000000011110000000000000000000000000000000000000000000000000000000000000000000000000000111111110000000000000000000000000000000000000001111110000000000000001
11111111110000000000000000000000000000000000000000000000000000000000000000000011110000000000000000000000000000000000000000000000000000000000000000000000000000000000100000000000000000000000000000000000000000000000000000000000001
11111111110000000000000000000000000000000000000000000000000000000000000000000001100000000000000000000000000000000000000000000000000000000000000000000000000000000000000100000000000000000000000000000000000100000000000000000000001
11111111110000000000000000000000000000000000000000000000000000000000000000000000000000000000000000000000000000000000000000000000000000000000000000000000000000000000000100000000000000000000000000000000001100000000000000000000001
11111111110000000000000000000000000000000000000000000000000000000000000000000000000000000000000000000000000000000000000000000000000000000000000000000000000000000000000000000000000000000000000000000000000000000000000000000000001
11111111110000000000000000000000000000000000000000000000000000000000000000000000000000000000000000000000000000000000000000000000000000000000000011100000000000000000000000000000000000000000000000000000000000000000000000000000001
11111111110000000000000000000000000000000000000000000000000000000000000000000000000000000000000000000000000000000000000111100000000000000000000011100000000000000000000000000000000000000000000000000000000000000000000000000000001
11111111110000000000000000000000000000000000000000000000000000000000000000000000000000000000000000000000000000000000000111100000000000000000000011100000000000000000000000000000000000000000000000000000000000000000000000000000001
11111111110000000000000000000000000000000000000000000000000000000000000000000000000000000000000000000000000000000000000111100000000000000000000011100000000000000000000000000000000000000000000000000000000000000000000000000000001
11111111110000000000000000000000000000000000000000000000000000000000000000000000000000000000000000000000000000000000000000000000000000000000000000000000000000000000000000000000000000000000000000000000000000000000000000000000001
11111111110000000000000000001100000000000000000000000000000000000000000000000000000000000000000000000000000000000000000000000000000000000000000000000000000000000000000000000000000000000000000000000000000000000000000000000000001
11111111110000000000000000011100000000000000111000000000000000000000000000000000000000000000000000000000000000000000000000000000000000000000000000000000000000000000000000000000000000000000000000000000000000000000000000000000001
11111111110000000000000000001100000000000000111000000000000000000000000000000000000000000000000000000000000000000000000000000000000000000000000000000000000000000000000000000000000000000000000000000000000001100000000000000000001
11111111110000000000000000000000000000000000000000000000000000000000000000000000000000000000000000000000000000000000000000000000000000000000000000000000000000000000000000000000000000000000000000000000000001100000000000000000001
11111111110000000000000000000000000000000000000000000000000000000000000000000000000000000000000000000000000000000000000000000000000000000000000000000000000000000000000000000000000000000000000000000000000000000000000000000000001
11111111110000000000000000000000000000000000000000000000000000000000000000000000000000000000000000000000000000000000000000000000000000000000000000000000000000000000000000000000000000000000000000000000000000000000000000000000001
11111111111111111111111111111111111111111111111111111111111111111111111111111111111111111111111111111111111111111111111111111111111111111111111111111111111111111111111111111111111111111111111111111111111111111111111111111111111
