1111111111111111111111111111111111111111111111111111111111111111111111111111111111111111111
1111111111111111111111111111111111111111111111111111111111111111111111111111111111111111111
1111111111111111111111111111111111111111111111111111111111111111111111111111111111111111111
1111111111111111111111101110000011100111111111111111111111111111111111111111111111111111111
1111111111111111111111101110000011100111111111111111111111111011101111111111111111111111111
1111111111111111111111101110000011100111111111111111111111111011101111111111111111111111111
1111111111111111111111101110000011100011111111111111111111111011101111111111111111111111111
1111111111111111111111101110000011100000111111111111111111111011101111111111111111111111111
1111111111111111111111101110000011100000000000001110000000111000001111111111111111111111111
1111111111111111111111101110000011100000000000000000000000000000001111111111111111111111111
1111111111111111111111100000000000000000000000000000000000000000000111111111111111111111111
1111111111111111111111100000000000000000000000000000000000000000000111111111111111111111111
1111111111111111111111100000000000000000000000000000000000000000000111111111111111111111111
1111111111111111111111100000000000000000000000000000000000000000000111111111111111111111111
1111111111111111111111100000000000000000000000000000000000000000000111111111111111111111111
1111111111111111111111111000011111000000111000000000000000000000000111111111111111111111111
1111111111111111111111111111011111011100111000000000000000000000000111111111111111111111111
1111111111111111111111111111011111111100111000000000000000000000000011111111111111111111111
1111111111111111111111111111011111111100111000000000000000000000000011111111111111111111111
1111111111111111111111111111011111111100111000000000000011100000000011111111111111111111111
1111111111111111111111111111011111111100111000000000011111111111111011111111111111111111111
1111111111111111111111111111111111111111111111111001111111111111111111111111111111111111111
1111111111111111111111111111111111111111111111111001111111111111111111111111111111111111111
1111111111111111111111111111111111111111111111000000010011111111111111111111111111111111111
1111111111111111111111111111111111111111111000000000000011111111111111111111111111111111111
1111111111111111111111111111111111111111111000000000000011111111111111111111111111111111111
1111111111111111111111111111111111111111111000000000000011111111111111111111111111111111111
1111111111111111111111111111111111111111111000000000000011111111111111111111111111111111111
1111111111111111111111111111111111111111111000000000000011111111111111111111111111111111111
1111111111111111111111111111111111111111111000000000000011111111111111111111111111111111111
1111111111111111111111111111111111111111111000000000000011111111111111111111111111111111111
1111111111111111111111111111111111111111111000000000000000111111111111111111111111111111111
1111111111111111111111111111111111111111100000000000000001111111101101111111111111111111111
1111111111111111111111111111001111111111100000000000000001111111101101111100001111111111111
1111111111111111111111111111000000001111100000000000000001111111101101111100001111100011111
1111111111111111111111111111000000000011100000000000000001111111101101111100001111100011111
1111111111111111111111111111000000000011100000000000000000001111100001111100001111100011111
1111111111111111111111111111000000000011100000000000000000000000000000000000000000000011111
1111111111111111111111111111000000000011100000000000000000000000001000000000000000000011111
1111111111111111111111111110000000000011100000000000000000000000011000011000000001100000111
1111111111111111111111111110000000000011100000000000000000000000111000011110000011100000111
1111111111111111111111111110000000000011100000000000000000000000111000001111000011110000111
1111111111111111111111111110000000000011100000000000000000000000010000000111000001110000111
1111111111111111111111111110000000000011100000000000000000000000000000000000000000000000111
1111111111111111111111111110000000000011100000000000000000000000000000000000000000000000111
1111111111111111111111111111000000000011100000000000000000000000000000000000000000000000001
1111111111111111111111111111000000000011100000000000000000000000000000000000000000000000001
1111111111111111111111111111000000000011100000000000000000000000000000000000000000000000001
1111111111111111111111111111000000000011100000000000000000000000000000000000000000000000111
1111111111111111111111111111000000000011100000000000000000000000000000000000000000000000111
1111111111111111111111111111000000000011100000000000000000000000000000000000000100000000111
1111111111111111111111111111000011111111100000000000000000000000000000000000111100000000111
1111111111111111111111111111000011111111100000000000000000000000000000000000111100000000111
1111111111111111111111111111000011111111100000000000000011100000000001100000011100011111111
1111111111111111111100011111000000000000000000000000000011101100000001110000000000011111111
1111111111111111111100011110000000000000000000000000000011111100000001111000000000011111111
1111111111111111111000000000000000000000000000000000000011111100000001111100000000011111111
1111111111111111111000000000000000000000000000000000111111111100000001011100000001111111111
1111111111111111111000000000000000000000000000000001111111100000000000011111111111111111111
1111111111111111111000000000000000000000000000000000111111100000000000011111111111111111111
1111111111111111111000000000000000000000000000000101111111100000000000001111111111111111111
1111111111111111111100000000000000000000000000001111111111100111111111001111111111111111111
1111111111111111111100000000000000000000111000001111111111111111111111111111111111111111111
1111111111111111111100111111100011111000111000001111111111111111111111111111111111111111111
1111111111111111111000111111100011111000111000001111111111111111111111111111111111111111111
1110011111111000111111111111111111111111111000001111111111111111111111111111111111111111111
1110011111111000111111111111111111111111111000001111111111111111111111111111111111111111111
1110011111111000111111111111111111111111111000001111111111111111111111111111111111111111111
1110011111111000111111111111111111111111111000001111111111111111111111111111111111111111111
1110011111111001111111111111111111111111111000001111111111111111111111111111111111111111111
1110000000000001111111111111111111111111111000001111111111111111111111111111111111111111111
1110000000000001111111111111111111111111111000001111111111111111111111111111111111111111111
1110000000000000000000001110000011111111111000001111111111111111111111111111111111111111111
1110000000000000000000000000000011111111111000001111111111111111111111111111111111111111111
1110000000000000000000000000000000111111111000001111111111111111111111111111111111111111111
1110000000000000000000000000000000111111111000001111111111111111111111111111111111111111111
1110000000000000000000001110000000111111111000001111111111111111111111111111111111111111111
1110000001110000011111111110000000000011111000001111111111111111111111111111111111111111111
1110000001110000001111111110000000000011111000001111111111111111111111111111111111111111111
1111000001110000001000001110000000000000111000001111111111111111111111111111111111111111111
1111011101110000001000001110000000000000111000001111111111111111111111111111111111111111111
1111011101110000000000001110001110000000000000001111111111111111111111111111111111111111111
1111011101110000000000001110001111000000000000001111111111111111111111111111111111111111111
1111011101110000011000001110011111000000000000001111111111111111111111111111111111111111111
1111000011111110111000001110011111000000111000001111111111111111111111111111111111111111111
1111111111111111111111111111111111111111111100001111111111111111111111111111111111111111111
1111111111111111111111111111111111111111111110001111111111111111111111111111111111111111111
1111111111111111111111111111111111111111111100001111111111111111111111111111111111111111111
1111111111111111111111111111111111111111111000001111111111111111111111111111111111111111111
1111111111111111111111111111111111111111111000001111111111111111111111111111111111111111111
1111111111111111111111111111111111111111111000001111111111111111111111111111111111111111111
1111111111111111111111111111111111111111111000001111111111111111111111111111111111111111111
1111111111111111111111111111111111111111111000001111111111111111111111111111111111111111111
1111111111111111111111111111111111111111111000001111111111111111111111111111111111111111111
1111111111111111111111111111111111111111111000001111111111111111111111111111111111111111111
1110000000000000000000001110000000011110111000001111111111111111111111111111111111111111111
1111111110000000000000001110000000011110111000001111111111111111111111111111111111111111111
1111111110000000000000000000000000000000111000001111111111111111111111111111111111111111111
1111111110000000000000000000000000000000111000001111111111111111111111111111111111111111111
1111111110000000000000001110000000000000111000001111111111111111111111111111111111111111111
1111111110000000000000001110000000000000111000001111111111111111111111111111111111111111111
1111111110000000001111111111100000000000111000001111111111111111111111111111111111111111111
1111111110000000001111111111100000000000111000001111111111111111111111111111111111111111111
1111111110000000001111111111100000000000111000001111111111111111111111111111111111111111111
1111111110000000000111111111111110000000111000001111111111111111111111111111111111111111111
1111100000000000000111111111111110000000000000001111111111111111111111111111111111111111111
1111000000000000000111111111100000000000000000001111111111111111111111111111111111111111111
1110000000000000000000001111111111100000111000011111111111111111111111111111111111111111111
1110000000000000000000001111111111100000111000011111111111111111111111111111111111111111111
1110000000000000111111111111111111111111111111111111111111111111111111111111111111111111111
1111111011000000111111111111111111111111111111111111111111111111111111111111111111111111111
1111111111000000111111111111111111111111111111111111111111111111111111111111111111111111111
1111111110000001111111111111111111111111111111111111111111111111111111111111111111111111111
1111111111000001111111111111111111111111111111111111111111111111111111111111111111111111111
1111111111000001111111111111111111111111111111111111111111111111111111111111111111111111111
1111111111000000111111111111111111111111111111111111111111111111111111111111111111111111111
1111111101000000111111111111111111111111111111111111111111111111111111111111111111111111111
1111111100000001111111111111111111111111111111111111111111111111111111111111111111111111111
1111111111111111111111111111111111111111111111111111111111111111111111111111111111111111111
1111111111111111111111111111111111111111111111111111111111111111111111111111111111111111111
