111111111111111111111111111111111111111111111111111111111111111111111111111111111111111111111111111111111111111111111111111111111111111111111111111111111111111111111111111111111111111111111111111111111111111111111111111111111111111111111111111111111
111111111111111111111111111111111111111111111111111111111111111111111111111111111111111111111111111111111111111111111111111111111111111111111111111111111111111111111111111111111111111111111111111111111111111111111111111111111111111111111111111111111
111111111111111111111111111111111111111111111111111111111111111111111111111111111111111111111111111111111111111111111111111111111111111111111111111111111111111111110011111111111111111111000000000000111100001000011011111111111111111111111111111111111
111111111111111111111111111111111111111111111111111111111111111111111111111111111111111111111111111111111111111111111111111111111111111111111111111111111111111111110011110000000111111111000000000000111100000000011011110000111111111111111111111111111
111111111111111111111111111111111111111111111111111111111111111111111111111111111111111111111111111111111111111111111111111111111111111111111111111111111111111111110001100000000111111100111100011110000000000000000000000000111111111111111111111111111
111111111111111111111111111111111111111111111111111111111111111111111111111111111111111111111111111111111111111111111111111111111111111111111111111111111111111111110000000000000011111100111000011110000000000000000000000000011111111111111111111111111
111111111111111111111111111111111111111111111111111111111111111111111111111111111111111111111111111111111111111111111111111111111111111111111111111111111111111100000000000000000001111100000000000000000000000000000000000000011111111111111111111111111
111111111111111111111111111111111111111111111111111111111111111111111111111111111111111111111111111111111111111111111111111111111111111111111111111111111111111100000000000000000000111100000000000000000000000000000000000000011111111111111111111111111
111111111111111111111111111111111111111111111111111111111111111111111111111111111111111111111111111111111111111111111111111111111111111111111111111111110000000000000000000000000000011100000000000000000000000000000000000000011111111111111111111111111
111111111111111111111111111111111111111111111111111111111111111111111111111111111111111111111111111111111111111111111111111111111111111111111111111111110000000000000000000000000000011100000000000000000000000000000000000000011111111111111111111111111
111111111111111111111111111111111111111111111111111111111111111111111111111111111111111111111111111111111111111111111111110000000000001111111111111111110000000000000000000000000000011100000000000000000000000000000000000000011111111111111111111111111
111111111111111111111111111111111111111111111111111111111111111111111111111111111111111111111111111111111111111111111111110000000000001111111111111111111110000000000000000000000000011100000000000000000000000000000000000000011111111111111111111111111
111111111111111111111111111111111111111111111111111111111111111111111111111111111111111111111111111111111111111111111111100000000000000111111111111111111110000000000000000000000000011100000000000000000000000000000000000000011111111111111111111111111
111111111111111111111111111111111111111111111111111111111111111111111111111111111111111111111111111111111111111111111111100000000000000111111111111111111110000000000000000000000000011110000000000000000000000000000000000000011111111111111111111111111
111111111111111111111111111111111111111111111111111111111111111111111111111111111111111111111111111111111111111111111111100000000000000111111111111111111110000000000000000000000000011110000000000000000000000000000000000000111111111111111111111111111
111111111111111111111111111111111111111111111111111111111111111111111111111111111111111111111111111111111111111111111111100000000000000111111111111111111110000000000000000000000000011110000000000000000000000000000000000000111111111111111111111111111
111111111111111111111111111111111111111111111111111111111111111111111111111111111111111111111111111111111111111111111111110000000000001111111111111111111100000000000011111000000000011111000000000000111100000000000011110000111111111111111111111111111
111111111111111111111111111111111111111111111111111111111111111111111111111111111111111111111111111111111111111111111111110000000000001111111111111111111110000000000011111100000000111111000000000000111100000000000111111111111111111111111111111111111
111111111111111111111111111111111111111111111111111111111100000110000011110000011111101111111111111111111111110111111111110000000000001111111111111111111110000000000011111000000000111111000000000000111100000000000011111111111111111111111111111111111
111111111111111111111111111111111111111111111111111111111100000000000011110000011111101111111111111111111111110111111111110000000000001111111111111111111110000000000011110000000000011111000000000000111100000000000011110000111111111111111111111111111
111111110000000000000000000000000000000000000000000000010000000000000001100000011111101111111111111111111100000011111000000000000000000111111111111111111110000000000000000000000000011111000000000000000000000000000000000000111111111111111111111111111
111111110000000000000000000000000000000000000000000000010000000000000001100000000000000111111111111111111100000011111100000000000000000111111111111111111110000000000000000000000000000111000000000000000000000000000000000000111111111111111111111111111
111111110000000000000000000000000000000000000000000000010000000000000000000000000000000111111111111111111100000011100000000000000000011111111111111111111110000000000000000000000000000110000000000000000000000000000000000000111111110111111111111111111
111111111000000000000000000000000000000000000000000000111000000000000000000000000000000111111111111111110000001000000000000000000000011111111111111111111110000000000000000000000000001110000000000000000000000000000000000000000000000111111111111111111
111111111000000000000000000000000000000000000000000000111000000000000000000000000000000111111111111111110000011110000000000000000000011111111111111111111100000000000000000000000000001110000000000000000000000000000000000000000000000111111111111111111
111111110000000000000000000000000000000000000000000000000000000000000000000000000000000111111111111111110000111110000000000000000000011111111111111111111111000000000000000000000000001110000000000000000000000000000000000000000000000111111111111111111
111111110000000000000000000000000000000000000000000000000000000000000000000000000000000111111111111111110000011100000000000000000000011111111111111111111111000000000000000000000000001110000000000000000000000000000000000000000000000111111111111111111
111111111000000000000000000000000000000000000000000000111000000000000000000000000000000111111111111111111000001100000000000000000000000111111111111111111111110000000000000000000000001110000000000000000000000000000000000000000000000111111111111111111
111111111000000000000000000000000000000000000000000000111000000000000000000000000000000111111111111111111000000000000000000000000000000111111111111111111111111100000000000000000000001111000000000000000000000000000000000000000000000111111111111111111
111111110000000000000000000000000000000000000000000000010000000000000000000000000000000111111111111111111000000000000000000000000000000111111111111111111111111110000000000000000000001111000000000000000000000000000000000000000000000111111111111111111
111111110000000000000000000000000000000000000000000000010000000000000000000000000000001111111111111111111000000000000000000000000000000111111111111111111111111110000000000000000000001111000000000000000000000000000000000000000000001111111111111111111
111111110000000000000000000000000000000000000000000000010000000000000000000000000000001111111111111111111000000000000000000000000000000111111111111111111111111110000000000000000000001111000000000000000000000000000000000000000000001111111111111111111
111111111111111111111111111111111111111111111111111111111100000000000011110000000000001111111111111111111100000000000011110000000000001111111111111111111111111110000011110001000100001111000000000000111100000000000011110000000000001111111111111111111
111111111111111111111111111111111111111111111111111111111100000000000011110000000000001111111111111111111100000000000011110000000000001111111111111111111111111111111111111111000111111111000000000000111100000000000111111111111111111111111111111111111
111111111111111111111111111111111111111111111111111111111100000000000011110000000000001111100000000011111100000000000011110000000000001111111111111111111100000000000011111101000100001111000000000000111100000000000011111111111111111111111111111111111
111111111111111111111111111111111111111111111111111111111100000000100011110000000000001111000000000000111100000000000011110000000000001111011111111110111100000000000011111100000000001111000000000000111100000000000011110000111111111111111111111111111
111111111111111111111111111111111111111111111111111111111110000000000000000000000000000000000000000000111000000000000000000000000000011100011111111110000000000000000000001100000000000100000000000000000000000000000000000000111111111111111111111111111
111111111111111111111111111111111111111111111111111111111110000000000000000000000000000000000000000000000000000000000000000000000000000100000000000000000000000000000000000000000000000100000000000000000000000000000000000000011111111111111111111111111
111111111111111111111111111111111111111111111111111111111110000000000000000000000000000000000000000000000000000000000000000000000000000100000000000000000000000000000000000000000000000100000000000000000000000000000000000000011111111111111111111111111
111111111111111111111111111111111111111111111111111111111100000000000000000000000000000000000000000000000000000000000000000000000000001110000000000000000000000000000000000000000000000100000000000000000000000000000000000000011111111111111111111111111
111111111111111111111111111111111111111111111111111111111110000000000000000000000000000000000000000000000000000000000000000000000000001110000000000000000000000000000000000000000000000100000000000000000000000000000000000000011111111111111111111111111
111111111111111111111111111111111111111111111111111111111111000000000000000000000000000000000000000000000000000000000000000000000000000000000000000000000000000000000000000000000000000110000000000000000000000000000000000000011111111111111111111111111
111111111111111111111111111111111111111111111111111111111111100000000000000000000000000000000000000000000000000000000000000000000000000000000000000000000000000000000000000000000000000100000000000000000000000000000000000000011111111111111111111111111
111111111111111111111111111111111111111111111111111111111111110000000000000000000000000000000000000000000000000000000000000000000000001110000000000000000000000000000000000000000000000100000000000000000000000000000000000000011111111111111111111111111
111111111111111111111111111111111111111111111111111111111111111000000000000000000000000000000000000000000000000000000000000000000000001110000000000000000000000000000000000000000000000111110000000000000000000000000000000000011111111111111111111111111
111111111111111111111111111111111111111111111111111111111111111100000000000000000000000000000000000000000000000000000000000000000000001100000000000000000000000000000000000000000000000111110000000000000000000000000000000000011111111111111111111111111
111111111111111111111111111111111111111111111111111111111111111110000000000001111111000000000000000000111000000000000000000000000000001100000000000000000000000000000000000000000000000111110000000000000000000000000000000000111111111111111111111111111
111111111111111111111111111111111111111111111111111111111111111111100000000011111111000000000000000000111000000000000000000000000000000100000000000000000000000000000000000000000000000111111111111111000000000000000000000000111111111111111111111111111
111111111111111111111111111111111111111111111111111111111111111111111111110001111111001111100000000011111101110001000011110000000000001111000000000000111100000000000011110000000000001111111111111111111100010001000011110000111111111111111111111111111
111111111111111111111111111111111111111111111111111111111111111111111111111111111111111111111111111111111111110001111111111111111111111111111111111111111111111111111111110000000000001111111111111111111111110001111111111111111111111111111111111111111
111111111111111111111111111111111111111111111111111111111111111111111111111111111111111111111111111111111100010001000011111111111111111111111111111111111100000000011111110000000000001111100000000011111101010001000011111111111111111111000001000000111
111111111111111111111111111111111111111111111111111111111111111111111111111111111111111111111111111111111100000000000011111111111111111111111111111111111100000000011111110000000000001111000000000011111100000000000011110001111111111111000000000000111
111111111111111111111111111111111111111111111111111111111111111111111111111111111111111111111111111111110000000000000001111111111111111111111111111111000000000000011111000000000000000000000000000000000000000000000001000001111111111000000000000000011
111111111111111111111111111111111111111111111111111111111111111111111111111111111111111111111111111111110000000000000001111111111111111111111111111111000000000000011111000000000000000000000000000000000000000000000001000000000000000000000000000011111
111111111111111111111111111111111111111111111111111111111111111111111111111111111111111111111111111111110000000000000001111111111111111100000000000000000000000000011111000000000000000000000000000000000000000000000001000000000000000000000000000011111
111111111111111111111111111111111111111111111111111111111111111111111111111111111111111111111111111111110000000000000001111111111111111100000000000000000000000000011111000000000000000000000000000000000000000000000001111000000000000000000000000011111
111111111111111111111111111111111111111111111111111111111111111111111111111111111111111111111111111111110000000000000001111111111111111100000000111111111111110000011111000000000000000000000000000000000000000000000001111000000000000000000000000011111
111111111111111111111111111111111111111111111111111111111111111111111111111111111111111111111111111111110000000000000001111111111111111100000000111111111111110000011111000000000000000000000000000000000000000000000001111000000000000000000000000011111
111111111111111111111111111111111111111111111111111111111111111111111111111111111111111111111111111111110000000000000001111111111111111100000001111111111111111000011111000000000000000000000000000000000000000000000001111000000000000000000000000011111
111111111111111111111111111111111111111111111111111111111111111111111111111111111111111111111111111111110000000000000001111111111111111100000000111111111111110000011111000000000000000000000000000000000000000000000001111000000000000000000000000011111
111111111111111111111111111111111111111111111111111111111111111111111111111111111111111111111111111111111111000000000001111111111111111100000000111111111111110000011111000000000000000000000000000000000000000000000001111000000000000000000000000011111
111111111111111111111111111111111111111111111111111111111111111111111111111111111111111111111111111111111111000000000001111111111111111100000000111111111111110000011111000000000000000000000000000000000000000000000001111000000011111111110000000011111
111111111111111111111111111111111111111111111111111111111111111111111111111111111111111111111111111111111111000000000111111111111111111100000000000000000000000000011111000000000000000000000000000000000000000000000001111000000011111111110000000011111
111111111111111111111111111111111111111111111111111111111111111111111111111111111111111111111111111111111111000000000111111111111111111100000000000000000000000000011111000000000000000000000000000000000000000000000001111000000011111111110000000011111
111111111111111111111111111111111111111111111111111111111111111111111111111111111111111111111111111111111111000000000011111111111111111111000000000000111100000000011111110000000000001111100111110011111100000000000011111000000011111111110000000000111
111111111111111111111111111111111111111111111111111111111111111111111111111111111111111111111111111111111111000000000011111111111111111111000000000000111100000000011111111111111111111111111111111111111100000000000011110000000000001111000000000000111
111111111111111111111111111111111111111111111111111111111111111111111111111111111111111111111111111111111111000000000011111111111111111111000000000000111100000000000011110000001111111111111111111111111100000000000011110000000000001111000000000000111
111111111111111111111111111111111111111111111111111111111111111111111111111111111111111111111111111111111111000000000111111111111111111111000000000000111100000000000011111000000011111111111111111111111100000000000011110000000000001111000000000000111
111111111111111111111111111111111111111111111111111111111111111111111111111111111111111111111111111111111111000000001111111111111111111100000000000000000000000000000011111000000000000000111111111111110000000000000001100000000000000000000000000000011
111111111111111111111111111111111111111111111111111111111111111111111111111111111111111111111111111111111111000000001111111111111111111100000000000000000000000000000000000000000000000000111111111111110000000000000001000000000000000000000000000000111
111111111111111111111111111111111111111111111111111111111111111111111111111111111111111111111111111111111111000000000001111111111111111100000000000000000000000000000000000000000000000000000000000001110000000000000001000000000000000000000000000000111
111111111111111111111111111111111111111111111111111111111111111111111111111111111111111111111111111111111000000000000011111111111111111100000001000000000000001000000000000000000000000000000000000001110000000000000011100000000000000000000000000000011
111111111111111111111111111111111111111111111111111111111111111111111111111111111111111111111111111111111000000000000011111111111111111100000001000000000000001000000000000000000000000000000000000001110000000000000011100000000000000000000001100000011
111111111111111111111111111111111111111111111111111111111111111111111111111111111111111111111111111111111000000000000001111111111111111100000000000000000000000000000000000000000000000000000000000001110000000000000000000000000110000000000001100000011
111111111111111111111111111111111111111111111111111111111111111111111111111111111111111111111111111111111000000000000001111111111111111111100000000000000000000000000000000000000000000000000000000001110000000000000000000000011110000000000011111000011
111111111111111111111111111111111111111111111111111111111111111111111111111111111111111111111111111111111000000000000011111111111111111111100000000000000000000000000000000000000000000000000000000001110000000000000011100000011111000000000011111000011
111111111111111111111111111111111111111111111111111111111111110001111111111111111111111111111111111111111000000000000011111111111111111111100000000000000000000000000000000000000000000000000000000001110000000000000011100000001111000000000001100000011
111111111111111111111111111111111111111111111111111111111111110001111111111111111111111111111111111111110000000000000111111111111111111111100000000000000000000000000000000000000000000000000000000001111100000000000001100000001110000000000001111000011
111111111111111111111111111111111111111111111111111111111111110001111111111111111111111111111111111111110000000000001111111111111111111111110000000000000000000000000011100000000000000000000000000000011100000000000001000000000110000000000000111000111
111111111111111111111111111111111111111111111111111111111111110001111111111111111111111111111111111111110000000000000111111111111111111111111000000000000111111111000011111000000000000000000000000000011100000000000001000000000000000000000000000000111
111111111111111111111111111111111111111111111111111111111111110000111111111111111111111111111111111111111100000000000011111111111111111111110000011111111111111111000011111000000000001111000000000000111100000000000011110000000000001111000001000000111
111111111111111111111111111111111111111111111111111111111111110001111111111111111111111111111111111111111100000000000011111111111111111111111111111111111111111111111111110000000000001111000011011011111100000000000011111111111111111111111111111111111
111111111111111111111111111111111111111111111111111111111100110001100011110001111110001111000000000000111100000000000011111111111111111111111111111111111111111111111111110000000000001111000011010011111100000000000011111111111111111111111111111111111
111111111111111111111111111111111111111111111111111111111100000000000011110001111110001111000000000000111100000000000011111111111111111111111111111111111111111111111111110000000000001111000000000000111100000000000011111111111111111111111111111111111
111111111111111111111111111111111111111111111111111111110000000000000011100001111110000000000000000000010000000000000001111111111111111111111111111111111111111111111111000000000000000000000000000000010000000000011111111111111111111111111111111111111
111111111111111111111111111111111111111111111111111111110000000000000000000001111110000000000000000000010000000000000001111111111111111111111111111111111111111111111111000000000000000000000000000000010000000000011111111111111111111111111111111111111
111111111111111111111111111111111111111111111111111111110000000000000000110000000000000000000000000000010000000000000001111111111111111111111111111111111111111111111111000000000000000000000000000000010000000000011111111111111111111111111111111111111
111111111111111111111111111111111111111111111111111111111000000000000000000000000000000000000000000000111000000000000001111111111111111111111111111111111111111111111111000000000000000000000000000000111000000000011111111111111111111111111111111111111
111111111111111111111111111111111111111111111111110000011000000000000000000000000000000000000000000000111000000000000001111111111111111111111111111111111111111111111111000000011101000000000000000000111000000000011111111111111111111111111111111111111
111111111111111111111111111111111111111111111111110000000000000000000000000000000000000000000000000000000000000000000001111111111111111111111111111111111111111111111111000000011110000000000000000000000000000000011111111111111111111111111111111111111
111111111111111111111111111111111111111111111111110000000000000000000000000000000000000000000000000000000000000000000001111111111111111111111111111111111111111111111111000000111100000000000000000000000000000000011111111111111111111111111111111111111
111111111111111111111111111111111111111111111111111110011000000000000000000000000000000000000000000000111000000000000001111111111111111111111111111111111111111111111111000000000000100000000000000000111000000000011111111111111111111111111111111111111
111111111111111111111111111111111111111111111111111111111000000000000000000000000000000000000000000000111000000000000001111111111111111111111111111111111111111111111111000000001000000000000000000000111000000000011111111111111111111111111111111111111
111111111111111111111111111111111111111111111111111111110000000000000000000000000000000000000000000000010000000000000001111111111111111111111111111111111111111111111111000000000000000000000000000000010000000000011111111111111111111111111111111111111
111111111111111111111111111111111111111111111111111111110000000000000011100000000000000000000000000000010000000000000001111111111111111111111111111111111111111111111111000000000000000001111111110000010000000000011111111111111111111111111111111111111
111111111111111111111111111111111111111111111111111111110000000000000011100000000000000000000000000000010000000000000001111111111111111111111111111111111111111111111111000000000000000001111111110000010000000000000001111111111111111111111111111111111
111111111111111111111111111111111111111111111111111111111100000000000011111000000000111111100000000011111100000000000011111111111111111111111111111111111111111111111111111111111100001111111111110000111100000000000011111111111111111111111111111111111
111111111111111111111111111111111111111111111111111111111100000000000011111000000000111111100000000011111100000000000011111111111111111111111111111111111111111111111111111111111111111111111111111111111100000000000011111111111111111111111111111111111
111111111111000000001111110000001000001111100001000011111100000000000011111000000000111111100000000011111100000000000011110000110000001111111111111111111111111100000011110000000000001111000000000000111100000000000011111111111111111111111111111111111
111111111100000000000011110000000000001111100000000000111100000000000011110000000000001111000000000011111100000000000011110000110000001111111111111111111111111100000011110000000000001111000000000000111100000000000011111111111111111111111111111111111
111111110000000000000000000000000000000100000000000000000000000000000011100000000000000000000000000011110000000000000000000000110000000000111111111111111111111100000000000000000000000000100000000000000000000000000011111111111111111111111111111111111
111111110000000000000000000000000000000100000000000000000000000000000000000000000000000000000000000000010000000000000000000000000000000000111111111111111111111100000000000000000000000001000000000000000000000000000111111111111111111111111111111111111
111111110000000000000000000000000000000100000000000000000000000000000000000000000000000000000000000000110000000000000000000000000000000000111111111111111111111100000000000000000000000000000000000000000000000000000111111111111111111111111111111111111
111111111000000000000000000000000000001110000000000000000000000000000000000000000000000000000000000000110000000000000000000000000000000000000000000000000000000000000000000000000000000000000000000000000000000000000111111111111111111111111111111111111
110000011000000000000000000000000000001110000000000000000000000000000000000000000000000000000000000000110000000000000000000000000000000000000000000000000000000000000000000000000000000000000000000000000000000000000111111111111111111111111111111111111
110000000000000000000000000000000000000000000000000000000000000000000000000000000000000000000000000000110000000000000000000000000000000000000000000000000000000000000000000000000000000000000000000000000000000000000111111111111111111111111111111111111
110000000000000000000000000000000000000000000000000000000000000000000000000000000000000000000000000000110000000000000000000000000000000000000000000000000000000000000000000000000000000000000000000000000000000000001111111111111111111111111111111111111
111110011000000000000000000000000000001110000000000000000000000000000000000000000000000000000000000000110000000000000000000000000000000000000000000000000000000000000000000000000000000000000000000000000000000000001111111111111111111111111111111111111
111111111000000000000000000000000000001110000000000000000000000000000000000000000000000000000000000000110000110000000000000000000000000000000000000000000000000000000000000000000000000000000000000000000000000000001111111111111111111111111111111111111
111111111111100000000000000000000000000100000000000000000000000000000000000000000000000000000000000000011111111100000000000000000000000000111111111100000000000000000000000000000000000000000000000000000000000000011111111111111111111111111111111111111
111111111111100000000000000000000011111111111000000000000000000000000011100000000000000000000000000011111111111111000000001110000000000000111111111100000000000000000000000000000000000000000000000000000000000110111111111111111111111111111111111111111
111111111111100000000000000000000011111111111000000000000000000000000011100000000000000001100111110011111111111111110000001110000000000000111111111111100000000000000000000000000001110000000000000000000000111111111111111111111111111111111111111111111
111111111111100000000011110000001011111111111001000011111100000000000011110000000000001111101111110011111111111111111111111111000100001111111111111111111110000000000011110001000101111111001110000000111111111111111111111111111111111111111111111111111
111111111111100000000011111111111111111111111111111111111100000000000011111111111111111111111111111111111111111111111111111111000111111111111111111111111111111111111111111111000111111111111111111111111111111111111111111111111111111111111111111111111
111111111111100000000011111111111111111111111111111111111100000000000011111111111111111111111111111111111111111111111111111111000111111111111111111111111111111111111111111111000100001111000000000000111111111111111111111111111111111111111111111111111
111111111111100000000011111111111111111111111111111111111100000000000011111111111111111111111111111111111111111111111111111111000111111111111111111111111111111111111111111111000000001111000000000000111111111111111111111111111111111111111111111111111
111111111111100000000001111111111111111111111111111111110000000000000001111111111111111111111111111111111111111111111111110000000000011111111111111111111111111111111111111110000000000000000000000000011111111111111111111111111111111111111111111111111
111111111111100000000001111111111111111111111111111111111000000000000001111111111111111111111111111111111111111111111111100000000000001111111111111111111111111111111111111110000000000000000000011000011111111111111111111111111111111111111111111111111
111111111111100000000001111111111111111111111111111111111000000000000001111111111111111111111111111111111111111111111111110000000000001111111111111111111111111111111111111100000000000000000000000010011111111111111111111111111111111111111111111111111
111111111000000000000001111111111111111111111111111111111000000000000011111111111111111111111111111111111111111111111111110000000000001111111111111111111111111111111111111100000000000000000000000111111111111111111111111111111111111111111111111111111
110000011000000000000001111111111111111111111111111111111000000000000011000011111111111111111111111111111111111111111111110000000000001111111111111111111111111111111111111100000000000000000001111111111111111111111111111111111111111111111111111111111
110000000000000000000001111111111111111111111111111111111000000000000000000001111111111111111111111111111111111111111111110000000000111111111111111111111111111111111111111100000000000000000011111111111111111111111111111111111111111111111111111111111
110000000000000000000001111111111111111111111111111111111000000000000000000001111111111111111111111111111111111111111111110000000000111111111111111111111111111111111111000000000000000000000011111111111111111111111111111111111111111111111111111111111
111110011000000000000001111111111111111111111111111111111000000000000011001111111111111111111111111111111111111111111111110000000000011111111111111111111111111111111111000000000000000000000111111111111111111111111111111111111111111111111111111111111
111111111000000000000001111111111111111111111111111111111000000000000011111111111111111111111111111111111111111111111111110000000000011111111111111111111111111111111111000000000000000000000111111111111111111111111111111111111111111111111111111111111
111111110000000000000001111111111111111111111111111111111000000000000001111111111111111111111111111111111111111111111111110000000000011111111111111111111111111111111111000000000000000000000001111111111111111111111111111111111111111111111111111111111
111111110000000000001111111111111111111111111111111111111000000000000001111111111111111111111111111111111111111111111111111100000111111111111111111111111111111111111111111000000000000000000000111111111111111111111111111111111111111111111111111111111
111111110000000000001111111111111111111111111111111111110000000000000001111111111111111111111111111111111111111111111111111111000111111111111111111111111111111111111111111000000000000000000001111111111111111111111111111111111111111111111111111111111
111111111110000100001111111111111111111111111111111111111100010001000011111111111111111111111111111111111111111111111111111111110111111111111111111111111111111111111111111000000000001111000011111111111111111111111111111111111111111111111111111111111
111111111111111111111111111111111111111111111111111111111111110001111111111111111111111111111111111111111111111111111111111111111111111111111111111111111111111111111111111100000000001111000011111111111111111111111111111111111111111111111111111111111
111111111111111111111111111111111111111111111111111111111111100000111111111111111111111111111111111111111111111111111111111111111111111111111111111111111111111111111111111110000000001111000111111111111111111111111111111111111111111111111111111111111
111111111111111111111111111111111111111111111111111111111111110000111111111111111111111111111111111111111111111111111111111111111111111111111111111111111111111111111111111100000000001111000111111111111111111111111111111111111111111111111111111111111
111111111111111111111111111111111111111111111111111111111111110001111111111111111111111111111111111111111111111111111111111111111111111111111111111111111111111111111111110000000000000000000001111111111111111111111111111111111111111111111111111111111
111111111111111111111111111111111111111111111111111111111111110001111111111111111111111111111111111111111111111111111111111111111111111111111111111111111111111111111111110000000000000000000000110111111111111111111111111111111111111111111111111111111
111111111111111111111111111111111111111111111111111111111111110001111111111111111111111111111111111111111111111111111111111111111111111111111111111111111111111111111111000000000000000000000000000000111111111111111111111111111111111111111111111111111
111111111111111111111111111111111111111111111111111111111111111111111111111111111111111111111111111111111111111111111111111111111111111111111111111111111111111111111111000000000000000000000000000000111111111111111111111111111111111111111111111111111
111111111111111111111111111111111111111111111111111111111111111111111111111111111111111111111111111111111111111111111111111111111111111111111111111111111111111111111111000000000000000000000000000000111111111111111111111111111111111111111111111111111
111111111111111111111111111111111111111111111111111111111111111111111111111111111111111111111111111111111111111111111111111111111111111111111111111111111111111111111111000000000000000000000000011100111111111111111111111111111111111111111111111111111
111111111111111111111111111111111111111111111111111111111111111111111111111111111111111111111111111111111111111111111111111111111111111111111111111111111111111111111111000000000000000000000000001100111111111111111111111111111111111111111111111111111
111111111111111111111111111111111111111111111111111111111111111111111111111111111111111111111111111111111111111111111111111111111111111111111111111111111111111111111111000000000000000000000001111000111111111111111111111111111111111111111111111111111
111111111111111111111111111111111111111111111111111111111111111111111111111111111111111111111111111111111111111111111111111111111111111111111111111111111111111111111111100000000000000000000001111100111111110001111111111111111111111111111111111111111
111111111111111111111111111111111111111111111111111111111111111111111111111111111111111111111111111111111111111111111111111111111111111111111111111111111111111111111111100000000000000000000001111100011111110001111111111111111111111111111111111111111
111111111111111111111111111111111111111111111111111111111111111111111111111111111111111111111111111111111111111111111111111111111111111111111111111111111111111111111111110000000000000000000001100000011111110001111111111111111111111111111111111111111
111111111111111111111111111111111111111111111111111111111111111111111111111111111111111111111111111111111111111111111111111111111111111111111111111111111111111111111111110000000000000000111101100000011111110001111111111111111111111111111111111111111
111111111111111111111111111111111111111111111111111111111111111111111111111111111111111111111111111111111111111111111111111111111111111111111111111111111111111111111111110001000100001111111101100011111111110000111111111111111111111111111111111111111
111111111111111111111111111111111111111111111111111111111111111111111111111111111111111111111111111111111111111111111111111111111111111111111111111111111111111111111111111111000111111111111111111111111111110001111111111111111111111111111111111111111
111111111111111111111111111111111111111111111111111111111111111111111111111111111111111111111111111111111111111111111111111111111111111111111111111111111111111111111111111111000111111111100000001111111111110001111111111111111111111111111111111111111
111111111111111111111111111111111111111111111111111111111111111111111111111111111111111111111111111111111111111111111111111111111111111111111111111111111111111111111111110000000010001111100000000000111100000000000011111111111111111111111111111111111
111111111111111111111111111111111111111111111111111111111111111111111111111111111111111111111111111111111111111111111111111111111111111111111111111111111111111111111111100000000000000000000000000000000000000000001111111111111111111111111111111111111
111111111111111111111111111111111111111111111111111111111111111111111111111111111111111111111111111111111111111111111111111111111111111111111111111111111111111111111111110000000000000000000000000000000000000000001111111111111111111111111111111111111
111111111111111111111111111111111111111111111111111111111111111111111111111111111111111111111111111111111111111111111111111111111111111111111111111111111111111111111111110000000000000000000000000000000000000000001111111111111111111111111111111111111
111111111111111111111111111111111111111111111111111111111111111111111111111111111111111111111111111111111111111111111111111111111111111111111111111111111111111111111111110000000000000000000000000000000000000000001111111111111111111111111111111111111
111111111111111111111111111111111111111111111111111111111111111111111111111111111111111111111111111111111111111111111111111111111111111111111111111111111111111111111111111000000000000000000000000000000000000000001111111111111111111111111111111111111
111111111111111111111111111111111111111111111111111111111111111111111111111111111111111111111111111111111111111111111111111111111111111111111111111111111111111111111111111000000000000000000000000000000000000000001111111111111111111111111111111111111
111111111111111111111111111111111111111111111111111111111111111111111111111111111111111111111111111111111111111111111111111111111111111111111111111111111111111111111111111000000000000000000000000000000000000000001111111111111111111111111111111111111
111111111111111111111111111111111111111111111111111111111111111111111111111111111111111111111111111111111111111111111111111111111111111111111111111111111111111111111111111000000000000000000000000000000000000000001111111111111111111111111111111111111
111111111111111111111111111111111111111111111111111111111111111111111111111111111111111111111111111111111111111111111111111111111111111111111111111111111111111111111111110000000000000000000000000000000000000000001111111111111111111111111111111111111
111111111111111111111111111111111111111111111111111111111111111111111111111111111111111111111111111111111111111111111111111111111111111111111111111111111111111111111111100000000000000000000000000000000000000000001111111111111111111111111111111111111
111111111111111111111111111111111111111111111111111111111111111111111111111111111111111111111111111111111111111111111111111111111111111111111111111111111111111111111111000000000000000000000000000011111000000000001111111111111111111111111111111111111
111111111111111111111111111111111111111111111111111111111111111111111111111111111111111111111111111111111111111111111111111111111111111111111111111111111111111111111111100000011110000100000000000011111000000000001111111111111111111111111111111111111
111111111111111111111111111111111111111111111111111111111111111111111111111111111111111111111111111111111111111111111111111111111111111111111111111111111111111111111111110000111111111111000100010011111100010001001111111111111111111111111111111111111
111111111111111111111111111111111111111111111111111111111111111111111111111111111111111111111111111111111111111111111111111111111111111111111111111111111111111111111111111001111111111111111100011111111111110001111111111111111111111111111111111111111
111111111111111111111111111111111111111111111111111111111111111111111111111111111111111111111111111111111111111111111111111111111111111111111111111111111111111111111111111111111111111111111000001111111111100000111111111111111111111111111111111111111
111111111111111111111111111111111111111111111111111111111111111111111111111111111111111111111111111111111111111111111111111111111111111111111111111111111111111111111111111111111111111111111100001111111111110000111111111111111111111111111111111111111
111111111111111111111111111111111111111111111111111111111111111111111111111111111111111111111111111111111111111111111111111111111111111111111111111111111111111111111111111111111111111111111100011111111111110001111111111111111111111111111111111111111
111111111111111111111111111111111111111111111111111111111111111111111111111111111111111111111111111111111111111111111111111111111111111111111111111111111111111111111111111111111111111111111100011111111111110001111111111111111111111111111111111111111
111111111111111111111111111111111111111111111111111111111111111111111111111111111111111111111111111111111111111111111111111111111111111111111111111111111111111111111111111111111111111111111100011111111111110001111111111111111111111111111111111111111
111111111111111111111111111111111111111111111111111111111111111111111111111111111111111111111111111111111111111111111111111111111111111111111111111111111111111111111111111111111111111111111111111111111111111111111111111111111111111111111111111111111
111111111111111111111111111111111111111111111111111111111111111111111111111111111111111111111111111111111111111111111111111111111111111111111111111111111111111111111111111111111111111111111111111111111111111111111111111111111111111111111111111111111
