1111111111111111111111111111111111111111111111111111
1111111111111111100111111111111111111111111111111111
1111111111111111100111111111111111111111111111111111
1111111110000000000000000000000111111100000000000111
1111110000000000000000000000000111111100000000000111
1111110000000000000000000000000111110000000000000111
1110000000000000000000000000000111110000111111000111
1110000000000000000000000000000111110000111111100111
1110000000000000000000000000000111110001111111100111
1110000000000000000000000000000111110001111110000111
1110000000000000000000000000000001110000111110000111
1110000000000000000000000000000000000000111110000111
1110000000000000000000000000000000000000111110000111
1110000000000000000000000000000000000000111110000111
1111100000000000000000000000000000000000111110000111
1111100000000000000000000000000000000000111111000111
1111100000000000000000000000000000000000111111000111
1111100000000000000000000000000000000000111110000111
1111100000000000000000000000000000000001111111000111
1111100000000000000000000000000000000011111111000111
1111110000000000000000000000000011100001111111000111
1111110000000000000000000000000011100000111110000111
1111110000000000000111111000000011100000111110000111
1111110000000000011111111011110011100011111110000111
1111111110011111111111111111111111100011111110000111
1111111110011111111111111111111111100001111110000111
1111111110011111111111111111111111100001111110000111
1111110000000000000000000000000011100001111110000111
1110000000000000000000000000000011110000111000000111
1110000000000000000000000000000011111100111000000111
1111100000000000000000000000000011111110000000001111
1111100000000000000000000000000011111100000000111111
1111111110011110000001111001111111111111111111111111
1111111110011111111111111001111111111111111111111111
1111111110011111111111111001111111111111111111111111
1111111110011101111000000000000000000001111111111111
1111110000000001111000000000000000000001111111111111
1111110000000011111000000000000000000001111111111111
1111110000000011111000000000000000000001111111111111
1110000000000011111000000000000000000011111111111111
1110000000000011111000000000000000000011111111111111
1110000000000011111011111000000000000000000000110111
1110000000000011111011111000000000000000000000000111
1110000000000011111011111000000000000000000000001111
1110000000000011111011111000000000000000000000011111
1111100000000000111011111000000000000000000000011111
1111100000000001111011111000000000000000000000000111
1111100000011111111011111000000000000000000000111111
1111100000011111111011111000000000000000000000111111
1111111000011111111000111111110000000000000001111111
1111111110011111111000111111110000000000000001111111
1111111111111111111111111111111111111110000001111111
1111111111111111111111111111111111111110000001111111
1111111111111111111111111111111111111111100111111111
1111111111111111111111111111111111111111100111111111
1111111111111111111111111111111111111111100111111111
1111111111111111111111111111111111111110000001111111
1111111111111111111111111111111111111110000001111111
1111111111111111111111111111111111111110000001111111
1111111111111111111111111111111111111110000001111111
1111111111111111111111111111111111111110000001111111
1111111111111111111111111111111111111110000001111111
1111111111111111111111111111111111111110000001111111
1111111111111111111111111111111111111110000001111111
1111111111111111111111111111111111111110000001111111
1111111111111111111111111111111111111110000001111111
1111111111111111111111111111111111111110000001111111
1111111111111111111111111111111111111110000001111111
1111111111111111111111111111111111111110000001111111
1111111111111111111111111111111111111110000001111111
1111111111111111111111111111111111111110000001111111
1111111111111111111111111111111111111110000001111111
1111111111111111111111111111111111111110000001111111
1111111111111111111111111111111111111110000001111111
1111111111111111111111111111111111111110000001111111
1111111111111111111111111111111111111110000001111111
1111111111111111111111111111111111111110000001111111
1111111111111111111111111111111111111110000001111111
1111111111111111111111111111111111111110000001111111
1111111111111111111111111111111111111110000001111111
1111111111111111111111111111111111111110000001111111
1111111111111111111111111111111111111110000001111111
1111111111111111111111111111111111111110000001111111
1111111111111111111111111111111111111110000001111111
1111111111111111111111111111111111111110000001111111
1111111111111111111111111111111111111110000001111111
1111111111111111111111111111111111111110000001111111
1111111111111111111111111111111111111110000001111111
1111111111111111111111111111111111111110000001111111
1111111111111111111111111111111111111110000001111111
1111111111111111111111111111111111111110000001111111
1111111111111111111111111111111111111110000001111111
1111111111111111111111111111111111111110000001111111
1111111111111111111111111111111111111110000001111111
1111111111111111111111111111111111111110000111111111
1111111111111111111111111111111111111110000111111111
1111111111111111111111111111111111111110000111111111
1111111111111111111111111111111111111110000001111111
1111111111111111111111111111111111111110000001111111
1111111111111111111111111111111111111110000001111111
1111111111111111111111111111111111111110000001111111
1111111111111111111111111111111111111110000001111111
1111111111111111111111111111111111111110000001111111
1111111111111111111111111111111111111110000001111111
1111111111111111111111111111111111111110000001111111
1111111111111111111111111111111111111110000001111111
1111111111111111111111111111111111111110000001111111
1111111111111111111111111111111111111110000001111111
1111111111111111111111111111111111111111100111111111
1111111111111111111111111111111111111111100111111111
1111111111111111111111111111111111111111100111111111
1110001111110000001111111011111111111100000001111111
1110001111110000001111111011111111111100000000111111
1110001111110000001111110011110000111100000000111111
1110001111000000001111000011110000111100000000011111
1110001111000000001110000011110000111100000000011111
1111000000000000000000000000000000000000000000000111
1111100000000000000000000000000000000000000000000111
1111100000000000000000000000000000000000000000000111
1111100000000000000000000000000000000000000000000111
1111100000000000000000000000000000000000000000000111
1111100000000000000000000000000000000000000000000111
1110000000000000000000000000000000000000000000000111
1110000000000000000000000000000000000000000000000111
1110000000000000000000000000000000000000000000000111
1111111100000000000000000000000000000000000000000111
1111111100000000000000000000000000000000000000000111
1111111100000000000000000000000000000000000011111111
1111111100000000000000000000000000000000000011111111
1111111100000000000000000001111110000000000001111111
1111111100000000111111000001111110000000000011111111
1111111100000111111111000011111110000000000011111111
1111111100001111111111000011111111110000000011111111
1111111110011111111111111111111111111111100111111111
1111111110011111111111111111111111111111100111111111
1111111110011111111111111111111111111111100111111111
1111000000000000000000111101111111110000000000111111
1110000000000000111111100001111111110000000000111111
1110000000000000000000000001111111110000000000111111
1110000000000000000000000001111111110000000000111111
1110000000000000000000000001111111110000000000000111
1110000000000000000000000000000000000000000000000111
1110000000000000000000000000000000000000000000000111
1110000000000000000000000000000000000000000000000111
1110000000000000000000000000000000000000000000000111
1110000000000000000000000000000000000000000000000111
1110000000000000000000000000000000000000000000000111
1110000000000000000000000000000000000000000000000111
1110000000000000000000000000000000000000000000000111
1111000111111111111111111111111111111111111110011111
1111000111111111111111111111111111111111111110011111
1111000110111111110011100000001111111111111100011111
1111000110111111110011100000001111111111111100011111
1111000110111111110001100000000000001111111100011111
1111000110111111110000000000000000001111111100011111
1111000110111111110000000000000000000000000100011111
1111000110000000000000000000000000000000000100011111
1111000110000000000000000000000000000000000100011111
1111000110000000000000000000000000000000000100011111
1110000000000000000000000000000000000000000000000111
1110000000000000000000000000000000000000000000000111
1110000000000000000000000000000000000000000000000111
1110000000000000000000000000000000000000000000000111
1110000000000000000000000000000000000000000000000111
1110000000000000000000000000000000000000000000000111
1110000000000000000000000000000000000000000000000111
1110000000000000000000000000000000000000000000000111
1110000000000000000000000000000000000000000000000111
1110000000000000000000000000000000000000000000000111
1110000000000000000000000000000000000000000000000111
1110000000000000000000000000000000000000000000000111
1110000000000000000000000000000000000000000000000111
1110000000000000000000000000000000000000000000000111
1110000000000000000000000000000000000000000000000111
1110000000000000000000000000000000000000000000000111
1110000000000000000000000000000000000000000000000111
1110000000000000000000000000000000000000000000000111
1110000000000000000000000000000000000000000000000111
1111111000000000000000000000000000000000000000000111
1111111000000000000000000000000000000000000000000111
1111111000000000011100000000000000000000000000000111
1111111000001100111111000000000000000000000000000111
1111111000011100111111110000000000000000000000000111
1111111111111100111111111000000000000000000000001111
1111111111111001111111110000000000000000000000111111
1111111111111000011111110000000000000000000011111111
1111111111111000000111100000000000000000000011111111
1111111111111000000001101100000000000011110011111111
1111111111111000000000001110000000000011111001111111
1111111111111111111111111111111110011111111111111111
1111111111111111111111111111111111111111111111111111
1111111111111111111111111111111111111111111111111111
