11111111111111111111111111111111111111111111111111111111111111111111111111111111111111111111111
11111111111111111111111111111001111111111111111111111111111111111111111111111111111111111111111
11111111111111111111111111111001111111111111111111111111111111111111111111111111111111111111111
11111111111111111111111111000001110011111111111111111111111111111111111111111111111111111111111
11111111111111111111111100000000000011111111111111111111111111111111111111111111111111111111111
11111111111111111111111110000000000011111111111111111111111111111111111111111111111111111111111
11111111111111111111111110000000000011111111111111111111111111111111111111111111111111111111111
11111111111111111111111110000000000001111111111111111111111111111111111111111111111111111111111
11111111111111111111111000000000000011111111111111111111111111111111111111111111111111111111111
11111111111111111111111000000000000111111111111111111111111111111111111111111111111111111111111
11111111111111111111111110000000000111111111111111111111111111111111111111111111111111111111111
11111111111111111111111111000000000111111111111111111111111111000000000000000000000000000111111
11111111111111111111111111000000000111111111111111111111111110000000000000000000000000000111111
11111111111111111111111111000000001111111111111111111111111000000000000000000000000000000011111
11111111111111111111111111000000001111111111111111111111111000000000000000000000000000000011111
11111111111111111111111111100000001111111111111111111111111000000000000000000000000000000111111
11111111111111111111111111111001111111111111111111111111111000001111100111000000000000000111111
11111111111111111111111111111001111111111111111111111111111000001111100111111111111111111111111
11111111111111111111111111111001111111111111111111111111111000001111100111111111111111111111111
11100001100011100000001111100000111000010001000000000011111000000110000000011111100000001111111
11100000000111100000000011100000111000000001000000000111111000000110000000011111100000001111111
11100000000111100000000011100000111010000001011111100011111000000110000000011111100000011111111
11100000000111100000000011100000111000000000000000000001111000000110000000000000000000001111111
11100000000111100000000011100000111000000000000000000000011000000110000000000000000000000111111
11100000011000001110000011100000111000000000000000000000011000000110000000000000000000000111111
11100000011000001110000011100000111000000000000000000001111000000110000000000000000000000111111
11100000000000000000000011100000111110000000000000000011111000000110000000000000000000000111111
11100000000000000000000011100000111111000000000000000011111000000110000000000000110000000111111
10000000000000000000000011100000111111000000000000000011111000000110000000001011110000000111111
10000000000000000000000011100000111111000000000000000000111000000110000000001111100000000111111
10000000000000000000000011100000111110000000000000000000011000000110000000001111110000000111111
11100000000000000000000011100000111110000000000000000000011000000110000000001111110000000111111
11100000001100000000000011100000111110000000000000000001111000000110000000000111100000000111111
11100001111110000000000011100000111100000000000000000011111000000110000000000011011111111111111
11110001111110000000000011100000111100000000000000000011111000000111000000000000011111111111111
11110000111111000000000011100000111100000000000000000001011000000111000000000000011111111111111
11100000111111000000000011000000111000000000000000000000011000000110000000000001111111111111111
11100000111100000000000000000000111000000000000000000000011000000110000000000001111111111111111
11100000111100000000000000000000111001000000000000000000011000000111100000000001111111111111111
11111000000000000000000011100000111100000000000000000000011000000111100000000001111111111111111
11111000000000000000000011100000111100000111100111000000011000000111100000000000011111111111111
11111000011000011110000011100000111111111111100111111111111000000111111111111001111111111111111
11100000011000011110000011100000111111111111100111111111111000000111111111111111111111111111111
11100000000000000110000011100000000000000000000000000000011000000111111111111111111111111111111
11100000000000000000000011100000000000000000000000000000000000000111111111111111111111111111111
11100000000000000000000011100000000000000000000000000000000000000111111111111111111111111111111
11100000000000000000000011100000000000000000000000000000000000000111111111111111111111111111111
11100000011111111110001111100000000000000000000000000000000000000111111111111111111111111111111
11100000011111111110001111111111111110011111111111111111111000000111111111111111111111111111111
11111111111111111111111111111111111110011111111111111111111000000111111111111111111111111111111
11111111111111111111111111111111111110011111111111111111111000000111111111111111111111111111111
11111111111111111111111111111111111000000000000011111110111000000111111111111111111111111111111
11111111111111111111111111111111111000000000000011111110111000000111111111111111111111111111111
11111111111111111111111111111111111000000000000000011110111000000111111111111111111111111111111
11111111111111111111111111111111111000000000000000011110111000000111111111111111111111111111111
11111111111111111111111111111111111000000000000000011110111000000111111111111111111111111111111
11111111111111111111111111111111111000000000000000000000111000000111111111111111111111111111111
11111111111111111111111111111111111000000000000000000000111000000111111111111111111111111111111
11111111111111111111111111111111111000000000000000000000111000000111111111111111111111111111111
11111111111111111111111111111111111000000000001000000000111000000111111111111111111111111111111
11111111111111111111111111111111111000000001111000000000111000000111111111111111111111111111111
11111111111111111111111111111111111000000001111000000000111000000111111111111111111111111111111
11111111111111111111111111111111111000000000000000000000111000000111111111111111111111111111111
11111111111111111111111111111111111000000000000000000000111000000111111111111111111111111111111
11111111111111111111111111111111111000000000000001000000111000000111111111111111111111111111111
11111111111111111111111111111111111000000000000011100000111000000111111111111111111111111111111
11111111111111111111111111111111111000000000000011000000111000000111111111111111111111111111111
11111111111111111111111111111111111000000000000000000000111000000111111111111111111111111111111
11111111111111111111111111111111111000000000000000000000111000000111111111111111111111111111111
11111111111111111111111111111111111100000000000000000000111011110111111111111111111111111111111
11111111111111111111111111111111111110000000000000000000111011110111111111111111111111111111111
11111111111111111111111111111111111110000000111100000000111011111111111111111111111111111111111
11111111111111111111111111111111111100000000111100000000111001111111111111111111111111111111111
11111111111111111111111111111111111000000111111111111001111111111111111111111111111111111111111
11111111111111111111111111111111111011110111111111111111111111111111111111111111111111111111111
11111111111111111111111111111111111011111111111111111111111111111111111111111111111111111111111
11111111111111111111111111111111111011111111111111111111111111111111111111111111111111111111111
11111111111111111111111111111111111111111111111111111111111111111111111111111111111111111111111
11111111111111111111111111111111111111111111111111111111111111111111111111111111111111111111111
