111111111111111111111111111111111111111111111111111111111111111111111111111111111111111111111111111111
111111111111111111111111111111111111111111111000000011111111111111111111111111111111111111111111111111
111111111111111111111111111111111111111111111000000111111111111111111111111111111111111111111111111111
111111111111111111111111111111111111111111111000000111110111111111111111111111111111111111111111111111
111111111111111111111111111111110000000000011000000110000000000011111111111111111111111111111111111111
111111111111111111111111111111100000000000000000000000000000000011111111111111111111111111111111111111
111111111111111111111111111110000000000000000000000000000000000011111111111111111111111111111111111111
111111111111111111111111111111000000000111100000000011110000000011111111111111111111111111111111111111
111111111111111111111111111111000000000111100000000011110000000011111111111111111111111111111111111111
111111111111111111111111111111100000000111100000000011110000000011111111111111111111111111111111111111
111111111111111111111111111111110000000111100000000011110000000011111111111111111111111111111111111111
111111111111111111111111111111111110000111100000000011110000000001111111111111111111111111111111111111
111111111111111111111111111111111110000000000000000000000000000001111111111111111111111111111111111111
111111111111111111111111111111110000000000000000000000000000000001111111111111111111111111111111111111
111111111111111111111111111111111000110111100000000011110011110001111111111111111111111111111111111111
111111111111111111111111111111111111111111110000000111110111111011111111111111111111111111111111111111
111111111111111111111111111111111111111111110000000111111111111111111111111111111111111111111111111111
111111111111111111111111111111111111111111110000000111111111111111111111111111111111111111111111111111
111111111111111111111111111111111111111111110000000111111111111111111111111111111111111111111111111111
111111111111111111111111111111111111111111110000000111110011111111111111111111111111111111111111111111
111111111111111111111111111111100011111011000000000011000010011100011111111111111111111111111111111111
111111111111111111111111111110000001111000000000000000000000000000011111111111111111111111111111111111
111111111111111111111111111111110001100000000000000000000000000000011111111111111111111111111111111111
111111111111111111111111111111111000000000000000000000000000000000011111111111111111111111111111111111
111111111111111111111111111111111000000000000000000000000000000001111111111111111111111111111111111111
111111111111111111111111111111111000000000000000000000000000000011111111111111111111111111111111111111
111111111111111111111111111111111000000000000000000000000000000011111111111111111111111111111111111111
111111111111111111111111111111111000000000000000000000000000000001111111111111111111111111111111111111
111111111111111111111111111111111000000000000000000000000000000011111111111111111111111111111111111111
111111111111111111111111111111111000000000000000000000000000000111111111111111111111111111111111111111
111111111111111111111111111111111000000000000000000000000000000011111111111111111111111111111111111111
111111111111111111111111111111111000000000000000000000000000000001111111111111111111111111111111111111
111111111111111111111111111111110000000000000000000000000000000001111111111111111111111111111111111111
111111111111111111111111111111111000000000000000000000000000000011111111111111111111111111111111111111
111111111111111111111111111111111000000000000000000000000000000001111111111111111111111111111111111111
111111111111111111111111111111100000000000000000000000000000000011111111111111111111111111111111111111
111111111111111111111111111111000000000000000000000000000000000011111111111111111111111111111111111111
111111111111111111111111111111100000000000000000000000000000000111111111111111111111111111111111111111
111111111111111111111111111110000000000000000000000000000000000111111111111111111111111111111111111111
111111111111111111111111111110000000000000000000000000000000000111111111111111111111111111111111111111
111111111111111111111111111110000000000000000000000000000000000111111111111111111111111111111111111111
111111111111111111111111111111111000000000000000000000000000011111111111111111111111111111111111111111
111111111111111111111111111111111110000000000000000000000000011111111111111111111111111111111111111111
111111111111111111111111111111111110000000000000000000000000000111111111111111111111111111111111111111
111111111111111111111111111111111110000000000000000000000000000000011111111111111111111111111111111111
111111111111111111111111111111111110000000000000000000000000000000111111111111111111111111111111111111
111111111111111111111111111111111000000000000000000000000000000001111111111111111111111111111111111111
111111111111111111111111111111111000000000000000000000000000000001111111111111111111111111111111111111
111111111111111111111111111111111000000000000000000000000000000000111111111111111111111111111111111111
111111111111111111111111111111100000000000000000000000000000000000111111111111111111111111111111111111
111111111111111111111111111110000000000000000000000000000000000000111111111111111111111111111111111111
111111111111111111111111111110000000000000000000000000000000000000111111111111111111111111111111111111
111111111111111111111111111111111000000000000000000000000000000000011111111111111111111111111111111111
111111111111111111111111111111111100000000000000000000000000000000011111111111111111111111111111111111
111111111111111111111111111111111100000000000000000000000000000000011111111111111111111111111111111111
111111111111111111111111111111111100000000000000000000000000000011111111111111111111111111111111111111
111111111111111111110000011111100000000000000000000000000000000111111111111111111111111111111111111111
111111111111111111110000001111000000000000000000000000000000000111111111111111111111111111111111111111
111111111111111111110000000000000000000000000000000000000000000111111111111101111111111111111111111111
111111111111111000000000000000000000000000000000000000000000000001111110111101111111111111111111111111
111111111111110000000000001111000000000000000000000000000000000000000000001100011111111111111111111111
111111110000000000000000001111000000111000000000000000000110000000000000000000000011110011111111111111
111111000000000000000000011111100111111000011111111110000110000000111100000000000000000001111111111111
111110000000000000000000011111111111111000000000000000001111110001111110000000000000000011111111111111
111110000000000000000000011111111111111000000000000000001111111111111110000000000000000011111111111111
111110000000000000000000011111111111111000000000000000001111111111111110000000000000000011100000011111
111111110000000000000000011111111111111000000000000000001111111111111110000000000000000011100000011111
111111110000000000000000000000010011111100000000000000001111111111111110000000000000000001100000001111
111111110000000000000000000000000011111100000000000000000111111000011100000000000000000001100000001111
111111110000000000000000000000000011111000000000000000000111111000011000000000000000000001100000000111
111111110000000000000000000000000111111000000000000000001111111000011000000000000000000001100000000111
111111110000000000000000000000000111111000000000000000011111111000000000000000000000000001100000001111
111111110000000000000000000000000111111100011111111110011111111000000000000000000000000001100000001111
111111100000000000000000000000000111111100000000000000011111111000000000000000000000000001100000001111
111110000000000000000000000000000111111100000000000000001111111000000000000000000000000001100000001111
111110000000000000000000000000000111111111000000000000001111111100000000000000000000000001100000001111
111110000011110000000000000000000111111111000000000000001111111111110000000000000000000011100000001111
111111100011110000000000000000000001111111110111111011111111111111110000000000000000000011100000001111
111111100111111100000000000000000001111111111111111111111111111111110000000000000001111111000000011111
111111111111111110000000000000000011111111111111111111111111111111110000000000000001111100000000011111
111111111111111110000000000000000011111111111111111111111111111111100000000000000000000000000000111111
111111111111111111110000000000000011111111111111111111111111111000000000000000000000000000000000111111
111111111111111111110000000000000011111111111111111111111111111110000001100110000000000000000111111111
111111111111111111110000000000000011111111111111111111111111111110000001111110000111000000000111111111
111111111111111111111000111000000001111111111111111111111111111100000111111111100111000000000111111111
111111111111111111111100111111111111111111111111111111111111111100001111111111100111000000111111111111
111111111111111111111111111111111111111111111111111111111111111110111111111111100011111011111111111111
111111111111111111111111111111111111111111111111111111111111111111111111111111111111111111111111111111
111111111111111111111111111111111111111111111111111111111111111111111111111111111111111111111111111111
111111111111111111111111111111111111111111111111111111111111111111111111111111111111111111111111111111
