11111111111111111111111111111111111111111111111111111111111111111111111111111111111111111111111111111111111111111111111111111111111
11111111111111111111111111111111111111111111111111111111111111111111111111111111111111111111111111111111111111111111111111111111111
11111111111111111111111111111111111111111111111111111111111111111111111111111111111111111111111111111111111111111111111111111111111
11111111111111111111110000000001111111000000111111111111111111111111111111111111111111111111111111111111111111111111111111111111111
11111111111110011111110000000001111111100000011111111111111111111111111111111111111111111111011111111111111111111111111111111111111
11111111111111011111110000000001111111100000001111111111111111111111111110000001111111100011011111111111111111111111111111111111111
11111111111110011111110000000001111111000000001111111111111111111111111110000001111111000000000111111111111111111111111111111111111
11111111111100000000000000000000000000000000001111111111111111100000011110000000000010000000000111111111111111111111111111111111111
11111111110000000000000000000000000000000000001111111111111111000000011110000000000000000000000111111111111111111111111111111111111
11111111100000000000000000000000000000000000001111111111111110000000000000000000000000000000000111111111111111111111111111111111111
11111111000000000000000000000000000000000000001111111111111100000000000000000000000000000000000111111111111111111111111111111111111
11111111000000000000000000000000000000000000000111111111100000000000000000000000000000000000000111111111111111111111111111111111111
11111111000000001110000000000000000000000000000011111100000000000000000000000000000000000000000111111111111111111111111111111111111
11111111000000001110000000000000000000000000000000000000000000000000000000000000000000000000000111111111111111111111111111111111111
11111111111000000000000000000000000000000000000000000000000000000000000000000000000000000000000111111111111111111111111111111111111
11111111111000000000000000000000000000000000000000000000000000000000000000000000000000000000000111111111111111111111111111111111111
11111111111000000000000000000000000000000000000000000000000000000000000000000000000000000000001111111111111111111111111111111111111
11111111111000000000000000000000000000000000000000000000000000000000000000000000000000000000011111111111111111111111111111111111111
11111111111000000000000000000000000000000000000000000000000000000000000000000000000000000000011111111111111111111111111111111111111
11111111111000000000000000000000000000000000000000000000000000000000000000000000000000000000011111111111111111111111111111111111111
11111111111000000000000000000000000000000000000000000000000000000000000000000000000000000000001111110000000000011111111111111111111
11111111000000000000000000000000000000000000000000000000000000000000000000000000000000000000000111100000000000011111111111111111111
11111111000000000000000000000000000000000000000000000000000000000000000000000000000000000000000011000000000000011111111111111111111
11111111000000000000000000000000000000000000000000000000000000000000000000000000000000000000000000000000000000000000001111111111111
11111111000000000000000000000000000000000000000000000000000000000000000000000000000000000000000000000000000000000000001111111111111
11111111000000000000000000000000000000000000000000000000000000000000000000000000000000000000000000000000000000000000000111111111111
11111111000000000000000000000000000000000000000000000000000000000000000000000000000000000000000000000000000000000000000011111111111
11111111000000000000000000000000000000000000000000000000000000000000000000000000000000000000000000000000000000000000000000111111111
11111111000000000000000000000000000000000000000000000000000000000000000000000000000000000000000000000000000000000000000000000001111
11111111000000000000000000000000000000000000000000000000000000000000000000000000000000000000000000000000000000000000000000000001111
11111111111000000000000000000000000000000000000000000000000000000000000000000000000000000000000000000000000000000000000000000001111
11111111111000000000000000000000000000000000000000000000000000000000000000000000000000000000000000000000000000000000111111111111111
11111111111000000000000000000000000000000000000000000000000000000000000000000000000000000000000000000000000000000000111111111111111
11111111111000000000000000000000000000000000000000000000000000000000000000000000000000000000000000000000000000000000111111111111111
11111111111000000000000000000000000000000000000000000000000000000000000000000000000000000000000000000000000000000000111111111111111
11111111111000000000000000000000000000000000000000000000000000000000000000000000000000000000000000000000000000000011111111111111111
11111111111000000000000000000000000000000000000000000000000000000000000000000000000000000000000000000000000000000011111111111111111
11111111000000000000000000000000000000000000000000000000000000000000000000000000000000000000000000000000000000000011111111111111111
11111111000010000000000000000000000000000000000000000000000000000000000000000000000000000000000000000000000000000001111111111111111
11111111111011000000000000000000000000000100000000000000000000000000000000000000000000000000000000000000000000000001111111111111111
11111111111111100000000000000000000000111100000000000000000000000000000000000000000000000000000000000000000000000000111111111111111
11111111111111100000000000000000000000111100000000000000000000000000000000000000000000000000000000000000000000000000111111111111111
11111111111111100000000000000000000000111100000000000000000000000000000000000000000000000000000000000000000000000000111111111111111
11111111111111110000000000000000000000111100000000000000000000000000000000000000000000000000000000000000000000000001111111111111111
11111111111111110000000000000000000000111100000000000000000000000000000000000000000000000000000000000000000000000001111111111111111
11111111111111110000000000000000000000111100000000000000000000110000000000000000000000000000000000000000000000000001111111111111111
11111111111111110000000000000000000000111100000000000000000001111000000000000000000000000000000000000000000000000011111111111111111
11111111111111110000000000000000000000111100000000000000000001111000000000000000000000000000000000000000000000000011111111111111111
11111111111111110000000000000000000000111100000000000000000001111000000000000000000000000000000000000000000000000000111111111111111
11111111111111110000000000000000000000111100000000000000000000000000000000000000000000000000000000000000000000000000111111111111111
11111111111111110000000000000000000000111100000000000000000000000000000000000000000000000000000000000000000000000000111111111111111
11111111111111110000000000000000000000111100000000000000000000000000000000000000000000000000000000000000000000000000000000000011111
11111111111111110000000000000000000000111100000000000000000000000000000000000000000000000000000000000000000000000000000000000001111
11111111111111110000000000000000000000111100000000000000000000000000000000000000000000000000000000000000000000000000000000001111111
11111111111111110000000000000000000000111100000000000000000011111100000111000000000000000000000000000000000000000000000000111111111
11111111111111110000000000000000000000111100000000000000000011111100000111000000000000000000000000000000000000000000000000111111111
11111111111111110000000000000000000000111100000000000000000011111100000111000000000000000000000000000000000000000000000000111111111
11111111111111110000000000000000000000111110000000000000000011111100000010000000000000000000000000000000000000000000000000111111111
11111111111111111111100000000000000000111110000000000000000000000000000000000000000000000000000000000000000000000000000000111111111
11111111111111111111100000000000000000111111000000000000000000000000000000000000000000000000000000000000000000000000000000111111111
11111111111111111111100000000000000000111111000000000000000000000000000000000000000000000000000000000000000000000000000000110001111
11111111111111111111100000000000000000111111000000000000000000000000000000000000000000000000000000000000000000000000000000000001111
11111111111111111111111100000000000000111111000000000000000000011100000000000000000000000000000000000000000000000000000000000111111
11111111111111111111111100000000000000111111000000000000000000111100000000000000000000000000000000000000000000000000000000000111111
11111111111111111111100000000000000000111111000000000000000000111100000000000000000000000000000000000000000000000000000000000111111
11111111111111111111110000000000000000111111000000000000000000111100000000000000000000000000000000000000000000000000000011000111111
11111111111111111111110000000000000000000111000000000000000000000000000000000000000000000000000000000000000000000000011111000111111
11111111111111111111110000000000000000000111000000000000000000000000000000000000000000000000000000000000000000000000011111111111111
11111111111111111111110000000000000000000111000000000000000000000000000000000000000000000000000000000000000000000000001111111111111
11111111111111111111110000000000000000000111000000000000000000000000000000000000000000000000000000000000000000000000111111111111111
11111111111111111111110000000000000000000111000000000000000000000000000000011111110000000000000000000000000000000000111111111111111
11111111111111111111110000000000000000000111000000000000000000000000000001111111111100000000000000000000000001111100011111111111111
11111111111111111111100000000000000000000111000000000000000000000000000011111111111110000000000000000000001111111111111111111111111
11111111111111111111100000000000000000000111000000000001111111111111100111111111111111000000000000000000011111111111111111111111111
11111111111111111111111100000000000000000111111111111111111111111111111111111111111111100000000000000000111111111111111111111111111
11111111111111111111111100000000000000000111111111111111111111111111111111111111111111100000000000000001111111111111111111111111111
11111111111111111111100000000000000000001111111111111111111111111111111111111111111111110000000000000011111111111111111111111111111
11111111111111111111100000000000000000011111111111111111111111111111111111111111111111110000000000000011111111111111111111111111111
11111111111110000000000000000000000000011111111111111111111111111111111111111111111111110000000000000011111111111111111111111111111
11111111111110000000000000000000000000011111111111111111111111111111111111111111111111110000000000000011111111111111111111111111111
11111111111000000000000000000000000000011111111111111111111111111111111111111111111111110000000000000111111111111111111111111111111
11111111111000000000000000000000000000011111111111111111111111111111111111111111111111110000000000000111111111111111111111111111111
11111111111000000000000000000000000000011111111111111111111111111111111111111111111111110000000000000011111111111111111111111111111
11111111111000000000000000000000000000011111111111111111111111111111111111111111111111110000000000000011111111111111111111111111111
11111111111000000000000000111111100000011111111111111111111111111111111111111111111111110000000000000011111111111111111110000111111
11111111111100000000000000111111100000011111111111111111111111111111111111111111111111100000000000000011111111111111111110000001111
11111111111100000001111111111111110111111111111111111111111111111111111111111111111111000000000000000001111111111111111110000001111
11111111111000000001111111111111110111111111111111111111111111111111111111111111111110000000000000000001111111111111111110000001111
11111111111000000001111111111111110111111111111111111111111111111111111111111111111100000000000000000000111111111111111110000001111
11111111111111111111111111111111111111111111111111111111111111111111111111111111110000000000000000000000011111111111111110000001111
11111111111111111111111111111111111111111111111111111111111111111111111111111111000000000000000000000000000111111111001110000001111
11111111111111111111111111111111111111111111111111111111111111111111111111111111000000000000000000000000000000000000001100000001111
11111111111111111111111111111111111111111111111111111111111111111111111111111111000000000000000000000000000000000000001100000011111
11111111111111111111111111111111111111111111111111111111111111111111111111111111000000000000000000000000000000000000001100000011111
11111111111111111111111111111111111111111111111111111111111111111111111111111111011111000000000000000000000000000000001100000011111
11111111111111111111111111111111111111111111111111111111111111111111111111111110011111110000000000000000000000000000001100000011111
11111111111111111111111111111111111111111111111111111111111111111111111111111110111111111000000000000000000000000000001100000011111
11111111111111111111111111111111111111111111111111111111111111111111111111111111111111111000000000000000000000000000001100000011111
11111111111111111111111111111111111111111111111111111111111111111111111111111111111111111000000000000000000000000000001100000011111
11111111111111111111111111111111111111111111111111111111111111111111111111111111111111111000000000000000000000000000000100000011111
11111111111111111111111111111111111111111111111111111111111111111111111111111111111111110000000000000000000000000000001100000011111
11111111111111111111111111111111111111111111111111111111111111111111111111111111111110000000000000000000001111111111111100000011111
11111111111111111111111111111111111111111111111111111111111111111111111111111111011100000000000000000000000000000000000000000011111
11111111111111111111111111111111111111111111111111111111111111111111111111111110000000000000000000000000000000000000000000000011111
11111111111111111111111111111111111111111111111111111111111111111111111111111110000000000000000000000000000000000000000000000011111
11111111111111111111111111111111111111111111111111111111111111111111111111111110000000000000000000000000000000000000000000000011111
11111111111111111111111111111111111111111111111111111111111111111111111111111111000000000000000000000000001111111111111100000011111
11111111111111111111111111111111111111111111111111111111111111111111111111111111000000000000000000000000000000000000000100000011111
11111111111111111111111111111111111111111111111111111111111111111111111111111111000000000000000000000000000000001100001111111111111
11111111111111111111111111111111111111111111111111111111111111111111111111111111000000000000000000000000000000011110001111111111111
11111111111111111111111111111111111111111111111111111111111111111111111111111111000000000000000000000000000000111111000000001111111
11111111111111111111111111111111111111111111111111111111111111111111111111111111000000000000000000000000000001111111111111111111111
11111111111111111111111111111111111111111111111111111111111111111111111111111111000000000000000000000000000001111111111111111111111
11111111111111111111111111111111111111111111111111111111111111111111111111111110000000000000000000000000000001111111111111111111111
11111111111111111111111111111111111111111111111111111111111111111111111111111110000000000000000000000000000000111111111111111111111
11111111111111111111111111111111111111111111111111111111111111111111111111111110000000000000000000000000000000011111111111111111111
11111111111111111111111111111111111111111111111111111111111111111111111111111110000000000000000000000000000000011111111111111111111
11111111111111111111111111111111111111111111111111111111111111111111111111111110000000000000000000000000000000011111111111111111111
11111111111111111111111111111111111111111111111111111111111111111111111111111110000000000000000000000000000000011111111111111111111
11111111111111111111111111111111111111111111111111111111111111111111111111111110000000000000000000000000000000011111111111111111111
11111111111111111111111111111111111111111111111111111111111111111111111111111110000000000000000000000000000000011111111111111111111
11111111111111111111111111111111111111111111111111111111111111111111111111111110000000110000000000000110000000111111111111111111111
11111111111111111111111111111111111111111111111111111111111111111111111111111110111111110000000000000111111111111111111111111111111
11111111111111111111111111111111111111111111111111111111111111111111111111111110111111111000000000000111111111111111111111111111111
11111111111111111111111111111111111111111111111111111111111111111111111111111111111111111100000000011111111111111111111111111111111
11111111111111111111111111111111111111111111111111111111111111111111111111111111111111111100000000011111111111111111111111111111111
11111111111111111111111111111111111111111111111111111111111111111111111111111111111111111100000000001111111111111111111111111111111
11111111111111111111111111111111111111111111111111111111111111111111111111111111111111111100000000001111111111111111111111111111111
11111111111111111111111111111111111111111111111111111111111111111111111111111111111111111111111111111111111111111111111111111111111
11111111111111111111111111111111111111111111111111111111111111111111111111111111111111111111111111111111111111111111111111111111111
