1111111111111111111111111111111111111111111111111111111111111111
1111111111111111111111111111111111111111111111111111111111111111
1111111111111111111111111111111111111111111111111111111111111111
1111111000001111111111111111111111111111111111111111111111111111
1111111000001111111111111111111111111111111111111111111111111111
1111111100001111111111111111111111111111111111111111111111111111
1111111110000011111111111111111111111111111111111111111111111111
1111111100000001111111100111111000111111100000011111111011111111
1111111000000000011111100111111000001111000000011111111011111111
1111111000000000000000000000000000000000000000011111111011111111
1111111000000000000000000000000000000000000000011111111011111111
1111110000000000000000000000000000000000000000011111111001111111
1111110000000011000000000000000000000000001000011111111001111111
1111111000000111110000000000010000000000011100000000000001111111
1111111000001111111000000000111110000001111110000000000000111111
1111111000001111111000000001111110000001111110000000000000111111
1111111000011111111000000000111110000001111100000000000000011111
1111111000011111110000000001111110000001111000000000000100011111
1111111000111111100000000001111110000001111100000000000111011111
1111111000001111000000000001111100000001111100000000001111111111
1111111000000111000000000000100000000000011100000000001111111111
1111111000000000000000000000000000000000000000000000011111111111
1110000000000000000000000000000000000000000000000000000111111111
1110000000000000000000000000110000000000000000000000000011111111
1110000000000111100000000000111000000000000000000000000000111111
1110000000001111110000000011111100000001111110000000000000000111
1110000000001111110000000011111100000001111111100000000000000111
1110000000001111110000000011111110000001111111110000000000000111
1110000000000111111000000001111110000000011111100000000000000111
1111110000000111111000000001111100000000011111100000000001111111
1111111000000111111000000000000000000000001111100000000001111111
1111111100000011111000000000000000000000000111000000000111111111
1111111100000011000000000000000000000000000000000000000111111111
1111111100000000000000000111111110000000000000000000011111111111
1111111110000000000000011111111111000000000000011011011111111111
1111111110000000000001111111111111000000001111111111111111111111
1111111111100000000111111111111111000000001111111111111111111111
1111111111111111111111111111111111000111111111111111111111111111
1111111111111111111111111111111111100111111111111111111111111111
1111111111111111111111111111111111100011111111111111111111111111
1111111111111111111111111111111100000000000111111111111111111111
1111111111111111111111111111100000000000000111111111111111111111
1111111111111111111111111111100000000000000111111111111111111111
1111111111111111111111111111100000000000000111111111111111111111
1111111111111111111111111111100000000000000111111111111111111111
1111111111111111111111111111100000000000000011111111111111111111
1111111111111111111111111111100000000000000001111111111111111111
1111111111111111111111111110100000000000000001111111111111111111
1111111111111111111111111110010000000000011111111111111111111111
1111111111111111111111111111001000000000111111111111111111111111
1111111111111111111111111111100100000001111111111111111111111111
1111111111111111111111111111110100000001111111111111111111111111
1111111111111111111111111110000000000000111111111111111111111111
1111111111111111111111111111111110011111111111111111111111111111
1111111111111111111111111111111110011111111111111111111111111111
1111111111111111111111111100111110011111111111111111111111111111
1111111111111111111111111100000000000001111111111111111111111111
1111111111111111111111111100000000000001111111111111111111111111
1111111111111111100000000000000000000001111111111111111111111111
1111111111111111110000000000000000000001111111111111111111111111
1111111111111111111000000000000000000001111111111111111111111111
1111111111111111111110000000000000000001111111111111111111111111
1111111111111111111110000000000000000001111111111111111111111111
1111111111111111111110000000000000000001111111111111111111111111
1111111111111111110000000000000000000000011111111111111111111111
1111111111111111111110000000000000000000011111111111111111111111
1111111111111111111110000000000000000000111111111111111111111111
1111111111111111111110000000000000000000111111111111111111111111
1111111111111111111110000000000000000000111111111111111111111111
1111111111111111111110000000000000000000001111111111111111111111
1111111111111111111110000000000000000000000011111111111111111111
1111111111111111111111110000000000000000001111111111111111111111
1111111111111111111111111000000000000000001111111111111111111111
1111111111111110000111111000000000000000001111111111111111111111
1111111111111110000111111000000000000000001111111111111111111111
1111111111111110000111100000000000000000011111111111111111111111
1111111111111111110000000000000000000000011111111111111111111111
1111111111111111110000000000000000000000111111111111111111111111
1111111111111111110000000000000000000000111111111111111111111111
1111111111111111110000000000000000000000001111111111111111111111
1111111111111110000000000000000000000000001111111111111111111111
1111111111111110000000000110000000000000111111111111111111111111
1111111111111110000000110110000011111111111111111111111111111111
1111111111111110000001111111111111111111111111111111111111111111
1111111111111110000001111111111111111111111111111111111111111111
1111111111111111111111111111111111111111111111111111111111111111
1111111111111111111111111111111111111111111111111111111111111111
1111111111111111111111111111111111111111111111111111111111111111
