1111111111111111111111111111111111111111111111111111111111111111111111111111111111111111111111111111111111111111111111111111111111
1111111111111111111111111111111111111111111111111111111111100001111111111111111111111111111111111111111111111111111111111111111111
1111111111111111111111111111111111111111111000000011111110000000011111111111001111111111111111111111111111111111111111111111111111
1111111111111111111111111111111111111111111100000011111110000000011111111111000111111111111111111111111111111111111111111111111111
1111111111111111111111111111111111111111111111000000000000000000000000000000000011111111111111111111111111111111111111111111111111
1111111111111111111111111111111111111111111111000000000000000000000000000000000011111111111111111111111111111111111111111111111111
1111111111111111111111111111111111111111111111000000000000000000000000000000011111111111111111111111111111111111111111111111111111
1111111111111111111111111111111111111111111111000000000110000000110000000001111111111111111111111111111111111111111111111111111111
1111111111111111111111111111111111111111111110000000000110000000110000000001111111111111111111111111111111111111111111111111111111
1111111111111111111111111111111111111111111110000000000000000000000000000001111111111111111111111111111111111111111111111111111111
1111111111111111111111111111111111111111111110000000000000000000000000000001111111111111111111111111111111111111111111111111111111
1111111111111111111111111111111111111111111110000000000000000000000000000001111111111111111111111111111111111111111111111111111111
1111111111111111111111111111111111111111111100000000000000000000000000000001111111111111111111111111111111111111111111111111111111
1111111111111111111111111111111111111111111000000000000000000000000000000000011111111111111111111111111111111111111111111111111111
1111111111111111111111111111111111111111111000000000000000000000000000000000011111111111111111111111111111111111111111111111111111
1111111111111111111111111111111111111111111000000000000000000000000000000000001111111111111111111111111111111111111111111111111111
1111111111111111111111111111111111111111111000000000000000000000000000000000001111111111111111111111111111111111111111111111111111
1111111111111111111111111111111111111111111000000000000000000000000000000000000111111111111111111111111111111111111111111111111111
1111111111111111111111111111111111111111111000000000000000000000000000000000111111111111111111111111111100000011111100111011111111
1111111111111111111111111111111111111111111000000000000000000000000000000111111111111111111111111111111000000011111100000001111111
1111111111111111111111111111111111111111111110000000000000000000000000001111111111111111111111111111111010000000000100000000111111
1111111111111111111111111111111111111111111110111000000000000000000000001110111111111111111111111111111110000000000011000000111111
1111111111111111111111111111111111111111111111111000000000000000000000001110111111111111111111111111110000000000000011000000111111
1111111111111111111111111111111111111111111111111100000000000000000000001110111111111111111111111111111000000000110011000000111111
1111111111111111111111111111111111111111111111111110000000000000000000001110111111111111111111111111111010000011110011000000111111
1111111111111111111111111111111111111111111111111110000000000000000000001100111111111111111111111111110000001111000011000000111111
1111111111111111111111111111111111111111111111111110000000000000000000000000111111111111111111111111100000111100000011000000111111
1111111111111111111111111111111111111111111111111100000000000000000000000000111111111111111111111111100000100000000011000000111111
1111111111111111111111111111111111111111111111110000000000000000000000000000111111111111111111111110000001100001110011000000111111
1111111111111111111111111111111111111111111111100000000000000000000000000000111111111111111111111110000000100001110000001100111111
1111111111111111111111111111111111111111111111000000000000000000000000000000111111111111111111111110000000000001110000011100111111
1111111111111111111111111111111111111111111111111000000000000000000000000000111111111111111111111100010000000000000000011111111111
1111111111111111111111111111111111111111111111111100000000000000000000000111111111111111111111111100011000000000000000011011111111
1111111111111111111111111111111111111111111111111100000000000000000000000111111111111111111111111100000000000000000000000001111111
1111111111111111111111111111111111111111111111111110000000000000000000000111111111111111111111111100000000000000000000000001111111
1111111111111111111111111111111111111111111111111110000000000000000000000000111111111111111111111111100000000000000000000000110111
1111111111111111111111111111111111111111111111111111000000000000000000000000111111111100000000000000000000000000000000000000110111
1111111111111111111111111111111111111111111111111111100000000000000000000000111111111100000000000000000000000000000000000000000111
1111111111111111111111111111111111111111111111111111111000000000000000000000000000000000000000000000000000000000000000000000000111
1111111111111111111111111111111111111111111111111111111000000000000000000000000000000000000000000000000000000000000000000000000111
1111111111111111111111111111111111111111111111111111111100000000000000000000000000000000000000000000000000000000000000000000000111
1111111111111111111111111111111111111111111111111111111000000000000000000000000000000000000000000000000000000000000000000000000111
1111111111111111111111111111111111111111111111111111111000000000000000000000000000000000000000000000000000000000000000000000000111
1111111111111111111111111111111111111111111111111111110000000000000000000000000000000000000000000000000000000000000000000000000111
1111111111111111111111111111111111111111111111111111100000000000000000000000000000000000000000000000000000000000000000000000110111
1111111111111111111111111111111111111111111111111111000000000000000000000000000000000000000000000000000000000000000000000000110111
1111111111111111111111111111111111111111111111111110000000000000000000000000000000000000000000000000000000000000000000000000111111
1111111111111111111111111111111111111111111111111100000000000000000000000000000000000000000000000000000000000000000000000000111111
1111111111111111111111111111111111111111111000000000000000000000000000000000000000000000000000000110000000000000000000000000111111
1111111111111111111111111111111111111111111100000000000000000000000000000000000000000000000000000110000000011110000000000000111111
1111111111111111111111111111111111111111111110000000000000000000000000000000000000000000000000001111111110011111111100111000111111
1111111111111111111111111111111111111111111111110000000000000000000000000000000000000000000000001111111111111111111111111111111111
1111111111111111111111111111111111111111111111110000000000000000000000000000000000000000000000001111111111111111111111111111111111
1111111111111111111111111111111111111111111111111100000000000000000000000000000000000000000000011111111111111111111111111111111111
1111111111111111111111111111111111111111111111110000000000000000000000000000000000000000000000011111111111111111111111111111111111
1111111111111111111111111111111111111111111111110000000000000000000000000000000000000000000000011111111111111111111111111111111111
1111111111111111111111111111111111111111111111110000000000000000000000000000000000000000000000011111111111111111111111111111111111
1111111111111111111111111111111111111111111111110000000000000000000000000000000000000011111111111111111111111111111111111111111111
1111111111111111111111111111111111111111111111110000000000000000000000000000000000000011111111111111111111111111111111111111111111
1111111111111111111111111111111111111111111111110000000000000000000000000000000000000010000000000000000001111111111111111111111111
1111111111111111111111111111111111111111111111110000000000000000000000000000000000000010000000000000000001111111111111111111111111
1111111111111111111111111111111111111111111111110000000000000000000000000000000000000010000000000000000111111111111111111111111111
1111111111111111111111111111111111111111111111110000000000000000000000000000000000000010000000000000000111111111111111111111111111
1111111111111111111111111111111111111111111111110000000000000000000000000000000000000010000000110000001111111111111111111111111111
1111111111111111111111111111111111111111111111110000000000000000000000000000000000000110000001111000001111111111111111111111111111
1111111111111111111111111111111111111111111111110000000000000000000000000000000000100110000011111100001111111111111111111111111111
1111111111111111111111111111111111111111111111110000000000000000000000000111111111111110000111111111111111111111111111111111111111
1111111111111111111111111111111111111111111111110000000000000000000000000000000000000000001111111111111111111111111111111111111111
1111111111111111111111111111111111111111111111110000000000000000000000000000000000000000000111111111111111111111111111111111111111
1111111111111111111111111111111111111111111111111111100000000000000000000000000000000000000011111111111111111111111111111111111111
1111111111111111111111111111111111111111111111111111111110000000000000000000000000000000000001111111111111111111111111111111111111
1111111111111111111111111111111111111111111111111111111110000000000000000111111111111110000000111111111111111111111111111111111111
1111111111111111111111111111111111111111111111111111111110000000000000000111111111111110000000111111111111111111111111111111111111
1111111111111111111111111111111111111111111111111111111110000000000000000000000000000110000000111111111111111111111111111111111111
1111111111111111111111111111111111111111111111111111111110000000000000000000000000000110000000111111111111111111111111111111111111
1111111111111111111111111111111111111111111111111111111110000000000000000000000000000110000000111111111111111111111111111111111111
1111111111111111111111111111111111111111111111111111111110000000000000000000000000000110000000111111111111111111111111111111111111
1111111111111111111111111111111111111111111111111111111110000000000000000000000000000110000000111111111111111111111111111111111111
1111111111111111111111111111111111111111111111111111111110000000000000000000000000000110000000111111111111111111111111111111111111
1111111111111111111111111111111111111111111111111111111110000000000000000000000000011110000000111111111111111111111111111111111111
1111111111111111111111111111111111111111111111111111111110000000000000000000011111111110000111111111111111111111111111111111111111
1111111111111111111111111111111111111111111111110111111100000000000000000000000000000110000111111111111111111111111111111111111111
1111111111111111111111111111111111111111111111100000000000000000000000000000000000000110111111111111111111111111111111111111111111
1111111111111111111111111111111001111111101110000000000000000000000000000000001111111110111111111111111111111111111111111111111111
1111111111111111111111111111110001111111100000000000000000000000000000000000001111111110111111111111111111111111111111111111111111
1111111111111111111111111111100011111111100000000000000000000000000000000000001111111111111111111111111111111111111111111111111111
1111111111111111111111111111000001111111100000000000000000000000000000000000001111111111111111111111111111111111111111111111111111
1111111111111111111111111111000001111111110000000000000000000000000000000000111111111111111111111111111111111111111111111111111111
1111111111111111111111111110000001111111110000000000000000000000000000000000111111111111111111111111111111111111111111111111111111
1111111111111111111111111100000000111111100000000000000000000000000000000000001111111111111111111111111111111111111111111111111111
1111111111111111111111111000000000000000000000000000000000000000000111111111111111111111111111111111111111111111111111111111111111
1111111111111111111111110000000000000000000000000000000000000000000111111111111111111111111111111111111111111111111111111111111111
1111111111111111111111100000000000000000000000000000000000000000000111111111111111111111111111111111111111111111111111111111111111
1111111111111111111111000000000000000000000000000000000000000000000111111111111111111111111111111111111111111111111111111111111111
1111111111111111111110000000000000000000000000000000000000000000111111111111111111111111111111111111111111111111111111111111111111
1111111111111111111100000000000000000000000000000000000000000001111111111111111111111111111111111111111111111111111111111111111111
1111111111111111111100000000000000000000000000000000000000000001111111111111111111111111111111111111111111111111111111111111111111
1111111111111111111100000000000000000000000000000000000000000000011111111111111111111111111111111111111111111111111111111111111111
1111111111111111111100000000000000000000000000000000000000000000001111111111111111111111111111111111111111111111111111111111111111
1111111111111111111100000000000000000000000000000000000000000000011111111111111111111111111111111111111111111111111111111111111111
1111111111111111111100000000000000000000000000000000000000000000011111111111111111111111111111111111111111111111111111111111111111
1111111111111111111100000000000000000000000000000000000000000001111111111111111111111111111111111111111111111111111111111111111111
1111111111111111111100000000000000000000000000000000000000000001111111111111111111111111111111111111111111111111111111111111111111
1111111111111111111110000000000000000000000000000000000000000001111111111111111111111111111111111111111111111111111111111111111111
1111111111111111111111000000000000000000000000000000000000000001111111111111111111111111111111111111111111111111111111111111111111
1111111111111111111110000000000000000000000000000000000000000001111111111111111111111111111111111111111111111111111111111111111111
1111111111111111111100000000000000000000000000000000000000000001111111111111111111111111111111111111111111111111111111111111111111
1111111111111111111000000000000000000000000000000000000000000001111111111111111111111111111111111111111111111111111111111111111111
1111111111000011110000000000000000000000000000000000000000000001111111111111111111111111111111111111111111111111111111111111111111
1111111111000001100000000000000000000000000000000000000000000001111111111111111111111111111111111111111111111111111111111111111111
1111111111000000000000011000000000000000110000000000000000000001111111111111111111111111111111111111111111111111111111111111111111
1111111110000000000000011000000000000000110000000000000000001111111111111111111111111111111111111111111111111111111111111111111111
1111111000000000000000000000000000000000000000000000000000001111111111111111111111111111111111111111111111111111111111111111111111
1111111000000000000001111111000000000011111110000000000000001111111111111111111111111111111111111111111111111111111111111111111111
1111111000000000000001111111000000000011111110000000000000001111111111111111111111111111111111111111111111111111111111111111111111
1111111000000000000001111111000000000011111110000000000000001111111111111111111111111111111111111111111111111111111111111111111111
1111100000000000000001111111000000000011111111000000000000001111111111111111111111111111111111111111111111111111111111111111111111
1111100011000000000011111111000000000011111111100000000000001111111111111111111111111111111111111111111111111111111111111111111111
1111100001100000000111111111000000000011111111110000011110001111111111111111111111111111111111111111111111111111111111111111111111
1111100000110000001111111111000000000011111111111000111000011111111111111111111111111111111111111111111111111111111111111111111111
1111110000011000011111111111111111111111111111111111100000011111111111111111111111111111111111111111111111111111111111111111111111
1111111000001000111111111111111111111111111111111110000000011111111111111111111111111111111111111111111111111111111111111111111111
1111111100001001111111111111111111111111111111111111000001111111111111111111111111111111111111111111111111111111111111111111111111
1111111110000011111111111111111111111111111111111111100111111111111111111111111111111111111111111111111111111111111111111111111111
1111111111000111111111111111111111111111111111111111111111111111111111111111111111111111111111111111111111111111111111111111111111
1111111111111111111111111111111111111111111111111111111111111111111111111111111111111111111111111111111111111111111111111111111111
1111111111111111111111111111111111111111111111111111111111111111111111111111111111111111111111111111111111111111111111111111111111
1111111111111111111111111111111111111111111111111111111111111111111111111111111111111111111111111111111111111111111111111111111111
1111111111111111111111111111111111111111111111111111111111111111111111111111111111111111111111111111111111111111111111111111111111
1111111111111111111111111111111111111111111111111111111111111111111111111111111111111111111111111111111111111111111111111111111111
