11111111111111111111111111111111111111
11111111111111111111100111111111111111
11111111111111110000000000001111111111
11111111000111110000000000001111111111
11111111000000000000000000011111111111
11111111000000000000000000001111111111
11111111000000000000000000000000111111
11111111000000000000000000000000011111
11110000000000000000000000000000011111
11100000000000000000000000000000111111
11100000000000000000000000000000111111
11100000000000000000000000000000111111
11100000001111111111100000000000111111
11100000001111111111100000000000111111
11100000001111111111110000000000111111
11111001111111111111110000000001111111
11111001111111111111110000000001111111
11111001111111111111110000000001111111
11100000000001111111110000000001111111
11100000000000011111110000000001111111
11100000000000011111111000000001111111
11111111110000011111111011000001111111
11111111111111111111111111001111111111
11111111111111111111111111101111111111
11111111111111111111111111111111111111
11111111111111111111111111111111111111
11111111111111111111111111111111111111
11111111111111111111111111111111111111
