11111111111111111111111111111111111
11111111111111110000111111111111111
11111111111111110000111111111111111
11111111111111110000111111111111111
11111111111111100000111111111111111
11111111111111000000011111111111111
11111111111111000000011111111111111
11111111100000000000001111111111111
11111110000000000000001111111111111
11111100000000000000000111111111111
11111100000000000000000001111111111
11111000000000001111000000011111111
11110000000001111111110000011111111
11110000000011111111111100001111111
11100000000111111111111110001111111
11100000001111111111111110000111111
11100000001111111111111111000011111
11100000001111111111111111000011111
11100000011111111111111111000000011
11100000111111111111111111000000011
11100000111111111111111111000000011
11100000011111111111111111000000011
11100000001111111111111111000000011
11110000001111111111111111100000111
11110000000111111111111111001111111
11110000000111111111111111001111111
11111000000011111111111111111111111
11111110000000111111111111111111111
11111110000000011111111111111111111
11111111110000011111111111111111111
11111111110000111111111111111111111
11111111111011111111111111111111111
11111111111111111111111111111111111
11111111111111111111111111111111111
11111111111111111111111111111111111
11111111111111111111111111111111111
11111111111111111111111111111111111
11111111111111111111111111111111111
11111111111111111111111111111111111
11111111111111111111111111111111111
11111111111111111111111111111111111
11111111111111111111111111111111111
11111111111111111111111111111111111
11111111111111111111111111111111111
