1111111111111111111111111111111111111111111
1111111111111111111111111111111111111111111
1111111111111111111111111111111111111111111
1110000000000000011111111111111111111111111
1110000000000000000000011111111111111111111
1100000000000000000000011111111111111111111
1110000000000000000000011111111111111111111
1110000000000000000000011111111111111111111
1110000000000000000000001111111111111111111
1110000000000000000000001111111111111111111
1110000000000000000000001111111111111111111
1110000000111100000000001111111111111111111
1110000000111100000000000011111111111111111
1110000000111100000000000011111111111111111
1110000000000000000000000011111111111111111
1110000000000000000000001111111111111111111
1111000000000000000000001111111111111111111
1111000000000000000000001111111111111111111
1110000000000000000000001111111111111111111
1110000000000000000000001100000000000011111
1110000000000000000000000000000000000001111
1111000000000000000000000000000000000000111
1111000010000000000000000000000000000011111
1111111111000000000000001100000000011111111
1111111111110011111111111100000000011111111
1111111111110011111111111110000000011111111
1111111111110001111111111110000000011111111
1111111111000000111111111110000000000111111
1111111100000000001111111110000000001111111
1111111100000000000000011110000000001111111
1111000000000000000000011110000000000111111
1101000000000000000000011110000000000111111
1100000000000000000000011110000000000111111
1110000000000000000000011110000000000001111
1111111100000000000000011100000000000001111
1111111100000000000000011100000000000000111
1111111100000000000000000000000000000000111
1111111100000000000000000000000000110000111
1111111100000000000000000000000001111111111
1111111110000000011111111100000001111111111
1111111111111111111111111111111111111111111
1111111111111111111111111111111111111111111
1111111111111111111111111111111111111111111
