11111111111111111111111111111111111111111111111111111111111111111111111111111111111111111111111111111111111111111111111111111111111111111111111111111111111111111
11111111111111111111111111111111111111111111111111111111111111111111111111111111111111111111111111111111111111111111111111111111111111111111111111111111111111111
11111111111111111111111111111111111111111111111111111111111111111111111111111111111111111111111111111111111111111111111111111111111111111111111111111111111111111
11111111111111111111111111111111111111111111111111111111111111111111111111111111111111111111111111111111111111111111111111111111111111111111111111111111111111111
11111111111111111111111111111101111101111111111111111111111111111111111111111111111111111111111111111111111111111111111111111111111111111111111111111111111111111
11111111111111111111111111111101111101111111111111111111111111111111111111111111111111111111111111111111111111111111111111111111111111111111111111111111111111111
11111111111111111111111111111000000000111111111111111111111111111111111111111111111111111111111111111111111111111111111111111111111111111111111111111111111111111
11111111111111111111111000000000000000000011111111111111111111111111111111111111111111111111111111111111111111111111111111111111111111111111111111111111111111111
11111111111111111111111000001000000001100011111111111111111111111111111111111111111111111111111111111111111111111111111111111111111111111111111111111111111111111
11111111111111111111111000001100000000000011111111111111111111111111111111111111111111111111111111111111111111111111111111111111111111111111111111111111111111111
11111111111111111111100000000000000000000011111111111111111111111111111111111111111111111111111111111111111111111111111111111111111111111111111111111111111111111
11111111111111111111100000000000000000000000011111111111111111111111111111111111111111111111111111111111111111111111111111111111111111111111111111111111111111111
11111111111111111111100000000000000000000000011111111111111111111111111111111111111111111111111111111111111111111111111111111111111111111111111111111111111111111
11111111111111111110000000000000000000000000001111111111111111111111111111111111111111111111111111111111111111111111111111111111111111111111111111111111111111111
11111111111111111111111111000000000000000000001111111111111111111111111111111111111111111111111111111111111111111111111111111111111111111111111111111111111111111
11111111111111111111111111000000000000000000001111111111111111111111111111111111111111111111111111111111111111111111111111111111111111111111111111111111111111111
11111111111111111111111111000000000000000000001111111111111111111111111111111111111111111111111111111111111111111111111111111111111111111111111111111111111111111
11111111111111111111111111000000000000000000001111111111111111111111111111111111111111111111111111111111111111111111111111111111111111111111111111111111111111111
11111111111111111111111111000000000000000000001111111111111111111111111111111111111111111111111111111111111111111111111111111111111111111111111111111111111111111
11111111111111111111111111000000000000000000001111111111111111111111111111111111111111111111111111111111111111111111111111111111111111111111111111111111111111111
11111111111111111111111111000000000000000000001111111111111111111111111111111111111111111111111111111111111111111111111111111111111111111111111111111111111111111
11111111111111111110000000000000000000000000001111111111111111111111111111111111111111111111111111111111111111111111111111111111111111111111111111111111111111111
11111111111111111111100000000000000000000000111111111111111111111111111111111111111111111111111111111111111111111111111111111111111111111111111111111111111111111
11111111111111111111100000000000000000001001111111111111111111111111111111111111111111111111111111111111111111111111111111111111111111111111111111111111111111111
11111111111111111111100000000000000000011101111111111111111111111111111111111111111111111111111111111111111111111111111111111111111111111111111111111111111111111
11111111111111111111111000000000000000111111111111111111111111111111111111111111111111111111111111111111111111111111111111111111111111111111111111111111111111111
11111111111111111111111111101100000001111111111111111111111111111111111111111111111111111111111111111111111111111111111111111111111111111111111111111111111111111
11111111111111111111111111111110000000111111111111111111111111111111111111111111111111111111111111111111111111111111111111111111111111111111111111111111111111111
11111111111111111111111111111110000000111111111111111111111111111111111111111111111111111111111111111111111111111111111111111111111111111111111111111111111111111
11111111111111111111111111111000000000111111111111111111111111111111111111111111111111111111111111111111111111111111111111111111111111111111111111111111111111111
11111111111111111111111111111000000000111111111111111111111111111111111111111111111111111111111111111111111111111111111111111111111111111111111111111111111111111
11111111111111111111111111111111000000111111111111111111111111111111111111111111111111111111111111111111111111111111111111111111111111111111111111111111111111111
11111111111111111111111111111111000111111111111111111111111111111111111111111111111111111111111111111111111111111111111111111111111111111111111111111111111111111
11111111111111111111111111111111000111111111111111111111111111111111111111111111111111111111111111111111111111111111111111111111111111111111111111111111111111111
11111111111111111111111111111111000111111111111111111111111111111111111111111111111111111111111111111111111111111111111111111111111111111111111111111111111111111
11111111111111111111111111110000000000011111111111111111111111111111111111111111111111111111111111111111111111111111111111111111111111111111111111111111111111111
11111111111111111111111111110000000000011111111111111111111111111111111111111111111111111111111111111111111111111111111111111111111111111111111111111111111111111
11111111111110011011111110000000000000000001111111111111111111111111111111111111111111111111111111111111111111111111111111111111111111111111111111111111111111111
11111111111110000000000000000000000000000000111111111111111111111111111111111111111111111111111111111111111111111111111111111111111111111111111111111111111111111
11111111111110000000000000000000000000000000011111111111111111111111111111111111111111111111111111111111111111111111111111111111111111111111111111111111111111111
11111111111100000000000000000000000000000000001111111111111111111111111111111111111111111111111111111111111111111111111111111111111111111111111111111111111111111
11111111111100000000000000000000000000000000001111111111110000111111111111111111111111111111111111111111111111111111111111111111111111111111111111111111111111111
11111111111100000000000000000000000000000000001111000011110000111111111111111111111111111111111111111111111111111111111111111111111111111111111111111111111111111
11111111111000000000000000000000000000000000000110000001110000011011111111111111111111111111111111111111111111111111111111111111111111111111111111111111111111111
11111111111110000000000000000000000000000000000000000001110000000001111111111111111111111111111111111111111111111111111111111111111111111111111111111111111111111
11111111111110000000000000000000000000000000000000000001110000000000111111111111111111111111111111111111111111111111111111111111111111111111111111111111111111111
11111111111110000000000011110000110000000000000000000001110000000000011111111111111111111111111111111111111111111111111111111111111111111111111111111111111111111
11111111111110000000111111111111111000000000000000000000000000000000001111111111111111111111111111111111111111111111111111111111111111111111111111111111111111111
11111111111111110001111111111111111100000000000000000000000000000000001111111111111111111111111111111111111111111111111111111111111111111111111111111111111111111
11111111111111110001111111111111111111100000000000000000000000000000001111111111111111111111111111111111111111111111111111111111111111111111111111111111111111111
11111111111111110001111111111111111111100000000000000001110000000000001111111111111111111111111111111111111111111111111111111111111111111111111111111111111111111
11111000111111000000000001111111111111100000000000000001111100000000001111111111111111111111111111111111111111111111111111111111111111111111111111111111111111111
11111000111111000000000001111111111111100000000000000001111100000000001111111111111100000011011111111111111111111111111111111111111111111111111111111111111111111
11100010000000000000000001111111111111111100001111000001111100000000001111111100000000000000000000011111111111111111111111111111111111111111111111111111111111111
11100110000000000000000000000111111111111100001111000011111100000000011111111100000000000000000000011111111111111111111111111111111111111111111111111111111111111
11100100000000000000000000000111111111111111111111111111111100000000011111111100000000000000000000011111111111111111111111111111111111111111111111111111111111111
11100000000000000000000000000111111111111111111111111111111100000000011111110000000000000000000000001111111111111111111111111111111111111111111111111111111111111
11100100000000000000000000000011111111111111111111111111111100000000011111110000000000000000000000001111111111111111111110000000000000001100000000000011111111111
11100010000000000000000000000011111111111111111111111111111100000000111111110000000000000000000000001111111100000000000000000000000000000000000000000011111111111
11100010000000000000000000000011111111111111111111111111111100000000111111000000000000000000000000000001111100000000000000000000000000000000000000000011111111111
11100000000000000000000000000011111111111111111111111111111100000000000111000000000000000000000000000001111100000000000000000000000000000000000000000011111111111
11100000000000000000000000000011111111111111111111111111111100000000000111000000000000000000000000000001110000000000000000000000000000000000000000000011111111111
11100000000000000000000000000011111111111111111111111111111100000000000000000000000000000000000000000000000000000000000000000000000000000000000000000011111111111
11111111111110000000000000000011111111111111111111111111111100000000000000000000000000000000000000000000000000000000000000000000000000000000000000000011111111111
11111111111110000000000000000011111111111111111111111111111100000000000000000000000000000000000000000000000000000000000000000000000000000000000000000011111111111
11111111111111000000000000000011111111111111111111111111111100000000000111000000000000000000000000000001110000000000000000000000000000000000000000000011111111111
11111111111111000000000000000011111000011111111101111111111100000000001111000000000000000000000000000001110000000000000000000000000000000000000000000011111111111
11111111111111000000000000000001111000011111111101111111111100000000001111000000000000000000000000000001110001110000000000000000000000000000000000000011111111111
11111111111111000000000000000001111000000000000000000011111100000000000111110000000000000000000000001111110001110000000000000000000000000000000000000011111111111
11111111111110000000000000000011111100000000000000000011111100000000000111110000000000000000000000001111111111111111111110000000000000001100000000000011111111111
11100000000110000000000000000011111100000000000000000011111100000000111111110000000000000000000000001111111111111111111111111111111111111110000000011111111111111
11111110000000000000000000000011111100000000000000000011111100000000111111111100000000000000000000011111111111111111111111111111111111111110000000011111111111111
11111110000000000000000000000011111111111111100000000011111100000000111111111100000000000000001111011111111111111111111111111111111111111100000000011111111111111
11111110000000000000000000000011111111111111100000000001111100000000111111111100000000000000111111111111111111111111111111111111111111111100000000000011111111111
11111110000000000000000000001111111111111111100000000001111100000000111111111111111100000000111111111111111111111111111111111111111111111100000000000011111111111
11111110000000000000000000011111111111111111100000000001111100000000111111111111111100000000011111111111111111111111111111111111111111111100000000000011111111111
11111000000000001110000001111111111111111111100000000011111100000000111111111111111100000000011111111111111111111111111111111111111111111100000000000011111111111
11111100001110001111111101111111111111111111100000000001110000000000111111111111111111100000011111111111111111111111111111111111111111111100000000000011111111111
11111100001111111111111111111111111111111111100000000001110000000000111111111111111111100011111111111111111111111111111111111111111111111100000000000011111111111
11111111111111111111111111111111111100000000000000000000000000000000111111111111111111100011111111111111111111111111111111111111111111111100000000000011111111111
11111111111111111111111111111111111100000000000000000000000000000000111111111111111111100011111111111111111111111111111111111111111111111100000000000011111111111
11111111111111111111111111111111111111000000000000000000000000000000111111111111111111100011111111111111111111111111111111111111111111111100000000000011111111111
11111111111111111111111111111111111111000000000000000001110000000000111111111111111100000000011111111111111111111111111111111111111111111100000000000011111111111
11111111111111111111111111111111111111000000000000000001110000000000111111111111111100000000011111111111111111111111111111111111111111111100000000000011111111111
11111111111111111111111111111111111111100000000011110001110000000000111111111111111100000000011111111111111111111111111111111111111111111100000000000011111111111
11111111111111111111111111111111111111100000000011111111110000000000111111111111000000000000000000011111111111111111111111111111111111111100000000000011111111111
11111111111111111111111111111111111100000000111011111111110000000000111111111111000000000000000000011111111111111111111111111111111111111111111000111111111111111
11111111111111111111111111111111111111111111111111111111111000000000111111111111000000000000000000011111111111111111111111111111111111111111111000111111111111111
11111111111111111111111111111111111111111111111111111111111000000000111111111111000000000000000000001111111111111111111111111111111111111111111000111111111111111
11111111111111111111111111111111111111111111111111111111111000000000111111111111000000000000000000001111111111111111111111111111111111111110000000001111111111111
11111111111111111111111111111111111111111111111111111111110000000000111111111000000000000000000000001111111111111111111111111111111111111110000000001111111111111
11111111111111111111111111111111111111111111111111111111110000000000111111111000000000000000000000000111111111111111111111111111111111111110000000001111111111111
11111111111111111111111111111111111111111111111111111111110000000000111111111000000000000000000000000111111111111111111111111111111111110000000000000011111111111
11111111111111111111111111111111111111111111111111111111110000000000111111111000000000000000000000000111111111111111111111111111111110000000000000000000001111111
11111111111111111111111111111111111111111111111111111111110000000000111111110000000000000000000000000111111111111111111111111111111110000000000000000000001111111
11111111111111111111111111111111111111111111111111111111000000000000111111000000000000000000000000000111111111111111111111111111111110000000000000000000001111111
11111111111111111111111111111111111111111111111111111111000000000000111111000000000000000000000000000111111111111111111111111111111110000000000000000000001111111
11111111111111111111111111111111111111111111111111111111000000000000111111000000000000000000000000000111111111111111111111111111111110000000000000000000001111111
11111111111111111111111111111111111111111111111111111111110000000001111111000000000000000000000000011111111111111111111111111111111110000000000000000000001111111
11111111111111111111111111111111111111111111111111111111110000011011111111000000000000000000000000111111111111111111111111111111111110000000000000000000001111111
11111111111111111111111111111111111111111111111111111111110000111111111111111100000000000000000000111111111111111111111111111111111110000000000000000000001111111
11111111111111111111111111111111111111111111111111111111110000111111111111111100000000000000000000111111111111111111111111111111111110000000000000000000001111111
11111111111111111111111111111111111111111111111111111111111111111111111111111110000000000000000000111111111111111111111111111111111100000000000000000000001111111
11111111111111111111111111111111111111111111111111111111111111111111111111111110000000000000000000111111111111111111111111111111111100000000000000000000000111111
11111111111111111111111111111111111111111111111111111111111111111111111111111110000000000000000001111111111111111111111111111111111100000000000000000000000111111
11111111111111111111111111111111111111111111111111111111111111111111111111111111000000000000000011111111111111011111111111111111111110000000000000000000000111111
11111111111111111111111111111111111111111111111111111111111111111111111111111111111100000000011111111111111111011111111111111111111111000000000000000000000111111
11111111111111111111111111111111111111111111111111111111111111111111111111111111111100000001111111111111111110011111111111111111111111000000000000000000000111111
11111111111111111111111111111111111111111111111111111111111111111111111111111111111100000001111111111111111100011111000011111111111111000000000000000000001111111
11111111111111111111111111111111111111111111111111111111111111111111111111111111111111100001111111111111110000111110000001111111111111000000000000000000001111111
11111111111111111111111111111111111111111111111111111111111111111111111111111111111111111111111111111111111100000000001100011111111111000000000000000000001111111
11111111111111111111111111111111111111111111111111111111111111111111111111111111111111111111111111111111111100000000001110001111111111000000000000000000001111111
11111111111111111111111111111111111111111111111111111111111111111111111111111111111111111111111111111111111100000000000110001111111111000000000000000000001111111
11111111111111111111111111111111111111111111111111111111111111111111111111111111111111111111111111111111110000000000000000000001111111000000000000000000001111111
11111111111111111111111111111111111111111111111111111111111111111111111111111111111111111111111111111111110001000000000000000001111111000000000000000000001111111
11111111111111111111111111111111111111111111111111111111111111111111111111111111111111111111111111111111111111000000000000000001110100000000000001000000001111111
11111111111111111111111111111111111111111111111111111111111111111111111111111111111111111111111111111111111111000000000000000001110000000000000000000000001111111
11111111111111111111111111111111111111111111111111111111111111111111111111111111111111111111111111111111111111000000000000000001110000000000000000000000000111111
11111111111111111111111111111111111111111111111111111111111111111111111111111111111111111111111111111111111110000000000000000000000000000000000001110000000111111
11111111111111111111111111111111111111111111111111111111111111111111111111111111111111111111111111111111111110000000000000000000000000000000000000100000000111111
11111111111111111111111111111111111111111111111111111111111111111111111111111111111111111111111111111111111110000000000000000000000000000000000000000000000111111
11111111111111111111111111111111111111111111111111111111111111111111111111111111111111111111111111111111110000000000000000000001110000000000000000000000000111111
11111111111111111111111111111111111111111111111111111111111111111111111111111111111111111111111111111111111100000000000000000001110000000000000000000000000111111
11111111111111111111111111111111111111111111111111111111111111111111111111111111111111111111111111111111111100000000000000000001110000000000000000000000000001111
11111111111111111111111111111111111111111111111111111111111111111111111111111111111111111111111111111111111100000000000000000001111110000000000000000000000111111
11111111111111111111111111111111111111111111111111111111111111111111111111111111111111111111111111111111111100000000000000000001111110000000000000000000000111111
11111111111111111111111111111111111111111111111111111111111111111111111111111111111111111111111111111111111100000000000000000111111110000000000000000000000111111
11111111111111111111111111111111111111111111111111111111111111111111111111111111111111111111111111111111111100000111111110000111111110000000000000000000000111111
11111111111111111111111111111111111111111111111111111111111111111111111111111111111111111111111111111111111100000111111110000111111110000000000000000000000111111
11111111111111111111111111111111111111111111111111111111111111111111111111111111111111111111111111111111110000000111111110000011111110000000000000000000000111111
11111111111111111111111111111111111111111111111111111111111111111111111111111111111111111111111111111111111110000111111110000011111111111000000000000001111111111
11111111111111111111111111111111111111111111111111111111111111111111111111111111111111111111111111111111111110000111111110000011111111111111000000000111111111111
11111111111111111111111111111111111111111111111111111111111111111111111111111111111111111111111111111111111110000111111110000011111111111111000000000111111111111
11111111111111111111111111111111111111111111111111111111111111111111111111111111111111111111111111111111111110111111111111110011111111111111000000000111111111111
11111111111111111111111111111111111111111111111111111111111111111111111111111111111111111111111111111111111111111111111111111111111111111111111000111111111111111
11111111111111111111111111111111111111111111111111111111111111111111111111111111111111111111111111111111111111111111111111111111111111111111111000111111111111111
11111111111111111111111111111111111111111111111111111111111111111111111111111111111111111111111111111111111111111111111111111111111111111111111000111111111111111
11111111111111111111111111111111111111111111111111111111111111111111111111111111111111111111111111111111111111111111111111111111111111111111000000000111111111111
11111111111111111111111111111111111111111111111111111111111111111111111111111111111111111111111111111111111111111111111111111111111111111111000000000111111111111
11111111111111111111111111111111111111111111111111111111111111111111111111111111111111111111111111111111111111111111111111111111111111111111000000000111111111111
11111111111111111111111111111111111111111111111111111111111111111111111111111111111111111111111111111111111111111111111111111111111111111000000000000001111111111
11111111111111111111111111111111111111111111111111111111111111111111111111111111111111111111111111111111111111111111111111111111111111100000000000000000001111111
11111111111111111111111111111111111111111111111111111111111111111111111111111111111111111111111111111111111111111111111111111111111111100000000000000000001111111
11111111111111111111111111111111111111111111111111111111111111111111111111111111111111111111111111111111111111111111111111111111111111100000000000000000001111111
11111111111111111111111111111111111111111111111111111111111111111111111111111111111111111111111111111111111111111111111111111111111111100000000000000000001111111
11111111111111111111111111111111111111111111111111111111111111111111111111111111111111111111111111111111111111111111111111111111111111100000000000000000001111111
11111111111111111111111111111111111111111111111111111111111111111111111111111111111111111111111111111111111111111111111111111111111111000000000000000000000000111
11111111111111111111111111111111111111111111111111111111111111111111111111111111111111111111111111111111111111111111111111111111111111100000000000000000000000111
11111111111111111111111111111111111111111111111111111111111111111111111111111111111111111111111111111111111111111111111111111111111111000000000000000000000000111
11111111111111111111111111111111111111111111111111111111111111111111111111111111111111111111111111111111111111111111111111111111111111000000000000000000001000111
11111111111111111111111111111111111111111111111111111111111111111111111111111111111111111111111111111111111111111111111111111111111111000000000000000000001111111
11111111111111111111111111111111111111111111111111111111111111111111111111111111111111111111111111111111111111111111111111111111111111000000000000000000000111111
11111111111111111111111111111111111111111111111111111111111111111111111111111111111111111111111111111111111111111111111111111111111111000000000000000000001111111
11111111111111111111111111111111111111111111111111111111111111111111111111111111111111111111111111111111111111111111111111111111111111000000000000000000001111111
11111111111111111111111111111111111111111111111111111111111111111111111111111111111111111111111111111111111111111111111111111111110001100000000000000111111111111
11111111111111111111111111111111111111111111111111111111111111111111111111111111111111111111111111111111111111111111111111111111110001110000000000000111111111111
11111111111111111111111111111111111111111111111111111111111111111111111111111111111111111111111111111111111111111111111111111111110001110000000000000111111111111
11111111111111111111111111111111111111111111111111111111111111111111111111111111111111111111111111111111111111111111111111111111110011000000000000000111111111111
11111111111111111111111111111111111111111111111111111111111111111111111111111111111111111111111111111111111111111111111111111111110011000000000000000111111111111
11111111111111111111111111111111111111111111111111111111111111111111111111111111111111111111111111111111111111111111111111111111110011000000000000000111111111111
11111111111111111111111111111111111111111111111111111111111111111111111111111111111111111111111111111111111111111111111111111111110000000000000000000111111111111
11111111111111111111111111111111111111111111111111111111111111111111111111111111111111111111111111111111111111111111111111111111110000000000000000000111111111111
11111111111111111111111111111111111111111111111111111111111111111111111111111111111111111111111111111111111111111111111111111111110000000000000000000111111111111
11111111111111111111111111111111111111111111111111111111111111111111111111111111111111111111111111111111111111111111111111111111111111111100000000000000000111111
11111111111111111111111111111111111111111111111111111111111111111111111111111111111111111111111111111111111111111111111111111111111111111100000000000000001111111
11111111111111111111111111111111111111111111111111111111111111111111111111111111111111111111111111111111111111111111111111111111111111111100000000000000001111111
11111111111111111111111111111111111111111111111111111111111111111111111111111111111111111111111111111111111111111111111111111111111111100000000000000000001111111
11111111111111111111111111111111111111111111111111111111111111111111111111111111111111111111111111111111111111111111111111111111111111100000000000000000001111111
11111111111111111111111111111111111111111111111111111111111111111111111111111111111111111111111111111111111111111111111111111111111111100000000000000000000111111
11111111111111111111111111111111111111111111111111111111111111111111111111111111111111111111111111111111111111111111111111111111111111111100000000000000001111111
11111111111111111111111111111111111111111111111111111111111111111111111111111111111111111111111111111111111111111111111111111111111111111100000000000000011111111
11111111111111111111111111111111111111111111111111111111111111111111111111111111111111111111111111111111111111111111111111111111111111111100000000000000011111111
11111111111111111111111111111111111111111111111111111111111111111111111111111111111111111111111111111111111111111111111111111111111111100000000000000000011111111
11111111111111111111111111111111111111111111111111111111111111111111111111111111111111111111111111111111111111111111111111111111111111100000000000000000111111111
11111111111111111111111111111111111111111111111111111111111111111111111111111111111111111111111111111111111111111111111111111111111111100000000000000000111111111
11111111111111111111111111111111111111111111111111111111111111111111111111111111111111111111111111111111111111111111111111111111111111100000000000000000011111111
11111111111111111111111111111111111111111111111111111111111111111111111111111111111111111111111111111111111111111111111111111111111111100000000000000000111111111
11111111111111111111111111111111111111111111111111111111111111111111111111111111111111111111111111111111111111111111111111111111111111111000000000000111111111111
11111111111111111111111111111111111111111111111111111111111111111111111111111111111111111111111111111111111111111111111111111111111111111111001111100111111111111
11111111111111111111111111111111111111111111111111111111111111111111111111111111111111111111111111111111111111111111111111111111111111111111001111100111111111111
11111111111111111111111111111111111111111111111111111111111111111111111111111111111111111111111111111111111111111111111111111111111111111111001111100111111111111
11111111111111111111111111111111111111111111111111111111111111111111111111111111111111111111111111111111111111111111111111111111111111111111111111111111111111111
11111111111111111111111111111111111111111111111111111111111111111111111111111111111111111111111111111111111111111111111111111111111111111111111111111111111111111
11111111111111111111111111111111111111111111111111111111111111111111111111111111111111111111111111111111111111111111111111111111111111111111111111111111111111111
