11111111111111111111111111111111111111111111111111111111111111111111111111111111111111
11111111111111111111111111111111111111111111111111111111111111111111111111111111111111
11111111111111111111111111111111111111111101111111111111111111111111111111111111111111
11111111111111111111111111111111111111000000000011111111111111111111111111111111111111
11111111111111111111111111111111111000000000000000011111111111111111111111111111111111
11111111111111111111111111111111110000000000000000011111111111111111111111111111111111
11111111111111111111111111100000000000000000000000000000001111111111111111111111111111
11111111111111111111111100000000000000000000000000000000000001111111111111111111111111
11111111111111111111110000000000000000000000000000000000000000001111111111111111111111
11111111111111111111100000000000000000000000000110000000000000000111111111111111111111
11111111111111111111000000000000000000000000001110000000000000000011111111111111111111
11111111111111111110000000000000000000000000001110000000000000000001111111111111111111
11111111111111111100000000000000000000000000000000000000000000000000111111111111111111
11111111111111111000000000000000000000000000000000000000000000000000011111111111111111
11111111111111111100000000000000111000000000000000000000000000000000011111111111111111
11111111111111111000000000000000111000000000000000000000000000000000011111111111111111
11111111111111110000000000000000111000000000000000000000000000000000001111111111111111
11111111111110000000000000000000000000000000000000000000000000000000000001111111111111
11111111111110000000000000000000000000000000000000000000000000000000000000111111111111
11111111111100000000000000000000000000000000000000000000000000000000000000111111111111
11111111111000000000000000000000000000000000000000000000000000000000000000011111111111
11111111110000000000000000000000000000000000000000000000000000000000000000001111111111
11111111100000000000000000000000000000000000000000000000000000000000000000000111111111
11111111000000000000000000000000000000000000000000000000000000000000000000000011111111
11111111000000000000000000000000000000000000000000000000000000000000000000011111111111
11111111000000000000000000000000000000000000000000000000000000000000000000011101111111
11111110000000000000000000000000000000000000000000000000000000000000000000011101111111
11111110000000000000000000000000000000000000000000000000000000000000000000000001111111
11111110000000000000000000000000000000000000000000000000000000000000000000000001111111
11111100000000000000000000000000000000000000000000000000000000000000000000000000111111
11111100000000000000000000000000000000000000000000000000000000000000001100000000111111
11111110000000000000000000000000000000000000000000000000000000000000001111100000111111
11111110000000000000000000000000000000000000000000000000000000000000000011111000111111
11111100000000000000000000000000000000000000000000000000000000000000000000011100111111
11111100000000000000000000000000000000000000000000000000000000000000000000000111111111
11111000000000000000000000000000000000000000000000000000000000000000000000000011111111
11110000000000000000000000000000000000000000000000000000000000000000000000000001111111
11110000000000000000000000000000000000000000000000000000000000000000000000000000111111
11110000000000000000000000000000000000000000000000000000000000000000010000000000111111
11110000000000000000000000000000000000000000000000000000000000000000111100000000011111
11100000000000000000000000000000000000000000000000000000000000000000001111000000011111
11100000000000000000000000000000000000000011100000000000000000000000000011000000001111
11100000000000000000000000000000000000000011100000000000000000000000000001100000001111
11100000000000000000000000000000000000000011100000000000000000000000000000100000000111
11100000000000000000000000000000000000000000000000000000000000000000000000100000000111
11100000000000000000000000000000000000000000000000000000000000000000000000100000000111
11110000000000000000000000000000000000000000000000000000000000000000000000111000001111
11110000000000000000000000000000000000000000000000000000000000000000000000111111101111
11110000000000000000000000000000000000000000000000000000000000000000000000000011111111
11110000000000000000000000000000000000000000000000000000000000000000000000000000011111
11111000000000000000000000000000000000000000000000000000000000000000000000000000011111
11111100000000000000000000000000000000000000000000000000000000000000000000000001111111
11111100000000000000000000000000000000000000000000000000000000000000000000000001111111
11111110000000000000000000000000000000000000000000000000000000000000000000000001111111
11111110000000000000000000000000000000000000000000000000000000000000000000000001111111
11111100000000000000000000000000000000000000000000000000000000000000000000000000111111
11111100000000000000000000000000000000000000000000000000000000000000000000000001111111
11111110000000000000000000000000000000000000000000000000000000000000000000000001111111
11111110000000000000000000000000000000000000000000000000000000000000000000000001111111
11111110000000000000000000000000000000000000000000000000000000000000000000000011111111
11111111000000000000000000000000000000000000000000000000000000000000000000000011111111
11111111000000110000000000000000000000000000000000000000000000000000000000000011111111
11111111000000111000000000000000000000000000000000000000000000000000000000000111111111
11111111100000111000000000000000000000000000000000000000000000000000000000000111111111
11111111110000110000000000000000000000000000000000000000000000000000000000001111111111
11111111111000000000000000000000000000000000000000000000000000000000000000011111111111
11111111111100000000000000000000000000000000000000000000000000000000000000111111111111
11111111111110000000000000000000000000000000000000000000000000000000000001111111111111
11111111111111000000000000000000000000000000000000000000000000000000000011111111111111
11111111111111110000000000000000000000000000000000000000000000000000001111111111111111
11111111111111111000000000000000000000000000000000000000000000000000011111111111111111
11111111111111111000000000000000000000000000000000000000000011000000111111111111111111
11111111111111111000000000000000000000000000000000000000000011100000111111111111111111
11111111111111111100000000000000000000000000000000000000000011100001111111111111111111
11111111111111111111000000000000000000000000000000000000000000000011111111111111111111
11111111111111111111100000000000000000000000000000000000000000000111111111111111111111
11111111111111111111110000000000000000000000000000000000000000001111111111111111111111
11111111111111111111111000000000000000000000000000000000000000011111111111111111111111
11111111111111111111111110000000000000000000000000000000000011111111111111111111111111
11111111111111111111111111111001000000000000000000000010011111111111111111111111111111
11111111111111111111111111111111111000000000000000011111111111111111111111111111111111
11111111111111111111111111111111111000000000000000111111111111111111111111111111111111
11111111111111111111111111111111111111110000001111111111111111111111111111111111111111
11111111111111111111111111111111111111111111111111111111111111111111111111111111111111
11111111111111111111111111111111111111111111111111111111111111111111111111111111111111
11111111111111111111111111111111111111111111111111111111111111111111111111111111111111
