1111111111111111111111111111111111111111111111111111111111111111111111111111111111111111111111111111111111111111111111111111111111111111111111111111111111111111111111111111111111111111111111111111
1111111111111111111111111111111111111111111111111111111111111111111111111111111111111111111111111111111111111111111111111111111111111111111111111111111111111111111111111111111111111111111111111111
1111111111111111111111111111111111111111111111111111111111111111111111111111111111111111111111111111111111111111111111111111111111111111111111111111111111111111111111111111111111111111111111111111
1111111111111111111111111111111111111111111111111111111111111111111111111111111000000001000001111111111000011111111111111111111111111111111111111111111111111111111111111111111111111111111111111111
1111111111111111111111111111111111111111111111111111111111111111111111111111111100011111100001111111111000011111111111111111111111111111111111111111111111111111111111111111111111111111111111111111
1111111111111111111111111111111111111111111111111111111111111111111111111111111100011111100001111111110000011111111111111111111111111111111111111111111111111111111111111111111111111111111111111111
1111111111111111111111111111111111111111111111111111111111111111111111111111111000011111100001111111110000000001111111111111111111111111111111111111111111111111111111111111111111111111111111111111
1111111111111111111111111111111111111111111111111111111111111111111111111111111000011111100001111111111100000001111111111111111111111111111111111111111111111111111111111111111111111111111111111111
1111111111111111111111111111111111111111111111111111111111111111111111111111110011011100000001111111111110000001111111111111111111111111111111111111111111111111111111111111111111111111111111111111
1111111111111111111111111111111111111111111111111111111111111111111111111111100111111100000001111111111110000001111111111111111111111111111111111111111111111111111111111111111111111111111111111111
1111111111111111111111111111111111111111111111111111111111111111111111110000000111111100000001110111111100000001111111111011111111111111111111111111111111111111111111111111111111111111111111111111
1111111111111111111111111111111111111111111111111111111111111111111111110000000011000000000001110011110000000001111111111011111111110010111111111111111111111111111111111111111111111111111111111111
1111111111111111111111111111111111111111111111111111111111111111111111100000000000000000000001110000000000000001111111110000000000000000111111111111111111111111111111111111111111111111111111111111
1111111111111111111111111111111111111111111111111111111111111110111111100000000000000000000000000000000000000000111100000000000000000000111111111111111111111111111111111111111111111111111111111111
1111111111111111111111111111111111111111111111111111111111111110000110000000000000000000000000000000000000000000000000000000000000000000111111111111111111111111111111111111111111111111111111111111
1111111111111111111111111111111111111111111111111111111111111100000000000000000000000000000000000000000000000000000000000000000000000000111111111111111111111111111111111111111111111111111111111111
1111111111111111111111111111111111111111111111111111111111111000000000000000000000000000000000000000000000000000000000000000000000000011111111111111111111111111111111111111111111111111111111111111
1111111111111111111111111111111111111111111111111111111111100000000000000000000000000000000000000000000000000000000000000000000000000001111111111111111111111111111111111111111111111111111111111111
1111111111111111111111111111111111111111111111111111111010000000000000000000000000000000000000000000000000000000000000000000000000000001111111111111111111111111111111111111111111111111111111111111
1111111111111111111111111111111111111111111111111111111000000000000000000000000000000000000000000000000000000000000000000000000000000001111111111111100011111111111111111111111111111111111111111111
1111111111111111111111111111111111111111111001111111111100011100000000000000000000000000000000000000000000000000000000000000000000000001111111111100000110111111111111111111111111111111111111111111
1111111111111111111111111111111111111111000001111111111101111100000000000000000000000000000000000000000000000000000000000000000000000001111111111000000000011111111111111111111111111111111111111111
1111111111111111111111111111111111111111000001111111111111111110000000000000000000000000000000000000000000000000000000000000000000000001111111111000110000000111111111111111111111111111111111111111
1111111111111111111111111111111111111111000001111111111111111110000000000000000000000000000000000000000000000000000000000000000000000001111111111001111011100001111111111111111111111111111111111111
1111111111111111111111111111111111111111000000111111111111111111000000000000000000000000000000000000000000000000000000000000000000000000111111111101111011111111111111111111111111111111111111111111
1111111111111111111111111111111111111110000000111111111111111111100000000000000000000000000000000000000000000000000000000000000000000000111111111111110011111111111111111111111111111111111111111111
1111111111111111111111111111111111111100000000111111111111111111100000000000000000000000000000000000000000000000000000000000000000000000011111000111100110111111110111111111111111111111111111111111
1111111111111111111111111111111111101000000000110111111111111111000000100000000000000000000000000000000000000000000000000000001000000000111111000111000010011111110011111111111111111111111111111111
1111111111111111111111111111111111100000000000010111111111111100000111110000000000000000000000000000000000000000000000000000000000000000111110000011000000011111000011111111111111111111111111111111
1111111111111111111111111111111111100000000000000011111111111000001111111100000000000000000000000000000000000000000000000000000010000001111111100000000000011000000011111111111111111111111111111111
1111111111111111111111111111111000000000000000000001111111111000001111111111000000000000000000011110000000000000000000000000000111100001111111000000000000000000001111111111111111111111111111111111
1111111111111111111111111111110000000000000000000001111111111100001111111111100000000000000001111110000000000000000000000000000111111011111111000000000000000000001111111111111111111111111111111111
1111111111111111111111111111100000000000000000000000111111111110001111111111100000000000000000111110010000000000000000000000001111111111111111000000000000000000001111111111111111111111111111111111
1111111111111111111111111111100000000000000000000000111111111110000111111111100000000000000000111111110000000000000000000000001111111111111111000000000000000000001111111111111111111111111111111111
1111111111111111111111111111100000000000000000000000011111111111000011111111100000000000000000111111111000000000000000000000011111111111110000000000000000000000000001111111111111111111111111111111
1111111111111111111111111000000000000000000000000000011111111111000000111111000000000000000011111111111000000000000000000000011111111111100000000000000000000000000000111111111111111111111111111111
1111111111111111111111111100000000000000000000000000001111111111100000001110000000000000000011111111111000000000000000000000011111111111100000000000111111000000000000001111111111111111111111111111
1111111111111111111111111100000000000000000000000000000111111111110000000000000000000000000011111111111100000000000000000000111111111111110000000000111111111000000000001001111111111111111111111111
1111111111111111111111111000000000000000000000000000000111111111110110000000000000000000000011111111111100000000000000000000111111111111100000000000111111111000000000000011111111111111111111111111
1111111111111111111111111000000000000000000000000000000011111111111111100000000000000000000001111111111100000000000000000000111111111110000000000000111111111000000000000111111111111111111111111111
1111111111111111111110110000000000000000000000000000000011111111111111100000000000000000000001111111111100000000000000000000011111111100000000000000000000110000000000010011111111111111111111111111
1111111111111111111110000000000000000000000000000000000001111111111111100000000000000000000001111111110000000000000000000000011111111100000000000000000000000000000000000001111111111111111111111111
1111111111111111111111000000000000000000000000000000000001111111111111000000000000000000000000111110000000000000000000000000001111111110000000000000000000000000000000000001111111111111111111111111
1111111111111111111110000000000010000000000000000000000000111111111111000000000000000000000000110000000000000000000000000000001111111110000000000000000000000000000000000011111111111111111111111111
1111111111111111111110000000000000000000000000000000000000010111111111000000000000000000000000000000000000000000000000000000011111111111000000000000000000000000000000000111111111111111111111111111
1111111111111111111100000000000000000000000000000000000000000011111111000000000000000000000000000000000000000000000000000000011111111111000000000000000000000011110000000111111111111111111111111111
1111111111111111111100000000000000001000000000000000000000000011111111100000000000000000000000000000000000000000000000000000011111111111100000000000000000000011110000000111111111111111111111111111
1111111111111111111111000000000000000000000000000000000000000011111111100000000000000000000000000000000000000000000000000000011111111111110000000000000000000011110000000011111111111111111111111111
1111111111111111111111100000000000000000000000000000000000000001111111110000000000000000000000000000000000000000000000000000111111111111111000000000000000000011110000000011111111111111111111111111
1111111111111111111111111000000000000000000000000000000000000000000111110000000000000000000000000000000000000000000000000000111110011111111000000000000000000011110000000001111111111111111111111111
1111111111111111111111111110000000000000000000000000000000000000000111110000000000000000000000000000000000000000000000000000111110001111111100000000000000000011110000000000111111111111111111111111
1111111111111111111111111111100000000000000000000000000000000000000011110000000000000000000000000000000000000000000000000000111100000111111100000000000000000001110000000001111111111111111111111111
1111111111111111111111111111110000000000000000000000000000000000000001000000000000000000000000000000000000000000000000000000011100000011111100000000000000000000000000000001111111111111111111111111
1111111111111111111111111111111100000000000000000000000000000000000000000000000000000000000000001111000000000000000000000000000000000001111100000000111000000000000000000001111111111111111111111111
1111111111111111111111111111111111000000000000000000000000000000000000000000000000000000000000011111100000000000000000000000000000000000111100000000111110000000000011111011111111111111111111111111
1111111111111111111111111111111111100000000000000000000000000000000000000111000000000000000001111111111110000000000000000110000000000000011000000001111110000000000011111111111111001111111111111111
1111111111111111111111111111111111111000000000000000000000000000000000001111100000000000011111111111111111111000000000001111100000000000000000000011111100000000000111111111111100001111111111111111
1111111111100111111111111111111111111000000000000000000000000000000000001111100000000111111111111111111111111111100000011111100000000000000000111111111100000000000111111111111110001111111111111111
1111111111100001111111111111111111111000000000000000000000000000000000011111110001111111111111111111111111111111111100111111000000000000000001111111111000000000000111111111101110011111111111111111
1111111111000000011110111111111111110000000000000000000000000000000000111111111111111111111100011111111111111111111111111111000000000000000001111111110000000011011111111110000100001111001111111111
1111111111000000000110111111111111110000000000000000000000000000000011111111111111111111000000000001111111100111111111111110000000000000000001111111111110000011111111111111000000000001001111111111
1111111110000000000000000100111111111100000000000000000000000000000111111111111111111000000000000001111111100111111111111110000000000000000000111111111110000011111111111111000000000000000111111111
1111111100000000000000000000001111111110000000000000000000000000001111111111111111000000000000000011111111101111111111111110000000000000000000001111111111001111111111111111000000000000011111111111
1111111100000000000000000000000111111111100000000000000000000000111111111111111111000000000000000011111111000111111111111111000000000000000000000111111111111111111100111110000000000000011111111111
1111111000000000000000000000000001111111111110000000000000000000111111111111111111000000000000000011111111001111111111111111100000000000000000000011111111111111110000001000000000000000011111111111
1111111000000000100111000000000001111111111111100000000000000000011111111111111111000000000000000111111111001111111101111111110000000000000000000001111111111111111000000000000000000000001111111111
1111110000000000011111000000000001111111111111110000000000000000111111111111111111000000000001110111111111001111111100000111111000000000000000000000111111111110111000000000000000000000000111111111
1111110000000000011111100000000000011111111111111000000000000000111111111111111110000000000011111111111110001111111100000011111100000000000000000000111111111000011000000000000000000000000111111111
1111100000000000001111100000000000000011111111111110000000001101111111111111111100000000000111111111111110011111111100000001111110000000000000000000111111111100000000000000000000000000000111111111
1111100000000000001111100000000000000011111111111110000000001111111111111111100000000000000111111111111000011111111000000000111111000000000000000000111111111100000000000000000000000000000111111111
1111100000000000000111100000000000000000111111111111000000011111111111111111000000000000000111111111111100000111111000000000011111100000000000000000011111111110000000000000000000000000001111111111
1111110000111100000100000000000000000000000110111111000000111111111111111110000000000000000111111111111000000111111000000000001111110000000000000000000111111110000000000000000000000000001111111111
1111110000111111100000000000000000000000000000001110000001111111111111111111000000000000000011111111110000001111100000000000000111111000000000000000000111111100000000000000000000000000000010111111
1111100001111111111100000000000000000000000000000000000111111111111111111111100000000000000001111111110000001110000000000000000011111100000000000000000111111110000000000000000000000000000000011111
1111100001111111111111100000000000000000000000000000001111111111111111111111110111000000000000111111110000001100000000000000000001111111100000000000000111111110000000000000000000000000000000011111
1111100001111111111111111110000000000000000000000000001111111111111011011111110111000000000001111111100000000000000000000000000000111111110000000000000011111110000000000000000000000000000000001111
1111111100001111111111111111110000000000000000000000000111111111111000001111111111100000000001111111100000000000000000000000000000011111110000000000000011111111000000000000000000000000000000001111
1111111100000001111111111111111000000000000000000000000111111111111000000111111111100000000001111111100001111100000000000000100000011111110000000000000011111111000000000000000000000000000000000111
1111111100000000001111111111111000000000000000000000000011111111111000000011111110000011100001111111110011111110000000000000000000011111110000000000000001111111000000000000000000000000000000000111
1111111000000000000001111111111000000000000000000000000011111111111000000011111110000011110000111111110011111111000000000000000000011111110000000000000001111100000000000000000000000000000000000011
1111111000000000000000001111111000000000000000000000000001111111111000000001111111000111110000011110000011111111000000000000000000001111110000000000000001111100000000000000000000000000000110000011
1111111000000000000000000001110000000000000000000000000000111111111000000001111111100111100000000000000011111111000000000001111100000111110000000000000001111100000000000000000000000010000111100111
1111111000000000000000000000000000000000000000000000000000111111110000000001111111110001100000000000000001111111100000000001111100000111111000000000000000000000000000000000000000000000000011111011
1111111110000000000000000000000000000000000000000000000001111111110000000000111111111000000000000000000000111110001111000001111000000011111000000000000000000000000000000000000000000000000001111011
1111111110000000000000000000000000000000000000000000000001111111100000000000111111110000000000000000000000111000001111000001111000000011111000000000000000000000000000000000000000000000010000011011
1111111110000000000000000000000000000000000000000000000001111000000000000001111111100000000000000000000000000000001111000000000000000011111000000000000000000000000000000000000000001000000000000011
1111111100000000000000000000000000000000000000000000000011110000000000000001111111000000000000000000000000000000001111100000000000000000100000000000000000011111000000000000000000000100000000111011
1111111000000000000000000000000000000000000000000000000011110000000000000001111111100000000000000000000000000000001111100000000000000000000000000000000000011111000000000000000000000000000001111111
1111110000000000000000000000000000000000000000000000000011110000000000000001111111100000000000001100000000000000001111100000000000000000000000000000000000011111111100000000000000000000000011111111
1101110000000000000000000000000000000000000000000000000011110000000000000001111111100000000000011110000000000000001111000000000000000000000000000000000000011111111100000000000000000000000111111111
1100000000000100000000000000000000000000000000000000000111100000000000000000111111100000000001111111000000000000000000000000000000000000001110000000000000001111111100000000000000000000000111111011
1100000000000000000000000000000000000000000000000000000111100000000000000000011110001000000011111111000000000000000000000000000000000000011110000000000000001111111000000000000000000000000111110011
1100000000000000000000000000000000000000000000000000000111100000000000000000000000000000000011111111100000000000000000000000000000000000111110000000000000001111111000011111111100000000000001100011
1100000000000000000000000000000000000000000000000000000111000000000000000000000000000000000001111111100000000000000000000000000000000000111111000000000000000111111100011111111111110000000000000111
1100000000000000000000000000000011100000000000000000001111000000000000000000000000000000000000111111111000000000000000000000000000000000011111000000000000000111111110000111111111111000011100011111
1110100000000000000000000000000111111111100000000000001111000000000000000000000000000000000000111111111000000000000000000000000000000000111111110000000000000111111110000111111111111000011100011111
1111100000000000000000000000000111111111100000000000011111000000000000000001000000000000000001111111111000000000000000100000000010000001111111110000000000000111111111111111111111111111111111111111
1111100000000000000000000000000111111111100000000000111111100000000000000011111000000000000011111111111100000000000001111100000011110001111111111000000000000111111111111111111111111111111111111111
1111100000000000000000000000000011111111100000000000111111100000000000000011111000000000000011111111111100000000000001111000000111110001111111111000000000000111111111111111111111111111111111111111
1111100000000000000000000000000011111110000000000000111111100000000000000011110000000000000001111111111110000000110001111000000111110001111111111000000000000111111111111111111111111111111111111111
1111100000000000000000000000000011111110000000000000111111100000000000000011110000000000000001111111111110000000000011111000000111100001111111111000000000000111111111111111111111111111111111111111
1111100000000000000000000000000001111110000000000000011111100000000000000000000000000000000001111111111110000000000011111111100111110001111111110000000000000111111110000000000000011111111111111111
1111100000000000000000000000000000111000000000000000001111000000000000000000000000000000000001111111111000000000000011111111111111110000111111100000000000000111111111000000000000111111111100111111
1100000000000000000000000000000000000000000000000000001111000000000000001000000000000000000000111111110000000000000111111111111111100000011111000000000000000111111111000000000000111100000110111111
1100000000000000000000000000000000000000000000000000000111000000000000011100000000000000000000011000000000000000000011111111111111111100011110000000000000001111111111000000000000001100000110111111
1100000000000000010000000000000000000000000000000000000111100000000000111100000000000000000000000000000000000000000000011111111111111111111110000000000000001111111111000000000000000000000000011111
1100000000000000111000001100000110000000000000000000000111100000100000111000000000011000000000000000000000000000000000000011111111111111111110000000000000001111111100000000000000000000000000011111
1100000000000000011000001100000110000000000000000000000111100000000000110000001100011011000000000000000000000000000110000111111111111111111100000000000000001111000000000000000000000000000000011111
1100000000000000011100001100000110000000000000000000000011101110000000000000001111000011000000000000000000000011001111100111110001111111111100000000000000011111000000000000000000000000000000011111
1100000000000000011000001100000110000000000000000000000011111110000000000000011111000000000000000000000000000000001111000001110000001111111100000000000000011111000000000000000000000000000000011111
1100000000000000000000001100000110000000000000000000000011111111000000000000011110000000000000000000000000000000001111000000000000000001111100000000000000011111000000000000000000000000000000011111
1100000000000000000000000000000000000000000000000000000011111111000000000000001110000000000000000000000000000000000111000000000000000000111000000000000000011110000000000000000000000000000000011111
1100000000000010000000000000000000000000000000000000000001111000000000000000000000100000000000000000000000000000000000000000000000000001111000000000000000011110000000000000000000000000000000000011
1100000000001111000000000000000000000000000000000000000001111000000000000000000001110000000000000000000000111100000000000000000000000001111000000000000000000000000000000000000000000000000000000011
1100000000001111000000000000000000000000000000000000000001111111110000000000000111111100000000000000000011111110000000000000000000000001111000000000000000000000000000000000000000000000000000000011
1100000000000111000000000000000000000000000000000000000000111111111000000000000011111111000000000000000011111110000000000000000000000001110000000000000000000000000000000000000000000000000000011011
1100000000000000000000000000000000000000000000000000000000111111111100000000011111111111100000000000000011111111000000000000000000000111110000000000000001100000000000000000000000000000000000111111
1100000000000000000000000000000000000000000000000000000000111111111100000111111111110111100000000000000011111111000000000000000000001111110000000000000001111000000000000000000000000000000000111111
1100000000000001110000000000000000000000000000000000000000111111111100111111111100000111100000001111000011111111000000000000000000011111110000000000000001111000000000000000000000000000000000011111
1110000000000001111000000000000000000000000000000000000000111111111100111111100000000011100000001111000001111111000000000000000000011111110000000000000011111000000000000000000000000000000000001111
1110000000000001111000000000000000000000000000000000000000111111111100111000000000000000000000001111000000111100000000000000000000011111111100000000000011111000000000000000000000000000000000001111
1111000000000000111000000000000000000000000000000000000000111111111100000000000000000000000000001111000000000000000000000000000000011111111100000000000011111000000000000000000000000000000000001111
1111000000000000111000000000000000000000000000000000000000111111111000000000000000000000000000000010000000000100000000000000000000111111111100000000000111111100000000000000000000000000000000001111
1111100000000000111000000000000000000000000000000000000000001111111000000000000000000000001000000000000000111100000000000000000101111111111000000000000111111100000000000000000000000000000000000111
1111100000000000000000000000000000000000000000000000000000000011111100000111100000001000011110000000001111111110000000000000000011111100000000000000000111111111110000000000000000000000000000000111
1111100000000000011100000000000110000100000000000000000000000001111110000111100000011111111110000000001111011000000000000000000111111000000000000000000111111111110000000000000000000000000000011111
1111110000000000011100000000000110001110000000000000000000000000111111000000000000111111111110000000001111000000000000000111101111110000000000000000001111111111110000000000000000000000000000111111
1111111100000000111100001100000110000111011111100000000000000000011111100000000000111111111111110000000000000000000000000111111111100000000000000000011111111111110000000000000000000000000000111111
1111111110000000001100001100000110000011011111110000000000000000001111110000000000111111111111111100000000000000000000001111111111000000000000000000111111111111110000000000000000000000000000111111
1111111110000000000000001100000000000011011111110000000000000000000111111000000000111111111111111100000000000000000000011111111110000000000000000000111111111111110000000000000000000000000110011111
1111111111000000000000001100000000000000011111111000000000000000000011111100000001111111111111111100000000000000000000011111111100000000000000000000111111111111110000000000000000000000111110011111
1111111111100000000000000000000000000000011111111000000000000000000001111110011101111110001111111100000000000000000000011111111000000000000000000001111111111111110000000000000000000001111111111111
1111111111100000000000000000000000000000011111111000000000000000000000111111111111111110000001111000000000000000000001111111110000000000000000000011111111111111100011111110000000000001111111111111
1111111111110000000000000000000000000000011111000000000000000000000000011111111111111110000111111000000000000000000011111111100000000000000000000111111111111111111011111111010000000001111001111111
1111111111111000000000000000000000000000001110000000000000000000000000001111111111111100000111111000000000000000000011111111111000000000000000001111111111111111111111111111111000000000000011111111
1111111111111000000000000000000000000000000000000000000000000000000000000111111111111100000111110000000000000000000111111111111100110000000000011111111111111111111111111111111100000000000011111111
1111111111111000000000000000000000000000000000000000000000000000000000000111111111111100001111111110000000000001111111111111111111111000000000111111111111110011111111111111111100000000000111111111
1111111111111100000000000000000000000000000000000000000000000000000000000111111111111100001111111111000000011111111111111111111111111000000001111111111000001000111111111111111110000000000111111111
1111111111111110000000000000000000000000000000000000000000000000000000001111111011111000001111111111100011111111111111111111111111110000000011111111111000001000011111111111111111100011101111111111
1111111111111111000000000000000000000000000000000000000000000000000000001111110000111000011111111111111111111111110000011111111111111000000011111111111000001110000111111111111111110111111111111111
1111111111111111110000000000000000000000000000000000000000000000000000000111100001111000011111111111111111111100000000011111111111111100000001111001111000000110000001111111111111111111111111111111
1111111111111111111000000000000000000000000000000000000000000000000000000111100001111000011111111111111111100000000000001111111111111110000000100000000000000000000000011111111111111111111111111111
1111111111111111111100000000000000000000000000000000000000000000000000000001000001110000011100011111111000000000000000001111111111111111110000000000000000000000000000001111111111111111111111111111
1111111111111111111100000000000000000000000000001100000000000000000000000000000011110000111100011111100000000000000000001111111111111111111000000000000000000000000000000111111111111111111111111111
1111111111111111111100110000000000000000000000011110000000000000000000000000000011110000111100001111000000000000000000001111111111111111111100000000000000000000000000000111111111111111111111111111
1111111111111111111100111111100000000000000000111111000000000000000011110000000000000000111000000000000000000000000000000111111111111111111000000000000000000000000000000011101111111111111111111111
1111111111111111111111111111100000000000000000111111100000000000000011111000000000000000111000000000000000000000000000000111111111111111111000000000000000000000000000000000001111111111111111111111
1111111111111111111111111111100000000000000001111111000000000000000111111000000000000000000000000000000000000000000000000011111111111111110000000000000000000000000000000000011111111111111111111111
1111111111111111111111111111100000000000000011111100000000000000000111111000000000000000000000000000000000000000000000000000111111111111111000000000000000000000000000000000001111111111111111111111
1111111111111111111111000001100000000000000111111100000000000000011111110000000000000000000000000000000000000000000000000000111111111111111000000000000000000000000000000000001111111111111111111111
1111111111111111111111000000000000000000001111111100000000000000111111100000000000000000000000000000000000000000000000000001111111111111110000000000000000000011110000000000001111111111111111111111
1111111111111111111111000000000000000000011111111000000000000001111111110000000000000000000000000000000000000000000000000011111111111111100000000000000000000011110000000000000110111111111111111111
1111111111111111111111100001000000000000111111110000000000000001111111111000000000000000000000000000000000000000000000000001111111111111100000000000000000000011111000000000000000111111111111111111
1111111111111111111111100000000000000001111111100000000000000011111111111000000000000000000000000000000000000000000000000001111111111111111000000000000000000011111000000100000011111111111111111111
1111111111111111111111100000000000000011111111000000000000000111111111110000000000000000000000000000000000000000000000000001111111111111111100000000000000000011111110000100000111111111111111111111
1111111111111111111100000000000000000111111110000000000000000111111111100000000000000000000000000000000000000000000000000000011111111111111110000000000000000000111111100000001111111111111111111111
1111111111111111111100000000000000001111111100000000000000001111111111000000000000000000000000111000000000000000000000000000001111111111111110000000000000000011111111111010111111111111111111111111
1111111111111111111110000000000000011111111000000000000000000111111100000000000000000000000000111101111000000000000000000000000111111111111100000000000000000011111111111000000111111111111111111111
1111111111111111111110000000000000011111110000000000000000000111111100000000000000000000000000111111111000000000000000000000000011111111111000000000000000000011111111111100001111111111111111111111
1111111111111111111111000000000000111111100000000000000000001111111000000000000000000000000000111111111000000000000000000000000011111111110000000000001111011111111111111111111111111111111111111111
1111111111111111111111100000000000011111000000000000000000001111111000000000000000000000000111111111111000000000000000000000000011111111100000000000001111011111111111111111111111111111111111111111
1111111111111111111111100000000000001110000000000000000001111111111000000000000001111000000111111111110000000001110000000000000001111111111100000000011111111111111111111111111111111111111111111111
1111111111111111111111110000000000000110000000000000000001111111100000000000000011111000000111111111110000000011110000000000000000111111111110000000011111111111111111111111111111111111111111111111
1111111111111111111111110000000000000000000000000000000011111111100000000000000011111000000011111111110000000011110000000000000000011111111110000000000011111111111111111111111111111111111111111111
1111111111111111111111111100000000000000000000000000000011111111000000000000000011110000000001111111110000000011111000000000000000011111111100000000000001111111111111111111111111111111111111111111
1111111111111111111111111111000000000000000000000000000001111111000000000000000011110000000001111011110000000011110000000000000000011111111111000000000000111111111111111111111111111111111111111111
1111111111111111111111111111110000000000000000000000000011111111000000000000000001100000000000000000000000000000110000000000000000011111111111100000000000011111111111111111111111111111111111111111
1111111111111111111111111111111000000000000000000000001111111111000000000000000011000000000000000000000000000000010000000000000000011111111111100000000000011111111111111111111111111111111111111111
1111111111111111111111111111111111100000000000000000011111111111000000000000000010000000000000000000000000000000011000000000000000001111111111100010000000011111111111111111111111111111111111111111
1111111111111111111111111111111111111111000000000000111111111110000000000000000010000000000000000000000000000000001000000000000000000111111110000000000000001111111111111111111111111111111111111111
1111111111111111111111111111111111111111111000000010111111111100000000000000000110000000000000000000000000000000011100000000000000000001111111000000100000000111111111111111111111111111111111111111
1111111111111111111111111111111111111111110000000111111111110000000000000000001110000000000000011000000000000000001100000000000000000001111111000000000011111111111111111111111111111111111111111111
1111111111111111111111111111111111111111110000001111111111100000000000000000000110000000000000011110000000000000001100000000000000000000111111100000000011111111111111111111111111111111111111111111
1111111111111111111111111111111111111111110000011111111111100000000000000000001100000000000000011110000000000000000100000000000000000000111111111100000011111111111111111111111111111111111111111111
1111111111111111111111111111111111111111110000011111111111100000000000000000001000000000000000001100000000000000000110000000000000000000111111110000000010000011111111111111111111111111111111111111
1111111111111111111111111111111111111111110000111111111111100000000000000000001000000000000000000000000000000000000010000000000000000000011111111111100000000111111111111111111111111111111111111111
1111111111111111111111111111111111111111110001111111111111000000000000000000011000000000000000000000000000000000000011100000000000000000001111111111100001111111111111111111111111111111111111111111
1111111111111111111111111111111111111111110001111111111110000000000000000000111100000000000000000000000000000000000111110000000001100000000111111111101101111111111111111111111111111111111111111111
1111111111111111111111111111111111111111111111111111111100000000011100000001111100000000000000000000000000000000000111110000000011110000000111111111001111111111111111111111111111111111111111111111
1111111111111111111111111111111111111111111111111111111000000011011100000001111000000000000000000000000000000000000011110000000111111000000111111111111111111111111111111111111111111111111111111111
1111111111111111111111111111111111111111111111111111111000000111111000000001111000000000000000000000000000000000000011110000000011111100000111111111111111111111111111111111111111111111111111111111
1111111111111111111111111111111111111111111111111111111000000111111100000001110000000000000000000000000000000000000001110000000011111100000111111111111111111111111111111111111111111111111111111111
1111111111111111111111111111111111111111111111111111111000001111111110000001100000000000000000000000000000000000000000110000001111111110000011111111111111111111111111111111111111111111111111111111
1111111111111111111111111111111111111111111111111111111000001111111110000001000000000000000000000000000000000000000000010000001111111110000001111111111111111111111111111111111111111111111111111111
1111111111111111111111111111111111111111111111111111110000011111111100000001000000000000000000000000000000000000000000010000000111111111000001111111111111111111111111111111111111111111111111111111
1111111111111111111111111111111111111111111111111111111100011111111100000011000000000000000000000000000000000000000000011100000111111111000011111111111111111111111111111111111111111111111111111111
1111111111111111111111111111111111111111111111111111111111000111111000000111000000000000000000000000000000000000000000011100000011111110001111111111111111111111111111111111111111111111111111111111
1111111111111111111111111111111111111111111111111111111111100001111000000111000000000000000000000000000000000000000000011100000001111000111111111111111111111111111111111111111111111111111111111111
1111111111111111111111111111111111111111111111111111111111111000010000000110000000000000000000000000000000000000000000001100000001110011111111111111111111111111111111111111111111111111111111111111
1111111111111111111111111111111111111111111111111111111111111110000000000100000000000000000000000000000000000000000000000100000000000111111111111111111111111111111111111111111111111111111111111111
1111111111111111111111111111111111111111111111111111111111111111100000000100000000000000000000000000000000000000000000000110000000011111111111111111111111111111111111111111111111111111111111111111
1111111111111111111111111111111111111111111111111111111111111111110001101100000000000000000000000000000000000000000000000011110001111111111111111111111111111111111111111111111111111111111111111111
1111111111111111111111111111111111111111111111111111111111111111111111111100000000000000000000111111110000000000000000000111111111111111111111111111111111111111111111111111111111111111111111111111
1111111111111111111111111111111111111111111111111111111111111111111111111111000000000000000000111111110000000000000000001111111111111111111111111111111111111111111111111111111111111111111111111111
1111111111111111111111111111111111111111111111111111111111111111111111111111110000000000000000111111110000000000000000111111111111111111111111111111111111111111111111111111111111111111111111111111
1111111111111111111111111111111111111111111111111111111111111111111111111111111111111111111111111111111111111111111111111111111111111111111111111111111111111111111111111111111111111111111111111111
1111111111111111111111111111111111111111111111111111111111111111111111111111111111111111111111111111111111111111111111111111111111111111111111111111111111111111111111111111111111111111111111111111
