111111111111111111111111111111111111111111111111111111111111111111111111111111111111111111111111111111111111111111111111111111111111111111111111111111111111111111111111111111111111111111111111111
111111111111111111111111111111111111111111111111111111111111111111111111111111111111111111111111111111111111111111111111111111111111111111111111111111111111111111111111111111111111111111111111111
111111111111111111111111111111111111111111111111111111111111111111111111111111000000000011110011111111111111111111111111111111111111111111111111111111111111111111111111111111111111111111111111111
111111111111111111111111111111111111111111111111111111111111111111111111001100000000000011110011111111111111111111111111111111111111111111111111111111111111111111111111111111111111111111111111111
111111111111111111111111111111111111111111111111111111111111111111111111000000000000000000000011111111111111111111111111111111111111111111111111111111111111111111111111111111111111111111111111111
111111111111111111111111111111111111111111111111111111111111111111111111111111111111110000000001111111111111111111111111111111111111111111111111111111111111111111111111111111111111111111111111111
111111111111111111111111111111111111111111111111111111111111111111111111111111111111110000000001111111111111111111111111111111111111111111111111111111111111111111111111111111111111111111111111111
111111111111111111111111111111111111111111111111111111111111111111111111111111111111110000000001111111111111111111111111111111111111111111111111111111111111111111111111111111111111111111111111111
111111111111111111111111111111111111111111111111111111111111111111111111111111111111110000000011111111111111111111111111111111111111111111111111111111111111111111111111111111111111111111111111111
111111111111111111111111111111111111111111111111111111111111011011111111111111111111110000000011111111111111111111111111111111111111111111111111111111111111111111111111111111111111111111111111111
111111111111111111111111111111111111111111111111111111111100000011111111111111111111110000011011111111111111111111111111111111111111111111111111111111111111111111111111111111111111111111111111111
111111111111111111111111111111111111111111111111111111110000000000000000000000000000000000011011111111111111111111111111111111111111111111111111111111111111111111111111111111111111111111111111111
111111111111111111111111111111111111111111111111111111000000000000000000000000000000000000011011111111111111111111111111111111111111111111111111111111111111111111111111111111111111111111111111111
111111111111111111111111111111111111111111111111111111000000000000000000000000000000000000000011111111111111111111111111111111111111111111111111111111111111111111111111111111111111111111111111111
111111111111111111111111111111111111111111111111111111000000000000000000001111100000000000000011111111111111111111111111111111111111111111111111111111111111111111111111111111111111111111111111111
111111111111111111111111111111111111111111111111111111100000001100000000001111111100000000000011111111111111111111111111111111111111111111111111111111111111111111111111111111111111111111111111111
111111111111111111111111111111111111111111111111111111100000111100000001101111110000000000000011111111111111111111111111111111111111111111111111111111111111111111111111111111111111111111111111111
111111111111111111111111111111111111111111111101111111000001111110000011111111110000000000000111111111111111111111111111111111111111111111111111111111111111111111111111111111111111111111111111111
111111111111111111111111111111111111111111110000111111110001111110000011111111100000000000000111111111111111111111111111111111111111111111111111111111111111111111111111111111111111111111111111111
111111111111111111111111111111111111111111100000001111111001111111000011011000000000000000000111111111111111111111111111111111111111111111111111111111111111111111111111111111111111111111111111111
111111111111111111111111111111111111111111000001111111111100111111000000000000000000000000000111111111111111111111111111111111111111111111111111111111111111111111111111111111111111111111111111111
111111111111111111111111111111111111111111000011111111111100011111100000000000000000000000000011111111111111111111111111111111111111111111111111111111111110011111111111111111111111111111111111111
111111111111111111111111111111111111100011000011110011111100011111110000000000000000000000000011111111111111111111111111111111111111111111111111111111111110000111111111111111111111111111111111111
111111111111111111111111111111111110000000000011110011111111001111110000000000000000000000000011111111111111111111111111111111111111111111111111111111001111000001111111111111111111111111111111111
111111111111111111111111111111111100000000000000000001111111001111111000000000000000000000000011111111111111111111111111111111111111111111111111111110011111000000011111111111111111111111111111111
111111111111111111111111111111111000000000000010000001111111100111111000000000000000000000000011111111111111111111111111111111111111111111111111111100001110000000011111111111111111111111111111111
111111111111111111111111111111110000000000000000000000111111100111111100000000000000000000000011111111111111111111111111111111111111111111111111111100000000000000001111111111111111111111111111111
111111111111111111111111111111110000000000011110000000111111000011111100000000000000000000000011111111111111111111111111111111111111111111111111111100000000000000001111111111111111111111111111111
111111111111111111111111111100110000000000011110000001111111100001111110000000000000000000000011111111111111111111111111111111111111111111111111111000000000000000001111111111111111111111111111111
111111111111111111111111111100000000000000011110000001111111111001111111000000000000000000000001111111111111111111111111111111111111111111111111111000000000000000001111111111111111111111111111111
111111111111111111111111111110000000000000011110000011111111111000111111000000000000000000000001111111111111111111111111111111111111111111111111110000000000000000001111111111111111111111111111111
111111111111111111111111110100000000011011111110000111111111111100111111100000000000000000000001111111111111111111111111111111111111111111111111100000000000000000011111111111111111111111111111111
111111111111111111111111100000000000011101111000111100000111111100011111100000000000001111000001111111111111111111111111111111111111111111111111111000000000000000110001111111111111111111111111111
111111111111111111111111000000000000111100000001111000000011111110011111110000000000001111001101111111111111111111111111111111111111111111111111111100000000000011100000000111111111111111111111111
111111111111111111111111110000000000111100000011110000000001111110001111110000000000001111111111111111111111111111111111111111111111111111111111111000000000000111100000000011111111111111111111111
111111111111111111111111110000000000111101111110000000000001111111000111111100000000001111111111111111111111111111111111111111111111111111110001110000000000000111000000000011111111111111111111111
111111111111111111111111110000000000111111111000000000000000111111100111111110000000011111111111111111111111111111111111111111111111111111110000000000000000001100000000000001111111111111111111111
111111111111111111111111110000000000111111111001011000000110111111100011111110000000111111111111111111111111111111111111111111111111111111111000000000000000011000000000111101111111111111111111111
111111111111111111111111000000000000111111110011011110000111111111110011111111100000111111111111111100111111111111111111111111111111111111111000000000000011110011100000111100111111111111111111111
111111111111111111111111000000000000111111100111111110001111111111110111111111110000111111100000000000000011111111111111111111111111111111111000000000000111111111110000111100011111111111111111111
111111111111111111111111000000000001111111000110111110001111101111111111111111110000011100000000000000000000011111111111111111111111111111111000000000001111111111110000011110011111111111111111111
111111111111111111111111000000000001111111000110001100000111000111111111111111111000000000000000000000000000000001111111111111111111111111111000000000011111111101110000011110001111111111111111111
111111111111111111101110000000000000111111000000000000000011000111111111111111111000000000000000000000000000000000000111111111111111111111111000000000011111111101110000011110001111111111111111111
111111111111111111000110000000010000011110000000000000000000000111111111111100000000000000000000000000000000000000110000111111111111111111000000000000001111100000000000000000000111111111111111111
111111111111111111000110000011111000011110000000000000000000000111111111100000000000000000000000000000000000000001110000000011111111111111011100000000000001100000000000000000011111111111111111111
111111111111111110000000000011111000000000000000000000000000001111111100000000000000000000000000000000000000000000111000000001111111111111111111000000000000000000000000000011011111111111111111111
111111111111111110000000000001111000000000000000000000000000011111111100000000000000000000000000000000000000000000010000000001111111111111111111000000000000000000000000000111101111111111111111111
111111111111111111000000000001110000000000000000000000111100111111110000000000000000000000000000000000000000000000000000000011111111111111111111000000000000000000000000000111101111111111111111111
111111111111111111100000000000000000000000000000000000111101111111000000000000000000000000000000000000000000000000000000000011111000011111111110000000000000000000000000000111100111111111111111111
111111111111111111100001111000000000000011000000000001111111111110000000000000000000000000000000000000000000000000000000000111110000000111111110000000000000000000000000000111000111111111111111111
111111111111111111110001111000000000001111100000000001111111111100000000000000000000000000000000000000000000000000000000111111110000000111111110000000000000000000000000000000000111111111111111111
111111111111111111111101110000000000000111100000000000001111111000000000000000000000000000000000000000001110000000000000111111111100000011111110000000000000000000000000000000001111111111111111111
111111111111111111111110000000000000000111100000000000011111110000000000000000000000000000000000111100001110000000000111111111111111000000111100000000000000000000000010000001111111111111111111111
111111111111101100111110000000111000000111000000000000111111100000000000000000000000000000000001111110001100000001100111111111111111110000001111000000000000000000000111100011111111111111111111111
111111111111000000011110001100111100000000000000000001111111000000000000000000000000000000000011111111101100000001100111111111111111111000001111110000000000000000000111100111100000100111111111111
111111111110000000001100011111111000000000000000111111111110000000000000000000000000000000011111111111111110000011100000111111111111111111101111110000000000000000000111001111000000000011111111111
111111111110000000000000011111111000110000000000111111111100000000000000000000000000000111111111111111111111000011100001111111111111111111100111100000000000000001110111011010000000000011111111111
111111111111000000000000111111110001110000000000111111111000000000000000000000000001111111111111111111111111001111000011111111111111111111100011000000000000000001111111110000000000000001111111111
111111111111100000000001111111100001110000000000111111110000000000000000001111111111111111111101111111111110011111111111111111111111111111100000000000000000000000011111000000000000000000111111111
111111111111110000000001111111000011100011100000111111100000000000000000011111111111111111000000111111111110011111111111111111111111100011100000000000000000000000011111000000000011000000111111111
111111111111100000000011111111000011100011100001111111000000000000000000011111111111110000000000111111111110011111111111111111111111000000000000000000000000000000001110000000000011100000011111111
111111110100000000000011111110000111000011000011111110000000000000000000011111111111100000000000111111111110011111111111111111111111100000000000000001110000000000001000000000000001100000011111111
111111100000000000111111100100001111000011000111111100000000000000000000111111110011111000000001111111111100111111111111111111111111111000000000000001110000000000000000000000000010000000001111111
111111100000000001111111100000001110000111111111111000000000000000000001111111110011111000000001111111111100111111111111111111111111111100000000000011111100000000000000000000000111000000001111111
111111000000000001111100000000001100000111111111110000000000000000000011111111100011111110000000001111111100111111111111111111111111111100000000111111111110000100000000000000000111100000000111111
111111000000000000111100000000001100000111111111100000000000000000000111111000000011111110000000001111111001111111111100011111111111111100000000111111111110000110000000000000000111100000000011111
111110000000000000100000000000000000000111111111000000000000000000001111110001000011111110000000001111111111111111111100001111111111111000000000111111111110000000000000000000000000000000000011111
111110000000000000000000000000000000001111111110000000000000000000011111100011100011111110000000001111111111111111111100000111111111111000000000111111111110000000000000000000000000000000000001111
111110000000000000000000000111100000001111111110000000000000000000111111000111111000011110000000001111111111111111111100000011111111100000000000001111111110000000000000000000000000000000000011111
111111000000000000000000000111110000000001111110000000000000000001111111100111111100000100000000000011111111111111000000000001111111100000000000000001111100000000000000000000000000000000000001111
111111000000000000000000000111110000000001111000000000000000000011111111110011111100000000000000000000001111111111000000000000111111110000000000000001111100000000000000000000000000000000000011111
111000000000000000000000000011110000000011111000000000000000000111111111111001111000000000000000000000000001111111000000000000011111111000000000000001111100000000000000000000000000000000000011111
111000000000001111000000000000000000000011111000000000000110001111111111111100110000000000000000000000000000011110000000000000001111111100000000000000010000000000000000000000000000000000000111111
111100000000011111100000000000000000001111111000000000001111111111111111111100000000000000000000000000000000011110000000000000000111111100000000000000000000000000000000000000000000000011011111111
111100000000011111101110000000000000111111110000000000011111111111011111111000000000000000000000000000000000011000000000000000000011111110000000000000000000000000000000000000000000000111110011111
111100000000011111111111000000000000011111110000000000011111111110011111110000000000000000000000000000000000110000000000000000000001111111000000000000000000000000000000000000011111111111000001111
111000000000001111111111000000000000011111110000000000001111111110001111100000000000000000000000000000000000100000000000000000000001111111000000000000000000000000000000000011111111110000000000011
110000000000000111111111000000000000011111110000000000000111111110000111000000000000000000000000000000000011111000000000000000000001111111000000000000000000111100000000000011111111000000000000011
110000000000000011111110000000000000001111100000000000000011111110000000000000000000000000000000000000000011111100000000000000000001111111000000000000000000111100000000000011111110000000000000011
110000000000000011111000000000000000000111100000000000000011111100000000000000000000000000000000000000000011111100000000000000000000111111000000000000000000111100000000000001111000000000000000011
110000000000010011110000000000000000000011000000000000000011111000000000000000000000000000000000000000000110111000000000000000000000011111000000000000000000111100000000000000000000000000000000011
110000000000111001110000000000000000000000000000000000000011111111100000000000000000000000000000000000000100000000000000000000000000001111100000000000000000011100000000000000000000000000000000011
110000000000011100110000000000000000000000000000000000000011111111100000000000000000000000000000000000001100000000000000000000000000001111100000000000000000001000000000000000000000000000000000011
110000000000001100101111000000000000000000000000000000000111111111111100000000000000000000000000000000111000000000000000000000000000001111100000000000000000001000000000000000000000000000000000011
111000000000000000101111000000000000011100000000000000000111111111111100000000000000000000000000000001111100000000000000000000000000001111100000000000000000001000000000000000000000000000000000011
111100000001110000100001110010000011011110000000000000000111111111111100000000000000000000000000000001111100000000000000000000000000000110000000000000000000001100000000000100000000000000000000011
111110000011111001110011111110000111111110000000000000000111111111111100000000000000000000000000000001111000000000000000000000000000000000000000000000000000001100000000000110000010001110000000011
111110000011111001110011111110001111111110000000000000001111111111000000000000000000000000000000000001111000000000000000000000000000000000000000000000000000001110011110000110011111000110000011111
111100000001111001110011111000000111111110000000000000001111011111000000000000000000000000000000100000000000000000000000000000000000000000000000000000000000000100011110011111111111000110000011111
111000000000110000100001110000000011111100000000000000001111000000000000000000000000000000000001110000000000000000000000000000000000000001110000000000000000000100011111111111111111100111110011111
110000001100000000100000000111000001111100000000000000001110000000000000000000000000000000000001110000000000000000000000000000000000000011111000000000000000000100011111111111111111100000000011111
110000011110000000100000000111100001111100000000000000011110000000000000000000000000000011110000000000000000000000000000000000000000000011111000000000000000000100011111111111111111000000000011111
110000111111000000100000001111100001111100000000000000011110000000000000000000000000000011110000000000000000000000000000000000000000000001111100000000000000000110011111111111111111000000000011111
110000011110000001100000000111100011111000000000000000011110000000000000000000000000001111110000000000000000000000000000000000000000000001111100000000000000001111011111111111111111000111110011111
111110001100000011110000000011000011111000000000000000111100000000000000000000000110111111110000000000000000000000000000000000000000000001111100000000000000001111011111111111111111111111111111111
111110000000000011110000000000000111111000000000000001111100000000000000000000001111101111100000000000000000000000000000000000000000000001111111110000001111111111111111111111111111111111111111111
111111111111111111111111111111111111111000000000000011111111000000000001111111111111000000000000000000000000000000000000000000000000000001111111111000011111111111111111111111111111111111111111111
111111111111111111111111111111111111111000000000000011111111100011100001111111001111000000000000000000000000000000000000000000000111000011111111111000011111111111111111111111111111111111111111111
111111111111111111111111111111111111111000000000000011111111111111111111111100001111000000000000000000000000000000000000000000001111100011111111111000011111111111111111111111111111111111111111111
111111111111111111111111111111111111111000000000000011111111100111100001111000001111000000000000000000000000000000000000000000001111100011111111111000011111111111111111111111111111111111111111111
111111111111111111111111111111111111111000000000000001111100000111100000000000000000000000000000000000000000000000000000000000000111111111111110000000000000011111111111111101111111101100001111111
111111111110011111111111111000111111111000000000000000111100000111100000000000000000000000000000000000000000000000000000011111011111111111111100000000000000011111111111100000111111100000001111111
111111111000001111111111111011111111111000000000000000111110000000000000000000000000000000000000000000000000000000000000011111111111111111111000000000000000011111111110000000011000000000000111111
111111111100000111111111111011111111111000000000000000111110000000000000000000000000000000000000000000000000000000000000011111111111111111111000000000000000011111111100000000011100000000000011111
111111111110000111111111110011111111111000000000000000111110000000000000000000000000000000000000000000000000000000000000011111111111111111111000000000000000111110001000000000001100000000000111111
111111111110000111111111100011111111111100000000000000011110000000000000000000000000000000000000000000000000000000000000011111111111111111111000000000000000111110000000000000000000000000000011011
111000111100000011111111100000000001111100000000000000011110000000000000000000000000000000000000000000000000000000000000111111111111111111110000000000000000111110000000110000000000000000000000011
111100010000000011110001111100000111111100000000000000000000000000000000000000000000000000000000000000000000000000001110111111111111111111110000000000000000111110000000110000000000000000000000011
111110000000010011110001111100000011111100000000000000000000000000000000000000000000000000000000000000000000000000011111111111111111111111110000000000000001111100000000000000000000111100000000011
111111000000000011110001111100000011111110000000000000000000000000000000000000000000000000000000000000000000000000011111111111111111111111110000000000000001111100000000000000000000111111100000011
111111000000000011110011111100000011111110000000000000000001000000000000000000000000000000000000000000000000000000001111111111111111111111100000000000000001111100000000000000000000111111100000011
111111000000000010000011111100000111111110000000000000001111100000000000000000000000000000000000000000000000000000000111111111111111111111100000000000000001111100000000000000000000111111100000011
111000000000000010000011111100001111011111000000000000001111100000000000000000000000000000000000000000000000000000001111111111111111111111100000000000000000010000000000000000000000111111100011111
110000000000000010000000000000001111011111000000000000000111110000000000000000000000000000000000000000000000000000111111111111111111111111100000000000000000000000000000000000000011111111000011111
110000000000000010000000000000000011011111000000000000000111110000000000000000000000000000000000000000000000000011111111111111111111111111000000000000000000000000000000000111111111111110000011111
110000000000000111000000000000000000011111000000000000000111110000000000000000000000000000000000000000000000000011111111111111111111111111000000000000000000000000000000001111111111111110000011111
110000000000000111100000000000000000111111100000000000000011111100000000000000000000000000000000000000000000000011111111111111111111111111000000000000000111000000000000001111111111111111100011111
110000000000000111100000000000000000111111100000000000000011111110000000000000000000000000000000000000000000000011111111111111111111111111000000000000000111100000000000001111111111111111100000011
111000000000000111100000000000000000111111100000000000000011111110000000000000000000000000000000000000000000000001111111111111111111111111000000000000000111110000000000001111111111111111101000011
111100000000000111100000000000000000011111100000000000001111111110000000000000000000000000000000000000000000000001111111111111111111111111110000000000001111100000000000000111111111111111100001111
111100000000000000000000000000000000011111110000000000011111111110000000000000000000001000000000000000000000000000111111111111111111111111110000000000001111110000000000000111111111111100100001111
111000000000000000000000000000000000011111110000000000001111111111000000000000000000001100000000000000000000000000011111111111111111111111110000000000001111111100000000000111111111111000000001111
111000000000000000000000000000000000011111110000000000001111111111100000000000000000011100000000000000000000000000011111111111111111111111100000000000001111111110000000000000001111111000000000011
111000000000000000000000000000000000001111110000000000000100000111110000000000000000011100000011000000000000000000011111111111111111110000000000000000011111111111100000000000001111111000000001111
111010000000000000000000000000000000001111111000000000000000000011111000000000000111111100000011000000000000000000111111111111111111100000000000000000011111111111100000000000001111111000000011111
111111000000000000000000000000000000001111111000000000000000000001111100000000000111111000000111000000000000000001111111111111111111000000000000000000111111111111000000000000001111110000000011111
111110000000000000000000000000000000001111111110000000000000000000111110000000000111111000000111000000000000000001111111111111111110000000000000000001111111111111111000000000011111111000000011111
111110000000000000000000000000000000000111111110000000000000000000011111000000001111111000000111000000000000000001111111111111111100000000000000000011111111111111111100000000011111111000000001111
111110000000000000000000000000000000000111111111000000000000000000001111100000001111111000000111111000000000000000001111111111111000000000000000000011111111111111111100000000001111111000000011111
111110000111100000000000000000000000000111111111000000000000000000000111110000001111110000001111111000000000000000000111111111110000000000000000000011111111111111110000000000000000110000000011111
111111000110000000000000000000000000001111111111000000000000000000000011111000001111110000001111110000000000000000001111111111100000000000000000000111111111111000000000000000000000000000000011111
111111000000100000000000000000000000001111111111100000000000000000000001111111111111110000001111110000000000000000000111111111000000000000000000001111111111111110000000000000000000000011100111111
111111100000100100000000000000000000001111111111110000000000000000000000111111111111100000011111110000000000000000001111111110000000000000000000011111111111111111100001110000000000000011110111111
111111100011110111100000000000000000000110011111111000000000000000000000011111111111100000011111110000000000000000011111111100000000000000000000111111100001111111111001111100000000000011111111111
111111110111110111100000000000000000000000011111111100000000000000000000011111111111000000011111100000000000000000111111111000000000000000000001111111000000011111111101111100000000000011111111111
111111111111111110000000000000000000000000001111111110000000000000000000011111111111000000011111100000000000001111111111111000000000000000000011111110000000001111111111111111110000000001111111111
111111111111111110000000000000000000000000000111111111000000000000000000011111111111111000001111100000000011111111111111110000000000000000000111111100000000000011111111111111111100011100111111111
111111111111111110000000000000000000000000000011111111100000000000000000111111111111111111111111111110111111111111111111100000000000000000001111111110000000000000111111111111111111111110111111111
111111111111111110000000000000000000000000000001111111000000000000000000111110000001111111111111111111111111111110000000000000000000000000000111111110000000000000011111111111111111111111111111111
111111111111111100000000000000000000000000000000111110000000000000000001111100000000001111111111111111111111100000000000000000000000000000000011111110000000000000000111111111111111111111111111111
111111111111111100000000000000000000000000000000000000000000000000000000111100000000000000111111111111111100000000000000000000000000000000000000011100000000000000000001111111111111111111111111111
111111111111111100000000000000000000000000000000000000000110000000000000001000000000000000000011111111000000000000000000000000000000000011100000000000000000000000000000011111111111111111111111111
111111111111111100000000011111000000000000000000000000001111000000000000000000000000000000000001111110000000000000000000000000000000000111110000000000000000000000000000001111111111111111111111111
111111111111111110000000011111000000000000000000000000011111100000000000000000000000000000000000111100000000000000000000000000000000001111110000000000000000000000000000000011111111111111111111111
111111111111111111000000011111000000000000000000000000001111110000001110000000000000000000000000111100000000000000000000000000000000011111110000000000000000000000000000000001111111111111111111111
111111111111111111000000011111000000000000000000000001101111111000011111000000000000000000000000111100000000000000000000000000000000111111110000000000000000000000000000000001111111111111111111111
111111111111111111100000011111000000000000000000000001110111111100011111000000000000000000000000000000000000000000000000000000000001111111111000000000000000000000000000000011111111111111111111111
111111111111111111100000011111000000000000000000000000110011111110111111000000000000000000000000000000000000000000000000000000000011111111111000000000000000000010000000000011111111111111111111111
111111111111111111111111111111000000000000000000000000000001111111111110000000000000000000000000000000000000000000000000000000011111111101110000000000000000000011111111111111111111111111111111111
111111111111111111111111111111000000000000000000000000000000111111111110000000000000000000000000000000000000000000000000000000111111111000000000000000000000000111111111111111111111111111111111111
111111111111111111111111111111000000000000000000000000000110011111111110000000000000000000000000000000000000000000000000000011111111110000000000000000000000000111111111111111111111111111111111111
111111111111111111111111111111000000000000000000000000000110001111111111111000000000000000000000000000000000000000000000111111111111100000000000000000000000011111111111111111111111111111111111111
111111111111111111111111111111000000000000000000000000000110011111111111111111100000000000000000000000000000000000000111111111111111100000000000000000000000111111111111111111111111111111111111111
111111111111111111111111111111000000000000000000000000000100011111111111111111111000000000000000000000000000000001111111111111111111000000000000000000000000111111111111111111111111111111111111111
111111111111111111111111111111000000000000000000000000000001011111111111111111111000000000000000000000000000011111111111111111111111000000000000000000000011111111111111111111111111111111111111111
111111111111111111111111111111000000000010000000000000000000011111110001111111110000111111000000000000000111111111111111111100000000000000000000000000000111111111111111111111111111111111111111111
111111111111111111111111111111000000000111000000000000000000111111100000000111110000111111111100000000111111111111111111111100000000000000000000000000000011111111111111111111111111111111111111111
111111111111111111111111111111000000000111100000000000000000111111001100000000000000111111111111111111111111111111111111111100000000000000000000000000000011111111111111111111111111111111111111111
111111111111111111111111111111000000001111111000000000101011111111111100000000000000111111111111111111111111111111111110011100000000000000000000000000000001111111111111111111111111111111111111111
111111111111111111111111111111000000000111111000000000111111111111111110000000000000001111111111111111111111110011111110000000000000000110111100000000000000011111111111111111111111111111111111111
111111111111111111111111111111000000000011111110000000111111111111111110000000000000001110111111111111111011110011110000000000000000001111111101110000000000001111111111111111111111111111111111111
111111111111111111111111111111000000000000000111110001111111111111111111000000000000001110000011111110000011110000000000000000000000001111111111110000000000000111111111111111111111111111111111111
111111111111111111111111111111000000000000011111110001111111111111111110000000000000000111000011111110000011110000000000000000000000001111111111111000000000001111111111111111111111111111111111111
111111111111111111111111111111000000000011111111111100111111111111111110000000000000000111000000111100000000000000000000000000000000111111111111111000000000001111111111111111111111111111111111111
111111111111111111111111111100000000001111111111000111111111111111111110000000000000000000000000111100000000000000000000000000000000111111111111100000000000000111111111111111111111111111111111111
111111111111111111111111111110000000001111111111100001111111111100000000000000000000000000000000111100000000000000000000000000000000111111111111100000000000000011111111111111111111111111111111111
111111111111111111111111111100001110000011111111110001111111111001100000000000000000000000000000111100000000000000000000000000000000111111111000000000000000000011111111111111111111111111111111111
111111111111111111111111111101101110000001111111110001111111111001100000000000000000000000000000111100000000000000000000000000000001111111111000000000000000000001111111111111111111111111111111111
111111111111111111111111111111111111000000111111110001111111110001100000000000000000000000000000111100000000000000000000000000000111111111111110000000000000000001111111111111111111111111111111111
111111111111111111111111111111111111100000001111001001111111111101100000000000000000000000000000111100000000000000000000000000001111111111111110000000000000000111111111111111111111111111111111111
111111111111111111111111111111111111100000001100000011111111111100000000000000000000000000000000111100000000000000000000000000001111111111111110000000000000011111111111111111111111111111111111111
111111111111111111111111111111111110000000000000000111111111111100000000000000000000000000000000111100000000000000000000000000001111111111111110000000000000111111111111111111111111111111111111111
111111111111111111111111111111111110000000000000001111111111111100000000000000000000000000000000111100000000000000000000000000000111111111111100000000000000111111111111111111111111111111111111111
111111111111111111111111111111111111100001110000001111111111111110000000000000000000000000001110111100000000000000000000000000000001111111101110000000000000111111111111111111111111111111111111111
111111111111111111111111111111111111110001111110101111111111111111000000000000100000000111111111111100000000000000000000000000000001111110001111000111000000011111111111111111111111111111111111111
111111111111111111111111111111111111111101111110011111111111111111100000000011100000000111111111111100000000000000000000000000000000111000000111001111100001111111111111111111111111111111111111111
111111111111111111111111111111111111111111111100011111111111111111100000000111110000001111111111111100000000000000011111000000000000110000000111101111100011111111111111111111111111111111111111111
111111111111111111111111111111111111111111111101111111111111111110000000000111110000000111111111111100000000000000111111000000000000000000001111101111101111111111111111111111111111111111111111111
111111111111111111111111111111111111111111111111111111111111111110000000000111110000000111111111111100000000000000111111100000000000000000001111111111111111111111111111111111111111111111111111111
111111111111111111111111111111111111111111111111111111111111111100000000000111100000000011111111111100000000011111111111100000000000000000001111111111111111111111111111111111111111111111111111111
111111111111111111111111111111111111111111111111111111111000000000000000000010000000000011111111111100000011111111111111100000000000000000000011111111111111111111111111111111111111111111111111111
111111111111111111111111111111111111111111111111111111111000001110000000000110000000000011111111111100000011111111111111100000000000000000000011111111111111111111111111111111111111111111111111111
111111111111111111111111111111111111111111111111111111111100011110000000000100000000000000111111111100000011111111111111100000000000000000100001111111111111111111111111111111111111111111111111111
111111111111111111111111111111111111111111111111111111111101111111000000000100000000000011111111111100000001111111111111110000000000000001100011111111111111111111111111111111111111111111111111111
111111111111111111111111111111111111111111111111111111111101111111000000001100000000000011111111111111000001111111111111110000000000011101101111111111111111111111111111111111111111111111111111111
111111111111111111111111111111111111111111111111111111111111111110000000011100000000000011111100111111111001111111111111111111100000011100111111111111111111111111111111111111111111111111111111111
111111111111111111111111111111111111111111111111111111111111111000000000001100000000000001111100111111111000111111111111111111100000011111111111111111111111111111111111111111111111111111111111111
111111111111111111111111111111111111111111111111111111111111111100001110011000000000000001111110111111110000111111111111111111110000011111111111111111111111111111111111111111111111111111111111111
111111111111111111111111111111111111111111111111111111111111111110001111010000000000000000111100111111110000111111111111111111111000011111111111111111111111111111111111111111111111111111111111111
111111111111111111111111111111111111111111111111111111111111111111111111010000000000000000110000111111110001111111111111111111111001111111111111111111111111111111111111111111111111111111111111111
111111111111111111111111111111111111111111111111111111111111111111111111110000000111110001100011111111110011111111111111111111111111111111111111111111111111111111111111111111111111111111111111111
111111111111111111111111111111111111111111111111111111111111111111111111111000000111110000000011111111110111111111111111111111111111111111111111111111111111111111111111111111111111111111111111111
111111111111111111111111111111111111111111111111111111111111111111111111111000000111111111000011111111111111111111111111111111111111111111111111111111111111111111111111111111111111111111111111111
111111111111111111111111111111111111111111111111111111111111111111111111111110000111111111000011111111111111111111111111111111111111111111111111111111111111111111111111111111111111111111111111111
111111111111111111111111111111111111111111111111111111111111111111111111111111111111111111111111111111111111111111111111111111111111111111111111111111111111111111111111111111111111111111111111111
111111111111111111111111111111111111111111111111111111111111111111111111111111111111111111111111111111111111111111111111111111111111111111111111111111111111111111111111111111111111111111111111111
