1111111111111111111111111111111111111111111111
1111111111111111111111111111111111111111111111
1111111111111111111111111111111111111111111111
1111111111110000000001111111000000001111111111
1111111110000000000000111110000000000000000111
1111000000000011000000011000000000000000000111
1111000000000111100000000000000000000000001111
1111100000000111111000000000000000000000011111
1111100000000111110000000000000000000000011111
1111100000000011000000000000000000011110011111
1111100000000000000000110000000000011111111111
1111100000000000000000111100000110011111111111
1111100000111111100001111100011111111111111111
1111111000111111100000111100011111011111111111
1111111000000000000000011000011110011111111111
1111111111111111110000000000000000011111111111
1111111111111111110000000000000000011111111111
1111111111111111110011110000011100011111111111
1111110011111111111111110000011100011111111111
1111100000001111111111110000011001111111111111
1111100000001111111100000000000001111111111111
1111100000001111111000000000000001111111111111
1111100000000000000000000110000001111111111111
1111111100000000000000111111100001111111111111
1111111111101000000110111111100000111111111111
1111111111111111111111111111111111111111111111
1111111111111111111111111111111111111111111111
1111111111111111111111111111111111111111111111
1111111111111111111111111111111111111111111111
1111111111111111111111111111111111111111111111
