11111111111111111111111111111111111111111111111111111111111111111111111111111111111111111111111111111111111111111111111111111111111111111111111111111111111111111111111111111111111111111111111111111111111111111111111111111111111111111111111111111111111111111111111
11111111111111111111111111111111111111111111111111111111111111111111111111111111111111111111111111111111111111111111111111111111111111111111111111111111111111111111111111111111111111111111111111111111111111111111111111111111111111110000111111111111111111111111111
11111111111111111111111111111111111111111111111111111111111111111111111111111111111111111111111111111111111111111111111111111111111111111111111111111111111111111111111111111111111111111111111111111111111111111111111111111111111000000000111111111111111111111111111
11111111111111111111111111111111111111111111111111111111111111111111111111111111111111111111111111111111111111111111111111111111111111111111111111111111111111111111111111111111111111111111111111111111111111111111111111111111111100000000111111111111111111111111111
11111111111111111111111111111111111111111111111111111111111111111111111111111111111111111111111111111111111111111111111111111111111111111111111111111111111111111111111111111111111111111111111111111111111111111111111111111111111111000001111111111111111111111111111
11111111111111111111111111111111111111111111111111111111111111111111111111111111111111111111111111111111111111111111111111111111111111111111111111111111111111111111111111111111111111111111111111111111111111111111111111111111111111000001111111111111111111111111111
11111111111111111111111111111111111111111111111111111111111111111111111111111111111111111111111111111111111111111111111111111111111111111111111111111111111111111111111111111111111111111111111111111111111111111111111111111111111111000001011111111111111111111111111
11111111111111111111111111111111111111111111111111111111111111111111111111111111111111111111111111111111111111111111111111111111111111111111111111111111111111111111111111111111111111111111111111111111111111111111111111111111111111000001001111111111111111111111111
11111111111111111111111111111111111111111111111111111111111111111111111111111111111111111111111111111111111111111111111111111111111111111111111111111111111111111111111111111111111111111111111111111111111111111111111111111111111111000001101111111111111111111111111
11111111111111111111111111111111111111111111111111111111111111111111111111111111111111111111111111111111111111111111111111111111111111111111111111111111111111111111111111111111111111111111111111111111111111111111111111111111111110000000001111111111111111111111111
11111111111111111111111111111111111111111111111111111111111111111111111111111111111111111111111111111111111111111111111111111111111111111111111111111111111111111111111111111111111111111111111111111111111111111111111111111111111110000000000111111111111111111111111
11111111111111111111111111111111111111111111111111111111111111111111111111111111111111111111111111111111111111111111111111111111111111111111111111111111111111111111111111111111111111111111111111111111111111111111111111111111111111000000000011111111111111111111111
11111111111111111111111111111111111111111111111111111111111111111111111111111111111111111111111111111111111111111111111111111111111111111111111111111111111111111111111111111111111111111111111111111111111111111111111111111111111111000000000011111111111111111111111
11111111111111111111111111111111111111111111111111111111111111111111111111111111111111111111111111111111111111111111111111111111111111111111111111111111111111111111111111111111111111111111111111111111111111111111111111111111111111000000000111111111111111111111111
11111111111111111111111111111111111111111111111111111111111111111111111110111111111111111111111111111111111111111111111111111111111111111111111111111111111111111111111111111111111111111111111111111111111111111111111111111111111111000000000011111111111111111111111
11111111111111111111111111111111111111111111111111111111111111111111111000111111111111111111111111111111111111111111111111111111111111111111111111111111111111111111111111111111111111111111111111111111111111111111111111111111111111000000000011111111111111111111111
11111111111111111111111111111111111111111111111111111111111111111111000000011111111111111111111111111111111111111111111111111111111111111111111111111111111111111111111111111111111111111111111111111111111111111111111111111111111111000000000011111111111111111111111
11111111111111111111111111111111111111111111111111111111111111111111100000001111111111111111111111111111111111111111111111111111111111111111111111111111111111111111111111111111111111111111111111111111111111111111111111111111111110000000000011111111111111111111111
11111111111111111111111111111111111111111111111111111111111111111111110000000111111101111111111111111111111111111111111111111111111111111111111111111111111111111111111111111111111111111111111111111111111111111111111111111111111110000000000011111111111111111111111
11111111111111111111111111111111111111111111111111111111111111111111110000000001100001111111111111111111111111111111111111111111111111111111111111111111111111111111111111111111111111111111111111111111111111111111111111111111111110000000000011111111111111111111111
11111111111111111111111111111111111111111111111111111111111111111111111000000000000000111111111111111111111111111111111111111111111111111111111111111111111111111111111111111111111111111111111111111111111111111111111111111111111100000000000011111111111111111111111
11111111111111111111111111111111111111111111111111111111111111111111111000000000000000111111111111111111111111111111111111111111111111111111111111111111111111111111111111111111111111111111111111111111111111111111111111111111111100000000000011111111111111111111111
11111111111111111111111111111111111111111111111111111111111111111111111000000000000000111111111111111111111111111111111111111111111111111111111111111111111111111111111111111111111111111111111111111111111111111111111111111111111100000000000011111111111111111111111
11111111111111111111111111111111111111111111111111111111111111111111111000000000000000011111111111111111111111111111111111111111111111111111111111111111111111111111111111111111111111111111111111111111111111111111111111111111111000000000000011111111111111111111111
11111111111111111111111111111111111111111111111111111111111111111111111000000000000000011111111111111111111111111111111111111111111111111111111111111111111111111111111111111111111111111111111111111111111111111111111111111111111000000000000011111111111111111111111
11111111111111111111111111111111111111111111111111111111111111111111111100000000000000001111111111111111111111111111111111111111111111111111111111111111111111111111111111111111111111111111111111111111111111111111111111111111111000000000000011111111111111111111111
11111111111111111111111111111111111111111111111111111111111111111111111000000000000000000111111111111111111111111111111111111111111111111111111111111111111111111111111111111111111111111111111111111111111111111111111111111111111000000000000011111111111111111111111
11111111111111111111111111111111111111111111111111111111111111111111111000000000000000000111111111111111111111111111111111111111111111111111111111111111111111111111111111111111111111111111111111111111111111111111111111111111111110000000000111111111111111111111111
11111111111111111111111111111111111111111111111111111111111111111111111000000000000000000011111111111111111111111111111111111111111111111111111111111111111111111111111111111111111111111111111111111111111111111111111111111111111110000000000111111111111111111111111
11111111111111111111111111111111111111111111111111111111111111111111111000000000000000000001111111111111111111111111111111111111111111111111111111111111111111111111111111111111111111111111111111111111111111111111111111111111111110000000000111111111111111111111111
11111111111111111111111111111111111111111111111111111111111111111111110000000000000000000001111111111111111111111111111111111111111111111111111111111111111111111111111111111111111111111111111111111111111111111111111111111111111110000000000111111111111111111111111
11111111111111111111111111111111111111111111111111111111111111111111100000000000000000000000111111111111111111111111111111111111111111111111111111111111111111111111111111111111111111111111111111111111111111111111111111111111111110000000000111111111111111111111111
11111111111111111111111111111111111111111111111111111111111111111111100000000000000000000000011111111111111111111111111111111111111111111111111111111111111111111111111111111111111111111111111111111111111111111111111111111111111110000000000111111111111111111111111
11111111111111111111111111111111111111111111111111111111111111111111000000000000000000000000011111111111111111111111111111111111111111111111111111111111111111111111111111111111111111111111111111111111111111111111111111111111111110000000000001101111111111111111111
11111111111111111111111111111111111111111111111111111111111111111110000000000000000000000000001111111111111111111111111111111111111111111111111111111111111111111111111111111111111111111111111111111111111111111111111111111111111110000000000000001111111111111111111
11111111111111111111111111111111111111111111111111111111111111111110000000000000000000000000000111111111111111111111111111111111111111111111111111111111111111111111111111111111111111111111111111111111111111111111111111111111111110000000000000000011111111111111111
11111111111111111111111111111111111111111111111111111111111111111100000000000000000000000000000111111111111111111111111111111111111111111111111111111111111111111111111111111111111111111111111111111111111111111111111111111111111111000000000000000000111111111111111
11111111111111111111111111111111111111111111111111111111111111111100000000000000000000000000000011111111111111111111111111111111111111111111111111111111111111111111111111111111111111111111111111111111111111111111111111111111111111000000000000000000001111111111111
11111111111111111111111111111111111111111111111111111111111111111000000000000000000000000000000001111111111111111111111111111111111111111111111111111111111111111111111111111111111111111111111111111111111111111111111111111111111111000000000000000000000111111111111
11111111111111111111111111111111111111111111111111111111111111111000000000000000000000000000000000011111111111111111111111111111111111111111111111111111111111111111111111111111111111111111111111111111111111111111111111111111111111000000000000000000000011111111111
11111111111111111111111111111111111111111111111111111111111111110000000000000000000000000000000000011111111111111111111111111111111111111111111111111111111111111111111111111111111111111111111111111111111111111111111111111111111110000000000000000000000011111111111
11111111111111111111111111111111111111111111111111111111111111110000000000000000000000000000000000000000000000000000000000011111111111111111111111111111111111111111111111111111111111111111111111111111111111111111111111111111111110000000000000000000000011111111111
11111111111111111111111111111111111111111111111111111111111111111000000000000000000000000000000000000000000000000000000000000011111111111111111111111111111111111111111111111111111111111111111111111111111111111111111111111111111110000000000000000000000011111111111
11111111111111111111111111111111111111111111111111111111111111111000000000000000000000000000000000000000000000000000000000000000011111111111111111111111111111111111111111111111111111111111111111111111111111111111111111111111111110000000000000000000000011111111111
11111111111111111111111111111111111111111111111111111111111111111000000000000000000000000000000000000000000000000000000000000000000011111111111111111111111111111111111111111111111111111111111111111111111111111111111111111111111110000000000000000000000001111111111
11111111111111111111111111111111111111111111111111111111111111111000000000000000000000000000000000000000000000000000000000000000000000011111111111111111111111111111111111111111111111111111111111111111111111111111111111111111111110000000000000000000000010111111111
11111111111111111111111111111111111111111111111111111111111111111000000000000000000000000000000000000000000000000000000000000000000000000011111111111111111111111111111111111111111111111111111111111111111111111111111111111111111110000000000000000000000000111111111
11111111111111111111111111111111111111111111111111111111111111111000000000000000000000000000000000000000000000000000000000000000000000000000111111111111111111111111111111111111111111111111111111111111111111111111111111111111111100000000000000000000000011111111111
11111111111111111111111111111111111111111111111111111111111111111000000000000000000000000000000000000000000000000000000000000000000000000000011111111111111111111111111111111111111111111111111111111111111111111111111111111111111100000000000000000000000011111111111
11111111111111111111111111111111111111111111111111111111111111111000000000000000000000000000001111110000000000000000000000000000000000000000011111111111111111111111111111111111111111111111111111111111111111111111111111111111111100000000000000000000000011111111111
11111111111111111111111111111111111111111111111111111111111111111000000000000000000000000000011111111100000000000000000000000000000000000000011111111111111111111111111111111111111111111111111111111111111111111111111111111111111100000000000000000000000001111111111
11111111111111111111111111111111111111111111111111111111111111111000000000000000000000000000011111111111100000000000000111111111100000000000011111111111111111111111111111111111111111111111111111111111111111111111111111111111111100000000000000000000000001111111111
11111111111111111111111111111111111111111111111111111111111111111000000000000000000000000000011111111111111111111111111111111111111100000000001111111111111111111111111111111111111111111111111111111111111111111111111111111111111100000000000000000000000001111111111
11111111111111111111111111111111111111111111111111111111111111111000000000000000000000000000011111111111111111111111111111111111111110000000000111111111111111111111111111111111111111111111111111111111111111111111111111111111111100000000000000000000000001111111111
11111111111111111111111111111111111111111111111111111111111111111000000000000000000000000000011111111111111111111111111111111111111111000000000011111111111111111111111111111111111111111111111111111111111111111111111111111111111100000000000000000000000000111111111
11111111111111111111111111111111111111111111111111111111111111111000000000000000000000000000011111111111111111111111111111111111111111000000000001111111111111111111111111111111111111111111111111111111111111111111111111111111111100000000000000000000000000111111111
11111111111111111111111111111111111111111111111111111111111111111100000000000000000000000000011111111111111111111111111111111111111111000000000000111111111111111111111111111111111111111111111111111111111111111111111111111111111100000000000000000000000000111111111
11111111111111111111111111111111111111111111111111111111111111111110000000000000000000000000001111111111111111111111111111111111111111000000000000011111111111111111111111111111111111111111111111111111111111111111111111111111111110000000000000000000000000011111111
11111111111111111111111111111111111111111111111111111111111111111110000000000000000000000000000001111111111111111111111111111111111111000000000000011111111111111111111111111111111111111111111111111111111111111111111111111111111110000000000000000000000000001111111
11111111111111111111111111111111111111111111111111111111111111111111000000000000000000000000000000011111111111111111111111111111111111000000000000011111111111111111111111111111111111111111111111111111111111111111111111111111111110000000000000000000000000000011111
11111111111111111111111111111111111111111111111111111111111111111111100000000000000000000000000000000111111111111111111111111111111111000000000000011111111111111111111111111111111111111111111111111111111111111111111111111111111110000000000000000000000000000001111
11111111111111111111111111111111111111111111111111111111111111111111110000000000000000000000000000000000000001111111111111111111111111000000000000001111111111111111111111111111111111111111111111111111111111111111111111111111111111100000111100000000000000000000011
11111111111111111111111111111111111111111111111111111111111111111111111100000000000000000000000000000000000000000011111111111111111111000000000000011111111111111111111111111111111111111111111111111111111111111111111111111111111111100000111100000000000000000000001
11111111111111111111111111111111111111111111111111111111111111111111111111000000000001100000000000000000000000000000111111111111111111000000000000011111111111111111111111111111111111111111111111111111111111111111111111111111111111100000111100000000000000000000001
11111111111111111111111111111111111111111111111111111111111111111111111111111100000111111000000000000000000000000000011111111111111111000000000000111111111111111111111111111111111111111111111111111111111111111111111111111111111111110000011100000000000000000000001
11111111111111111111111111111111111111111111111111111111111111111111111111111111111111111110000000000000000000000000001111111111111111000000000000111111111111111111111111111111111111111111111111111111111111111111111111111111111111110000000000000000000000000000001
11111111111111111111111111111111111111111111111111111111111111111111111111111111111111111111110000000000000000000000000111111111111111000000000000011111111111111111111111111111111111111111111111111111111111111111111111111111111111110000000000000000000000000000011
11111111111111111111111111111111111111111111111111111111111111111111111111111111111111111111111111100000000000000000000111111111111111100000000000011111111111111111111111111111111111111111111111111111111111111111111111111111111111111000001111000000000000000000011
11111111111111111111111111111111111111111111111111111111111111111111111111111111111111111111111111111100000000000000000011111111111111100000000000001111111111111111111111111111111111111111111111111111111111111111111111111111111111100000001111000000000000000000011
11111111111111111111111111111111111111111111111111111111111111111111111111111111111111111111111111111111100000000000000011111111111111000000000000001111111111111111111111111111111111111111111111111111111111111111111111111111111111110000001111000000000000000000011
11111111111111111111111111111111111111111111111111111111111111111111111111111111111111111111111111111111110000000000000001111111111110000000000000000111111111111111111111111111111111111111111111111111111111111111111111111111111111100000001111000000000000000000011
11111111111111111111111111111111111111111111111111111111111111111111111111111111111111111111111111111111111000000000000000111111111100000000000000000111111111111111111111111111111111111111111111111111111111111111111111111111111111100000000000000000000000000000011
11111111111111111111111111111111111111111111111111111111111111111111111111111111111111111111111111111111111000000000000000111111110000000000000000000111111111111111111111111111111111111111111111111111111111111111111111111111111111100000000000000000000000000000011
11111111111111111111111111111111111111111111111111111111111111111111111111111111111111111111111111111111111100000000000000011111110000000000000000000011111111111111111111111111111111111111111111111111111111111111111111111111111111100000000000000000000000000000111
11111111111111111111111111111111111111111111111111111111111111111111111111111111111111111111111111111111111110000000000000001111110000000000000000000011111111111111111111111111111111111111111111111111111111111111111111111111111111100000000000000000000000000000111
11111111111111111111111111111111111111111111111111111111111111111111111111111111111111111111111111111111111110000000000000001111110000000000000000000011111111111111111111111111111111111111111111111111111111111111111111111111111111100000000000000000000000000000111
11111111111111111111111111111111111111111111111111111111111111111111111111111111111111111111111111111111111110000000000000011111110000000000000000000011111111111111111111111111111111111111111111111111111111111111111111111111111111100000000000000000000000000000111
11111111111111111111111111111111111111111111111111111111111111111111111111111111111111111111111111111111111110000000000000011111110000000000000000000111111111111111111111111111111111111111111111111111111111111111111111111111111111100000000000000000000000000000111
11111111111111111111111111111111111111111111111111111111111111111111111111111111111111111111111111111111111110000000000000111111110000000000000000000111111111111111111111111111111111111111111111111111111111111111111111111111111111100000000000000000000000000001111
11111111111111111111111111111111111111111111111111111111111111111111111111111111111111111111111111111111111110000000000001111111110000000000000000001111111111111111111111111111111111111111111111111111111111111111111111111111111111100000001111000000000000000001111
11111111111111111111111111111111111111111111111111111111111111111111111111111111111111111111111111111111111111000000000001111111110000000000000000011111111111111111111111111111111111111111111111111111111111111111111111111111111111100000001111000000000000000001111
11111111111111111111111111111111111111111111111111111111111111111111111111111111111111111111111111111111111111000000000001111111110000000000000000011111111111111111111111111111111111111111111111111111111111111111111111111111111111100000001111000000000000000001111
11111111111111111111111111111111111111111111111111111111111111111111111111111111111111111111111111111111111110000000000011111111110000000000000000011111111111111111111111111111111111111111111111111111111111111111111111111111111111000000000110000000000000000001111
11111111111111111111111111111111111111111111111111111111111111111111111111111111111111111111111111111111111110000000000011111111110000000000000000111111111111111111111111111111111111111111111111111111111111111111111111111111111100000000000000000000000000000011111
11111111111111111111111111111111111111111111111111111111111111111111111111111111111111111111111111111111111110000000000011111111110000000000000000111111111111111111111111111111111111111111111111111111111111111111111111111111111100000000000000000000000000000011111
11111111111111111111111111111111111111111111111111111111111111111111111111111111111111111111111111111111111100000000000111111111100000000000000000111111111111111111111111111111111111111111111111111111111111111111111111111111111100000000000000000000000000000011111
11111111111111111111111111111111111111111111111111111111111111111111111111111111111111111111111111111111111100000000000111111111100000000000000000111111111111111111111111111111111111111111111111111111111111111111111111111111111100000000000000000000000000000011111
11111111111111111111111111111111111111111111111111111111111111111111111111111111111111111111111111111111110000000000000111111111100000000000000000111111111111111111111111111111111111111111111111111111111111111111111111111111111000000000000000000000000000000011111
11111111111111111111111111111111111111111111111111111111111111111111111111111111111111111111111111111111000000000000000111111111000000000000000000111111111111111111111111111111111111111111111111111111111111111111111111111111110000000000000000000000000000000011111
11111111111111111111111111111111111111111111111111111111111111111111111111111111111111111111111111111111000000000000001111111111000000000000000000011111111111111111111111111111111111111111111111111111111111111111111111110000000000000000000000000000000000000111111
11111111111111111111111111111111111111111111111111111111111111111111111111111111111111111111111111111111000000000000001111111110000000000000000000001111111111111111111111111111111111111111111111111111111111111111111111000000000000001111000000000000000000000111111
11111111111111111111111111111111111111111111111111111111111111111111111111111111111111111111111111111110000000000000011111111110000000000000000000000111111111111111111111111111111111111111111111111111111111111111111111000000000000001111000000000110000000000111111
11111111111111111111111111111111111111111111111111111111111111111111111111111111111111111111111111111000000000000000011111111100000000000000000000000011111111111100111111111111111111111111111111111111111111111111111110000000000000001111000000001111000000000111111
11111111111111111111111111111111111111111111111111111111111111111111111111111111111111111111111111111000000000000000111111111100000000000000000000000001111111000000001111111111111111111111111111111111111111111111111100000000000000000111000000001111000000000111111
11111111111111111111111111111111111111111111111111111111111111111111111111111111111111111111111111110000000000000000111111111000000000000000000000000000000000000000000011111111111111111111111111111111111111111111111100000000000000000000000000001111000000001111111
11111111111111111111111111111111111111111111111111111111111111111111111111111111111111111111111111100000000000000001111111111000000000000000000000000000000000000000000001111111111111111111111111111111111111111111111100000000000000000000000000000010000000001111111
11111111111111111111111111111111111111111111111111111111111111111111111111111111111111111111111111100000000000000001111111110000000000000000000000000000000000000000000000111111111111111111111111111111111111111111111100000000000000000000000000000000000000001111111
11111111111111111111111111111111111111111111111111111111111111111111111111111111111111111111111111000000000000000011111111110000000000000000000000000000000000000000000000011111111111111111111111111111111111111111111100000000000000000000000000000000000000001111111
11111111111111111111111111111111111111111111111111111111111111111111111111111111111111111111111110000000000000000011111111100000000000000000000000000000000000000000000000011111111111111111111111111111111111111111111110000000000000000000000000000000000000001111111
11111111111111111111111111111111111111111111111111111111111111111111111111111111111111111111111100000000000000000011111111000000000000000000000000000000000000000000000000001111111111111111111111111111111111111111111110000000000000000000000000000000000000001111111
11111111111111111111111111111111111111111111111111111111111111111111111111111111111111111111111000000000000000000111111110000000000000000000000000000000000000000000000000000111111111111111111111111111111111111111111010000000000000000000000000000000000000001111111
11111111111111111111111111111111111111111111111111111111111111111111111111111111111111111111111000000000000000000111111100000000000000000000000000000000000000000000000000000000111111111111111111111111111111111111111000000000000000000000000000000000000000001111111
11111111111111111111111111111111111111111110000111111111111110000000000011111111111111111100000000000000000000001111111100000000000000000000000000000000000000000000000000000000000000011000000111111111111111111111110000000000000000000000000000000000000000001111111
11111111111111111111111111111111111111110000000000000000000000000000000000000000000000000000000000000000000000011111111000000000000000000000000000000000000000000000000000000000000000000000000001111111111111111111110000000000000000000000000000000000000000001111111
11111111111111111111111111111111100000000000000000000000000000000000000000000000000000000000000000000000000000111111110000000000000000000000000000000000000000000000000000000000000000000000000000111000001111111111110000000000000000000000000000000000000000001111111
11111111111111111111111111111100000000000000000000000000000000000000000000000000000000000000000000000000000011111111100000000000000000000000000000000000000000000000000000000000000000000000000000001111100000011111110000000000000000000000000000000000000000001111111
11111111111111111111111111111000000000000000000000000000000000000000000000000000000000000000000000000000000111111111100000000000000000000000000000000000000000000000000000000000000000000000000000000000111000000111110000000000000000000000000000000000000000000111111
11111111111111111111111111110000000000000000000000000000000000000000000000000000000000000000000000000000001111111111000000000000000000000000000000000000000000000000000000000000000000000000000000000000001110000011110000000000000000000000000000000000000000000111111
11111111111111111111111111110000000000011000000000000000000000000000000000000000000000000000000000000000011111111110000000000000000000000000000000000000000000000000000000000000000000000000000000000000000011000000011000000000000000000000000000000000000000000111111
11111111111111111111111111110000000000011110000000000000000000000000000000000000000000000000000000000000111111111100000000000000000000000000000000000000000000000000000000000000000000000000000000000000000001100000011000000000000000000000000000000000000000000111111
11111111111111111111111111110000000000011111110000000000000000000000000000000000000000000000000000000001111111111100000000000000000000000000000000000000000000000000000000000000000000000000000000000000000000110000011000000000000000000000000000000000000000000111111
11111111111111111111111111110000000000011111111111111000000000000000000000000000000000000000000000000111111111111000000000000000000000000000000000000000000000000000000000000000000000000000000000000000000000010000011000000000000000000000000000000000000000000011111
11111111111111111111111111111000000000011111111111111111000000000000000000000000000000000000000000011111111111110000000000000000000000000000001110000000000000000000000000000000000000000000000000000000000000010000011000000000000000000000000000000000000000000011111
11111111111111111111111111111000000000011111111111111111111000000000000000000000000000000000000011111111111111100000000000000000000000000111111111111111000000000000000000000000000000000000000000000000000000001000001100000000000000000000000000000000000000000011111
11111111111111111111111111111100000000001111111111111111111110000000000000000000000000000111111111111111111111000000000000000000000001111111111111111111111111111000000000000000000000000000000000000000000000001000001110000000000000000000000000000000000000000011111
11111111111111111111111111111110000000000111111111111111111111100000000000000000000011111111111111111111111100000000000000000000011111111111111111111111111111111111111110000000000000000000000000000000000000001100000110000000000000000000000000000000000000000011111
11111111111111111111111111111110000000000011111111111111111111111000000000000000011111111111111111111111111000000000000000000001111111111111111111111111111111111111111111111111111100000000000000000000000000000100000110000000000000000000000000000000000000000011111
11111111111111111111111111111111000000000011111111111111111111111110000000000000111111111111111111111111110000000000000000000111111111111111111111111111111111111111111111111111111110000000000000000000000000000110000010000000000000000000000000000000000000000011111
11111111111111111111111111111111100000000001111111111111111111111111000000000001111111111111111111111111000000000000000000001111111111111111111111111111111111111111111111111111111111000000000000000000000000000010000110000000000000000000000000000000000000000011111
11111111111111111111111111111111100000000000111111111111111111111111110000000011111111111111111111111110000000000000000000111111111111111111111111111111111111111111111111111111111111000000000000000000000000000011000110000000000000000000000000000000000000000011111
11111111111111111111111111111111110000000000001111111111111111111111111110000111111111111111111111111000000000000000000011111111111111111111111111111111111111111111111111111111111111100000000000000000000000000001000011100000000000000000000000000000000000000011111
11111111111111111111111111111111110000000000000111111111111111111111111111111111111111111111111111100000000000000000000111111111111111111111111111111111111111111111111111111111111111100000000000000000000000000001100011100000000000000000000000000000000000000011111
11111111111111111111111111111111111000000000000011111111111111111111111111111111111111111111111110000000000000000000001111111111111111111111111111111111111111111111111111111111111111110000000000000000000000000000100001100000000000000000000000000000000000000011111
11111111111111111111111111111111111100000000000000111111111111111111111111111111111111111111111000000000000000000000001111111110000111111111111111111001111111111111111111111111111111110000000000000000000000000000110001110000000000000000000000000000000000000011111
11111111111111111111111111111111111100000000000000011111111111111111111111111111111111111111000000000000000000000000011111111100000000000000000000000000111111111111111111111111111111111100000000000000000000000000010001111000000000000000000000000000000000000011111
11111111111111111111111111111111111100000000000000001111111111111111111111111111111111111100000000000000000000000000111111111000000000000000000000000000111111111111111111111111111111111110000000000000000000000000011001111100000000000000000000000000000000000011111
11111111111111111111111111111111111100000000000000000011111111111111111111111111111111110000000000000000000000000000111111111000000000000000000000000000011111111111111111111111111111111111100000000000000000000000001000011100000000000000000000000000000000000011111
11111111111111111111111111111111111100000000000000000000111111111111111111111111111111100000000000000000000000000011111111110000000000000000000000000000011111111111111111111111111111111111111000000000000000000000001100011101000000000000000000000000000000000011111
11111111111111111111111111111111111100000000000000000000011111111111111111111111111111000000000000000000000000001111111111110000000000000000000000000000001111111111111111111111111111111111111110000000000000000000000100010111000000000000000000000000000000000011111
11111111111111111111111111111111111100000000000000000000000000111111111111111111111100000000000000000000000000111111111111100000000000000000000000000000000111111111111111111111111111111111111110000000000000000000000100000000001000000000000000000000000000000011111
11111111111111111111111111111111111110000000000000000000000000000000011111111111110000000000000000000000000011111111111111100000000000000000000000000000000111111111100011111111111111111111111111000000000000000000000110000000011000000000000000000000000000000011111
11111111111111111111111111111111111110000000000000000000000000000000000000001111100000000000000000000000001111111111111111000000000000000000000000000000000011111110000001111111111111111111111111000000000000000000000010001000011000000000000000000000000000000011111
11111111111111111111111111111111111111000000000000000000000000000000000000000000000000000000000000000001111111111111111111000000000000000000000000000000000011111000000000011111111111111111111111100000000000000000000010000110111000000000000000000000000000000111111
11111111111111111111111111111111111111000000000000000000000000000000000000000000000000000000000000000111111111111111111110000000000000000000000000000000000001110000000000001111111111111111111111110000000000000000000011000111111000000000000000000000000000000111111
11111111111111111111111111111111111111100000000000000000000000000000000000000000000000000000000000011111111111111111111100000000000000000000000000000000000000000000000000000011111110111111111111110000000000000000000001000111111000000000000000000000000000000111111
11111111111111111111111111111111111111100000000000000000000000000000000000000000000000000000000001111111111111111111111000000000000000000000000000000000000000000000000000000000111100111111111111110000000000000000000001100111111000000000000000000000000000000111111
11111111111111111111111111111111111111110000000000000000000000000000000000000000000000000000000111111111111111111111110000000000000000000000000000000000000000000000000000000000011100011111111111111000000000000000000000100111110000000000000000000000000000000111111
11111111111111111111111111111111111111111000000000000000000000000000000000000000000000000000001111111111111111111111100000000000000000000000000000000000000000000000000000000000000000011111111111111100000000000000000000100111110000000000000000000000000000001111111
11111111111111111111111111111111111111111100000000000000000000000000000000000000000000000000011111111111111111111111100000000000000000000000000000000000000000000000000000000000000000001111111111111100000000000000000001100111000000000000000000000000000000001111111
11111111111111111111111111111111111111111100000000000000000000000000000000000000000000000000111111111111111111111111000000000000000000000000000000000000000000000000000000000000000000000111111111111100000000000000000001000111000000000000000000000000000000001111111
11111111111111111111111111111111111111111100000000000000000000000000000000000000000000000001111111111111111111111111000000000000000000000000000000000000000000000000000000000000000000000111111111111000000000000000000001000111000000000000000000000000000000001111111
11111111111111111111111111111111111111111110000000000000000000000000000000000000000000000011111111111111110000011111000000000000000000000000000000000000000000000000000000000000000000000011111111111000000000000000000011000111110000000000000000000000000000001111111
11111111111111111111111111111111111111111110000000000000000000000000000000000000000000000011111111111111000000000110000000000000000000000000000000000000000000000000000000000000000000000001111111111000000000000000000110011111110000000000000000000000000000001111111
11111111111111111111111111111111111111111110000000000000000000000000000000000000000000000111111111111111000000000000000000000000000000000000000000000000000000000000000000000000000000000000111111100000000000000000001111111110010000000000000000000000000000001111111
11111111111111111111111111111111111111111110000000000000000000000000000000000000000000001111111111111110000000000000000000000000000000000000000000000000000000000000000000000000000000000000011110000000000000000000111111111110000000000000000000000000000000001111111
11111111111111111111111111111111111111111111000000000000000000000000000000000000000000011111111111111110000000000000000000000000000000000000000000000000000000000000000000000000000000000000000000000000000000000001111111111100000000000000000000000000000000001111111
11111111111111111111111111111111111111111111000000000000000000000000000000000000000000011111111111111100000000000000000000000000000000000000000111111111100000000000000000000000000000000000000000000000000000000011111111111100000000000000000000000000000000001111111
11111111111111111111111111111111111111111111000000000000000000000000000000000000000000011111111111111100000000000000000000000000000000000000011111111111111100000000000000000000000000000000000000000000000000000111111111111100000000000000000000000000000000001111111
11111111111111111111111111111111111111111111000000000000000000000000000000000000000000011111111111111000000000000000000000000000000000000000111111111111111111000000000000000000000000000000000000000000000000001111111111111100000000000000000000000000000000001111111
11111111111111111111111111111111111111111111000000000000000000000000000000000000000000000000000000000000000000000000000000000000000000000001111111111111111111100000000000000000000000000000000000000000000000011111111111111100000000000000000000000000000000001111111
11111111111111111111111111111111111111111111100000000000000000000000000000000000000000000000000000000000000000000000000000000000000000000001111111111111111111110000000000000000000000000000000000000000000000011111111111111100000000000000000000000000000000001111111
11111111111111111111111111111111111111111111100000000000000000000000000000000000000000000000000000000000000000000000000000000000000000000011111111111111111111111000000000000000000000000000000000000000000000111111111111111100000000000000000000000000000000001111111
11111111111111111111111111111111111111111111110000000000000000000000000000000000000000000000000000000000000000000000000000000000011111000110111111111111111111111100000000000000000000000000000000000000000000111111111111111100000000000000000000000000000000001111111
11111111111111111111111111111111111111111111110000000000000000000000000000000000000000000000000000000000000000000000000000000111110001111100111111111111111111111100000000000000000000000000000000000000000001111111111111111100000000000000000000000000000000001111111
11111111111111111111111111111111111111111111111000000000000000000000000000000000000000000000000000000000000000000000000000001100000000000000111111111111111111111100000000000000000000000000000000000000000001111111111111111100000000000000000000000000000000001111111
11111111111111111111111111111111111111111111111100000000000000000000000000000000000000000000000000000000000000000000000000011000000000000001111111111111111111111110000000000000000000000000000000000000000001111111111111111100000000000000000000000000000000001111111
11111111111111111111111111111111111111111111111110000000000000000000000000000000000000000000000000000000000000000000000000110000000000000001111111111111111111111110000000000000000000000000000000000000000000111111111111111100000000000000000000000000000000001111111
11111111111111111111111111111111111111111111111111000000000000000000000000000000000000000000000000000000000000000000000000100000000000000001111111111111111111111110000000000000000000000000000000000000000000001111111111111100000000000000000000000000000000001111111
11111111111111111111111111111111111111111111111111100000000000000000000000000000000000000000000000000000000000000000000001100000000000000001111111111111111111111111111110000000000000000000000000000000000000000111111111111110000000000000000000000000011000001111111
11111111111111111111111111111111111111111111111111111000000000000000000000000000000000000000000000000000000000000000000011000000000000000000111111111111111111111100000011110000000000000000000000000000000000000011111111111111111110000000000000000000111100001111111
11111111111111111111111111111111111111111111111111111110000000000000000000000000000000000000011110000000000000000000000010000000000000000000111111111111111111111100000000011100000000000000000000000000000000000001111111111111111111100000000000000000111100001111111
11111111111111111111111111111111111111111111111111111110000000000000000000000000000000000111110011110000000000000000000010000000000000000000011111111111111111111100000000000111000000000000000000000000000000000000001111111111111111100000000000000000111100001111111
11111111111111111111111111111111111111111111111111111111000000000000000000000000000000011100000000011100000000000000000010000000000000000000001111111111111111111100000000000001111000000000000000000000000000000000000001111111000111100000000000000000000000001111111
11111111111111111111111111111111111111111111111111111111000000000000000000000000000001110000000000000111100000000000000010000000000000000000000111111111111111111100000000000000001111000000000000000000000000000000000000001011100111100000000000000000000000001111111
11111111111111111111111111111111111111111111111111111111100000000000000000000000000011000000000000000000111110000000000011000000000000000000000011111111111111111000000000000000000001111000000000000000000000000000000000001011000000000000000000000000000000001111111
11111111111111111111111111111111111111111111111111111111100000000000000000000000001111010000000000000000000001111111111111000000000000000000000011111111111111111000000000000000000000001110000000000000000000000000000000001011000000000000000000000000000000001111111
11111111111111111111111111111111111111111111111111111111110000000000000000000011111111100000100100000000000000000000000111000000000000000000000000111111111111100000000000000000000000000011000000000000000000000000000000001000000011110000000000000000000000001111111
11111111111111111111111111111111111111111111111111111111110000000000000000000011111111000000111100000000000000000000000000000000000000000000000000000111111100000000000000000000000000000001110000000000000000011111000000001000000011111000000000000000000000001111111
11111111111111111111111111111111111111111111111111111111110000000000000000000111111111100000111100000000000000000000000000000000000000000000000000000001000000000000000000000000000000000000011000000000000001110001111111111000000011111100000000000000000000001111111
11111111111111111111111111111111111111111111111111111111110000000000000000000111110000000001111110000000001111110000000000000000000000000000000000000000000000000000000000000000000000000000001100000000000111000000000000000000100011111100000000000000000000001111111
11111111111111111111111111111111111111111111111111111111110000000000000000000111111100000001111110000000111111111100000001100000000000000000000000000000000000000000000000000000000000000000000110000000011100000000000000000000111111111100000000000000000000001111111
11111111111111111111111111111111111111111111111111111111110000000000000000000100000000000001111111110001111111111111111111000000011111000000000000000000000000000000000000000000000000000000000011111111110000000000000000000001100111111100000000000000000000001111111
11111111111111111111111111111111111111111111111111111111110000000000000000000000000000000001111111110111111111111111111111111000000011111000000000000000000000000000000000000000000000000000000000000000000000000000000000000001001111110000000000000000000000001111111
11111111111111111111111111111111111111111111111111111111110000000000000000000000000111111111111111111111111111111111111111111100000000011000000000000000000000000000000000000000000000000000000000000000000000000000000000000011101111110000000000000000000000001111111
11111111111111111111111111111111111111111111111111111111100000000000000000000100111100000001111111111111111111111111111111111110000000001100000000000000000000000000000000000000000000000000000000000000000000000000000000000011001111110000000000000000000000001111111
11111111111111111111111111111111111111111111111111111111000000000000000000000101100000000000011111111111111111111111111111111111111111111110000000000000000000000000000000000000000000000000000000000000000000000000000000000011001111110000000000000000000000001111111
11111111111111111111111111111111111111111111111111111111000000000000000000000011000000000000011111111111111111111111111111111111111111111111100000000000000000000000000000000000000000000000000000000000000000000000000000000011001111100000000000000000000000001111111
11111111111111111111111111111111111111111111111111111111000000000000000000000010000000000000011111111111111111111111111111111111111111111111110000000000000000000000000000000000000000000000000000000000000000000000000000000011000111100000000000000000000000001111111
11111111111111111111111111111111111111111111111111111111000000000000000000000000000000000011111111111111111111111111111111111111111111111111111000000000000000000000000000000000000000000000000000000000000000000000000000000011000010010000000000000000000000001111111
11111111111111111111111111111111111111111111111111111111000000000000000000000010000000000111111111111111111111111111111111111111111111111111111110000000000000000000000000000000000000000000000000000000000000000000000000000001000000000000000000000000000000001111111
11111111111111111111111111111111111111111111111111111111100000000000000000000011111100000001111111111111111111111111111111111111111111111111111000000000000100000000000000000000000000000000000000000000000000000000000000000000001110000000000000000000000000001111111
11111111111111111111111111111111111111111111111111111111100000000000000000000011111111110000011111111111111111111111111111111111111111111111111111110000111000000000000000000000000000000000000000000000000000000000000000000000001100000000000000000000000000001111111
11111111111111111111111111111111111111111111111111111111110000000000000000000011111111110000011111111111111111111111111111111111111111111111111111111111111111100000000000000000000000000000000000000000000000000000000000000010111111000000000000000000000000001111111
11111111111111111111111111111111111111111111111111111111111000000000000000000011111111110000111111111111111111111111111111111111111111111111111111111111111111111100000000000000000000000000000000000000000000000000000000000000111111000000000000000000000000001111111
11111111111111111111111111111111111111111111111111111111111000000000000000000011111111110000111111111111111111111111111111111111111111111111111111111111111111111110000000000000000000000000000000000000000000000000000000000000111111000000000000000000000000001111111
11111111111111111111111111111111111111111111111111111111111100000000000000000011111111110000111111111111111111111111111111111111111111111111111111111111111111111111100000000000000000000000000000000000000000000000000000000000111111000000000000000000000000001111111
11111111111111111111111111111111111111111111111111111111111100000000000000000011111111110000111111111111111111111111111111111111111111111111111111111111111111111111100000000000000000000000000000000000000000000000000000000000111111110000000000000000000000001111111
11111111111111111111111111111111111111111111111111111111111100000000000000000011111111110000111111111111111111111111111111111111111111111111111111111111111111111111110000000000000000000000000000000000000000000000000000000000111111010000000000000000000000001111111
11111111111111111111111111111111111111111111111111111111111100000000000000000011111111100001111111111111111111111111111111111111111111111111111111111111111111111111111100000000000000000000000000000000001111111100000000000000111111001100000000000000000000001111111
11111111111111111111111111111111111111111111111111111111111100000000000000000011111111110001111111111111111111111111111111111111111111111111111111111111111111111111111100000000000000000000000000000000001111111110000000000000011101000100000000000000000000001111111
11111111111111111111111111111111111111111111111111111111111100000000000000000011111111110001111111111111111111111111111111111111111111111111111111111111111111111111111111000000000000000000000000000011111111111111111000000000001100000000000000000000000000001111111
11111111111111111111111111111111111111111111111111111111111100000000000000000011111111110011111111111111111111111111111111111111111111111111111111111111111111111111111111100000000000000000000000000011111111111111111100000000001100000000000000000000000000001111111
11111111111111111111111111111111111111111111111111111111111100000000000000000011111111111111111111111111111111111111111111111111111111111111111111111111111111111111111111111110000000001111111111111111111110011111111111100000001100000000000000000000000000001111111
11111111111111111111111111111111111111111111111111111111111100000000000000000011111111111111111111111111111111111111111111111111111111111111111111111111111111111111111111111111100000000111111111111111111100011111111111110000111100000000000000000000000000001111111
11111111111111111111111111111111111111111111111111111111111100000000000000000011111111111111111111111111111111111111111111111111111111111111111111111111111111111111111111111111111111111111111111111111100000000000111111111110111101000000000000000000000000001111111
11111111111111111111111111111111111111111111111111111111111100000000000000000011111111111111111111111111111111111111111111111111111111111111111111111111111111111111111111111111111111111111111111111000000000000000011111111111111111000000000000000000000000001111111
11111111111111111111111111111111111111111111111111111111111100000000000000000011111111111111111111111111111111111111111111111111111111111111111111111111111111111111111111111111111111111111111111110000000000000000000011111111111111000000000000000000000000001111111
11111111111111111111111111111111111111111111111111111111111100000000000000000111111111111111111111111111111111111111111111111111111111111111111111111111111111111111111111111111111111111111111111100000000000000000000011111111111111000000000000000000000000001111111
11111111111111111111111111111111111111111111111111111111111100000000000000000111111111111111111111111111111111111111111111111111111111111111111111111111111111111111111111111111111111111100010000000000000000000000000000011111111111000000000000000000000000001111111
11111111111111111111111111111111111111111111111111111111111100000000000000000111111111111111111111111111111111111111111111111111111111111111111111111111111111111111111111111111111111111110000000000000000000000000000000011111111111000000000000000000000000001111111
11111111111111111111111111111111111111111111111111111111111100000000000000001111111111111111111111111111111111111111111111111111111111111111111111111111111111111111111111111111111111111111000000000001100000000000000000000111111111100000000000000000000000001111111
11111111111111111111111111111111111111111111111111111111111100000000000000001111111111111111111111111111111111111111111111111111111111111111111111111111111111111111111111111111111111111111100000010000000000000000000000000011111111000000000000000000000000001111111
11111111111111111111111111111111111111111111111111111111111100000000000000001111111111111111111111111111111111111111111111111111111111111111111111111111111111111111111111111111111111111111100000000000000000001000000000000000111111100000000000000000000000001111111
11111111111111111111111111111111111111111111111111111111111100000000000000011111111111111111111111111111111111111111111111111111111111111111111111111111111111111111111111111111111111111111110000000000000000000000000000000000111111100000000000000000000000001111111
11111111111111111111111111111111111111111111111111111111111100000000000001111111111111111111111111111111111111111111111111111111111111111111111111111111111111111111111111111111111111111111110000000000000000000100000000000000111111100000000000000000000000001111111
11111111111111111111111111111111111111111111111111111111111100000000001111111111111111111111111111111111111111111111111111111111111111111111111111111111111111111111111111111111111111111111110000000000000000000010000000000000011111111000000000000000000000001111111
11111111111111111111111111111111111111111111111111111111111110000000111111111111111111111111111111111111111111111111111111111111111111111111111111111111111111111111111111111111111111111111110000000000000000000010000000000000011111111000000000000000000000001111111
11111111111111111111111111111111111111111111111111111111111110000000111111111111111111111111111111111111111111111111111111111111111111111111111111111111111111111111111111111111111111111111111000000000000000000000000000000000011111111000000000000000000000001111111
11111111111111111111111111111111111111111111111111111111111110000000111111111111111111111111111111111111111111111111111111111111111111111111111111111111111111111111111111111111111111111111111000000000000000000001000000000000011111110000000000000000000000001111111
11111111111111111111111111111111111111111111111111111111111100000000011111111111111111111111111111111111111111111111111111111111111111111111111111111111111111111111111111111111111111111111111000000000000000000000000000000000011111110000000000000000000000001111111
11111111111111111111111111111111111111111111111111111111111100000000001111111111111111111111111111111111111111111111111111111111111111111111111111111111111111111111111111111111111111111111111100000000000000000000100000000000001111110000000000000000000000001111111
11111111111111111111111111111111111111111111111111111111111100000000000111111111111111111111111111111111111111111111111111111111111111111111111111111111111111111111111111111111111111111111111100000000000000000000100000000000000111110000000000000000000000001111111
11111111111111111111111111111111111111111111111111111111111100000000000111111111111111111111111111111111111111111111111111111111111111111111111111111111111111111111111111111111111111111111111100000000000000000000100000000000011111110000000000000000000000001111111
11111111111111111111111111111111111111111111111111111111111100000000000111111111111111111001111111111111111111111111111111111111111111111111111111111111111111111111111111111111111111111111111110000000000000000001000000000000010111110000000000000000000000001111111
11111111111111111111111111111111111111111111111111111111111110000000000111111111111111000001111111111111111111111111111111111111111111111111111111111111111111111111111111111111111111111100011110000000000000000001000000000000010111110000000000000000000000001111111
11111111111111111111111111111111111111111111111111111111111110000000111111111111111100000000111111111111111111111111111111111111111111111111111111111111111111111111111111111111111111111110001111000000000000000010000000000000000111110000000000000000000000001111111
11111111111111111111111111111111111111111111111111111111111110000111111111111111111000000000011111111111111111111111111111111111111111111111111111111111111111111111111111111111111111111110000011000000000000001100000000000000000111110000000000000000000000001111111
11111111111111111111111111111111111111111111111111111111111110111111111111111111111000000000001111111111111111111111111111111111111111111111111111111111111111111111111111111111111111111110000000000000000000011000000000000000000111110000000000000000000000001111111
11111111111111111111111111111111111111111111111111111111111111111111111111111011111000000000000111111111111111111111111111111111111111111111111111111111111111111111111111111111111111111111000000100000000000110000000000000000010111100000000000000000000000001111111
11111111111111111111111111111111111111111111111111111111111111111111111111100001110000000000000011111111111111111111111111111111111111111111111111111111111111111111111111111111111111111111000000000000000001000000000000000000000011100000000000000000000000001111111
11111111111111111111111111111111111111111111111111111111111111111111111111110000000000000000000000111111111111111111111111111111111111111111111111111111111111111111111111111111111111111111100000000000000110000000000000000000000011100000000000000000000000001111111
11111111111111111111111111111111111111111111111111111111111111111111111111110000000000000000000000011111111111111111111111111111111111111111111111111111111111111111111111111111111111111111110000000000011000000000000000000000001111000000000000000000000000001111111
11111111111111111111111111111111111111111111111111111111111111111111111111110000000000000000000000000000111111111111111111111111111111111111111111111111111111111111111111111111111111111111111111110001100000000000000000000000001111000000000000000000000000001111111
11111111111111111111111111111111111111111111111111111111111111111111111111110000000000000000000000000000011111111111111111111111111111111111111111111111111111111111111111111111111111111111111111111110000000000000000000000000001110000000000000000000000000001111111
11111111111111111111111111111111111111111111111111111111111111111111111111111000000000000000000000000000000000000001111111111111111111111111111111111111111111111111111111111111111111111111111111110000000000000000000000000000001000000000000000000000000000001111111
11111111111111111111111111111111111111111111111111111111111111111111111111111000000000000000000000000000000000000001110111111111111111111111111111111111111111111111111111111111111111111111111111000000000000000000000000000000011000000000000000000000000000001111111
11111111111111111111111111111111111111111111111111111111111111111111111111111000000000000000000000000000000000000000000011111111111111111111111111111111111111111111111111111111110111111111111100000000000000000000000000000001100000000000000000000000000000001111111
11111111111111111111111111111111111111111111111111111111111111111111111111111000000000000000000000000000000000000000000000000000011101111111111111111111111111111111111111111111110011111111110000000000000000000000000000000010000000000000000000000000000000001111111
11111111111111111111111111111111111111111111111111111111111111111111111111111000000000000000000000000000000000000000000000000000000000001111111111111111111111111111111111111111110000000111000000000000000000000000000000001000000000000000000000000000000000001111111
11111111111111111111111111111111111111111111111111111111111111111111111111111100000000000000000000000000000000000000000000000000000000001111111111111111111111000000011111111111110000000000000000000000000000000000000000000000000000000000000000000000000000001111111
11111111111111111111111111111111111111111111111111111111111111111111111111111100000000000000000000000000000000000000000000000000000000000011111111111111111111100000000000000000000000000000000000000000000010111111000011000000000000000000000000000000000000001111111
11111111111111111111111111111111111111111111111111111111111111111111111111111100000000000000000000000000000000000000000000000000000000000001110000000111111111111111000000000000000000000000000000000000000001111100011100000000000000000000000000000000000000001111111
11111111111111111111111111111111111111111111111111111111111111111111111111111100000000000000000000000000000000000000000000000000000000000000000000001111111111111111111000000000000000000000000000000000001111110001000000000000000000000000000000000000000000001111111
11111111111111111111111111111111111111111111111111111111111111111111111111111110000000000000000000000000000000000000000000000000000000000000000000000000001111111111111100000000000011111000000000000001101111111110000000000000000000000000000000000000000000001111111
11111111111111111111111111111111111111111111111111111111111111111111111111111110000000000000000000000000000000000000000000000000000000000000000000000000000000111111111111111000011111111011001111111111111111111100000000000000000000000000000000000000000000001111111
11111111111111111111111111111111111111111111111111111111111111111111111111111110000000000000000000000000000000000000000000000000000000000000000000000000000000000011111111111111111111111111111111111111111111110000000000000000000000000000000000000000000000001111111
11111111111111111111111111111111111111111111111111111111111111111111111111111110000000000000000000000000000000000000000000000000000000000000000000000000000000000001111111111111111111111111111111111111111110100000000000000000000000000000000000000000000000001111111
11111111111111111111111111111111111111111111111111111111111111111111111111111110000000000000000000000000000000000000000000000000000000000000000000000000000000000000000011111111111111111111111111111111111010000000000000000000000000000000000000000000000000001111111
11111111111111111111111111111111111111111111111111111111111111111111111111111111000000000000000000000000000000000000000000000000000000000000000000000000000000000000000001111111111111111111111111111111000000000000000000000000000000000000000000000000000000001111111
11111111111111111111111111111111111111111111111111111111111111111111111111111111000000000000000000000000000000000000000000000000000000000000000000000000000000000000000000000011111001111100000001100000000000000000000000000000000000000000000000000000000000001111111
11111111111111111111111111111111111111111111111111111111111111111111111111111111000000000000000000000000000000000000000000000000000000000000000000000000000000000000000000000000111000000111000000000000000000000000000000000000000000000000000000000000000000001111111
11111111111111111111111111111111111111111111111111111111111111111111111111111111000000000000000000000000000000000000000000000000000000000000000000000000000000000000000000000000000000000000000000000000000000000000000000000000000000000000000000000000000000001111111
11111111111111111111111111111111111111111111111111111111111111111111111111111111100000000000000000000000000000000000000000000000000000000000000000000000000000000000000000000000000000000000000000000000000000000000000000000000000000000000000000000000000000001111111
11111111111111111111111111111111111111111111111111111111111111111111111111111111100000000000000000000000000000000000000000000000000000000000000000000000000000000000000000000000000000000000000000000000000000000000000000000000000000000000000000000000000000001111111
11111111111111111111111111111111111111111111111111111111111111111111111111111111100000000000000000000000000000000000000000000000000000000000000000000000000000000000000000000000000000000000000000000000000000000000000000000000000000000000000000000000000000001111111
11111111111111111111111111111111111111111111111111111111111111111111111111111111100000000000000000000000000000000000000000000000000000000000000000000000000000000000000000000000000000000000000000000000000000000000000000000000000000000000000000000000000000001111111
11111111111111111111111111111111111111111111111111111111111111111111111111111111110000000000000000000000000000000000000000000000000000000000000000000000000000000000000000000000000000000000000000000000000000000000000000000000000000000000000000000000000000001111111
11111111111111111111111111111111111111111111111111111111111111101111111111111111110000000000000000000000000000000000000001111111000000000000000000000000000000000000000000000000000000000000000000000000000000000000000000000000000000000000000000000000000000001111111
11111111111111111111111111111111111111111111111111111111111111101111111111111111110000000000000000000000000000000000011111111111111100000000000000000000000000000000000000000111110000000000000000000000000000000000000000000000000000000000000000000000000000001111111
11111111111111111111111111111111111111111111111111111111111111101111111111111111110000000000000000000000000000000000111111111111111111000000000000000000000000000000000001111111111111100000000000000000000000000000000000000000000000000000000000000000000000001111111
11111111111111111111111111111111111111111111111111111111111111101111111111111111110000000000000000000000000000000001111111111111111111100000000000000000000000000000000001111111111111110000000000000000000000000000000000000000000000000000000011111100000000001111111
11111111111111111111111111111111111111111111111111111111111111100111111111111111111000000000000000000000000000000001111111111111111111100000000000000000000000000000000111111111111111111000000000000000000000000000000000000000000000000000000111111111000000001111111
11111111111111111111111111111111111111111111111111111111111111100111111111111111111000000000000000000000000000000011111111111111111111110000000000000000000000000000001111111111111111111000000000000000000000000000000000000000000000000000001111111111100000001111111
11111111111111111111111111111111111111111111111111111111111111100111111111111111111000000000000000000000000000000111111111111111111111110000000000000000000000000000011111111111111111111100000000000000000000000000000000000000000000000000001111111111100000001111111
11111111111111111111111111111111111111111111111111111111111111100111111111111111111000000000000000000000000000001111111111111111111111111000000000000000000000000000011111111111111111111110000000000000000000000000000000000000000000000000011111111111100000001111111
11111111111111111111111111111111111111111111111111111111111111100111111111111111110000000000000000000000000000001111111111111111111111111000000000000000000000000000011111111111111111111110000000000000000000000000000000000000000000000000011111111111100000001111111
11111111111111111111111111111111111111111111111111111111111111100011111111111100000000000000000000000000000000011111111111111111111111111100000000000000000000000000111111111111111111111110000000000000000000000000000000000000000000000000011111111111100000001111111
11111111111111111111111111111111111111111111111111111111111111100011111111000000000000000000000000000000000000001111111111111111111111111100000000000000000000000000111111111111111111111110000000000000000000000000000000000000000000000000011111111111100000001111111
11111111111111111111111111111111111111111111111111111111111111100011111000000000000000000000000000000000000000001111111111111111111111111000000000000000000000000001111111111111111111111111000000000000000000000000000000000000000000000000011111111111100000001111111
11111111111111111111111111111111111111111111111111111111111111110000000000000000000000000000000000000001111000000111111111111111111111111000000000000000000000000001111111111111111111111111000000000000000000000000000000000000000000000000001111111111100000001111111
11111111111111111111111111111111111111111111111111111111111111110000000000000000000000000000000111111111111111111111111111111111111111111111111111111111111111111111111111111111111111111111111111111111111111111111111111111111111111111111111111111111111111111111111
11111111111111111111111111111111111111111111111111111111111111110000000000000000000001111111111111111111111111111111111111111111111111111111111111111111111111111111111111111111111111111111111111111111111111111111111111111111111111111111111111111111111111111111111
11111111111111111111111111111111111111111111111111111111111111111110000000111111111111111111111111111111111111111111111111111111111111111111111111111111111111111111111111111111111111111111111111111111111111111111111111111111111111111111111111111111111111111111111
11111111111111111111111111111111111111111111111111111111111111111111111111111111111111111111111111111111111111111111111111111111111111111111111111111111111111111111111111111111111111111111111111111111111111111111111111111111111111111111111111111111111111111111111
