11111111111111111111111111111111111111111111111111111111111111111111111111111111111111111111111111111111111111111111111111111111111111111111111111111111111111111111111111111111111111111111111111111111111111111111111111111111111111111111111111111111111111111111
11111111111111111111111111111111111111111111111111111111111111111111111111111111111111111111111111111111111111111111111111111111111111111111111111111111111111111111111111111111111111111111111111111111111111111111111111111111111111111111111111111111111111111111
11111111111111111111111111111111111111111111111111111111111111111111111111111111111111111111111111111111111111111111111111111111111111111111111111111111111111111111111111111111111111111111111111111111111111111111111111111111111111111111111111111111111111111111
11111111111111111111111111111111111111111111111111111111111111111111111111111111111111111111111111111111111111111111111111111111111111111111111111111111111111111111111111111111111111111111111111111111111111111111111111111111111111100011111111111111111111111111
11111111111111111111111111111111111111111111111111111111111111111111111111111111111111111111111111111111111111111111111111111111111111111111111111111111111111111111111111111111111111111111111111111111111111111111111111111111111000000011111111111111111111111111
11111111111111111111111111111111111111111111111111111111111111111111111111111111111111111111111111111111111111111111111111111111111111111111111111111111111111111111111111111111111111111111111111111111111111111111111111111100000000000011111111111111111111111111
11111111111111111111111111111111111111111111111111111111111111111111111111111111111111111111111111111111111111111111111111111111111111111111111111111111111111111111111111111111111111111111111111111111111111111111111110000000000000000011111111111111111111111111
11111111111111111111111111111111111111111111111111111111111111111111111111111111111111111111111111111111111111111111111111111111111111111111111111111111111111111111111111111111111111111111111111111111111111111111000000000000000000000011111111111111111111111111
11111111111111111111111111111111111111111111111111111111111111111111111111111111111111111111111111111111111111111111111111111111111111111111111111111111111111111111111111111111111111111111111111111111111111100000000000000000000000000001111111111111111111111111
11111111111111111111111111111111111111111111111111111111111111111111111111111111111111111111111111111111111111111111111111111111111111111111111111111111111111111111111111111111111111111111111111111111111000000000000000000000000000000000111111111111111111001111
11111111111111111111111111111111111111111111111111111111111111111111111111111111111111111111111111111111111111111111111111111111111111111111111111111111111111111111111111111111111111111111111111111111111100000000000000000000000000000000000000000000000000001111
11111111111111111111111111111111111111111111111111111111111111111111111111111111111111111111111111111111111111111111111111111111111111111111111111111111111111111111111111111111111111111111111111111111111100000000000000000000000000000000000000000000000000001111
11111111111111111111111111111111111111111111111111111111111111111111111111111111111111111111111111111111111111111111111111111111111111111111111111111111111111111111111111111111111111111111111111111111111110000000000000000000000000000000000000000000000000001111
11111111111111111111111111111111111111111111111111111111111111111111111111111111111111111111111111111111111111111111111111111111111111111111111111111111111111111111111111111111111111111111111111111111111110000000000000000000000000000000000000000000000000001111
11111111111111111111111111111111111111111111111111111111111111111111111111111111111111111111111111111111111111111111111111111111111111111111111111111111111111111111111111111111111111111111111111111111111111000000000000000000000000000000000000000000000000001111
11111111111111111111111111111111111111111111111111111111111111111111111111111111111111111111111111111111111111111111111111111111111111111111111111111111111111111111111111111111111111111111111111111111111111000000000000000000000000000000000000000000000000001111
11111111111111111111111111111111111111111111111111111111111111111111111111111111111111111111111111111111111111111111111111111111111111111111111111111111111111111111111111111111111111111111111111111111111111100000000000000000000000000000000000000000000000001111
11111111111111111111111111111111111111111111111111111111111111111111111111111111111111111111111111111111111111111111111111111111111111111111111111111111111111111111111111111111111111111111111111111111111111100000000000000000000000000000000000000000000000001111
11111111111111111111111111111111111111111111111111111111111111111111111111111111111111111111111111111111111111111111111111111111111111111111111111111111111111111111111111111111111111111111111111111111111111100000000000000000000000000000000000000000000000001111
11111111111111111111111111111111111111111111111111111111111111111111111111111111111111111111111111111111111111111111111111111111111111111111111111111111111111111111111111111111111111111111111111111111111111100000000000000000000000000000000000000000000000001111
11111111111111111111111111111111111111111111111111111111111111111111111111111111111111111111111111111111111111111111111111111111111111111111111111111111111111111111111111111111111111111111111111111111111111100000000000000000000000000000000000000000000000001111
11111111111111111111111111111111111111111111111111111111111111111111111111111111111111111111111111111111111111111111111111111111111111111111111111111111111111111111111111111111111111111111111111111111111111100000000000000000000000000000000000000000000000001111
11111111111111111111111111111111111111111111111111111111111111111111111111111111111111111111111111111111111111111111111111111111111111111111111111111111111111111111111111111111111111111111111111111111111111100000000000000000000000000000000000000000000000001111
11111111111111111111111111111111111111111111111111111111111111111111111111111111111111111111111111111111111111111111111111111111111111111111111111111111111111111111111111111111111111111111111111111111111111100000000000000000000000000000000000000000000000001111
11111111111111111111111111111111111111111111111111111111111111111111111111111111111111111111111111111111111111111111111111111111111111111111111111111111111111111111111111111111111111111111111111111111111111100000000000000000000000000000000000000000000000001111
11111111111111111111111111111111111111111111111111111111111111111111111111111111111111111111111111111111111111111111111111111111111111111111111111111111111111111111111111111111111111111111111111111111111111100000000000000000000000000000000000000000000000000111
11111111111111111111111111111111111111111111111111111111111111111111111111111111111111111111111111111111111111111111111111111111111111111111111111111111111111111111111111111111111111111111111111111111111111100000000000000000000000000000000000000000000000000111
11111111111111111111111111111111111111111111111111111111111111111111111111111111111111111111111111111111111111111111111111111111111111111111111111111111111111111111111111111111111111111111111111111111111111100000000000000000000000000000000000000000000000011111
11111111111111111111111111111111111111111111111111111111111111111111111111111111111111111111111111111111111111111111111111111111111111111111111111111111111111111111111111111111111111111111111111111111111111100000000000000000000000000000000000000000000011111111
11111111111111111111111111111111111111111111111111111111111111111111111111111111111111111111111111111111111111111111111111111111111111111111111111111111111111111111111111111111111111111111111111111111111111100000000000000000000000000000000000000000001111111111
11111111111111111111111111111111111111111111111111111111111111111111111111111111111111111111111111111111111111111111111111111111111111111111111111111111111111111111111111111111111111111111111111111111111111100000000000000000000000000000000000000001111111111111
11111111111111111111111111111111111111111111111111111111111111111111111111111111111111111111111111111111111111111111111111111111111111111111111111111111111111111111111111111111111111111111111111111111111111110000000000000000000000000000000000001111111111111111
11111111111111111111111111111111111111111111111111111111111111111111111111111111111111111111111111111111111111111111111111111111111111111111111111111111111111111111111111111111111111111111111111111111111111110000000000000000000000000000000001111111111111111111
11111111111111111111111111111111111111111111111111111111111111111111111111111111111111111111111111111111111111111111111111111111111111111111111111111111111111111111111111111111111111111111111111111111111111110000000000000000000000000000000111111111111111111111
11111111111111111111111111111111111111111111111111111111111111111111111111111111111111111111111111111111111111111111111111111111111111111111111111111111111111111111111111111111111111111111111111111111111111111000000000000000000000000000111111111111111111111111
11111111111111111111111111111111111111111111111111111111111111111111111111111111111111111111111111111111111111111111111111111111111111111111111111111111111111111111111111111111111111111111111111111111111111111000000000000000000000000111111111111111111111111111
11111111111111111111111111111111111111111111111111111111111111111111111111111111111111111111111111111111111111111111111111111111111111111111111111111111111111111111111111111111111111111111111111111111111111111000000000000000000000011111111111111111111111111111
11111111111111111111111111111111111111111111111111111111111111111111111111111111111111111111111111111111111111111111111111111111111111111111111111111111111111111111111111111111111111111111111111111111111111111000000000000000000000011111111111111111111111111111
11111111111111111111111111111111111111111111111111111111111111111111111111111111111111111111111111111111111111111111111111111111111111111111111111111111111111111111111111111111111111111111111111111111111111111000000000000000000000011111111111111111111111111111
11111111111111111111111111111111111111111111111111111111111111111111111111111111111111111111111111111111111111111111111111111111111111111111111111111111111111111111111111111111111111111111111111111111111111111000000000000000000000011111111111111111111111111111
11111111111111111111111111111111111111111111111111111111111111111111111111111111111111111111111111111111111111111111111111111111111111111111111111111111111111111111111111111111111111111111111111111111111111111000000000000000000000001111111111111111111111111111
11111111111111111111111111111111111111111111111111111111111111111111111111111111111111111111111111111111111111111111111111111111111111111111111111111111111111111111111111111111111111111111111111111111111111111000000000000000000000000111111111111111111111111111
11111111111111111111111111111111111111111111111111111111111111111111111111111111111111111111111111111111111111111111111111111111111111111111111111111111111111111111111111111111111111111111111111111111111111111000000000000000000000000001111111111111111111111111
11111111111111111111111111111111111111111111111111111111111111111111111111111111111111111111111111111111111111111111111111111111111111111111111111111111111111111111111111111111111111111111111111111111111111111000000000000000000000000001111111111111111111111111
11111111111111111111111111111111111111111111111111111111111111111111111111111111111111111111111111111111111111111111111111111111111111111111111111111111111111111111111111111111111111111111111111111111111111111000000000000000000000000001111111111111111111111111
11111111111111111111111111111111111111111111111111111111111111111111111111111111111111111111111111111111111111111111111111111111111111111111111111111111111111111111111111111111111111111111111111111111111111111000000000000000000000000011111111111111111111111111
11111111111111111111111111111111111111111111111111111111111111111111111111111111111111111111111111111111111111111111111111111111111111111111111111111111111111111111111111111111111111111111111111111111111111111000000000000000000000000011111111111111111111111111
11111111111111111111111111111111111111111111111111111111111111111111111111111111111111111111111111111111111111111111111111111111111111111111111111111111111111111111111111111111111111111111111111111111111111111000000000000000000000000111111111111111111111111111
11111111111111111111111111111111111111111111111111111111111111111111111111111111111111111111111111111111111111111111111111111111111111111111111111111111111111111111111111111111111111111111111111111111111111110000000000000000000000001111111111111111111111111111
11111111111111111111111111111111111111111111111111111111111111111111111111111111111111111111111111111111111111111111111111111111111111111111111111111111111111111111111111111111111111111111111111111111111111100000000000000000000000001111111111111111111111111111
11111111111111111111111111111111111111111111111111111111111111111111111111111111111111111111111111111111111111111111111111111111111111111111111111111111111111111111111111111111111111111111111011111111111111100000000000000000000000011111111111111111111111111111
11111111111111111111111111111111111111111111111111111111111111111111111111111111111111111111111111111111111111111111111111111111111111111111111111111111111111111111111111111111111111110000000000111111111111000000000000000000000000011111111111111111111111111111
11111111111111111111111111111111111111111111111111111111111111111111111111111111111111111111111111111111111111111111111111111111111111111111111111111111111111111111111111111111111000000000000000001111111000000000000000000000000000111111111111111111111111111111
11111111111111111111111111111111111111111111111111111111111111111111111111111111111111111111111111111111111111111111111111111111111111111111111111111111111111111111111111111111000000000000000000000000000000000000000000000000000000111111111111111111111111111111
11111111111111111111111111111111111111111111111111111111111111111111111111111111111111111111111111111111111111111111111111111111111111111111111111111111111111111111111111111110000000000000000000000000000000000000000000000000011111111111111111111111111111111111
11111111111111111111111111111111111111111111111111111111111111111111111111111111111111111111111111111111111111111111111111111111111111111111111111111111111111111111111111111000000000000000000000000000000000000000000000000111111111111111111111111111111111111111
11111111111111111111111111111111111111111111111111111111111111111111111111111111111111111111111111111111111111111111111111111111111111111111111111111111111111111111111111111110000000000000000000000000000000000000000000111111111111111111111111111111111111111111
11111111111111111111111111111111111111111111111111111111111111111111111111111111111111111111111111111111111111111111111111111111111111111111111111111111111111111111111111001111000000000000000000000000000000000000000001111111111111111111111111111111111111111111
11111111111111111111111111111111111111111111111111111111111111111111111111111111111111111111111111111111111111111111111111111111111111111111111111111111111111111111111110001111000000000000000000000000000000000000000011111111111111111111111111111111111111111111
11111111111111111111111111111111111111111111111111111111111111111111111111111111111111111111111111111111111111111111111111111111111111111111111111111110000111111111111000001111000000000000000000000000000000000000000011111111111111111111111111111111111111111111
11111111111111111111111111111111111111111111111111111111111111111111111111111111111111111111111111111111111111111111111111111111111111111111111111000000000000001111100000000110000000000000000000000000000000000000000011111111111111111111111111111111111111111111
11111111111111111111111111111111111111111111111111111111111111111111111111111111111111111111111111111111111111111111111111111111111111111111110000000000000000000000000000000000000000000000000000000000000000000000000011111111111111111111111111111111111111111111
11111111111111111111111111111111111111111111111111111111111111111111111111111111111111111111111111111111111100000000000000111111111111111110000000000000000000000000000000000000000000000000000000000000000000000000000111111111111111111111111111111111111111111111
11111111111111111111111111111111111111111111111111111111111111111111111111111111111111111111111111111111100000000000000000000000000000000000000000000000000000000000000000000000000000000000000000000000000000000000000011111111111111111111111111111111111111111111
11111111111111111111111111111111111111111111111111111111111111111111111111111111111111111111111111111100000000000000000000000000000000000000000000000000000000000000000000000000000000000000000000000000000000000000000011111111111111111111111111111111111111111111
11111111111111111111111111111111111111111111111111111111111111111111111111111111111111111111111111110000000000000000000000000000000000000000000000000000000000000000000000000000000000000000000000000000000000000000000011111111111111111111111111111111111111111111
11111111111111111111111111111111111111111111111111111111111111111111111111111111111111111111111111110000000000000000000000000000000000000000000000000000000000000000000000000000000000000000000000000000000000000000000001111111111111111111111111111111111111111111
11111111111111111111111111111111111111111111111111111111111111111111111111111111111111111111111111110000000000000000000000000000000000000000000000000000000000000000000000000000000000000000000000000000000000000000000001111111111111111111111111111111111111111111
11111111111111111111111111111111111111111111111111111111111111111111111111111111111111111111111111110000000000000000000000000000000000000000000000000000000000000000000000000000000000000000000000000000000000000000000000111111111111111111111111111111111111111111
11111111111111111111111111111111111111111111111111111111111111111111111111111111111111111111111111110000000000000000000000000000000000000000000000000000000000000000000000000000000000000000000000000000000000000000000000111111111111111111111111111111111111111111
11111111111111111111111111111111111111111111111111111111111111111111111111111111111111111111111111110000000000000000000000000000000000000000000000000000000000000000000000000000000000000000000000000000000000000000000000011111111111111111111111111111111111111111
11111111111111111111111111111111111111111111111111111111111111111111111111111111111111111111111111110000000000000000000000000000000000000000000000000000000000000000000000000000000000000000000000000000000000000000000000011111111111111111111111111111111111111111
11111111111111111111111111111111111111111111111111111111111111111111111111111111111111111111111111111000000000000000000000000000000000000000000000000000000000000000000000000000000000000000000000000000000000000000000000001111111111111111111111111111111111111111
11111111111111111111111111111111111111111111111111111111111111111111111111111111111111111111111111111000000000000000000000000000011110000000000000000000000000000000000000000000000000000000000000000000000000000000000000000111111111111111111111111111111111111111
11111111111111111111111111111111111111111111111111111111111111111111111111111111111111111111111111111000000000000000000000000000011110000000000000000000000000000000000000000000000000000000000000000000000000000000000000000001111111111111111111111111111111111111
11111111111111111111111111111111111111111111111111111111111111111111111111111111111111111111111111111000000000000000000000000000011110000000000000000000000000011100000000000000000000000000000000000000000000000000000000000001111111111111111111111111111111111111
11111111111111111111111111111111111111111111111111111111111111111111111111111111111111111111111111111000000000000000000000000000011110000000000000000000000000011110000000000000000000000000000000000000000000000000000000000011111111111111111111111111111111111111
11111111111111111111111111111111111111111111111111111111111111111111111111111111111111111111111111111000000000000000000000000000000000000000000000000000000000011110000000000000000000000000000000000000000000000000000000000011111111111111111111111111111111111111
11111111111111111111111111111111111111111111111111111111111111111111111111111111111111111111111111110000000000000000000000000000000000000000000000000000000000011100000000000000000000000000000000000000000000000000000000000011111111111111111111111111111111111111
11111111111111111111111111111111111111111111111111111111111111111111111111111111111111111111111111110000000000000000000000000000000000000000000000000000000000000000000000000000000000000000000000000000000000000000000000000011111111111111111111111111111111111111
11111111111111111111111111111111111111111111111111111111111111111111111111111111111111111111111111110000000000000000000000000000000000000000000000000000000000000000000000000000000000000000000000000000000000000000000000000111111111111111111111111111111111111111
11111111111111111111111111111111111111111111111111111111111111111111111111111111111111111111111111110000000000000000000000000000000000000000000000000000000000000000000000000000000000000000000000000000000000000000000000000111111111111111111111111111111111111111
11111111111111111111111111111111111111111111111111111111111111111111111111111111111111111111111111100000000000000000000000000000000000000000000000000000000000000000000000000000000000000000000000000000000000000000000000000111111111111111111111111111111111111111
11111111111111111111111111111111111111111111111111111111111111111111111111111111111111111111111111100000000000000000000000000000000000000000000000000000000000000000000000000000000000000000000000000000000000000000000000000111111111111111111111111111111111111111
11111111111111111111111111111111111111111111111111111111111111111111111111111111111111111111111111100000000000000000000000000000000000000000000000000000000000000000000000000000000000000000000000000000000000000000000000000111111111111111111111111111111111111111
11111111111111111111111111111111111111111111111111111111111111111111111111111111111111111111111111000000000000000000000000000000000000000000000000000000000000000000000000000000000000000000000000000000000000000000000000001111111111111111111111111111111111111111
11111111111111111111111111111111111111111111111111111111111111111111111111111111111111111111111111000000000000000000000000000000000000000000000000000000000000000000000000000000000000000000000000000000011100000000000000001111111111111111111111111111111111111111
11111111111111111111111111111111111111111111111111111111111111111111111111111111111111111111111111000000000000000000000000000000000000000000000000000000000000000000000000000000000000000000000000000000111110000000000011001111111111111111111111111111111111111111
11111111111111111111111111111111111111111111111111111111111111111111111111111111111111111111111111000000000000000000000000000000000000000000000000000000000000000000000000000000000000000000000000000000111110000000000111101111111111111111111111111111111111111111
11111111111111111111111111111111111111111111111111111111111111111111111111111111111111111111111110000000000000000000000000000000000000000000000000000000000000000000000000000000000000000000000000000000111110000000000111101111111111111111111111111111111111111111
11111111111111111111111111111111111111111111111111111111111111111111111111111111111111111111111110000000000000000000000000000000000000000000000000000000000000000000000000000000000000000000000000000000011100000000000111111111111111111111111111111111111111111111
11111111111111111111111111111111111111111111111111111111111111111111111111111111111111111111111110000000000000000000000000000000000000000000000000000000000000000000000000000000000000000000000000000000000000000000000111011111111111111111111111111111111111111111
11111111111111111111111111111111111111111111111111111111111111111111111111111111111111111111111100000000000000000000000000000000000000000000000000000000000000000000000000000000000000000000000000000000000000000000000000011111111111111111111111111111111111111111
11111111111111111111111111111111111111111111111111111111111111111111111111111111111111111111111100000000000000000000000000000000000000000000000000000000000000000000000000000000000000000000000000000000000000000000000000111111111111111111111111111111111111111111
11111111111111111111111111111111111111111111111111111111111111111111111111111111111111111111111100000000000000000000000000000000000000000000000000000000000000000000000000000000000000000000000000000000000000000000000000111111111111111111111111111111111111111111
11111111111111111111111111111111111111111111111111111111111111111111111111111111111111111111111000000000000000000000000000000000000000000000000000000000000000000000000000000000000000000000000000000000000000000000000000111111111111111111111111111111111111111111
11111111111111111111111111111111111111111111111111111111111111111111111111111111111111111111111000000000000000000000000000000000000000000000000000000000000000000000000000000000000000000000000000000000000000000000000001111111111111111111111111111111111111111111
11111111111111111111111111111111111111111111111111111111111111111111111111111111111111111111110000000000000000000000000000000000000000000000000000000000000000000000000000000000000000000000000000000000000000000000000001111111111111111111111111111111111111111111
11111111111111111111111111111111111111111111111111111111111111111111111111111111111111111111110000000000000000000000000000000000000000000000000000000000000000000000000000000000000000000000000000000000000000000000000011111111111111111111111111111111111111111111
11111111111111111111111111111111111111111111111111111111111111111111111111111111111111111111100000000000000000000000000000000000000000000000000000000000000000000000000000000000000000000000000000000000000000000000000011111111111111111111111111111111111111111111
11111111111111111111111111111111111111111111111111111111111111111111111111111111111111111111100000000000000000000000000000000000000000000000000000000000000000000000000000000000000000000000000000000000000000000000000111111111111111111111111111111111111111111111
11111111111111111111111111111111111111111111111111111111111111111111111111111111111111111111000000000000000000000000000000000000000000000000000000000000000000000000000000000000000000000000000000000000000000000000001111111111111111111111111111111111111111111111
11111111111111111111111111111111111111111111111111111111111111111111111111111111111111111111000000000000000000000000000000000000000000000000000000000000000000000000000000000000000000000000000000000000000000000000011111111111111111111111111111111111111111111111
11111111111111111111111111111111111111111111111111111111111111111111111111111111111111111110000000000000000000000000000000000000000000000000000000000000000000000000000000000000000000000000000000000000000000000000111111111111111111111111111111111111111111111111
11111111111111111111111111111111111111111111111111111111111111111111111111111111111111111100000000000000000000000000000000000000000000000000000000000000000000000000000000000000000000000000000000000000000000000001111111111111111111111111111111111111111111111111
11111111111111111111111111111111111111111111111111111111111111111111111111111111111111111100000000000000000000000000000000000000000000000000000000000000000000000000000000000000000000000000000000000000000000000011111111111111111111111111111111111111111111111111
11111111111111111111111111111111111111111111111111111111111111111111111111111111111111111000000000000000000000000000000000000000000000000000000000000000000000000000000000000000000000000000000000000000000000000111111111111111111111111111111111111111111111111111
11111111111111111111111111111111111111111111111111111111111111111111111111111111111111110000000000000000000000000000000000000000000000000000000000000000000000000000000000000000000000000000000000000000000000000111111111111111111111111111111111111111111111111111
11111111111111111111111111111111111111111111111111111111111111111111111111111111111111100000000000000000000000000000000000000000000000000000000000000000000000000000000000000000000000000000000000000000000000000111111111111111111111111111111111111111111111111111
11111111111111111111111111111111111111111111111111111111111111111111111111111111111111100000000000000000000000000000000000000000000000000000000000000000000000000000000000000000000000000000000000000000000000000111111111111111111111111111111111111111111111111111
11111111111111111111111111111111111111111111111111111111111111111111111111111111111111000000000000000000000000000000000000000000000000000000000000000000000000000000000000000000000000000000000000000000000000001111111111111111111111111111111111111111111111111111
11111111111111111111111111111111111111111111111111111111111111111111111111111111111110000000000000000000000000000000000000000000000000000000000000000000000000000000000000000000000000000000000000000000000000001111111111111111111111111111111111111111111111111111
11111111111111111111111111111111111111111111111111111111111111111111111111111111111110000000000000000000000000000000000000000000000000000000000000000000000000000000000000000000000000000000000000000000000000011111111111111111111111111111111111111111111111111111
11111111111111111111111111111111111111111111111111111111111111111111111111111111111100000000000000000000000000000000000000000000000000000000000000000000000000000000000000000000000000000000000000011100001111111111111111111111111111111111111111111111111111111111
11111111111111111111111111111111111111111111111111111111111111111111111111111111111000000000000000000000000000000000000000000000000000000000000000000000000000000000000000000000000000000000011111111111111111111111111111111111111111111111111111111111111111111111
11111111111111111111111111111111111111111111111111111111111111111111111111111111110000000000000000000000000000000000000000000000000000000000000000000000000000000000000000000000000000000000111111111111111111111111111111111111111111111111111111111111111111111111
11111111111111111111111111111111111111111111111111111111111111111111111111111111100000000000000000000000000000000000000000000000000000000000000000000000000000000000000000000000000000000000111111111111111111111111111111111111111111111111111111111111111111111111
11111111111111111111111111111111111111111111111111111111111111111111111111111111000000000000000000000000000000000000000000000000000000000000000000000000000000000000000000000000000000000001111111111111111111111111111111111111111111111111111111111111111111111111
11111111111111111111111111111111111111111111111111111111111111111111111111111110000000000000000000000000000000000000000000000000000000000000000000000000000000000000000000000000000000000011111111111111111111111111111111111111111111111111111111111111111111111111
11111111111111111111111111111111111111111111111111111111111111111111111111111100000000000000000000000000000000000000000000000000000000000000000000000000000000000000000000000000000000000011111111111111111111111111111111111111111111111111111111111111111111111111
11111111111111111111111111111111111111111111111111111111111111111111111111111000000000000000000000000000000000000000000000000000000000000000000000000000000000000000000000000000000000000001111111111111111111111111111111111111111111111111111111111111111111111111
11111111111111111111111111111111111111111111111111111111111111111111111111110000000000000000000000000000000000000000000000000000000000000000000000000000000000000000000000000000000000000000111111111111111111111111111111111111111111111111111111111111111111111111
11111111111111111111111111111111111111111111111111111111111111111111111111100000000000000000000000000000000000000000000000000000000000000000000000000000000000111111111111100000000000000000111111111111111111111111111111111111111111111111111111111111111111111111
11111111111111111111111111111111111111111111111111111111111111111111111111000000000000000000000000000000000000000000000000000000000000000000000000000000000011111111111111111100000000000000011111111111111111111111111111111111111111111111111111111111111111111111
11111111111111111111111111111111111111111111111111111111111111111111111110000000000000000000000000000000000000000000000000000000000000000000000000000000000111111111111111111111110000000000001111111111111111111111111111111111111111111111111111111111111111111111
11111111111111111111111111111111111111111111111111111111111111111111111100000000000000000000000000000000000000000000000000000000000000000000000000000000001111111111111111111111111000000000000111111111111111111111111111111111111111111111111111111111111111111111
11111111111111111111111111111111111111111111111111111111111111111111111000000000000000000000000000000000000000000000000000000000000000000000000000000000011111111111111111111111111100000000000011111111111111111111111111111111111111111111111111111111111111111111
11111111111111111111111111111111111111111111111111111111111111111111110000000000000000000000000000000000000000000000000000000000000000000000000000000000111111111110111111111111111100000000000001111111111111111111111111111111111111111111111111111111111111111111
11111111111111111111111111111111111111111111111111111111111111111111100000000000000000000000000000000000000000000000000000000000000000000000000000000001111111111000000011111111111110000000000000100000011111111111111111111111111111111111111111111111111111111111
11111111111111111111111111111111111111111111111111111111111111111111000000000000000000000000000000000000000000000000000000000000000000000000000000000011111111110000000000111111111110000000000000000000000111111111111111111111111111111111111111111111111111111111
11111111111111111111111111111111111111111111111111111111111111111110000000000000000000000000000000000000000000000000000000000000000000000000000000000111111111100000000000000111111110000000000000000000000000001111111111111111111111111111111111111111111111111111
11111111111111111111111111111111111111111111111111111111111111111100000000000000000000000000000011000000000000000000000000000000000000000000000000001111111111000000000000000011111111000000000000000000000000000111111111111111111111111111111111111111111111111111
11111111111111111111111111111111111111111111111111111111111111111000000000000000000000000000111111111100000000000000000000000000000000000000000000011111111111000000000000000011111111100000000000000000000000000111111111111111111111111111111111111111111111111111
11111111111111111111111111111111111111111111111111111111111111110000000000000000000000000111111111111111100000000000000000000000000000000000000001111111111110000000000000000011111111100000000000000000000000000011111111111111111111111111111111111111111111111111
11111111111111111111111111111111111111111111111111111111111111100000000000000000000000001111111111111111111000000000000000000000000000000000000001111111111100000000000000000001111111100000000000000000000000000011111111111111111111111111111111111111111111111111
11111111111111111111111111111111111111111111111111111111111111000000000000000000000000001111111111111111111000000000000000000000000000000000000001111111111000000000000000000111111111100000000000000000000000000011111111111111111111111111111111111111111111111111
11111111111111111111111111111111111111111111111111111111111110000000000000000000000000011111111111111111111000000000000000000000000000000000000011111111110000000000000000000111111111110000000000000000000000000011111111111111111111111111111111111111111111111111
11111111111111111111111111111111111111111111111111111111111100000000000000000000000000111111111111111111111100000000000000000000000000000000000011111111100000000000000000000111111111110000000000000000000000000011111111111111111111111111111111111111111111111111
11111111111111111111111111111111111111111111111111111111111000000000000000000000000001111111111111111111111100000000000000000000000000000000000011111111100000000000000000000111101111111000000000000000000000000011111111111111111111111111111111111111111111111111
11111111111111111111111111111111111111111111111111111111110000000000000000000000000001111111111111111111111110000000000000000000000000000000000011111111000000000000000000000000001111111111110000000000000000000011111111111111111111111111111111111111111111111111
11111111111111111111111111111111111111111111111111111111100000000000000000000000000011111111111111111111111110000000000000000000000000000000000011111110000000000000011111000000011111111111111100000000000000000001111111111111111111111111111111111111111111111111
11111111111111111111111111111111111111111111111111111111000000000000000000000000000011111111111111111111111111000000000000000000000000000000000011111110000000000000011111111101111111111111111110000000000000000001111111111111111111111111111111111111111111111111
11111111111111111111111111111111111111111111111111111110000000000000000000000000000011111111111111111111111111000000000000000000000000000000000011111110000000000000111111111111111111111111111111000000000000000001111111111111111111111111111111111111111111111111
11111111111111111111111111111111111111111111111111111100000000000000000000000000000001111111111111111111111110000000000000000000000000000000000011111110000000000001111111111111111111111111111111000000000000000000111111111111111111111111111111111111111111111111
11111111111111111111111111111111111111111111111111111000000000000000000000000000000001111111111111111111111110000000000000000000000000000000000011111111000000000001111111111111111111111111111110000000000000000000111111111111111111111111111111111111111111111111
11111111111111111111111111111111111111111111111111110000000000000000000000000000000000111111111111111111111100000000000000000000000000000000000001111111000000000011111111111111111111111111111100000000000000000000111111111111111111111111111111111111111111111111
11111111111111111111111111111111111111111111111111100000000000000000000000000000000000111111111111111111111000000000000000000000000000000000000001111110000000000011111111111111111111111111111000000000000000000000011111111111111111111111111111111111111111111111
11111111111111111111111111111111111111111111111110000000000000000000000000000000000000011111111111111111110000000000000000000000000000000000000000111100000000000111111111111111111111111111111000000000000000000000011111111111111111111111111111111111111111111111
11111111111111111111111111111111111111111111111100000000000000000000000000000000000000001111111111111111100000000000000000000000000000000000000000000000000000000111111111111111111000000111110000000000000000000000011111111111111111111111111111111111111111111111
11111111111111111111111111111111111111111111111000000000000000000000000000000000000000000011111111111111000000000000000000000000000000000000000000000000000000000111111111111111110000000111100000000000000000000000001111111111111111111111111111111111111111111111
11111111111111111111111111111111111111111111110000000000000000000000000000000000000000000001111111111100000000000000000000000000000000000000000000000000000000000111111111111111110000001111000000000000000000000000001111111111111111111111111111111111111111111111
11111111111111111111111111111111111111111111000000000000000000000000000000000000000000000000011111110000000000000000000000000000000000000000000000000000000000001111111111111111100000001110000000000000000000000000001111111111111111111111111111111111111111111111
11111111111111111111111111111111111111111110000000000000000000000000000000000000000000000000000000000000000000000000000000000000000000000000000000000000000000001111111111111111100000011100000000000000000000000000001111111111111111111111111111111111111111111111
11111111111111111111111111111111111111111000000000000000000000000000000000000000000000000000000000000000000000000000000000000000000000000000000000000000000000001111111111111111100000111000000000000000000000000000001111111111111111111111111111111111111111111111
11111111111111111111111111111111111111100000000000000000000000000000000000000000000000000000000000000000000000000000000000000000000000000000000000000000000000000001111111111111000000110000000000000000000000000000001111111111111111111111111111111111111111111111
11111111111111111111111111111111111110000000000000000000000000000000000000000000000000000000000000000000000000000000000000000000000000000000000000000000000000000000011111111111000000000000000000000000000000000000001111111111111111111111111111111111111111111111
11111111111111111111111111111111111000000000000000000000000000000000000000000000000000000000000000000000000000000000000000000000000000000000000000000000000000000000000111111110000000000000000000000000000000000000011111111111111111111111111111111111111111111111
10111111111111111111111111111111000000000000000000000000000000000000000000000000000000000000000000000000000000000000000000000000000000000000000000000000000000000000000001110000000000000000000000000000000000000000011111111111111111111111111111111111111111111111
10000001111111111111111111000000000000000000000000000000000000000000000000000000000000000000000000000000000000000000000000000000000000000000000000000000000000000000000000000000000000000000000000000000000000000000111111111111111111111111111111111111111111111111
10000000000000000000000000000000000000000000000000000000000000000000000000000000000000000000000000000000000000000000000000000000000000000000000000000000000000000000000000000000000000000000000000000000000000000001111111111111111111111111111111111111111111111111
10000000000000000000000000000000000000000000000000000000000000000000000000000000000000000000000000000000000000000000000000000000000000000000000000000000000000000000000000000000000000000000000000000000000000000001111111111111111111111111111111111111111111111111
10000000000000000000000000000000000000000000000000000000000000000000000000000000000000000000000000000000000000000000000000000000000000000000000000000000000000000000000000000000000000000000000000000000000000000011111111111111111111111111111111111111111111111111
10000000000000000000000000000000000000000000000000000000000000000000000000000000000000000000000000000000000000000000000000000000000000000000000111111000000000000000000000000000000000000000000000000000000000011111111111111111111111111111111111111111111111111111
10000000000000000000000000000000000000000000000000000000000000000000000000000000000000000000000000000000000000000000000000000000000000000000000111111100000000000000000000000000000000000000000000000000000000011111111111111111111111111111111111111111111111111111
10000000000000000000000000000000000000000000000000000000000000000000000000000000000000000000000000000000000000000000000000000000000000000000000011111100000000000000000000000000000000000000000000000000000000011111111111111111111111111111111111111111111111111111
10000000000000000000000000000000000000000000000000000000000000000000000000000000000000000000000000000000000000000000000000001100000000000000000011111110000000000000000000000000000000000000000000000000000000011111111111111111111111111111111111111111111111111111
10000000000000000000000000000000000000000000000000000000000001111100000000000000000000000000000000000000000000000000000000001111000000000000000011111111000001110000000000000000000000000000000000000000000000011111111111111111111111111111111111111111111111111111
10000000000000000000000000000000000000000000000000000000000001111100000000000000000000000000000000000000000000000000000000000111100000000000000011111111100001111000000000000000000000000000000000000000000000001111111111111111111111111111111111111111111111111111
11000000000000000000000000000000000000000000000000000000000001111100000000000000000000000000000000000000000000000000000000000111111000000000000011111111110001111000000000000000000000000000111000000000000000001111111111111111111111111111111111111111111111111111
11000000000000000000000000000000000000000000000000000000000001111100000000000000000000000000000000000000000000000000000000000111111000000000000001111111111001110000000000000000000000000000111100000000000000001111111111111111111111111111111111111111111111111111
11100000000000000000000000000000000000000011000000000000000001111100000000000000000000000000000000000000000000000000000000000111111000000000000001111111111000000000000000000000000000000001111100000000000000001111111111111111111111111111111111111111111111111111
11100000000000000000000000000000000000000111100000000000000001111100000000000000000000000000000000000000000000000000000000000111111100000000000001111111111100000000000000000000000000000000111100000000000000001111111111111111111111111111111111111111111111111111
11110000000000000000000000000000000000001100110000000000000001111100000000000000000000000000000000000000000000000000000000000111111100000000000001111111111100000000000000000000000000000000011000000000000000001111111111111111111111111111111111111111111111111111
11110000000000000000000000000000000000011110011100000000000000000000000000000000000000000000000000000000000000000000000000000111111100000000000000111111111110000000000000000000001100000000000000000000000000001111111111111111111111111111111111111111111111111111
11111000000000000000000000000000000111110000001110000000000000000000000000000000000000000000000000000000000000000000000000000111111100000000000000111111111110000000000011111111111111111110000000000000000000001111111111111111111111111111111111111111111111111111
11111000000000000000000000000000001001100000000111000000000000000000000000000000000000000000000000000000000000000000000000000001111110000000000000011111111111011111111111111111111111111111111111000000000000001111111111111111111111111111111111111111111111111111
11111100000000000000000000000000000011000000000111000000000000000000000000000000000000000000000000000000000000000000000000000001111110000000000000001111111111111111111111111111111111111111111111111110000000001111111111111111111111111111111111111111111111111111
11111110000000000000000000000000000110000000000011100000000000000000000000000000000000000000000000000000000000000000000000000001111110000000000000000111111111111111111111111111111111111111111111111111000000001111111111111111111111111111111111111111111111111111
11111110000000000000000000000000001100000000000001100000000000000000000000000000000000000000000000000000000000000000000000000000111110000000000000000111111111111111111111110000000000001111111111111111000000001111111111111111111111111111111111111111111111111111
11111111000000000000000000000000001000000000000000110000000000000000000000000000000000000000000000000000000000000000000000000111111111000000000000000000111111111110000000000000000000000000000011111110000000001111111111111111111111111111111111111111111111111111
11111111000000000000000000000000111000000000000000011000000000000000000000000000000000000000000000000000000000000000000000001111111111000000000000000000000000000000000000000000000000000000000000000000000000000000000011111111111111111111111111111111111111111111
11111111100000000000000000000000110000000000000000001000000000000000000000000000000000000000000000000000000000000000000000001111111111000000000000000000000000000000000000000000110000000000000000000000000000000000000011111111111111111111111111111111111111111111
11111111100000000000000000000011100000000000000000001100000000000000000000000000000000000000000000000000000000000000000000001111111111000000000000000000000000000000000000000000110000000000000000000000000000000000000001111111111111111111111111111111111111111111
11111111110000000000000000011110100000000000000000000110000000000000000000000000000000000000000000000000000000000000000000000110011111000000000000000000000000000000000000000000000000000000000000000000000000000000000001111111111111111111111111111111111111111111
11111111110000000001111111110000000001110000000000000010000000000000000000000000000000000000000000000000000000000000000000000000011110000000000000000000000000000000000000000000000000000000000000000000000000000000000001111111111111111111111111111111111111111111
11111111111111111111000000000000011111111111000000000110000000000000000000000000000000000000000000000000000000000000000000000000011110000000000000000000000000000000000000000000000000000000000000000000000000000000000001111111111111111111111111111111111111111111
11111111111111111111110000000011111111111111111100000110000000000000000000000000000000000000000000000000000000000000000000000000011110000000000000000000000000000000000000000000000000000000000000000000000000000000000001111111111111111111111111111111111111111111
11111111111111111111111100000011111111111111111100000110000000000000000000000000000000000000000000000000000000000000000000000000011110000000000000000000000000000000000000000000000000000000000000000000000000000000000000111111111111111111111111111111111111111111
11111111111111111111111110000111111111111111111110000010000000000000000000000000000000000000000000000000000000000000000000000000111110000000000000000000000000000000000000000000000000000000000000000000000000000000000000111111111111111111111111111111111111111111
11111111111111111111111111001111111111111111111110000010000000000000000000000000000000000000000000000000000000000000000000000000111110000000000000000000000000000000000000000000000000000000000000000000000000000000000000111111111111111111111111111111111111111111
11111111111111111111111111111111111111111111111111000010000000000000000000000000000000000000000000000000000000000000000000000000111110000000000000000000000000000000000000000000000000000000000000000000000000000000000000111111111111111111111111111111111111111111
11111111111111111111111111111111111111111111111111000110000000000000000000000000000011100000000000000000000000000000000000000000111110000000000000000000000000000000000000000000000000000000000000000000000011000000000000111111111111111111111111111111111111111111
11111111111111111111111111111111111111111111111111100100000000000000000000000000000000000000000000000000000000000000000000000000111100000000000000000000000000000000000000000000000000000000000000000000000111000000000000011111111111111111111111111111111111111111
11111111111111111111111111111111111111111111111111100110000000000000000000000000000000000000000000000000000000000000000000000001111100000000000000000000000000000000000000000000000000000000000000000000001111000000000000011111111111111111111111111111111111111111
11111111111111111111111111111111111111111111111111110010000000000000000000000000000000000000000000000000000000000000000000000001111100000000000000000000000000000000000000000000000000000000000000000000000100000000000000011111111111111111111111111111111111111111
11111111111111111111111111111111111111111111111111100110000000000000000000000000000000000000000000000000000000000000000000000001111100000000000000000000000000000000000000000000000000000000000000000000000000000000000000011111111111111111111111111111111111111111
11111111111111111111111111111111111111111111111111100111000000000000000000000000000000000000000000000000000000000000000000000001111100000000000000000000000000000000000000000000000000000000000000000000000000000000000000011111111111111111111111111111111111111111
11111111111111111111111111111111111111111111111111000001000000000000000000000000000000000000000000000000000000000000000000000001111000000000000000000000000000000000000000000000000000011000000111111000000000000000000000011111111111111111111111111111111111111111
11111111111111111111111111111111111111111111111110000001000000000000000000000000000000000000000000000000000000000000000000000001111000000000000000000000000000000000000000000000000000011000001111111100000000000000000000011111111111111111111111111111111111111111
11111111111111111111111111111111111111111111111110000001000000000000000000000000000000000000000000000000000000000000000000000011111000000000000000000000000000000000000000000000000000000000111111111100000000000000000000011111111111111111111111111111111111111111
11111111111111111111111111111111111111111111111100000011000000000000000000000000000000000000000000000000000000000000000000000011111000000000000000000000000000000000000000000000000000000000111111111100000000000000000000111111111111111111111111111111111111111111
11111111111111111111111111111111111111111111111000000010000000000000000000001111100000000000000000000000000000000000000000000011111000000000000000000000000000000000000000000000000000000000011111111100000000000000000000111111111111111111111111111111111111111111
11111111111111111111111111111111111111111111110000001110000000000000000001111111111000000001100000000000000000000000000000000011111000000000000000000000000000110000000000000000000000000000011111111100000000000000000000111111111111111111111111111111111111111111
11111111111111111111111111111001111111111111111101111000000000000000000011111111111100000011110000000000000000000000000000000011110000000000011111100000000000110000000000000000000000000000001111111100000000000000000000111111111111111111111111111111111111111111
11111111111111111111111111100000000111111100000000000000000000000000001111111111111111000011111000000000000000000000000000000011110000000000111111110000000000000000000000000000000000000000000111111000000000000000000000111111111111111111111111111111111111111111
11111111111111111111111110000000000000000000000000000000000000000000011111111111111111110011111000000000000000000000000000000011110000000000111111111100000000000000000000000000000000000000000011100000000000000000000001111111111111111111111111111111111111111111
11111111111111111111111000000000000000000000000000000000000000000000011111111111111111111111110000000000000000000000000000000011110000000000111111111110000000000000000000000000000000000000000000000000000000000000000011111111111111111111111111111111111111111111
11111111111111111111110000000000000000000000000000000000000000000000111111111111111111111111100000000000000000000000000000000011110000000000111111111110000000000000000000000000000000000000000000000000000000000000000111111111111111111111111111111111111111111111
11111111111111111111000000000000000000000000000000000000000000000001111111111111111111111111111000000000000000000000000000000011110000000000111111110111000000000000000000000000000000000000000000000000000000000000001111111111111111111111111111111111111111111111
11111111111111111100000000000000000000000000000000000000000000000011111111111111111111111111111110000000000000000000000000000011110000000000111111110000000000000000000000000000000000000000000000000000000000000000011111111111111111111111111111111111111111111111
11111111111111111000000000000000000000000000000000000000000000000011111111111111111111111111111111100000000000000000000000000011110000000000011111100000000000000000000000000000000000000000000000000000000000000000111111111111111111111111111111111111111111111111
11111111111111111000000000000000000000000000000000000000000000000011111111111111111111111111111111110000000000000000000000000011100000000000000111000000000000000000000000000000000000000000000000000000000000000001111111111111111111111111111111111111111111111111
11111111111111110000000000000000000000000000000000000000000000000011111111111111111111111111111111111000000000000000000000111011100000000000000000000000000000000000000000000000000000000000111000000000000000000001111111111111111111111111111111111111111111111111
11111111111111110000000000000000000000000000000000000000000000000011111111111111111111111111111111111100000000000000001001111011100000111100000000000000000000000000000000000000000000000000111000000000000000000011111111111111111111111111111111111111111111111111
11111111111111110000000000000000000000000000000000000000000000000011111111111111111111111111111111111110000000110000011101111011100111111100000000000000000000000000000000000000000000000000111000000000000000000111111111111111111111111111111111111111111111111111
11111111111111110000000000000000000000000000000000000000000000000001111111111111111111111111111111111111000001111000111111111011100111111100000000000000000000000000000110000000000000000000000000000000000000001111111111111111111111111111111111111111111111111111
11111111111111100000000000000000000000000000000000000000000000000001111111111111111111111111111111111111100011111001111111000011100111111100000000000000000000000000000111000000000000000000000000000000000000011111111111111111111111111111111111111111111111111111
11111111111111100000000000000000000000000000000000000000000000000000111111111111111111111111111111111111100111111111111111100011100011111000000000000000000000000000000110000000000000000000000000000000000000111111111111111111111111111111111111111111111111111111
11111111111111100000000000000000000000000000000000000000000000000000111111111111111111111111111111111111111111111111111111110011100111110000000000000000000000000000011000000000000000000000000000000000000000111111111111111111111111111111111111111111111111111111
11111111111111100000000000000000000000000000000000000000000000000000011111111111111111111111111111111111111111111111111111111111101111110000000000000000000000000000111000000000000000000000110000000000000001111111111111111111111111111111111111111111111111111111
11111111111111000000000000000000000000000000000000000000000000000000001111111111111111111111111111111111111111111111111111111111101111110000000000000000000000000000000000000000000000000000110000000000000011111111111111111111111111111111111111111111111111111111
11111111111111000000000000000000000000000000000000000000000000000000000111111111111111111111111111111111111111111111111111111111101111110000000000000000000000000000000000000000000000000000000000000000000111111111111111111111111111111111111111111111111111111111
11111111111111000000000000000000000000000000000000000000000000000000000011111111111111111111111111111111111111111111111111111111100111110000000000000000000000000000000000000000000000000000000000000000001111111111111111111111111111111111111111111111111111111111
11111111111111000000000000000000000000000000000000000000000000000000000011111111111111111111111111111111111111111111111111111111100111110000000000000000000000000000000011000011111000000000000000000000001111111111111111111111111111111111111111111111111111111111
11111111111110000000000000000000000000000000000000000000000000000000000001111111111111111111111111111111111111111111111111111111100011000000000000000000000000000000000011100111111100000000000000000000011111111111111111111111111111111111111111111111111111111111
11111111111111000000000000000000000000000000000000000000000000000000000001111111111111111111111111111111111111111111111111111111100000000000000000000000000000000000000001101111111110000000000000000000111111111111111111111111111111111111111111111111111111111111
11111111111111110000000000000000000000000000000000000000000000000000000001111111111111111111111111111111111111111111111111111111100000000000000000000000000000000000000001101111111110000000000000000001111111111111111111111111111111111111111111111111111111111111
11111111111111111000000000000000000000000000000000000000000000000000000000111111111111111111111111111111111111111111111111111111100111100000000000000000000000000000000000001111111110000000000000000011111111111111111111111111111111111111111111111111111111111111
11111111111111111100000001110000000000000000000000000000000000000000000000111111111111111111111111111111111111111111111111111111111111100000000000000000000000000000000000001111111110000000000000000011111111111111111111111111111111111111111111111111111111111111
11111111111111111110000011111000000000000000000000000000000000000000000000111111111111111111111111111111111111111111111111111111111111110000000000000000000000000000000000000111111110000000000000000111111111111111111111111111111111111111111111111111111111111111
11111111111111111111000011111000000000000000000000000000000000000000000000111111111111111111111111111111111111111111111111111111111111110000000000000000000000000000000000000111111100000000000000001111111111111111111111111111111111111111111111111111111111111111
11111111111111111111110001111000000000000000000000000000000000000000000000111111111111111111111111111111111111111111111111111111111111000000000000000000000000000000000000000001110000000000000000011111111111111111111111111111111111111111111111111111111111111111
11111111111111111111111000000000000000000000000000000000000000000000000000111111111111111111111111111111111111111111111111111111111000000000000000000000000000000000000000000000000000000000000000011111111111111111111111111111111111111111111111111111111111111111
11111111111111111111111100000000000000000000000000000000000000000000000000111111111111111111111111111111111111111111111111111111100000000000000000000000000000000000000000000000000000000000000001111111111111111111111111111111111111111111111111111111111111111111
11111111111111111111111110000000000000000000000000000000000000000000000000111111111111111111111111111111111111111111111111111111100000000000000000000000000000000000000000000000000000000000000011111111111111111111111111111111111111111111111111111111111111111111
11111111111111111111111111000000000000000000000000000000000000000000000000011111111111111111111111111111111111111111111111111111100000000000000000000000000000000000000000000000000000000000000111111111111111111111111111111111111111111111111111111111111111111111
11111111111111111111111111110000000000000000000000000000000000000000000000001111111111111111111111111111111111111111111111111111100000000000000000000000000000000000000000000000000000000000001111111111111111111111111111111111111111111111111111111111111111111111
11111111111111111111111111111110000000000000000000000000000000000000000000000011111111111111111111111111111111111111111111111111100000000000000000000000000001111111000000000000000000000000011111111111111111111111111111111111111111111111111111111111111111111111
11111111111111111111111111111111100000000000000000000000000000000000000000000001111111111111111111111111111111111111111111111111100000000000000000000000000111111111111111100000000000000000111111111111111111111111111111111111111111111111111111111111111111111111
11111111111111111111111111111111111100000000000000000000000000000000000000000000000000000000111111111111111111111111111111111111100000000000000000000000001111111111111111111111111111111111111111111111111111111111111111111111111111111111111111111111111111111111
11111111111111111111111111111111111100000000000000000000000000000000000000000000000000000000000000000000001111111111111111111111100000000000000000000000011111111111111111111111111111111111111111111111111111111111111111111111111111111111111111111111111111111111
11111111111111111111111111111111111110000000000000000000000000000000000000000000000000000000000000000000000011111100000000000011100000000000000111111111111111111111111111111111111111111111111111111111111111111111111111111111111111111111111111111111111111111111
11111111111111111111111111111111111111000000000000000000000000000000000000000000000000000000000000000000000000111000000000000000000000000000001111111111111111111111111111111111111111111111111111111111111111111111111111111111111111111111111111111111111111111111
11111111111111111111111111111111111111000000000000000000000000000000000000000000000000000000000000000000000000000000000000000000000000000000001111111111111111111111111111111111111111111111111111111111111111111111111111111111111111111111111111111111111111111111
11111111111111111111111111111111111111100000000000000000000000000000000000000000000000000000000000000000000000000000000000000000000000000000011111111111111111111111111111111111111111111111111111111111111111111111111111111111111111111111111111111111111111111111
11111111111111111111111111111111111111100000000000000000000000000000000000000000000000000000000000000000000000000000000000000000000000000000111111111111111111111111111111111111111111111111111111111111111111111111111111111111111111111111111111111111111111111111
11111111111111111111111111111111111111110000000000000000000000000000000000000000000000000000000000000000000000000000000000000000000000000001111111111111111111111111111111111111111111111111111111111111111111111111111111111111111111111111111111111111111111111111
11111111111111111111111111111111111111110000000000000000000000000000000000000000000000000000000000000000000000000000000000000001100000000001111111111111111111111111111111111111111111111111111111111111111111111111111111111111111111111111111111111111111111111111
11111111111111111111111111111111111111111000000000000000000000000000000000000000000000000000000000000000000000000000000000000001100000000011111111111111111111111111111111111111111111111111111111111111111111111111111111111111111111111111111111111111111111111111
11111111111111111111111111111111111111111000000000000000000000000000000000000000000000000000000000000000000000000000000000000001100000000111111111111111111111111111111111111111111111111111111111111111111111111111111111111111111111111111111111111111111111111111
11111111111111111111111111111111111111111000000000000000000000000000000000000000000000000000000000000000000000000000000000000001100000000111111111111111111111111111111111111111111111111111111111111111111111111111111111111111111111111111111111111111111111111111
11111111111111111111111111111111111111111100000000000000000000000000000000000000000000000000000000000000000000000000000000000001100000001111111111111111111111111111111111111111111111111111111111111111111111111111111111111111111111111111111111111111111111111111
11111111111111111111111111111111111111111100000000000000000000000000000000000000000000000000000000000000000000000000000000000001100000001111111111111111111111111111111111111111111111111111111111111111111111111111111111111111111111111111111111111111111111111111
11111111111111111111111111111111111111111110000000000000000000000000000000000000000000000000000000000000000000000000000000000001111111111111111111111111111111111111111111111111111111111111111111111111111111111111111111111111111111111111111111111111111111111111
11111111111111111111111111111111111111111110000000000000000000000000000000000000000000000000000000000000000000000001111111111111111111111111111111111111111111111111111111111111111111111111111111111111111111111111111111111111111111111111111111111111111111111111
11111111111111111111111111111111111111111111000000000000000000000000000000000000000000000000000000000000111111111111111111111111111111111111111111111111111111111111111111111111111111111111111111111111111111111111111111111111111111111111111111111111111111111111
11111111111111111111111111111111111111111111000000000000000000000000000000000000000000000000000111111111111111111111111111111111111111111111111111111111111111111111111111111111111111111111111111111111111111111111111111111111111111111111111111111111111111111111
11111111111111111111111111111111111111111111000000000000000000000000000000000000011111111111111111111111111111111111111111111111111111111111111111111111111111111111111111111111111111111111111111111111111111111111111111111111111111111111111111111111111111111111
11111111111111111111111111111111111111111111111011111111111111111111111111111111111111111111111111111111111111111111111111111111111111111111111111111111111111111111111111111111111111111111111111111111111111111111111111111111111111111111111111111111111111111111
11111111111111111111111111111111111111111111111111111111111111111111111111111111111111111111111111111111111111111111111111111111111111111111111111111111111111111111111111111111111111111111111111111111111111111111111111111111111111111111111111111111111111111111
