111111111111111111111111111111111111111111111111111111111111111111111111111111111
111111111111111111111111111111111100000000000001111111111111111111111111111111111
111111111111111111111111111111111100000000000001111111111111111111111111111111111
111111111111111111111111111111111100000000000001111111111111111111111111111111111
111111111111111111111111111111011000000000000000100111111111111111111111111111111
111111111111111111111111111111000000000000000000000111111111111111111111111111111
111111111111111111111111111111000000000000000000000111111111111111111111111111111
111111111111111111111111111111000000000000000000000111111111111111111111111111111
111111111111111111111111111000000000000000000000000000111111111111111111111111111
111111111111111111111111111000000000000000000000000000111111111111111111111111111
111111111111111111111111111000000000000000000000000000111111111111111111111111111
111111111111111111111110000000000000000000000000000000000011111111111111111111111
111111111111111111111110000001100000000000000000001100000011111111111111111111111
111111111111111111111110000000110000000000000000011000000011111111111111111111111
111111111111111111111110000000111000000000000000111000000011111111111111111111111
111111111111111111110000000111110000000000000000111111000000011111111111111111111
111111111111111111110000000111100000000000000000001111000000011111111111111111111
111111111111111111110000000110000000000000000000000011000000011111111111111111111
111111111111111111111000000110000001111111111100000011000000111111111111111111111
111111111111111111111111111110000001111111111100000011111111111111111111111111111
111111111111111111111111111110000001111111111100000011111111111111111111111111111
111111111111111111111111100110000001100111001100000011001111111111111111111111111
111111111111111111111111110000000000001111100000000000011111111111111111111111111
111111111111111111111111111110000001111111111100000011111111111111111111111111111
111111111111111111111111111110000001111111111100000011111111111111111111111111111
111111111111111111111111111110000001111111111100000011111111111111111111111111111
111111111111111111111111111110000001111111111100000011111111111111111111111111111
111111111111111111111111111110000001111111111100000011111111111111111111111111111
111111111111111111111111111110000001111111111100000011111111111111111111111111111
111111111111111111111111111110000001111111111100000011111111111111111111111111111
111111111111111111111111110000000000000000000000000000011111111111111111111111111
111111111111111111111111110000000000000000000000000000011111111111111111111111111
111111111111111111111111110000000000000000000000000000011111111111111111111111111
111111111111111111111111100000000000000000000000000000001111111111111111111111111
111111111111111111111000000000000000000000000000000000000001111111111111111111111
111111111111111111111000000000000000000000000000000000000001111111111111111111111
111111111111111111111000000000000000000000000000000000000001111111111111111111111
111111111111111111111000000000000000000000000000000000000001111111111111111111111
111111111111111111111000000000000000000000000000000000000001111111111111111111111
111111111111111111111000000000000000000000000000000000000001111111111111111111111
111111111111111111111000000000000000000000000000000000000001111111111111111111111
111111111111111111111000000000000000000000000000000000000001111111111111111111111
111111111111111111111000000000000000000000000000000000000001111111111111111111111
111111111111111111111000000000000000001111100000000000000001111111111111111111111
111111111111111111111000000000000000001111100000000000000001111111111111111111111
111111111111111111111000000000000000001111100000000000000001111111111111111111111
111111111111111111111000000000000000001111100000000000000001111111111111111111111
111111111111111111111000000000000000001111000000000000000001111111111111111111111
111111111111111111111000000000000000000000000000000000000001111111111111111111111
111111111111111111111000000000000000000000000000000000000001111111111111111111111
111111111111111111111000000000000000000000000000000000000001111111111111111111111
111111111111111111111000000000000000000000000000000000000001111111111111111111111
111111111111111111111000000000000000000000000000000000000001111111111111111111111
111111111111111111111000000000000000000000000000000000000001111111111111111111111
111111111111111111111000000000000000000000000000000000000001111111111111111111111
111111111111111111111000000000000000000000000000000000000001111111111111111111111
111111111111111111111000000000000000000000000000000000000001111111111111111111111
111111111111111111111000000000000000000000000000000000000001111111111111111111111
111111111111111111111000000000000000000000000000000000000001111111111111111111111
111111111111111111111000000000000000000000000000000000000001111111111111111111111
111111111111111111111000000000000000000000000000000000000001111111111111111111111
111111111111111111111000000000000000000000000000000000000001111111111111111111111
111111111111111111111000000000000000000000000000000000000001111111111111111111111
111111111111111111111000000000000000000000000000000000000001111111111111111111111
111111111111111111111000000000000000000000000000000000000001111111111111111111111
111111111111111111111000000000000000000000000000000000000001111111111111111111111
111111111111111111111000000000000000000000000000000000000001111111111111111111111
111111111111111111111000000000000000001111100000000000000001111111111111111111111
111111111111111111111000000000000000001111100000000000000001111111111111111111111
111111111111111111111000000000000000001111100000000000000001111111111111111111111
111111111111111111111000000000000000001111100000000000000001111111111111111111111
111111111111111111111000000000000000001111000000000000000001111111111111111111111
111111111111111111111000000000000000000000000000000000000001111111111111111111111
111111111111111111111000000000000000000000000000000000000001111111111111111111111
111111111111111111111000000000000000000000000000000000000001111111111111111111111
111111111111111111111000000000000000000000000000000000000001111111111111111111111
111111111111111111111000000000000000000000000000000000000001111111111111111111111
111111111111111111111000000000000000000000000000000000000001111111111111111111111
111111111111111111111000000000000000000000000000000000000001111111111111111111111
111111111111111111111000000000000000000000000000000000000001111111111111111111111
111111111111111111111000000000000000000000000000000000000001111111111111111111111
111111111111111111111000000000000000000000000000000000000001111111111111111111111
111111111111111111111000000000000000000000000000000000000001111111111111111111111
111111111111111111111000000000000000000000000000000000000001111111111111111111111
111111111111111111111000000000000000000000000000000000000001111111111111111111111
111111111111111111111000000000000000000000000000000000000001111111111111111111111
111111111111111111111000000000000000000000000000000000000001111111111111111111111
111111111111111111111000000000000000000000000000000000000001111111111111111111111
111111111111111111111000000000000000000000000000000000000001111111111111111111111
111111111111111111111000000000000000000000000000000000000001111111111111111111111
111111111111111111111000000000000000000000000000000000000001111111111111111111111
111111111111111111111000000000000000001111100000000000000001111111111111111111111
111111111111111111111000000000000000001111100000000000000001111111111111111111111
111111111111111111111000000000000000001111100000000000000001111111111111111111111
111111111111111111111000000000000000001111100000000000000001111111111111111111111
111111111111111111111000000000000000001111000000000000000001111111111111111111111
111111111111111111111000000000000000000000000000000000000001111111111111111111111
111111111111111111111000000000000000000000000000000000000001111111111111111111111
111111111111111111111000000000000000000000000000000000000001111111111111111111111
111111111111111111111000000000000000000000000000000000000001111111111111111111111
111111111111111111111000000000000000000000000000000000000001111111111111111111111
111111111111111111111000000000000000000000000000000000000001111111111111111111111
111111111111111111111000000000000000000000000000000000000001111111111111111111111
111111111111111111111000000000000000000000000000000000000001111111111111111111111
111111111111111111111000000000000000000000000000000000000001111111111111111111111
111111111111111111111111100000000000000000000000000000001111111111111111111111111
111111111111111111111111110000000000000000000000000000011111111111111111111111111
111111111111111111111111110000000000000000000000000000011111111111111111111111111
111111111111111111111111110000000000000000000000000000011111111111111111111111111
111111111111111111111111111110000001111111111100000011111111111111111111111111111
111111111111111111111111111110000001111111111100000011111111111111111111111111111
111111111111111111111111111110000001111111111100000011111111111111111111111111111
111111111111111111111111111110000001111111111100000011111111111111111111111111111
111111111111111111111111111110000001111111111100000011111111111111111111111111111
111111111111111111111111111110000001111111111100000011111111111111111111111111111
111111111111111111111111111110000001111111111100000011111111111111111111111111111
111111111111111111111111111000000000011111110000000000111111111111111111111111111
111111111111111111111111111110000001111111111100000011111111111111111111111111111
111111111111111111111111111110000001111111111100000011111111111111111111111111111
111111111111111111111111111110000001111111111100000011111111111111111111111111111
111111111111111111111100000110000001111111111100000011000001111111111111111111111
111111111111111111111000000110000000000000000000000011000000111111111111111111111
111111111111111111110000000111100000000000000000001111000000011111111111111111111
111111111111111111110000000111110000000000000000011111000000011111111111111111111
111111111111111111111100000000111000000000000000111000000001111111111111111111111
111111111111111111111110000000110000000000000000011000000011111111111111111111111
111111111111111111111110000001100000000000000000001100000011111111111111111111111
111111111111111111111110000001000000000000000000000100000011111111111111111111111
111111111111111111111111111000000000000000000000000000111111111111111111111111111
111111111111111111111111111000000000000000000000000000111111111111111111111111111
111111111111111111111111111000000000000000000000000000111111111111111111111111111
111111111111111111111111111110000000000000000000000011111111111111111111111111111
111111111111111111111111111111000000000000000000000111111111111111111111111111111
111111111111111111111111111110000000000000000000000111111111111111111111111111111
111111111111111111111111111111000000000000000000000111111111111111111111111111111
111111111111111111111111111111011000000000000000110111111111111111111111111111111
111111111111111111111111111111111100000000000001111111111111111111111111111111111
111111111111111111111111111111111111100000001111111111111111111111111111111111111
111111111111111111111111111111111111111111111111111111111111111111111111111111111
