11111111111111111111111111111111111111111111111111111111111111111111111111111111111111111111111111111111111111111111111111111111111111111111111111111111111111111111111111111111111111111111111111111111111111111111111111111111111
11111111111111111111111111111111111111111111111111111111111111111111111111111111111111111111111111111111111111111111111111111111111111111111111111111111111111111111111111111111111111111111111111111111111111111111111111111111111
11111111111111111111111111111111111111111111111111111111111111111111111111111111111111111111111111111111111111111111111111111111111111111111111111111111111111111111111111111111111111111111111111111111111111111111111111111111111
00000000000000000000111111111111111111111111111111111111111111111111111111111111111111111111111111111111111111111111111111111111111111111111111111111111111111111111111111111111111111111111111111111111111111111111111111111111111
10000000000000000000011111111111111111111111111111111111111111111111111111111111111111111111111111111111111111111111111111111111111111111111111111111111111111111111111111111111111111111111111111111111111111111111111111111111111
11000000000000000000001111111111111111111111111111111111111111111111111111111111111111111111111111111111111111111111111111111111111111111111111111111111111111111111111111111111111111111111111111111111111111111111111111111111111
11100000000000000000000111111111111111111111111111111111111111111111111111111111111111111111111111111111111111111111111111111110000000000000000000000000000111111111111111111111111111111111111111111111111111111111111111111111111
11110000000000000000000011111111111111111111111111111111111111111111111111111111111111111111111111111111111111111111111111111100000000000000000000000000001111111111111111111111111111111111111111111111111111111111111111111111111
11111000000000000000000001111111111111111111111111111111111111111111111111111111111111111111111111111111111111111111111111111000000000000000000000000000011111111111111111111111111111111111111111111111111111111111111111111111111
11111100000000000000000000111111111111111111111111111111111111111111111111111111111111111111111111111111111111111111111111110000000000000000000000000000111111111110000000000000000000111111111111111111111111111111111111111111111
11111110000000000000000000011111111111111111111111111111111111111111111111111111111111111111111111111111111111111111111111100000000000000000000000000001111111111100000000000000000001111111111111111111111111111111111111111111111
11111111000000000000000000001111111111111111111111111111111111111111111111111111111111111111111111100000000000000000000000000000000000000000000000000011111111111000000000000000000011111111111111111111111111111111111111111111111
11111111100000000000000000000011111111111111111111111111111111111111111111111111111111111111111111100000000000000000000000000000000000000000000000000111111111110000000000000000000111111111111111111111111111111111111111111111111
11111111110000000000000000000001111111111111111111111111111111111100000000000000000000000000000000000000000000000000011100000000000000000000000000001111111111100000000000000000001111111111111111111111111111111111111111111111111
11111111111000000000000000000000111111111111111111111111111111111101111111111111111111111111111111100000000000000000011000000000000000000000000000011111111111000000000000000000011111111111111111111111111111111111111111111111111
11111111111100000000000000000000011111111111111111111111111111111101111111111111111111111111111111100000000000000000010000000000000000000000000000111111111110000000000000000000111111111111111111111111111111111111111111111111111
11111111111110000000000000000000001111111111111111111111111111111101111111111111111111111111111111111111111111111111100000000000000000000000000001111111111100000000000000000001111111111111111111110000000000000000000000001111111
11111111111111000000000000000000000111111111111111111111111111111101111111111111111111111111111111111111111111111111111111111111111111111111111111111111111000000000000000000011111111111111111111110000000000000000000000001111111
11111111111111100000000000000000000011111111111111111111111111111101111111111111111111111111111111111111111111111111111111111111111111111111111111111111110000000000000000000111111111111111111111110000000000000000000000001111111
11111111111111110000000000000000000001111111111111111111111111111101111111111111111111111111111111111111111111111111111111111111111111111111111111111111100000000000000000001111111111111111111111110000000000000000000000001111111
11111111111111111000000000000000000000111111111111111111111111111101111111111111111111111111111111111111111111111111111111111111111111111111111111111111000000000000000000011111111111111111111111110000000000000000000000001111111
11111111111111111100000000000000000000011111111111111111111111111101111111111111111111111111111111111111111111111111111111111111111111111111111111111110000000000000000000111111111111111111111111110000000000000000000000001111111
11111111110111111110000000000000000000001111111111111111111111111101111111111111111111111111111111111111111111111111111111111111111111111111111111111100000000000000000001111111111111111111111111110000000000000000000000001111111
11111111110111111111000000000000000000000111111111111111111111111101111111111111111111111111111111111111111111111111111111111111111111111111111111111000000000000000000011111111111111111111111111110000000000000000000000001111111
11111111110111111111100000000000000000000011111111111111111111111101111111111111111111111111111111111111111111111111111111111111111111111111111100000000000000000000000000000111111111111111111111110000000000000000000000001111111
11111111110000000000000000000000000000000000000000000000000000000000111111111111111111111111111111111111111111111111111111111111111111111111111100000000000000000000000000000111111111111111111111110000000000000000000000001111111
11111111111111111111111000000000000000000000111111111111111111111100111111111111111111111111111111111111111111111111111111111111111111111111111100000000000000000000011111111111111111111111111111110000000000000000000000001111111
11111111111111111111111100000000000000000000011111111111111111111100111111111111111111111111111111111111111111111111111111111111111111111111111100000000000000000000111111111111111111111111111111110000000000000000000000001111111
11111111111111111111111110000000000000000000001111111111111111111100111111111111111111111111111111111111111111111111111111111111111111111111111100000000000000000001111111111111111111111111111111110000000000000000000000001111111
11111111111111111111111111000000000000000000000111111111111111111100111111111111111111111111111111111111111111111111111111111111111111111111111000000000000000000011111111111111111111111111111111110000000000000000000000001111111
11111111111111111111111111100000000000000000000011111111111111111100111111111111111111111111111111111111111111111111111111111111111111111111110000000000000000000111111111111111111111111111111111110000000000000000000000001111111
11111111111111111111111111110000000000000000000001111111111111111100111111111111111111111111111111111111111111111111111111111111111111111111100000000000000000001111111111111111111111111111111111110000000000000000000000001111111
11111111111111111111111111111000000000000000000000111111111111111100111111111111111111111111111111111111111111111111111111111111111111111111000000000000000000011111111111111111111111111111111111110000000000000000000000001111111
11111111111111111111111111111100000000000000000000011111111111111100111111111111111111111111111111111111111111111111111111111111111111111110000000000000000000111111111111111111111111111111111111110000000000000000000000001111111
11111111111111111111111111111110000000000000000000001111111111111100111111111111111111111111111111111111111111111111111111111111111111111100000000000000000001111111111111111111111111111111111111110000000000000000000000001111111
11111111111111111111111111111111000000000000000000000111111111111100111111111111111111111111111111111111111111111111111111111111111111111000000000000000000011111111111111111111111111111111111111110000000000000000000000001111111
11111111111111111111111111111111100000000000000000000011111111111100111111111111111111111111111111111111111111111111111111111111111111110000000000000000000111111111111111111111111111111111111111110000000000000000000000001111111
11111111111111111111111111111111110000000000000000000001111111111100111111111111111111111111111111111111111111111111111111111111111111100000000000000000001111111111111111111111111111111111111111110000000000000000000000001111111
11111111111111111111111111111111111000000000000000000000111111111100111111111111111111111111111111111111111111111111111111111111111111000000000000000000011111111111111111111111111111111111111111110000000000000000000000001111111
11111111111111111111111111111111111100000000000000000000111111111100111111111111111111111111111111111111111111111111111111111111111111111111111100111111111111111111111111111111111111111111111111110000000000000000000000001111111
11111111111111111111111111111111111110000000000000000000011110000000000111111111111111111111111111111111111111111111111111111111111111111111111100111111111111111111111111111111111111111111111111110000000000000000000000001111111
11111111111111111111111111111111111111000000000000000000001100000000001111111111111111111111111111111111111111111111111111111111111111111111111100111111111111111111111111111111111111111111111111110000000000000000000000001111111
11111111111111111111111111111111111111111111111111111111111000000000011111111111111111111111111111111111111111111111111111111111111111111111111100111100000000000000111111111111111111111111111111110000000000000000000000001111111
11111111111111111111111111111111111111111111111111111111110000000000111111111111111111111111111111111111111111111111111111111111111111111111111100111100000000000000111111111111111111111111111111110000000000000000000000000111111
11111111111111111111111111111111111111111111111111111111100000000000111111111111111111111111111111111111111111111111111111111111111111111111111100111100000000000000111111111111111111111111111111110000000000000000000000000011111
11111111111111111111111111111111111111111111111111111111000000000000111111111111111111111111111111111111111111111111111111111111111111111111111100111100000000000000111111111111111111111111111111110000000000000000000000000001111
11111111111111111111111111111111111111111111111111111110000000000100111111111111111111111111111111111111111111111111111111111111111111111111111100111100000000000000111111111111111111111111111111110000000000000000000000000000111
11111111111111111111111111111111111111111111111111111100000000001100111111111111111111111111111111111111111111111111111111111111111111111111111100111100000000000000111111111111111111111111111111110000000000000000000000000000011
11111111111111111111111111111111111111111111111111111000000000011100111111111111111111111111111111111111111111111111111111111111111111111111111100111100000000000000111111111111111111111111111111110000000000000000000000001111111
11111111111111111111111000000000000000000000000000000000000000000000111111111111111111111111111111111111111111111111111111111111111111111111111100111100000000000000111111111111111111111111111111110000000000000000000000001111111
11111111111111111111111001111111111111111011111111100000000001111100111111111111111111111111111111111111111111111111111111111111111111111111111100111100000000000000111111111111111111111111111111110000000000000000000000001111111
11111111111111111111111001111111111111111011111111000000000011111100111111111111111111111111111111111111111111111111111111111111111111111111111100111100000000000000111111111111111111111111111111110000000000000000000000001111111
11111111111111111111111001111111111111111011111110000000000111111100111111111111111111111111111111111111111111111111111111111111111111111111111100111100000000000000111111111111111111111111111111111111111111111111011111111111111
11111111111111111111111001111111111111111011111100000000001111111100111111111111111111111111111111111111111111111111111111111111111111111111111100111111111110111111111111111111111111111111111111111111111111111111011111111111111
11111111111111111111111001111111111111111011111000000000011111111100111111111111111111111111111111111111111111111111111111111111111111111111111100111111111110111111111111111111111111111111111111111111111111111111011111111111111
11111111111111111111111001111111111111111011110000000000111111111100111111111111111111111111111111111111111111111111111111111111111111111111111100111111111110111111111111111111111111111111111111111111111111111111011111111111111
11111111111111111111111001111111111111111011100000000001111111111100111111111111111111111111111111111111111111111111111111111111111111111111111100111111111110111111111111111111111111111111111111111111111111111111011111111111111
11111111111111111111111001111111111111111011000000000011111111111100111111111111111111111111111111111111111111111111111111111111111111111111111100111111111110111111111111111111111111111111111111111111111111111111011111111111111
11111111111111111111111001111111111111111011111111111111111111111100000000000000000000000000000000000000111111111111111111111111111111111111111100111111111110111111111111111111111111111111111111111111111111111111011111111111111
11111111111111111111111000000000000000000000000000000000000011111100000000000000000000000000000000000000011111111111111111111111111111111111111100111111111110111111111111111111111111111111111111111111111111111111011111111111111
11111111111111111111110000000000000000000000000000000000000111111100000000000000000000000000000000000000001111111111111111111111111111111111111100111111111110111111111111111111111111111111111111111111111111111111011111111111111
11111111111111111111100000000000000000000000000000000000001111111100100000000000000000000000000000000000000111111111111111111111111111111111111100111111111110111111111111111111110000000000000000000000000000000011011111111111111
11111111111111111111000000000000000000000000000000000000011111111100110000000000000000000000000000000000000011111111111111111111111111111111111100111111111110111111111111111111100000000000000000000000000000000111011111111111111
11111111111111111110000000000000000000000000000000000000111111111100111000000000000000000000000000000000000001111111111111111111111111111111111100111111111110111111111111111111000000000000000000000000000000001111011111111111111
11111111111111111100000000000000000000000000000000000001111111111100111100000000000000000000000000000000000000111111111111111111111111111111111100111111111110111111111111111110000000000000000000000000000000011111011111111111111
11111111111111111000000000000000000000000000000000000011111111000000000000000000000000000000000000000000000000011111111111111111000000000000000000000000000000001111111111111100000000000000000000000000000000111111011111111111111
11111111111111110000000000000000000000000000000000000111111111000000000000000000000000000000000000000000000000001111111111111111000000000000000000000000000000001111111111111000000000000000000000000000000001111111011111111111111
11111111111111100000000000000000000000000000000000001111111111000000000000000000000000000000000000000000000000000000000000000000000000000000000000000000000000000000000000000000000000000000000000000000000011111111011111111111111
11111111111111000000000000000000000000000000000000011111111111000000000000000000000000000000000000000000000000000000000000000000000000000000000000000000000000001111111111100000000000000000000000000000000111111111011111111111111
11111111111110000000000000000000000000000000000000111111111111000000000000001000000000000000000000000000000000000001111100000000000000000000000000000000000000001111111111000000000000000000000000000000001111111111011111111111111
11111111111100000000000000000000000000000000000001111111111111000000000000001100000000000000000000000000000000000000111000000000000000000000000000001111111111111111111110000000000000000000000000000000011111111111011111111111111
11111111111000000000000000000000000000000000000011111111111111000000000000001111111110011111111111111111110011111111110000000000000000000000000000011111111111111111111100000000000000000000000000000000000000000000011111111111111
11111111110000000000000000000000000000000000000111111111111111000000000000001111111110011111111111111111110011111111100000000000000000000000000000111111111111111111111000000000000000000000000000000001111111111111111111111111111
11111111100000000000000000000000000000000000001111111111111111000000000000001111111110011111111111111111110011111111000000000000000000000000000000111111111111111111110000000000000000000000000000000011111111111111111111111111111
11111111000000000000000000000000000000000000011111111111111111000000000000001111111110011111111111111111110011111110000000000000000000000000000000111111111111111111100000000000000000000000000000000111111111111111111111111111111
11111110000000000000000000000000000000000000111111111111111111000000000000001111111110011111111111111111110011111100000000000000000000000000000100111111111111111111000000000000000000000000000000001111111111111111111111111111111
11111100000000000000000000000000000000000001111111111111111111000000000000001111111110011111111111111111110011111000000000000000000000000000001100111111111111111110000000000000000000000000000000001111111111111111111111111111111
11111000000000000000000000000000000000000001111111111111111111000000000000001111111110010000000000000000000001110000000000000000000000000000011100111111111111111100000000000000000000000000000000001111111111111111111111111111111
11110000000000000000000000000000000000000001111111111111111111000000000000001111111110000000000000000000000011100000000000000000000000000000000000111111111111111000000000000000000000000000000001001111111111111111111111111111111
11100000000000000000000000000000000000001000000000000000000000000000000000000000000000000000000000000000000011000000000000000000000000000000000001111111111111110000000000000000000000000000000011001111111111111111111111111111111
11111111111111111111111001111111111111111111111111111111111111000000000000000000000000000000000000000000000010000000000000000000000000000011111111111111111111100000000000000000000000000000000111001111111111111111111111111111111
11111111111111111111111001111111111111111111111111111111111111000000000000001111111100000000000000000000010000000000000000000000000000000111111111111111111111000000000000000000000000000000001111001111111111111111111111111111111
11111111111111111111111001111111111111111111111111111111111111000000000000001111111000000000000000000000110000000000000000000000000000001111111111111111111111111111111111111111111111111111111111001111111111111111111111111111111
11111111100000000000000000000000000001111111111111111111111111000000000000001111110000000000000000000001110000000000000000000000000000011111111111111111111111111111111111111111111111111111111111001111111111111111111111111111111
11111111110000000000000000000000000000111111111111111111111111000000000000001111100000000000000000000011100000000000000000000000000000111111111111111111111111111111111111111111111111111111111111001111111111111111111111111111111
11111111111000000000000000000000000000011111111111111111111111000000000000001111000000000000000000000111000000000000000000000000000001111111111111111111111111111111111111111111111111111111111111001111111111111111111111111111111
11111111111100000000000000000000000000001111111111111111111111000000000000001110000000000000000000001110000000000000000000000000000011111111111111111111111111111111111111111111111111111111111111001111111111111111111111111111111
11111111111110000000000000000000000000000111111111111111111111000000000000000000000000000000000000000000000000000000000000001111111111111111111111111111111111111111111111111111111111111111111111001111111111111111111111111111111
11111111111111000000000000000000000000000011111111111111111111000000000000000000000000000000000000000000000011111111111111101111111111111111111111111111111111111111111111111111111111111111111111001111111111111111111111111111111
00001111111111100000000000000000000000000001111111111111111111000000000000000000000000000000000000000000000011111111111111101111111111111111111111111111111111111111111111111111111111111111111111001111111111111111111111111111111
00001111111111110000000000000000000000000000111111111111111111000000000000000000000000000000000000000000000011111111111111101111111111111111111111111111111111111111111111111111111111111111111111001111111111111111111111111111111
00001111111111111000000000000000000000000000011111111111111111000000000000000000000000000000000000000000000011111111111111101111111111111111111111111111111111111111111111111111111111111111111111000000000000000000000000000000001
00001111111111111100000000000000000000000000001111111111111111000000000000000000000000000000000000000000000011111111111111101111111111111111111111111111111111111111111111111111111111111111111111000000000000000000000000000000001
00001111111111111110000000000000000000000000000111111111111111000000000000000000000000000000000000000000000011111111111111101111111111111111111111111111111111111111111111111111111111111111111111000000000000000000000000000000001
00001111111111111111000000000000000000000000000011111111111111111111111000000000000000000000000000000000000011111111111111101111111111111111111111111111111111111111111111111111111111111111111111000000000000000000000000000000001
00001111111111111111100000000000000000000000000001111111111111111111110000000000000000000000000000000000000011111111111111101111111111111111111111111111111111111111111111111111111111111111111111000000000000000000000000000000001
00000000000000000000000000000000000000000000000000111111111111111111100000000000000000000000000000000000000011000000000000000000000000000000001111111111111111111111111111111111111111111111111111000000000000000000000000000000001
00000000000000000000000000000000000000000000000000011111111111111111111111111111111111111111111111111111110011000000000000000000000000000000001111111111111111000000000000000000000000000000000000000000000000000000000000000000001
00001111111111111111111100000000000000000000000000001111111111111111111111111111111111111111111111111111110011000000000000000000000000000000001111111111111111000000000000000000000000000000000000000000000000000000000000000000001
00001111111111111111111110000000000000000000000000000111111111111111111111111111111111111111111111111111110011000000000000000000000000000000001111111111111111000000000000000000000000000000000000000000000000000000000000000000001
00001111111111111111111111000000000000000000000000000011111111111111111111111111111111111111111111111111110011000000000000000000000000000000001111111111111111000000000000000000000000000000000000000000000000000000000000000000001
00001111111111111111111111100000000000000000000000000001111111111111111111111111111111111111111111111111110011000000000000000000000000000000001111111111111111000000000000000000000000000000000000000000000000000000000000000000000
00001111111111111111111111110000000000000000000000000000111111111111111111111111111111111111111111111111110011000000000000000000000000000000001111111111111111000000000000000000000000000000000000000000000000000000000000000000000
00001111111111111111111111111000000000000000000000000000011111111111111111111111111111111111111111111111110011000000000000000000000000000000001111111111111111000000000000000000000000000000000000000000000000000000000000000000000
00001111111111111111111111111100000000000000000000000000001111111111111111111111111111111111111111111111110011000000000000000000000000000000001111111111111111000000000000000000000000000000000000000000000000000000000000000000000
00001111111111111111111111111110000000000000000000000000000111111111111111111111111111111111111111111111110011000000000000000000000000000000001111111111111111000000000000000000000000000000000000000000000000000000000000000000000
00001111111111111111111111111111000000000000000000000000000011111111111111111111111111111111111111111111110011000000000000000000000000000000001111111111111111000000000000000000000000000000000000000000000000000000000000000000000
00001111111111111111111111111111100000000000000000000000000001111111111111111111111111111111111111111111110011000000000000000000000000000000001111111111111111000000000000000000000000000000000000000000000000000000000000000000000
00001111111111111111111111111111110000000000000000000000000000111111111111111111111111111111111111111111110011000000000000000000000000000000001111111111111111000000000000000000000000000000000000000000000000000000000000000000000
00001111111111111111111111111111111111111111111111111111111111111111111111111111111111111111111111111111110011000000000000000000000000000000001111111111111111000000000000000000000000000000000000000000000000000000000000000000000
00001111111111111111111111111111111111111111111111111111111111111111111111111111111111111111111111111111110011000000000000000000000000000000001111111111111111000000000000000000000000000000000000000000000000000000000000000000000
00001111111111111111111111111111111111111111111111111111111111111111111111111111111111111111111100000000000000000000000000000000000000000000001111111111111111000000000000000000000000000000000000000000000000000000000000000000000
00001111111111111111111111111111111111111111111111111111111111111111111111111111111111111111111100000000000000000000000000000000000000000000001111111111111111000000000000000000000000000000000000000000000000000000000000000000000
00001111111111111111111111111111111111111111111111111111111111111111111111111111111111111111111100000000000000000000000000000000000000000000001111111111111111000000000000000000000000000000000000000000000000000000000000000000000
00001111111111111111111111111111111111111111111111111111111111111111111111111111111111111111111100000000000000000000000000000000000000000000001111111111111111000000000000000000000000000000000000000000000000000000000000000000000
00001111111111111111111111111111111111111111111111111111111111111111111111111111111111111111111100000000000000000000000000000000000000000000001111111111111111000000000000000000000000000000000000000000000000000000000000000000000
00001111111111111111111111111111111111111111111111111111111111111111111111111111111111111111111100000000000000000000000000000000000000000000001111111111111111000000000000000000000000000000000000000000000000000000000000000000000
00001111111111111111111111111111111111111111111111111111111111111111111111111111111111111111111100000000000000000000000000000000000000000000001111111111111111000000000000000000000000000000000000000000000000000000000000000000000
00001111111111111111111111111111111111111111111111111111111111111111111111111111111111111111111100000000000000000000000000000000000000000000001111111111111111000000000000000000000000000000000000000000000000000000000000000000000
00001111111111111111111111111111111111111111111111111111111111111111111111111111111111111111111100000000000000000000000000000000000000000000001111111111111111000000000000000000000000000000000000000000000000000000000000000000001
11111111111111111111111111111111111111111111111111111111111111111111111111111111111111111111111100000000000000000000000000000000000000000000001111111111111111111111111111111111000000000000000000000000000000000000000000000000001
11111111111111111111111111111111111111111111111111111111111111111111111111111111111111111111111100000000000000000000000000000000000000000000001111111111111111111111111111111111000000000000000000000000000000000000000000000000001
11111111111111111111111111111111111111111111111111111111111111111111111111111111111111111111111100000000000000000000000000000000000000000000001111111111111111111111111111111111000000000000000000000000000000000000000000000000001
11111111111111111111111111111111111111111111111111111111111111111111111111111111111111111111111100000000000000000000000000000000000000000000001111111111111111111111111111111111000000000000000000000000000000000000000000000000001
11111111111111111111111111111111111111111111111111111111111111111111111111111111111111111111111100000000000000000000000000000000000000000000001111111111111111111111111111111111000000000000000000000000000000000000000000000000001
11111111111111111111111111111111111111111111111111111111111111111111111111111111111111111111111100000000000000000000111111111111111111111111111111111111111111111111111111111111111111111111111111111111111111111111111111111111111
11111111111111111111111111111111111111111111111111111111111111111111111111111111111111111111111100000000000000000000111111111111111111111111111111111111111111111111111111111111111111111111111111111111111111111111111111111111111
11111111111111111111111111111111111111111111111111111111111111111111111111111111111111111111111100000000000000000000111111111111111111111111111111111111111111111111111111111111111111111111111111111111111111111111111111111111111
11111111111111111111111111111111111111111111111111111111111111111111111111111111111111111111111100000000000000000000111111111111111111111111111111111111111111111111111111111111111111111111111111111111111111111111111111111111111
11111111111111111111111111111111111111111111111111111111111111111111111111111111111111111111111100000000000000000000111111111111111111111111111111111111111111111111111111111111111111111111111111111111111111111111111111111111111
11111111111111111111111111111111111111111111111111111111111111111111111111111111111111111111111100000000000000000000111111111111111111111111111111111111111111111111111111111111111111111111111111111111111111111111111111111111111
11111111111111111111111111111111111111111111111111111111111111111111111111111111111111111111111100000000000000000000111111111111111111111111111111111111111111111111111111111111111111111111111111111111111111111111111111111111111
11111111111111111111111111111111111111111111111111111111111111111111111111111111111111111111111100000000000000000000111111111111111111111111111111111111111111111111111111111111111111111111111111111111111111111111111111111111111
11111111111111111111111111111111111111111111111111111111111111111111111111111111111111111111111100000000000000000000111111111111111111111111111111111111111111111111111111111111111111111111111111111111111111111111111111111111111
11111111111111111111111111111111111111111111111111111111111111111111111111111111111111111111111100000000000000000000111111111111111111111111111111111111111111111111111111111111111111111111111111111111111111111111111111111111111
11111111111111111111111111111111111111111111111111111111111111111111111111111111111111111111111100000000000000000000111111111111111111111111111111111111111111111111111111111111111111111111111111111111111111111111111111111111111
11111111111111111111111111111111111111111111111111111111111111111111111000000000000000000000000000000000000000000000111111111111111111111111111111111111111111111111111111111111111111111111111111111111111111111111111111111111111
11111111111111111111111111111111111111111111111111111111111111111111110000000000000000000000000100000000000000000000111111111111111111111111111111111111111111111111000000000000000000011111111111111111111111111111111111111111111
11111111111111111111111111111111111111111111111111111111111111111111100000000000000000000000001100000000000000000000111111111111111111111111111111111111111111111111000000000000000000011111111111111111111111111111111111111111111
11111111111111111111111111111111111111111111111111111111111111111111000000000000000000000000011100000000000000000000111111111111111111111111111111111111111111111111000000000000000000011111111111111111111111111111111111111111111
11111111111111111111111111111111111111111111111111111111111111111110000000000000000000000000111100000000000000000000111111111111111111111111111111111111111111111111000000000000000000011111111111111111111111111111111111111111111
11111111111111111111111111111111111111111111111111111111111111111100000000000000000000000001111100000000000000000000111111111111111111111111111111111111111111111111000000000000000000011111111111111111111111111111111111111111111
11111111111111111111111111111111111111111111111111111111111111111000000000000000000000000011111111101111111111111111111111111111111111111111111111111111111111111111000000000000000000011111111111111111111111111111111111111111111
11111111111111111111111111111111111111111111111111111111111111110000000000000000000000000111111111101111111111111111111111111111111111110000000011111111111111111111000000000000000000011111111111111111111111111111111111111111111
11111111111111111111111111111111111111111111111111111111111111100000000000000000000000001111111111101111111111111111111111111111111111110000000011111111111111111111000000000000000000011111111111111111111111111111111111111111111
11111111111111111111111111111111111111111111111111111111111111000000000000000000000000011111111111101111111111111111111111111111111111110000000011111111111111111111000000000000000000011111111111111111111111111111111111111111111
11111111111111111111111111111111111111111111111111111111111110000000000000000000000000111111111111101111111111111111111111111111111111110000000011111111111111111111000000000000000000011111111111111111111111111111111111111111111
11111111111111111111111111111111111111111111111111111111111100000000000000000000000001111111111111101111111111111111111111111111111111110000000011111111111111111111000000000000000000011111111111111111111111111111111111111111111
11111111111111111111111111111111111111111111111111111111111000000000000000000000000011111111111111101111111111111111111111111111111111110000000011111111111111111111000000000000000000011111111111111111111111111111111111111111111
11111111111111111111111111111111111111111111111111111111110000000000000000000000000111111111111111101111111111111111111111111111111111110000000011111111111111111111000000000000000000011111111111111111111111111111111111111111111
11111111111111111111111111111111111111111111111111111111100000000000000000000000001111110000000000000000000000011111111111111111111111110000000011111111111111111111000000000000000000011111111111111111111111111111111111111111111
11111111111111111111111111111111111111111111111111111111000000000000000000000000011111111000000000000000000000001111111111111111111111110000000011111111111111111111000000000000000000011111111111111111111111111111111111111111111
11111111111111111111111111111111111111111111111111111110000000000000000000000000111000000000000000000000000000000111111111111111111111110000000011111111111111111111000000000000000000011111111111111111111111111111111111111111111
11111111111111111111111111111111111111111111111111111100000000000000000000000001111001111110000000000000000000000011111111111110000000000000000011111111111111111111000000000000000000011111111111111111111111111111111111111111111
11111111111111111111111111111111111111111111111111111000000000000000000000000011111001111111000000000000000000000001111111111100000000000111001111111111111111111111000000000000000000011111111111111111111111111111111111111111111
11111111111111111111111111111111111111111111111111110000000000000000000000000111111111111111111111001111111111111111111111111000000000001111001111111111111111111111000000000000000000011111111111111111111111111111111111111111111
11111111111111111111111111111111111111111111111111100000000000000000000000000000000000000000000000000000000000000000000000000000000000000000000000000000000000000000000000000000000000011111111111111111111111111111111111111111111
11111111111111111111111111111111111111111111111111000000000000000000000000011111111111111100000000000000001111111111111111100000000000111111001111111111111111111111000000000000000000011111111111111111111111111111111111111111111
11111111111111000000000000000000000000000001111110000000000000000000000000111111111111111000000000000000011111111111111111000000000001111111001111111111111111111111000000000000000000011111111111111111111111111111111111111111111
11111111111111000000000000000000000000000001111100000000000000000000000001111111111111110000000000000000111111111111111110000000000011111111001111111111111111111111000000000000000000011111111111111111111111111111111111111111111
11111111111111000000000000000000000000000001111000000000000000000000000011111111111111100000000000000001111111111111111100000000000111111111001111111111111111111111000000000000000000011111111111111111111111111111111111111111111
11111111111111000000000000000000000000000001110000000000000000000000000111111111111111000000000000000011111111111111111000000000001111111111001111111111111111111111000000000000000000011111111111111111111111111111111111111111111
11111111111111000000000000000000000000000001100000000000000000000000001111111111111110000000000000000111111111111111110000000000011111111111001111111111111111111111000000000000000000011111111111111111111111111111111111111111111
11111111111111000000000000000000000000000001000000000000000000000000011111111111111100000000000000001111111111111111100000000000111111111111001111111111111111111111000000000000000000011111111111111111111111111111111111111111111
11111111111111000000000000000000000000000000000000000000000000000000111111111111111000000000000000001111111111111111000000000001111111111111001111111111111111111111000000000000000000011111111111111111111111111111111111111111111
11111111111111000000000000000000000000000000000000000000000000000001111111111111110000000000000000001111111111111110000000000011111100000000000000000000000000000000000000000000000000011111111111111111111111111111111111111111111
11111111111111000000000000000000000000000000000000000000000000000011111111111111100000000000000001001111111111111100000000000111111100000000011111111111111111111111000000000000000000011111111111111111111111111111111111111111111
11111111111111000000000000000000000000000000000000000000000000000111111111111111000000000000000011001111111111111000000000001111111111111111111111111111111111111111000000000000000000011111111111111111111111111111111111111111111
11111111111111000000000000000000000000000000000000000000000000001111111111111110000000000000000111001111111111110000000000011111111111111111111111111111111111111111000000000000000000011111111111111111111111111111111111111111111
11111111111111000000000000000000000000000000000000000000000000011111111111111100000000000000001111001111111111100000000000111111111111111111111111111111111111111111000000000000000000011111111111111111111111111111111111111111111
11111111111110000000000000000000000000000000000000000000000000111111111111111000000000000000011111001111111111000000000001111111111111111111111111111111111111111111000000000000000000011111111111111111111111111111111111111111111
11111111111100000000000000000000000000000000000000000000000000000000000000000000000000000000111111001111111110000000000011111111111111111111111111111111111111111111000000000000000000011111111111111111111111111111111111111111111
11111111111000000000000000000000000000000000000000000000000000000000000000000000000000000001111111001111111100000000000111111111111111111111111111111111111111111111000000000000000000011111111111111111111111111111111111111111111
11111111110000000000000000000000000000000000000000000000000000000000000000000000000000000011111111001111111000000000001111111111111111111111111111111111100000000000000000000000000000011111111111111111111111111111111111111111111
11111111100000000000000000000000000000000000000000000000000000000000000000000000000000000111111111111111110000000000011111111111111111111111111111111111100000000000000000000000000000011111111111111111111111111111111111111111111
11111111000000000000000000000000000000000000000000000000000000000000000000000000000000001111111111111111100000000000111111111111111111111111111111111111100000000000000000000000000111111111111111111111111111111111111111111111111
11111110000000000000000000000000000000000000000000000000000000000000000000000000000000011111111111111111000000000001111111111111111111111111111111111111100000000000000000000000000111111111111111111111111111111111111111111111111
11111100000000000000000000000000000000000000000000000000000000000000000000000000000000111111111111111110000000000011111111111111111111111111111111111111100000000000000000000000000111111111111111111111111111111111111111111111111
11111000000000000000000000000000000000000000000000000000000000000000000000000000000001111111111111111111111111111111111111111111111111111111111111111111100000000000000000000000000111111111110000000000000000000000000111111111111
11110000000000000000000000000000000000000000000000000000000000000000000000000000000011111111111111111111111111111111111111111111111111111111111111111111100000000000000000000000000111111111100000000000000000000000001111111111111
11100000000000000000000000000000000000000000000000000000000000000000000000000000000111111111111111111111111111111111111111111111111111111111111111111111100000000000000000000000000111111111000000000000000000000000011111111111111
11000000000000000000000000000000000000000000000000000000000000000000000000000000001111111111111111111111111111111111111111111111111111111111111111111111100000000000000000000000000111111110000000000000000000000000111111111111111
10000000000000000000000000000000000000000000000000000000000000000000000000000000011111111111111111111111111111111111111111111111111111111111111111111111100000000000000000000000000111111100000000000000000000000001111111111111111
00000000000000000000000000000000000000000000000000000000000000000000000000000000111111111111111111111111111111111111111111111111111111111111111111111111100000000000000000000000000111111000000000000000000000000011111111111111111
00000000000000000000000000000000000000000000000000000000000000000000000000000001111111111111111111111111111111111111111111111111111111111111111111111111100000000000000000000000000111110000000000000000000000000111111111111111111
00000000000000000000000000000000000000000000000000000000000000000000000000000011111111111111111111111111111111111111111111111111111111111111111111111111100000000000000000000000000111100000000000000000000000001111111111111111111
00000000000000000000000000000000000000000000000000000000000000000000000000000111111111111111111111111111111111111111111111111111111111111111111111111111100000000000000000000000000111000000000000000000000000011111111111111111111
00000000000000000000000000000000000000000000000000000000000000000000000000000111111111111111111111111111111111111111111111111111111111111111111111111111100000000000000000000000000110000000000000000000000000111111111111111111111
00000000000000000000000000000000000000000000000000000000000000000000000000000111111111111111111111111111111111111111111111111111111111111111111111111111100000000000000000000000000100000000000000000000000001111111111111111111111
00000000000000000000000000000000000000000000000000000000000000000000000000000111111111111111111111111111111111111111111111111111111111111111111111111111100000000000000000000000000000000000000000000000000011111111111111111111111
00000000000000000000000000000000000000000000000000000000000000000000000000000111111111111111111111111111111111111111111111111111111111111111111111111111100000000000000000000000000000000000000000000000000111111111111111111111111
00000000000000001111111100111111111110000000000000000000000000000000000000000111111111111111111111111111111111111111111111111111111111111111111111111111100000000000000000000000000111111111111111111111111111111111111111111111111
00000000000000011111111100111111111110000000000000000000000000000000000000000111111111111111111111111111111111111111111111111111111111111111111111111111111111111000000000000000000001111111111111111111111111111111111111111111111
00000000000000111111111100111111111110000000000000000000000000000000000000000111111111111111111111111111111111111111111111111111111111111111111111111111111111111000000000000000000001111111111111111111111111111111111111111111111
00000000000001111111111100111111111110000000000000000000000000000000000000000111111111111111111111111111111111111111111111111111111111111111111111111111111111111000000000000000000001111111111111111111111111100000000000000011111
00000000000011111111111100111111111110000000000000000000000000000000000000000111111111111111111111111111111111111111111111111111111111111111111111111111111111111000000000000000000001111111111111111111111111100000000000000011111
00000000000111111111111100111111111110000000000000000000000000000000000000000111111111111111111111111111111111111111111111111111111111111111111111111111111111111000000000000000000001111111111111111111111111100000000000000011111
00000000001111111111111100111111111110000000000000000000000000000000000000000111111111111111111111111111111111111111111111111111111111111111111111111111111111111000000000000000000001111111111111111111111111100000000000000011111
00000000011111111111111100111111111110000000000000000000000000000000000000000111111111111111111111111111111111111111111111111111111111111111111111111111111111111000000000000000000001111111111111111111111111100000000000000011111
00000000111111111111111100111111111110000000000000000000000000000000000000000000000000000000000111111111111111111111111111111111111111111111111111111111111111111111110011100111111111111111111111111111111111100000000000000011111
11111111111111111111111100111111111110000000000000000000000000000000000000000000000000000000000111111111111111111111111111111111111111111111111111111111111111111111110011100111111111111111111111111111111111100000000000000011111
11111111111111111111111100111111111110000000000000000000000000000000000000000000000000000000000111111111111111111111111111111111111111111111111111111111111111111111110011100111111111111111111111111111111111100000000000000011111
11111111111111111111111100111111111110000000000000000000000000000000000000000000000000000000000111111111111111111111111111111111111111111111111111111111111111111111110011100111111111111111111111111111111111100000000000000011111
11111111111111111111111100111111111110000000000000000000000000000000000000000000000000000000000111111111111111111111111111111111111111111111111111111111111000000000000000000000001111111111111111111111111111100000000000000011111
11111111111111111111111100111111111110000000000000000000000000000000000000000000000000000000000111111111111111111111111111111111111111111111111111111111110000000000000000000000011111111111111111111111111111100000000000000011111
11111111111111111111111100111111111110000000000000000000000000000000000000000000000000000000000111111111111111111111111111111111111111111111111111111111100000000000000000000000111111111111111111111111111111100000000000000011111
11111111111111111111111100111111111110000000000000000000000000000000000000000000000000000000000111111111111111111111111111111111111111111111111111111111000000000000000000000001111111111111111111111111111111100000000000000011111
11111111111111111111111100111111111110000000000000000000000000000001111111111000000000000000000111111111111111111111111111111111111111111111111111111110000000000000000000000011111111111111111111111111111111100000000000000011111
11111111111111111111111100111111111110000000000000000000000000000001111111111000000000000000000111111111111111111111111111111111111111111111111111111100000000000000000000000111111111111111111111000000000011100000000000000011111
11111111111111111111111100000000000000000000000000000000000000000001111111111000000000000000000111111111111111111111111111111111111111111111111111111000000000000000000000000111111111111111111110000000000111100000000000000011111
11111111111111111111111100000000000000000000000000000000000000000001111111111000000000000000000111111111111111111111111111111111111111111111111111110000000000000000000000000000000000000000000000000000000000000000000000000011111
11111111111111111111111111111111111110000000000000000000000000000001111111111000000000000000000111111111111111111111111111111111111111111111111111100000000000000000000000100000000000000000000000000000011111100000000000000011111
11111111111111111111111111111111111110000000000000000000000000000000000000000000000000000000000111111111111111111111111111111111111111111111111111000000000000000000000001111111111111111111111111111111111111100000000000000011111
11111111111111111111111111111111111110000000000000000000000000000000000000000000000000000000000111111111111111111111111111111111111111111111111110000000000000000000000011111111111111111111111111111111111111111111111111111111111
11111111111111111111111111111111111110000000000000000000000000000001111111111000000000000000000111111111111111111111111111111111111111111111111100000000000000000000000011111111111111111111111111111111111111111111111111111111111
11111111111111111111111111111111111110000000000000000000000000000001111111111000000000000000000111111111111111111111111111111111111111111111111000000000000000000000001111111111111111111111111111111111111111111111111111111111111
11111111111111111111111111111111111110000000000000000000000000000001111111111000000000000000000111111111111111111111111111111111111111111111110000000000000000000000011111111111111111111111111111111111111111111111111111111111111
11111111111111111111111111111111111110000000000000000000000000000001111111111000000000000000000111111111111111111111111111111111111111111111100000000000000000000000111111111111111111111111111111111111111111111111111111111111111
11111111111111111111111111111111111110000000000000000000000000000001111111111000000000000000000111111111111111111111111111111111111111111111000000000000000000000001111111111111111111111111111111111111111111111111111111111111111
11111111111111111111111111111111111110000000000000000000000000000001111111111000000000000000000111111111111111111111111111111111111111111110000000000000000000000011111111111111111111111111111111111111111111111111111111111111111
11111111111111111111111111111111111110000000000000000000000000000001111111111000000000000000000111111111111111111111111111111111111111111100000000000000000000000111111111111111111111111111111111111111111111111111111111111111111
11111111111111111111111111111111111110000000000000000000000000000001111111111000000000000000000111111111111111111111111111111111111111111000000000000000000000001111111111111111111111111111111111111111111111111111111111111111111
11111111111111111111111111111111111110000000000000000000000000000001111111111000000000000000000111111111111111111111111111111111111111110000000000000000000000011111111111111111111111111111111111111111111111111111111111111111111
11111111111111111111111111111111111110000000000000000000000000000001111111111000000000000000000111111111111111111111111111111111111111100000000000000000000000111111111111111111111111111111111111111111111111111111111111111111111
11111111111111111111111111111111111110000000000000000000000000000001111111111000000000000000000111111111111111111111111111111111111111000000000000000000000001111111111111111111111111111111111111111111111111111111111111111111111
11111111111111111111111111111111111110000000000000000000000000000001111111111000000000000000000111111111111111111111111111111111111111111111111111111111111111111111111111111111111111111111111111111111111111111111111111111111111
11111111111111111111111111111111111111111111111111111111111111111111111111111111111111111111111111111111111111111111111111111111111111111111111111111111111111111111111111111111111111111111111111111111111111111111111111111111111
