111111111111111111111111111111111111111111111111111111111111111111111111111111111111111111111111111111111111111111111111111111111111111111111111111111
111111111111111111111111111111111111111111111111111111111111111111111111111111111111111111111111111111111111111111111111111111111111111111111111111111
111111111111111111111111111111111111111111111111111111111111111111111111111111111111111111111111111111111111111111111111111111111111111111111111111111
111111111111111111111111111111111111111111111111111111111111111111111111111111111111111111111111111111111111111111111111111111111111111111111111111111
111111111111111111111111111111111111111111111111111111111111111111111111111111111111111111111111111111111111111111111111111111111111111111111111111111
111111111111111111111111111111111111111111111111111111111111111111111111111111111111111111111111111111111111111111111111111111111111111111111111111111
111111111111111111111111111111111111111111111111111111111111111111111111111111111111111111111111111111111111111111111111111111111111111111111111111111
111111111111111111111111111111111111111111111111111111111111111111111111111111111111111111111111111111111111111111111111111111111111111111111111111111
111111111111111111111111111111111111111111111111111111111111111111111111111111111111111111111111111111111111111111111111111111111111111111111111111111
111111111111111111111111111111111111111111111111111111111111111111111111111111111111111111111111111111111111111111111111111111111111111111111111111111
111111111111111111111111111111111111111111111111111111111111111111111111111111111111111111111111111111111111111111111111111111111111111111111111111111
111111111111111111111111111111111111111111111111111111111111111111111111111111111111111111111111111111111111111111111111111111111111111111111111111111
111111111111111111111111111111111111111111111111111111111111111111111111111111111111111111111111111111111111111111111111111111111111111111111111111111
111111111111111111111111111111111111111111111111111111111111111111111111111111111111111111111111111111111111111111111111111111111111111111111111111111
111111111111111111111111111111111111111111111111111111111111111111111111111111111111111111111111111111111111111111111111111111111111111111111111111111
111111111111111111111111111111111111111111111111111111111111111111111111111111111111111111111111111111111111111111111111111111111111111111111111111111
111111111111111111111111111111111111111111111111111111111111111111111111111111111111111111111111111111111111111111111111111111111111111111111111111111
111111111111111111111111111111111111111111111111111111111111111100111111111111111111111111111111111111111111111111111111111111111111111111111111111111
111111111111111111111111111111111111111111111111111111111111110000011111111111111111111111111111111111111111111111111111111111111111111111111111111111
111111111111111111111111111111111111111111111111111111111111100000001111111111111111111111111111111111111111111111111111111111111111111111111111111111
111111111111111111111111111111111111111111111111111111111110000000000111111111111111111111111111111111111111111111111111111111111111111111111111111111
111111111111111111111111111111111111111111111111111111111100000000000011111111111111111111111111111111111111111111111111111111111111111111111111111111
111111111111111111111111111111111111111111111111111111111000000000000001111111111111111111111111111111111111111111111111111111111111111111111111111111
111111111111111111111111111111111111111111111111111111110000110000000000111111111111111111111111111111111111111111111111111111111111111111111111111111
111111111111111111111111111111111111111111111111111111100011110000000000111111111111111111111111111111111111111111111111111111111111111111111111111111
111111111111111111111111111111111111111111111111111111000111100000000000011111111111111111111111111111111111111111111111111111111111111111111111111111
111111111111111111111111111111111111111111111111111110001111000011100000001111111111111111111111111111111111111111111111111111111111111111111111111111
111111111111111111111111111111111111111111111111111100011111100001100000000011111111111111111111111111111111111111111111111111111111111111111111111111
111111111111111111111111111111111111111111111111110000111111110000000000000000111111111111111111111111111111111111111111111111111111111111111111111111
111111111111111111111111111111111111111111111111100000111111110100000000000000111111111111111111111111111111111111111111111111111111111111111111111111
111111111111111111111111111111111111111111111111000000010111100110000000000000001111111111111111111111111111111111111111111111111111111111111111111111
111111111111111111111111111111111111111111111110000111000111001110000000000000000111111111111111111111111111111111111111111111111111111111111111111111
111111111111111111111111111111111111111111111110000111000010011100000000000000000111111111111111111111111111111111111111111111111111111111111111111111
111111111111111111111111111111111111111111111000000000000000111000000000000000000001111111111111111111111111111111111111111111111111111111111111111111
111111111111111111111111111111111111111111111000000000000001110000000000000000000001111111111111111111111111111111111111111111111111111111111111111111
111111111111111111111111111111111111111111110000000000011100100000000000000000000000111111111111111111111111111111111111111111111111111111111111111111
111111111111111111111111111111111111111111110000000000011110000000000000000000000000001111111111111111111111111111111111111111111111111111111111111111
111111111111111111111111111111111111111111111000000000001110000000011000000000000000001111111111111111111111111111111111111111111111111111111111111111
111111111111111111111111111111111111111111111100000000000000000000111100000000000000011111111111111111111111111111111111111111111111111111111111111111
111111111111111111111111111111111111111111111100000000000000000001111100000000000001111111111111111111111111111111111111111111111111111111111111111111
111111111111111111111111111111111111111111111110000000000000000011111100000000000011111111111111111111111111111111111111111111111111111111111111111111
111111111111111111111111111111110011111101111111000000000000000111111110000000000111110011011111111111111111111111111111111111111111111111111111111111
111111111111111111111111111111110011100000001111100000000000001111111100000000001111100011011111111111111111111111111111111111111111111111111111111111
111111111111111111111111111111110011000000000111110000000000011111111000000001111111000000001111111111111111111111111111111111111111111111111111111111
111111111111111111111111111111110000000000000011110000000000111111110000000001111111000000000111111111111111111111111111111111111111111111111111111111
111111111111111111111111111111110000000000000001110000000000111111100000000011111100000000000111111111111111111111111111111111111111111111111111111111
111111111111111111111111111111100000000000000011110000000001111111000000000111111000000000000011111111111111111111111111111111111111111111111111111111
111111111111111111111111111111000000000000000111100000000001111110000000001111110000011000000000111111111111111111111111111111111111111111111111111111
111111111111111111111111111111000000000000001110000000000000100100000000011111100000111100000000011111111111111111111111111111111111111111111111111111
111111111111111111111111111110000000000000011100000000000000000000000000111111000001111100000000001111111111111111111111111111111111111111111111111111
111111111111111111111111111000000000000000111000000000000000000000000011111100000011110000000000000111111111111111111111111111111111111111111111111111
111111111111111111111111111000000000000001110000000000000000000000000011111100000111100000000000000011111111111111111111111111111111111111111111111111
111111111111111111111111100000000000000011100000000000000000000000000111111000001111000000000000000001111111111111111111111111111111111111111111111111
111111111111111111111111100000000000000011000000000000000000000000001111110000011110000000000000000000111111111111111111111111111111111111111111111111
111111111111111111111111000000000000000000000000110000000000000000011111100000111100011100000000000000011111111111111111111111111111111111111111111111
111111111111111111111100000000000001110000000001111000000000000000111111100001111000111110000001000000001111111111111111111111111111111111111111111111
111111111111111111111100000000000011111000000011111100000000000001111100000011110001111110100011100000000111111111111111111111111111111111111111111111
111111111111111111111000000000000111110000000111111100000000000011111000000111100011111111100111100000000011111111111111111111111111111111111111111111
111111111111111111111100000000001111100000001111111100000000000011110000001111000011111111001111000000000001111111111111111111111111111111111111111111
111111111111111111111100000000011111000000011111111100000000000001110000000110000011111110011110000000000000011111111111111111111111111111111111111111
111111111111111111111110000000111110000000111111110000000000000000110000000000000000110100111100000000000000011111111111111111111111111111111111111111
111111111111111111111111000001111100000001111111100000000001000000000000000000000000000001111000000000000000000111111111111111111111111111111111111111
111111111111111111111111100011111000000001111111000000000011100000000000000000000000000011110011000000000000000111111111111111111111111111111111111111
111111111111111100011111110011110000000001111110000000000111110000000000000000000000000111100111100000010000000011111111111111111111111111111111111111
111111111111111100001111111111100000000001111100000000001111110000000000000000000000001111001111110000111000000001111111111111111111111111111111111111
111111111111111100000011111111000000000000111000000000011111110000000000000000000000011110011111110001111000000000111111111111111111111111111111111111
111111111111111110000001111110000000000000000000000000111111000000000000000000000000111100111111100011110000000000011111111111111111111111111111111111
111111111111111110000000111111100000000000000000000001111110000000000000000000011000111000011111000111100000000000001111111111111111111111111111111111
111111111111111100000000011111100000000000000000000011111100000000000000000000111100010000001110001111000000000000000011111111111111111111111111111111
111111111001111000001000001111110000000000000000000111111000000000000000000001111110000000000000011110000000000000000001111111111111111111111111111111
111111110000110000011100000111110000000000000000001111111000000001011000000011100111000000000000111100111000000000000000011111111111111111111111111111
111111111000000000111110000011110000000000000000011111000000000011111100000111000011100000000001111111111100000000000000001111111111111111111111111111
111111111100000000111111000001000000000000000000111110000000000011111100001110000001110000000011111111111100000001000000000111111111111111111111111111
111111111110000000011111100000000111000000000001111100000000000111111000011100000000111000000111101111111110000011100000000011111111111111111111111111
111111111111000000001111100000000111100000000011111100000000000011110000111000000000011100001111001011111110000111100000000001111111111111111111111111
111111111111100000000111001000000111110000000111111100000000000001100001110000000000001110001110000011111100001111000000000000111111111111111111111111
111111111111110000000010011100000001111000001111111110000000000000000011100000000000000110000100000001111000011110000000000000111111111111111111111111
111111111111111000000000111110000000111100011111111000000000000000000011000000000000000111000000000000110000111100000000000001111111111111111111111111
111111111111111100000000111111000000011110111111110000000000000000000110000000001100000011100000000000000001111000000000000011111111111111111111111111
111111111111111110000000001111000000011111111111100000000000000000001110000000001110000011100000000000000011110000000000000111111101111111111111111111
111111111111111111000000000110000000111111111111000000110000000000011110000000000110000001000000000000000111100000000000001111110000111111111111111111
111111111111111111100000000000000001111111111110000001111000000000111111000000000110000000000000000000001111000000000000011111110001111111111111111111
111111111111111111110000000000000011111111111100000011111100000000111111100000000111000001100000000000011110000000000000111111110001111111111111111111
111111111111111111111000000000000111111111111100000111111111000000111111111100001111000001100000000000111100000000000001111111110000111111111111111111
111111111111111111111100000000001111111111111100001111111111100000011111111111111001100000000000000000111000000000000011111111000000011111111111111111
111111111111111111111110000000011111111111100001111111111111110000001111111111000001100000000000000000010000000000000111111110000000001111111111111111
111111111111111111111111000000111111111111000001111111111111110000000111111110000000100000000000000000000000000000001111111110000000000111111111111111
111111111111111111111111100001111111111110000001111111111111100000000001111100000000000000000000000000000000000000011111111000000000000011111111111111
111111111111111111111111110011111111101100000000111111111111000000000000111000000000000000000000000000000000000000111111110000000000000001111111111111
111111111111111111111111111111111111100000000000011111111110000011000000010000000000000000000000000000000000000001111111100000000000000000111111111111
111111111111111111111111111111111111100000000000011111111100000111110000000000000000000000000000000000000000000011111111000000000000000000011111111111
111111111111111111111111111111111110000000000000001111110000001111111000000000000000000000000000000000000000000111111110000000000000000000001111111111
111111111111111111111111111111111100000000000000011111110000011111111100000000000000000000000000000000000000001111111100000000001000000000000111111111
111111111111111111111111111111111000000000000000111111110000111111111110000000000000000000000000000000000000011111111000000000011100000000000011111111
111111111111111111111111111111110000000000000001111111110000111111111111000000000000000000000000000000000000111111110000000000111110000000000001111111
111111111111111111111111111111111000000000000011111110000011111111111111100000000000000000000000000000000001111111100000000000011110000000000011111111
111111111111111111111111111111111100000000000111111100000111111111111111000000000000000000000000000000000011111111000000000000001100000000000111111111
111111111111111111111111111111111110000000001111111100000011111111111100000000000000000000000000000000000011111110000000000000000000000000001111111111
111111111111111111111111111111111111000000111111000000000001111111111000001100000000000000000000000000000001101110000010000000000000000000011111111111
111111111111111111111111111111111111100001111111000000000001111111110000011110000000000000000000000000000000100000000111000000000000000000111111111111
111111111111111111111111111111111111110011111110000000000000111111100000111111000000000000000000000000000000000000001111100000000000000001111111111111
111111111111111111111111111111111111111111111100000000000000111111000001111111100000000000000000000000000000000000000111110000000000000011111111111111
111111111111111111111111111111111111111111110000000000000001111111000011111111110000000000000000000000000000000000000011111000000000000111111111111111
111111111111111111111111111111111111111111100000000000000011111111000111111111111000000000000000000000000000000000000001111100000000001111111111111111
111111111111111111111111111111111111111111000000000000000111111100001111111111111100000000000000000000000000000000000000111110000000011111111111111111
111111111111111111111111111111111111111111100000000000011111110000001111111111111100000000000000000000000000000000100000011111000000111111111111111111
111111111111111111111111111111111111111111110000000000111111110000011111111111111000000000000010000000000000000000110000001111100001111111111111111111
111111111111111111111111111111111111111111111000000011111101110000001111111111110000000000000111000000000000000000011000000111110011111111111111111111
111111111111111111111111111111111111111111111100000111111100000000000111111111100000000000001111100000000000000000001100000011111111111111111111111111
111111111111111111111111111111111111111111111110001111111100000000000111111111000000000000011111100000000000110000000100000001111111111111111111111111
111111111111111111111111111111111111111111111111011111110000000000000111111110000000000000111111100000000001111000000000000001111111111111111111111111
111111111111111111111111111111111111111111111111111111100000000000001111111100000000000001111110000000000001111000000000000011111111111111111111111111
111111111111111111111111111111111111111111111111111111000000000000011111111100000000000011111100000000000000110000000000000111111111111111111111111111
111111111111111111111111111111111111111111111111111100000000000000111111111100000000000111111100000000000000000000000000001111111111111111111111111111
111111111111111111111111111111111111111111111111111100000000000001111111100000100000001111111100000000000000000000000000011111111111111111111111111111
111111111111111111111111111111111111111111111111111110000000000011111111000000110000011111111000000000001100000000000000111111111111111111111111111111
111111111111111111111111111111111111111111111111111111000000000111111110000000111000111111110000000000000110000000000000011111111111111111111111111111
111111111111111111111111111111111111111111111111111111100000001111110000000000011111111111100000000000000011000000000000001111111111111111111111111111
111111111111111111111111111111111111111111111111111111110000111111110000000000011111111111000000011000000001100000000000001111111111111111111111111111
111111111111111111111111111111111111111111111111111111111001111111100000000000011111111110000000111100000000100000000000011111111111111111111111111111
111111111111111111111111111111111111111111111111111111111111111111100000000000111111111110000000011110000000000000000000111111111111111111111111111111
111111111111111111111111111111111111111111111111111111111111111111000000000001111111110000000000001111000000000000000001111111111111111111111111111111
111111111111111111111111111111111111111111111111111111111111111110000000000011111111100000000000000111100000000000000011111111111111111111111111111111
111111111111111111111111111111111111111111111111111111111111111100000000000111111111000000000000000011110000000000000111111111111111111111111111111111
111111111111111111111111111111111111111111111111111111111111110000000000001111111100000000000000000001111000000111101111111111111111111111111111111111
111111111111111111111111111111111111111111111111111111111111111000000000011111111000000000000000000000111100000111111111111111111111111111111111111111
111111111111111111111111111111111111111111111111111111111111111100000000111111110000000000000000000000011110001111111111111111111111111111111111111111
111111111111111111111111111111111111111111111111111111111111111110000001111111100000000000000000000000001111011111111111111111111111111111111111111111
111111111111111111111111111111111111111111111111111111111111111111000011111111100000000000000000000000000111111111111111111111111111111111111111111111
111111111111111111111111111111111111111111111111111111111111111111100011111011000000000001110000000000000011111111111111111111111111111111111111111111
111111111111111111111111111111111111111111111111111111111111111111110111110000000000000011111000000000000011111111111111111111111111111111111111111111
111111111111111111111111111111111111111111111111111111111111111111111111100000000000000011110000000000001111111111111111111111111111111111111111111111
111111111111111111111111111111111111111111111111111111111111111111111111000000000000000001100000000000001111111111111111111111111111111111111111111111
111111111111111111111111111111111111111111111111111111111111111111111110000000000000000000000000000000011111111111111111111111111111111111111111111111
111111111111111111111111111111111111111111111111111111111111111111111111000000000000000000000000000000111111111111111111111111111111111111111111111111
111111111111111111111111111111111111111111111111111111111111111111111111100000000000000000000000000001111111111111111111111111111111111111111111111111
111111111111111111111111111111111111111111111111111111111111111111111111110000000000000000000000000011111111111111111111111111111111111111111111111111
111111111111111111111111111111111111111111111111111111111111111111111111111000000000000000000000000111111111111111111111111111111111111111111111111111
111111111111111111111111111111111111111111111111111111111111111111111111111100000000000000000000001111111111111111111111111111111111111111111111111111
111111111111111111111111111111111111111111111111111111111111111111111111111110000000000000000000011111111111111111111111111111111111111111111111111111
111111111111111111111111111111111111111111111111111111111111111111111111111111111111111111111111111111111111111111111111111111111111111111111111111111
